%YAML 1.1
%TAG !u! tag:unity3d.com,2011:
--- !u!1 &2280045820924641808
GameObject:
  m_ObjectHideFlags: 0
  m_CorrespondingSourceObject: {fileID: 0}
  m_PrefabInstance: {fileID: 0}
  m_PrefabAsset: {fileID: 0}
  serializedVersion: 6
  m_Component:
  - component: {fileID: 4588392082173502271}
  m_Layer: 0
  m_Name: OhHurryPerk
  m_TagString: Untagged
  m_Icon: {fileID: 0}
  m_NavMeshLayer: 0
  m_StaticEditorFlags: 0
  m_IsActive: 1
--- !u!4 &4588392082173502271
Transform:
  m_ObjectHideFlags: 0
  m_CorrespondingSourceObject: {fileID: 0}
  m_PrefabInstance: {fileID: 0}
  m_PrefabAsset: {fileID: 0}
  m_GameObject: {fileID: 2280045820924641808}
  m_LocalRotation: {x: 0, y: 0, z: 0, w: 1}
  m_LocalPosition: {x: 0, y: 0, z: 0}
  m_LocalScale: {x: 1, y: 1, z: 1}
  m_Children:
  - {fileID: 8405446093662849383}
  m_Father: {fileID: 0}
  m_RootOrder: 0
  m_LocalEulerAnglesHint: {x: 0, y: 0, z: 0}
--- !u!1001 &8299181718502731404
PrefabInstance:
  m_ObjectHideFlags: 0
  serializedVersion: 2
  m_Modification:
    m_TransformParent: {fileID: 4588392082173502271}
    m_Modifications:
    - target: {fileID: -8679921383154817045, guid: 864bdd0631205c7409010bf915ebc966,
        type: 3}
      propertyPath: m_RootOrder
      value: 0
      objectReference: {fileID: 0}
    - target: {fileID: -8679921383154817045, guid: 864bdd0631205c7409010bf915ebc966,
        type: 3}
      propertyPath: m_LocalPosition.x
      value: -0
      objectReference: {fileID: 0}
    - target: {fileID: -8679921383154817045, guid: 864bdd0631205c7409010bf915ebc966,
        type: 3}
      propertyPath: m_LocalPosition.y
      value: 0
      objectReference: {fileID: 0}
    - target: {fileID: -8679921383154817045, guid: 864bdd0631205c7409010bf915ebc966,
        type: 3}
      propertyPath: m_LocalPosition.z
      value: 0
      objectReference: {fileID: 0}
    - target: {fileID: -8679921383154817045, guid: 864bdd0631205c7409010bf915ebc966,
        type: 3}
      propertyPath: m_LocalRotation.w
      value: 1
      objectReference: {fileID: 0}
    - target: {fileID: -8679921383154817045, guid: 864bdd0631205c7409010bf915ebc966,
        type: 3}
      propertyPath: m_LocalRotation.x
      value: 0
      objectReference: {fileID: 0}
    - target: {fileID: -8679921383154817045, guid: 864bdd0631205c7409010bf915ebc966,
        type: 3}
      propertyPath: m_LocalRotation.y
      value: -0
      objectReference: {fileID: 0}
    - target: {fileID: -8679921383154817045, guid: 864bdd0631205c7409010bf915ebc966,
        type: 3}
      propertyPath: m_LocalRotation.z
      value: -0
      objectReference: {fileID: 0}
    - target: {fileID: -8679921383154817045, guid: 864bdd0631205c7409010bf915ebc966,
        type: 3}
      propertyPath: m_LocalEulerAnglesHint.x
      value: 0
      objectReference: {fileID: 0}
    - target: {fileID: -8679921383154817045, guid: 864bdd0631205c7409010bf915ebc966,
        type: 3}
      propertyPath: m_LocalEulerAnglesHint.y
      value: 0
      objectReference: {fileID: 0}
    - target: {fileID: -8679921383154817045, guid: 864bdd0631205c7409010bf915ebc966,
        type: 3}
      propertyPath: m_LocalEulerAnglesHint.z
      value: 0
      objectReference: {fileID: 0}
    - target: {fileID: -7635826562936255635, guid: 864bdd0631205c7409010bf915ebc966,
        type: 3}
      propertyPath: m_Materials.Array.data[0]
      value: 
      objectReference: {fileID: 2100000, guid: 01e61a3900937ea4c842f16227079063, type: 2}
    - target: {fileID: 919132149155446097, guid: 864bdd0631205c7409010bf915ebc966,
        type: 3}
      propertyPath: m_Name
      value: ModelOhHurry
      objectReference: {fileID: 0}
    - target: {fileID: 1151388028547126963, guid: 864bdd0631205c7409010bf915ebc966,
        type: 3}
      propertyPath: m_LocalRotation.w
      value: 0
      objectReference: {fileID: 0}
    - target: {fileID: 1151388028547126963, guid: 864bdd0631205c7409010bf915ebc966,
        type: 3}
      propertyPath: m_LocalRotation.y
      value: 1
      objectReference: {fileID: 0}
    - target: {fileID: 1151388028547126963, guid: 864bdd0631205c7409010bf915ebc966,
        type: 3}
      propertyPath: m_LocalRotation.z
      value: 0
      objectReference: {fileID: 0}
    - target: {fileID: 1151388028547126963, guid: 864bdd0631205c7409010bf915ebc966,
        type: 3}
      propertyPath: m_LocalEulerAnglesHint.y
      value: 180
      objectReference: {fileID: 0}
    m_RemovedComponents: []
  m_SourcePrefab: {fileID: 100100000, guid: 864bdd0631205c7409010bf915ebc966, type: 3}
--- !u!4 &8405446093662849383 stripped
Transform:
  m_CorrespondingSourceObject: {fileID: -8679921383154817045, guid: 864bdd0631205c7409010bf915ebc966,
    type: 3}
  m_PrefabInstance: {fileID: 8299181718502731404}
  m_PrefabAsset: {fileID: 0}
