# Export of Cubik Model: Cubik Model
# Designed by MeLee with Cubik Studio - https://cubik.studio
# from Cubik OBJ Exporter v1.0
mtllib grass_1c_a_mi.mtl
v 0 0 1.907349E-06
v -16 0 1.907349E-06
v 0 2 1.907349E-06
v -16 2 1.907349E-06
v 0 0 1.907349E-06
v -16 0 1.907349E-06
v 0 0 -16
v -16 0 -16
v 0 0 1.907349E-06
v 0 2 1.907349E-06
v 0 0 -16
v 0 2 -16
v 0 0 -16
v -16 0 -16
v 0 2 -16
v -16 2 -16
v 0 2 1.907349E-06
v -2.5 2 1.907349E-06
v 0 2 -16
v -2.5 2 -16
v -2.5 1.5 -3.999998
v -2.5 2 -3.999998
v -2.5 1.5 -4.499998
v -2.5 2 -4.499998
v -2.5 1.5 -3.999998
v -3 1.5 -3.999998
v -2.5 1.5 -4.499998
v -3 1.5 -4.499998
v -2.5 2 1.907349E-06
v -16 2 1.907349E-06
v -2.5 2 -3.999998
v -16 2 -3.999998
v -2.5 1.5 -3.999998
v -3 1.5 -3.999998
v -2.5 2 -3.999998
v -3 2 -3.999998
v -2.5 1.5 -4.499998
v -3 1.5 -4.499998
v -2.5 2 -4.499998
v -3 2 -4.499998
v -2.5 2 -4.499998
v -3 2 -4.499998
v -2.5 2 -16
v -3 2 -16
v -3 1.5 -4.999998
v -3 2 -4.999998
v -3 1.5 -5.499998
v -3 2 -5.499998
v -3 1.5 -4.999998
v -3.5 1.5 -4.999998
v -3 1.5 -5.499998
v -3.5 1.5 -5.499998
v -3 2 -3.999998
v -16 2 -3.999998
v -3 2 -4.999998
v -16 2 -4.999998
v -3 1.5 -3.999998
v -3 2 -3.999998
v -3 1.5 -4.499998
v -3 2 -4.499998
v -3 1.5 -4.999998
v -3.5 1.5 -4.999998
v -3 2 -4.999998
v -3.5 2 -4.999998
v -3 1.5 -5.499998
v -3.5 1.5 -5.499998
v -3 2 -5.499998
v -3.5 2 -5.499998
v -3 2 -5.499998
v -3.5 2 -5.499998
v -3 2 -16
v -3.5 2 -16
v -3.5 1.5 -7.999998
v -3.5 2 -7.999998
v -3.5 1.5 -8.499998
v -3.5 2 -8.499998
v -3.5 1.5 -8.999998
v -3.5 2 -8.999998
v -3.5 1.5 -9.499998
v -3.5 2 -9.499998
v -4 1 -6.999998
v -4 1.5 -6.999998
v -4 1 -8.499998
v -4 1.5 -8.499998
v -3.5 1.5 -7.999998
v -4 1.5 -7.999998
v -3.5 1.5 -8.499998
v -4 1.5 -8.499998
v -3.5 1.5 -8.999998
v -4 1.5 -8.999998
v -3.5 1.5 -9.499998
v -4 1.5 -9.499998
v -3.5 2 -4.999998
v -4 2 -4.999998
v -3.5 2 -7.999998
v -4 2 -7.999998
v -3.5 1.5 -4.999998
v -3.5 2 -4.999998
v -3.5 1.5 -5.499998
v -3.5 2 -5.499998
v -4 1.5 -5.499998
v -4 2 -5.499998
v -4 1.5 -6.499998
v -4 2 -6.499998
v -4 1.5 -6.999998
v -4 2 -6.999998
v -4 1.5 -7.999998
v -4 2 -7.999998
v -3.5 1.5 -7.999998
v -4 1.5 -7.999998
v -3.5 2 -7.999998
v -4 2 -7.999998
v -3.5 1.5 -8.999998
v -4 1.5 -8.999998
v -3.5 2 -8.999998
v -4 2 -8.999998
v -3.5 1.5 -8.499998
v -4 1.5 -8.499998
v -3.5 2 -8.499998
v -4 2 -8.499998
v -3.5 2 -8.499998
v -4 2 -8.499998
v -3.5 2 -8.999998
v -4 2 -8.999998
v -4 1.5 -8.499998
v -4 2 -8.499998
v -4 1.5 -8.999998
v -4 2 -8.999998
v -3.5 1.5 -9.499998
v -4 1.5 -9.499998
v -3.5 2 -9.499998
v -4 2 -9.499998
v -3.5 2 -9.499998
v -4 2 -9.499998
v -3.5 2 -16
v -4 2 -16
v -4 1.5 -9.499998
v -4 2 -9.499998
v -4 1.5 -9.999998
v -4 2 -9.999998
v -4 1 -6.999998
v -4.5 1 -6.999998
v -4 1 -8.499998
v -4.5 1 -8.499998
v -4 1.5 -5.499998
v -5 1.5 -5.499998
v -4 1.5 -6.499998
v -5 1.5 -6.499998
v -4 1 -6.999998
v -4.5 1 -6.999998
v -4 2 -6.999998
v -4.5 2 -6.999998
v -4 1 -8.499998
v -4.5 1 -8.499998
v -4 1.5 -8.499998
v -4.5 1.5 -8.499998
v -4 1.5 -8.499998
v -5.5 1.5 -8.499998
v -4 1.5 -8.999998
v -5.5 1.5 -8.999998
v -4 1.5 -9.499998
v -5.5 1.5 -9.499998
v -4 1.5 -9.999998
v -5.5 1.5 -9.999998
v -4 1.5 -5.499998
v -5 1.5 -5.499998
v -4 2 -5.499998
v -5 2 -5.499998
v -4 2 -4.999998
v -5 2 -4.999998
v -4 2 -5.499998
v -5 2 -5.499998
v -4 1.5 -6.499998
v -4.5 1.5 -6.499998
v -4 2 -6.499998
v -4.5 2 -6.499998
v -4 2 -6.499998
v -4.5 2 -6.499998
v -4 2 -6.999998
v -4.5 2 -6.999998
v -4.5 1.5 -6.499998
v -4.5 2 -6.499998
v -4.5 1.5 -6.999998
v -4.5 2 -6.999998
v -4 1.5 -9.499998
v -4.5 1.5 -9.499998
v -4 2 -9.499998
v -4.5 2 -9.499998
v -4 1.5 -8.999998
v -4.5 1.5 -8.999998
v -4 2 -8.999998
v -4.5 2 -8.999998
v -4 2 -8.999998
v -4.5 2 -8.999998
v -4 2 -9.499998
v -4.5 2 -9.499998
v -4 1.5 -8.999998
v -4 2 -8.999998
v -4 1.5 -9.499998
v -4 2 -9.499998
v -4.5 1.5 -8.999998
v -4.5 2 -8.999998
v -4.5 1.5 -9.499998
v -4.5 2 -9.499998
v -4 1.5 -9.999998
v -4.5 1.5 -9.999998
v -4 2 -9.999998
v -4.5 2 -9.999998
v -4 2 -9.999998
v -4.5 2 -9.999998
v -4 2 -16
v -4.5 2 -16
v -4.5 1.5 -9.999998
v -4.5 2 -9.999998
v -4.5 1.5 -10.5
v -4.5 2 -10.5
v -4.5 1 -7.499998
v -7 1 -7.499998
v -4.5 1 -7.999998
v -7 1 -7.999998
v -5 1 -5.999998
v -5 1.5 -5.999998
v -5 1 -6.499998
v -5 1.5 -6.499998
v -4.5 1.5 -6.499998
v -5 1.5 -6.499998
v -4.5 1.5 -7.499998
v -5 1.5 -7.499998
v -4.5 1 -7.499998
v -5 1 -7.499998
v -4.5 1.5 -7.499998
v -5 1.5 -7.499998
v -4.5 1 -6.999998
v -4.5 1.5 -6.999998
v -4.5 1 -7.499998
v -4.5 1.5 -7.499998
v -5 1 -6.999998
v -5 1.5 -6.999998
v -5 1 -7.499998
v -5 1.5 -7.499998
v -4.5 1 -7.999998
v -5 1 -7.999998
v -4.5 1.5 -7.999998
v -5 1.5 -7.999998
v -4.5 1.5 -7.999998
v -5 1.5 -7.999998
v -4.5 1.5 -8.499998
v -5 1.5 -8.499998
v -4.5 1 -7.999998
v -4.5 1.5 -7.999998
v -4.5 1 -8.499998
v -4.5 1.5 -8.499998
v -5 1 -7.999998
v -5 1.5 -7.999998
v -5 1 -8.499998
v -5 1.5 -8.499998
v -4.5 1.5 -8.999998
v -5.5 1.5 -8.999998
v -4.5 1.5 -9.499998
v -5.5 1.5 -9.499998
v -4.5 1.5 -9.999998
v -7.5 1.5 -9.999998
v -4.5 1.5 -10.5
v -7.5 1.5 -10.5
v -5 1.5 -4.999998
v -5 2 -4.999998
v -5 1.5 -5.499998
v -5 2 -5.499998
v -4.5 1.5 -10.5
v -5.5 1.5 -10.5
v -4.5 2 -10.5
v -5.5 2 -10.5
v -4.5 2 -10.5
v -5.5 2 -10.5
v -4.5 2 -16
v -5.5 2 -16
v -5 1 -5.999998
v -5.5 1 -5.999998
v -5 1 -6.499998
v -5.5 1 -6.499998
v -5 1 -6.999998
v -9 1 -6.999998
v -5 1 -7.499998
v -9 1 -7.499998
v -5 1 -7.999998
v -6.5 1 -7.999998
v -5 1 -8.499998
v -6.5 1 -8.499998
v -5.5 0.5 -8.499998
v -5.5 1.5 -8.499998
v -5.5 0.5 -8.999998
v -5.5 1.5 -8.999998
v -5 1.5 -4.999998
v -5.5 1.5 -4.999998
v -5 1.5 -5.999998
v -5.5 1.5 -5.999998
v -5 1 -5.999998
v -5.5 1 -5.999998
v -5 1.5 -5.999998
v -5.5 1.5 -5.999998
v -5 1 -6.999998
v -6.5 1 -6.999998
v -5 1.5 -6.999998
v -6.5 1.5 -6.999998
v -5 1 -6.499998
v -5.5 1 -6.499998
v -5 1.5 -6.499998
v -5.5 1.5 -6.499998
v -5 1.5 -6.499998
v -6.5 1.5 -6.499998
v -5 1.5 -6.999998
v -6.5 1.5 -6.999998
v -5 1 -8.499998
v -5.5 1 -8.499998
v -5 1.5 -8.499998
v -5.5 1.5 -8.499998
v -5.5 1 -8.999998
v -5.5 1.5 -8.999998
v -5.5 1 -9.999998
v -5.5 1.5 -9.999998
v -5 1.5 -4.999998
v -5.5 1.5 -4.999998
v -5 2 -4.999998
v -5.5 2 -4.999998
v -5.5 1.5 -10.5
v -5.5 2 -10.5
v -5.5 1.5 -11
v -5.5 2 -11
v -5.5 0.5 -8.499998
v -6 0.5 -8.499998
v -5.5 0.5 -8.999998
v -6 0.5 -8.999998
v -5.5 0.5 -8.499998
v -6 0.5 -8.499998
v -5.5 1 -8.499998
v -6 1 -8.499998
v -5.5 0.5 -8.999998
v -6 0.5 -8.999998
v -5.5 1 -8.999998
v -6 1 -8.999998
v -5.5 1 -8.999998
v -7 1 -8.999998
v -5.5 1 -9.999998
v -7 1 -9.999998
v -5.5 1.5 -5.499998
v -6 1.5 -5.499998
v -5.5 1.5 -6.499998
v -6 1.5 -6.499998
v -5.5 1 -5.999998
v -5.5 1.5 -5.999998
v -5.5 1 -6.499998
v -5.5 1.5 -6.499998
v -6 1 -5.999998
v -6 1.5 -5.999998
v -6 1 -6.499998
v -6 1.5 -6.499998
v -5.5 1 -9.999998
v -7.5 1 -9.999998
v -5.5 1.5 -9.999998
v -7.5 1.5 -9.999998
v -5.5 1.5 -10.5
v -8 1.5 -10.5
v -5.5 1.5 -11
v -8 1.5 -11
v -5.5 1.5 -5.499998
v -8.5 1.5 -5.499998
v -5.5 2 -5.499998
v -8.5 2 -5.499998
v -5.5 2 -4.999998
v -16 2 -4.999998
v -5.5 2 -5.499998
v -16 2 -5.499998
v -5.5 1.5 -4.999998
v -5.5 2 -4.999998
v -5.5 1.5 -5.499998
v -5.5 2 -5.499998
v -5.5 1.5 -11
v -6.5 1.5 -11
v -5.5 2 -11
v -6.5 2 -11
v -5.5 2 -11
v -6.5 2 -11
v -5.5 2 -16
v -6.5 2 -16
v -6 1 -5.999998
v -6.5 1 -5.999998
v -6 1 -6.499998
v -6.5 1 -6.499998
v -6.5 0.5 -7.999998
v -6.5 1 -7.999998
v -6.5 0.5 -8.499998
v -6.5 1 -8.499998
v -6 1 -8.499998
v -7.5 1 -8.499998
v -6 1 -8.999998
v -7.5 1 -8.999998
v -6 0.5 -8.499998
v -6 1 -8.499998
v -6 0.5 -8.999998
v -6 1 -8.999998
v -6 1 -5.999998
v -6.5 1 -5.999998
v -6 1.5 -5.999998
v -6.5 1.5 -5.999998
v -6 1.5 -5.499998
v -8.5 1.5 -5.499998
v -6 1.5 -5.999998
v -8.5 1.5 -5.999998
v -6 1 -6.499998
v -6.5 1 -6.499998
v -6 1.5 -6.499998
v -6.5 1.5 -6.499998
v -6.5 1 -6.499998
v -6.5 1.5 -6.499998
v -6.5 1 -6.999998
v -6.5 1.5 -6.999998
v -6.5 1.5 -11
v -6.5 2 -11
v -6.5 1.5 -11.5
v -6.5 2 -11.5
v -6.5 0.5 -7.999998
v -7 0.5 -7.999998
v -6.5 0.5 -8.499998
v -7 0.5 -8.499998
v -6.5 1 -6.499998
v -8.5 1 -6.499998
v -6.5 1 -6.999998
v -8.5 1 -6.999998
v -6.5 0.5 -7.999998
v -7 0.5 -7.999998
v -6.5 1 -7.999998
v -7 1 -7.999998
v -7 0.5 -7.499998
v -7 1 -7.499998
v -7 0.5 -7.999998
v -7 1 -7.999998
v -6.5 0.5 -8.499998
v -7 0.5 -8.499998
v -6.5 1 -8.499998
v -7 1 -8.499998
v -7 0.5 -8.999998
v -7 1 -8.999998
v -7 0.5 -9.499998
v -7 1 -9.499998
v -6.5 1 -6.499998
v -8 1 -6.499998
v -6.5 1.5 -6.499998
v -8 1.5 -6.499998
v -6.5 1.5 -5.999998
v -8 1.5 -5.999998
v -6.5 1.5 -6.499998
v -8 1.5 -6.499998
v -6.5 1 -5.999998
v -6.5 1.5 -5.999998
v -6.5 1 -6.499998
v -6.5 1.5 -6.499998
v -6.5 1.5 -11
v -7.5 1.5 -11
v -6.5 1.5 -11.5
v -7.5 1.5 -11.5
v -6.5 1.5 -11.5
v -8 1.5 -11.5
v -6.5 2 -11.5
v -8 2 -11.5
v -6.5 2 -11.5
v -7 2 -11.5
v -6.5 2 -16
v -7 2 -16
v -7 1.5 -12
v -7 2 -12
v -7 1.5 -12.5
v -7 2 -12.5
v -7 0.5 -7.499998
v -8 0.5 -7.499998
v -7 0.5 -7.999998
v -8 0.5 -7.999998
v -7 0.5 -8.999998
v -7.5 0.5 -8.999998
v -7 0.5 -9.499998
v -7.5 0.5 -9.499998
v -7 0.5 -7.499998
v -8 0.5 -7.499998
v -7 1 -7.499998
v -8 1 -7.499998
v -7 0.5 -7.999998
v -8 0.5 -7.999998
v -7 1 -7.999998
v -8 1 -7.999998
v -7 1 -7.999998
v -8.5 1 -7.999998
v -7 1 -8.499998
v -8.5 1 -8.499998
v -7 0.5 -7.999998
v -7 1 -7.999998
v -7 0.5 -8.499998
v -7 1 -8.499998
v -7 0.5 -8.999998
v -7.5 0.5 -8.999998
v -7 1 -8.999998
v -7.5 1 -8.999998
v -7.5 0.5 -8.499998
v -7.5 1 -8.499998
v -7.5 0.5 -8.999998
v -7.5 1 -8.999998
v -7 0.5 -9.499998
v -7.5 0.5 -9.499998
v -7 1 -9.499998
v -7.5 1 -9.499998
v -7 1 -9.499998
v -10.5 1 -9.499998
v -7 1 -9.999998
v -10.5 1 -9.999998
v -7.5 1 -9.999998
v -7.5 1.5 -9.999998
v -7.5 1 -10.5
v -7.5 1.5 -10.5
v -7.5 1 -11
v -7.5 1.5 -11
v -7.5 1 -11.5
v -7.5 1.5 -11.5
v -7 1.5 -12
v -9.5 1.5 -12
v -7 1.5 -12.5
v -9.5 1.5 -12.5
v -7 1.5 -12
v -8 1.5 -12
v -7 2 -12
v -8 2 -12
v -7 2 -11.5
v -8 2 -11.5
v -7 2 -12
v -8 2 -12
v -7 1.5 -12.5
v -9 1.5 -12.5
v -7 2 -12.5
v -9 2 -12.5
v -7 2 -12.5
v -8.5 2 -12.5
v -7 2 -16
v -8.5 2 -16
v -7.5 0.5 -8.499998
v -8 0.5 -8.499998
v -7.5 0.5 -8.999998
v -8 0.5 -8.999998
v -7.5 0.5 -8.499998
v -8 0.5 -8.499998
v -7.5 1 -8.499998
v -8 1 -8.499998
v -7.5 0.5 -8.999998
v -8 0.5 -8.999998
v -7.5 1 -8.999998
v -8 1 -8.999998
v -7.5 1 -8.999998
v -9 1 -8.999998
v -7.5 1 -9.499998
v -9 1 -9.499998
v -7.5 0.5 -8.999998
v -7.5 1 -8.999998
v -7.5 0.5 -9.499998
v -7.5 1 -9.499998
v -7.5 1 -9.999998
v -11.5 1 -9.999998
v -7.5 1 -10.5
v -11.5 1 -10.5
v -7.5 1 -11
v -8.5 1 -11
v -7.5 1 -11.5
v -8.5 1 -11.5
v -8 1 -5.999998
v -8 1.5 -5.999998
v -8 1 -6.499998
v -8 1.5 -6.499998
v -7.5 1 -11
v -8 1 -11
v -7.5 1.5 -11
v -8 1.5 -11
v -7.5 1 -10.5
v -8 1 -10.5
v -7.5 1.5 -10.5
v -8 1.5 -10.5
v -8 1 -10.5
v -8 1.5 -10.5
v -8 1 -11
v -8 1.5 -11
v -7.5 1 -11.5
v -8.5 1 -11.5
v -7.5 1.5 -11.5
v -8.5 1.5 -11.5
v -8 1.5 -11.5
v -8 2 -11.5
v -8 1.5 -12
v -8 2 -12
v -8 1 -5.999998
v -8.5 1 -5.999998
v -8 1 -6.499998
v -8.5 1 -6.499998
v -8 1 -7.499998
v -8.5 1 -7.499998
v -8 1 -7.999998
v -8.5 1 -7.999998
v -8 0.5 -7.499998
v -8 1 -7.499998
v -8 0.5 -7.999998
v -8 1 -7.999998
v -8.5 0.5 -7.499998
v -8.5 1 -7.499998
v -8.5 0.5 -8.999998
v -8.5 1 -8.999998
v -8 1 -8.499998
v -8.5 1 -8.499998
v -8 1 -8.999998
v -8.5 1 -8.999998
v -8 0.5 -8.499998
v -8 1 -8.499998
v -8 0.5 -8.999998
v -8 1 -8.999998
v -8 1 -10.5
v -10.5 1 -10.5
v -8 1 -11
v -10.5 1 -11
v -8 1 -5.999998
v -8.5 1 -5.999998
v -8 1.5 -5.999998
v -8.5 1.5 -5.999998
v -8 1.5 -11.5
v -9 1.5 -11.5
v -8 1.5 -12
v -9 1.5 -12
v -8.5 1.5 -14
v -8.5 2 -14
v -8.5 1.5 -15.5
v -8.5 2 -15.5
v -8.5 0.5 -7.499998
v -9 0.5 -7.499998
v -8.5 0.5 -8.999998
v -9 0.5 -8.999998
v -8.5 0.5 -7.499998
v -9 0.5 -7.499998
v -8.5 1 -7.499998
v -9 1 -7.499998
v -8.5 0.5 -8.999998
v -9 0.5 -8.999998
v -8.5 1 -8.999998
v -9 1 -8.999998
v -9 0.5 -8.999998
v -9 1 -8.999998
v -9 0.5 -9.499998
v -9 1 -9.499998
v -8.5 1.5 -5.999998
v -9 1.5 -5.999998
v -8.5 1.5 -6.999998
v -9 1.5 -6.999998
v -8.5 1 -5.999998
v -8.5 1.5 -5.999998
v -8.5 1 -6.999998
v -8.5 1.5 -6.999998
v -8.5 1 -6.999998
v -9 1 -6.999998
v -8.5 1.5 -6.999998
v -9 1.5 -6.999998
v -9 1 -6.499998
v -9 1.5 -6.499998
v -9 1 -6.999998
v -9 1.5 -6.999998
v -8.5 1 -11
v -9 1 -11
v -8.5 1.5 -11
v -9 1.5 -11
v -8.5 1.5 -11
v -9 1.5 -11
v -8.5 1.5 -11.5
v -9 1.5 -11.5
v -8.5 1 -11
v -8.5 1.5 -11
v -8.5 1 -11.5
v -8.5 1.5 -11.5
v -9 1 -11
v -9 1.5 -11
v -9 1 -12
v -9 1.5 -12
v -8.5 1.5 -14
v -9 1.5 -14
v -8.5 1.5 -15.5
v -9 1.5 -15.5
v -8.5 1.5 -5.999998
v -9 1.5 -5.999998
v -8.5 2 -5.999998
v -9 2 -5.999998
v -8.5 2 -5.499998
v -16 2 -5.499998
v -8.5 2 -5.999998
v -16 2 -5.999998
v -8.5 1.5 -5.499998
v -8.5 2 -5.499998
v -8.5 1.5 -5.999998
v -8.5 2 -5.999998
v -8.5 2 -12.5
v -9 2 -12.5
v -8.5 2 -14
v -9 2 -14
v -9 1.5 -12.5
v -9 2 -12.5
v -9 1.5 -13
v -9 2 -13
v -8.5 1.5 -14
v -9 1.5 -14
v -8.5 2 -14
v -9 2 -14
v -8.5 1.5 -15.5
v -9 1.5 -15.5
v -8.5 2 -15.5
v -9 2 -15.5
v -8.5 2 -15.5
v -16 2 -15.5
v -8.5 2 -16
v -16 2 -16
v -9 0.5 -8.499998
v -9.5 0.5 -8.499998
v -9 0.5 -9.499998
v -9.5 0.5 -9.499998
v -9 1 -6.499998
v -9.5 1 -6.499998
v -9 1 -6.999998
v -9.5 1 -6.999998
v -9 1 -7.499998
v -12 1 -7.499998
v -9 1 -8.499998
v -12 1 -8.499998
v -9 0.5 -7.499998
v -9 1 -7.499998
v -9 0.5 -8.499998
v -9 1 -8.499998
v -9 0.5 -8.499998
v -9.5 0.5 -8.499998
v -9 1 -8.499998
v -9.5 1 -8.499998
v -9 0.5 -9.499998
v -10.5 0.5 -9.499998
v -9 1 -9.499998
v -10.5 1 -9.499998
v -9 1 -11
v -10 1 -11
v -9 1 -12
v -10 1 -12
v -9 1 -6.499998
v -9.5 1 -6.499998
v -9 2 -6.499998
v -9.5 2 -6.499998
v -9 1 -7.499998
v -9.5 1 -7.499998
v -9 1.5 -7.499998
v -9.5 1.5 -7.499998
v -9 1 -6.999998
v -9.5 1 -6.999998
v -9 1.5 -6.999998
v -9.5 1.5 -6.999998
v -9 1.5 -6.999998
v -9.5 1.5 -6.999998
v -9 1.5 -7.499998
v -9.5 1.5 -7.499998
v -9 1 -6.999998
v -9 1.5 -6.999998
v -9 1 -7.499998
v -9 1.5 -7.499998
v -9.5 1 -6.999998
v -9.5 1.5 -6.999998
v -9.5 1 -7.499998
v -9.5 1.5 -7.499998
v -9 1 -12
v -9.5 1 -12
v -9 1.5 -12
v -9.5 1.5 -12
v -9.5 1 -12
v -9.5 1.5 -12
v -9.5 1 -13.5
v -9.5 1.5 -13.5
v -9 1.5 -12.5
v -9.5 1.5 -12.5
v -9 1.5 -13
v -9.5 1.5 -13
v -9 2 -5.999998
v -10.5 2 -5.999998
v -9 2 -6.499998
v -10.5 2 -6.499998
v -9 1.5 -5.999998
v -9 2 -5.999998
v -9 1.5 -6.499998
v -9 2 -6.499998
v -9 1.5 -13
v -9.5 1.5 -13
v -9 2 -13
v -9.5 2 -13
v -9 2 -13
v -9.5 2 -13
v -9 2 -15.5
v -9.5 2 -15.5
v -9.5 1.5 -13
v -9.5 2 -13
v -9.5 1.5 -14
v -9.5 2 -14
v -9 1.5 -14
v -9 2 -14
v -9 1.5 -15.5
v -9 2 -15.5
v -9.5 1.5 -14.5
v -9.5 2 -14.5
v -9.5 1.5 -15
v -9.5 2 -15
v -9.5 0.5 -8.999998
v -10.5 0.5 -8.999998
v -9.5 0.5 -9.499998
v -10.5 0.5 -9.499998
v -9.5 1 -6.999998
v -11 1 -6.999998
v -9.5 1 -7.499998
v -11 1 -7.499998
v -9.5 0.5 -8.999998
v -10 0.5 -8.999998
v -9.5 1 -8.999998
v -10 1 -8.999998
v -9.5 1 -8.499998
v -10 1 -8.499998
v -9.5 1 -8.999998
v -10 1 -8.999998
v -9.5 0.5 -8.499998
v -9.5 1 -8.499998
v -9.5 0.5 -8.999998
v -9.5 1 -8.999998
v -10 0.5 -8.499998
v -10 1 -8.499998
v -10 0.5 -8.999998
v -10 1 -8.999998
v -9.5 1 -12
v -10.5 1 -12
v -9.5 1 -13.5
v -10.5 1 -13.5
v -9.5 1 -6.999998
v -10 1 -6.999998
v -9.5 1.5 -6.999998
v -10 1.5 -6.999998
v -9.5 1.5 -6.499998
v -10 1.5 -6.499998
v -9.5 1.5 -6.999998
v -10 1.5 -6.999998
v -9.5 1 -6.499998
v -9.5 1.5 -6.499998
v -9.5 1 -6.999998
v -9.5 1.5 -6.999998
v -10 1 -6.499998
v -10 1.5 -6.499998
v -10 1 -6.999998
v -10 1.5 -6.999998
v -9.5 1 -13.5
v -11 1 -13.5
v -9.5 1.5 -13.5
v -11 1.5 -13.5
v -9.5 1.5 -13.5
v -11 1.5 -13.5
v -9.5 1.5 -14
v -11 1.5 -14
v -9.5 1.5 -14.5
v -10 1.5 -14.5
v -9.5 1.5 -15
v -10 1.5 -15
v -9.5 1.5 -6.499998
v -10.5 1.5 -6.499998
v -9.5 2 -6.499998
v -10.5 2 -6.499998
v -9.5 1.5 -14.5
v -10 1.5 -14.5
v -9.5 2 -14.5
v -10 2 -14.5
v -9.5 1.5 -14
v -11 1.5 -14
v -9.5 2 -14
v -11 2 -14
v -9.5 2 -14
v -16 2 -14
v -9.5 2 -14.5
v -16 2 -14.5
v -9.5 1.5 -15
v -10 1.5 -15
v -9.5 2 -15
v -10 2 -15
v -9.5 2 -15
v -16 2 -15
v -9.5 2 -15.5
v -16 2 -15.5
v -10 0.5 -8.499998
v -10.5 0.5 -8.499998
v -10 0.5 -8.999998
v -10.5 0.5 -8.999998
v -10 1 -6.499998
v -10.5 1 -6.499998
v -10 1 -6.999998
v -10.5 1 -6.999998
v -10 0.5 -8.499998
v -10.5 0.5 -8.499998
v -10 1 -8.499998
v -10.5 1 -8.499998
v -10.5 0.5 -9.499998
v -10.5 1 -9.499998
v -10.5 0.5 -9.999998
v -10.5 1 -9.999998
v -10 1 -11.5
v -10.5 1 -11.5
v -10 1 -12
v -10.5 1 -12
v -10 1 -6.499998
v -10.5 1 -6.499998
v -10 1.5 -6.499998
v -10.5 1.5 -6.499998
v -10 1 -11.5
v -10.5 1 -11.5
v -10 1.5 -11.5
v -10.5 1.5 -11.5
v -10 1 -11
v -10.5 1 -11
v -10 1.5 -11
v -10.5 1.5 -11
v -10 1.5 -11
v -11 1.5 -11
v -10 1.5 -11.5
v -11 1.5 -11.5
v -10 1 -11
v -10 1.5 -11
v -10 1 -11.5
v -10 1.5 -11.5
v -10.5 1.5 -5.999998
v -10.5 2 -5.999998
v -10.5 1.5 -6.499998
v -10.5 2 -6.499998
v -10 2 -14.5
v -16 2 -14.5
v -10 2 -15
v -16 2 -15
v -10 1.5 -14.5
v -10 2 -14.5
v -10 1.5 -15
v -10 2 -15
v -10.5 0.5 -9.499998
v -12 0.5 -9.499998
v -10.5 0.5 -9.999998
v -12 0.5 -9.999998
v -10.5 1 -8.499998
v -11 1 -8.499998
v -10.5 1 -9.499998
v -11 1 -9.499998
v -10.5 0.5 -8.499998
v -10.5 1 -8.499998
v -10.5 0.5 -9.499998
v -10.5 1 -9.499998
v -10.5 0.5 -9.499998
v -11 0.5 -9.499998
v -10.5 1 -9.499998
v -11 1 -9.499998
v -11 0.5 -8.999998
v -11 1 -8.999998
v -11 0.5 -9.499998
v -11 1 -9.499998
v -10.5 0.5 -9.999998
v -12 0.5 -9.999998
v -10.5 1 -9.999998
v -12 1 -9.999998
v -10.5 1 -12.5
v -11 1 -12.5
v -10.5 1 -13.5
v -11 1 -13.5
v -10.5 1.5 -5.999998
v -11 1.5 -5.999998
v -10.5 1.5 -6.499998
v -11 1.5 -6.499998
v -10.5 1 -6.999998
v -11 1 -6.999998
v -10.5 2 -6.999998
v -11 2 -6.999998
v -10.5 1 -6.499998
v -10.5 2 -6.499998
v -10.5 1 -6.999998
v -10.5 2 -6.999998
v -10.5 1 -10.5
v -11.5 1 -10.5
v -10.5 1.5 -10.5
v -11.5 1.5 -10.5
v -10.5 1.5 -10.5
v -11 1.5 -10.5
v -10.5 1.5 -11
v -11 1.5 -11
v -10.5 1 -10.5
v -10.5 1.5 -10.5
v -10.5 1 -11
v -10.5 1.5 -11
v -10.5 1.5 -11.5
v -11 1.5 -11.5
v -10.5 1.5 -12.5
v -11 1.5 -12.5
v -10.5 1 -11.5
v -10.5 1.5 -11.5
v -10.5 1 -12.5
v -10.5 1.5 -12.5
v -10.5 1 -12.5
v -11 1 -12.5
v -10.5 1.5 -12.5
v -11 1.5 -12.5
v -10.5 1.5 -5.999998
v -11 1.5 -5.999998
v -10.5 2 -5.999998
v -11 2 -5.999998
v -10.5 1.5 -6.499998
v -11 1.5 -6.499998
v -10.5 2 -6.499998
v -11 2 -6.499998
v -10.5 2 -6.499998
v -11 2 -6.499998
v -10.5 2 -6.999998
v -11 2 -6.999998
v -11 1.5 -6.499998
v -11 2 -6.499998
v -11 1.5 -6.999998
v -11 2 -6.999998
v -11 0.5 -8.999998
v -11.5 0.5 -8.999998
v -11 0.5 -9.499998
v -11.5 0.5 -9.499998
v -11 0.5 -8.999998
v -11.5 0.5 -8.999998
v -11 1 -8.999998
v -11.5 1 -8.999998
v -11 1 -8.499998
v -13.5 1 -8.499998
v -11 1 -8.999998
v -13.5 1 -8.999998
v -11 1.5 -6.499998
v -11.5 1.5 -6.499998
v -11 1.5 -7.499998
v -11.5 1.5 -7.499998
v -11 1 -7.499998
v -12 1 -7.499998
v -11 1.5 -7.499998
v -12 1.5 -7.499998
v -11 1 -6.999998
v -11 1.5 -6.999998
v -11 1 -7.499998
v -11 1.5 -7.499998
v -11 1 -12.5
v -11 1.5 -12.5
v -11 1 -13.5
v -11 1.5 -13.5
v -11 1.5 -13
v -11.5 1.5 -13
v -11 1.5 -13.5
v -11.5 1.5 -13.5
v -11 1.5 -6.499998
v -12 1.5 -6.499998
v -11 2 -6.499998
v -12 2 -6.499998
v -11 2 -5.999998
v -15 2 -5.999998
v -11 2 -6.499998
v -15 2 -6.499998
v -11 1.5 -5.999998
v -11 2 -5.999998
v -11 1.5 -6.499998
v -11 2 -6.499998
v -11 1.5 -10.5
v -12.5 1.5 -10.5
v -11 2 -10.5
v -12.5 2 -10.5
v -11 2 -10.5
v -12.5 2 -10.5
v -11 2 -13
v -12.5 2 -13
v -11 1.5 -10.5
v -11 2 -10.5
v -11 1.5 -13
v -11 2 -13
v -11 1.5 -13
v -11.5 1.5 -13
v -11 2 -13
v -11.5 2 -13
v -11 1.5 -13.5
v -11.5 1.5 -13.5
v -11 2 -13.5
v -11.5 2 -13.5
v -11 2 -13.5
v -16 2 -13.5
v -11 2 -14
v -16 2 -14
v -11 1.5 -13.5
v -11 2 -13.5
v -11 1.5 -14
v -11 2 -14
v -11.5 0.5 -9.499998
v -12 0.5 -9.499998
v -11.5 1 -9.499998
v -12 1 -9.499998
v -11.5 1 -8.999998
v -13.5 1 -8.999998
v -11.5 1 -9.499998
v -13.5 1 -9.499998
v -11.5 0.5 -8.999998
v -11.5 1 -8.999998
v -11.5 0.5 -9.499998
v -11.5 1 -9.499998
v -11.5 1.5 -6.499998
v -12 1.5 -6.499998
v -11.5 1.5 -6.999998
v -12 1.5 -6.999998
v -11.5 1 -9.999998
v -12.5 1 -9.999998
v -11.5 1.5 -9.999998
v -12.5 1.5 -9.999998
v -11.5 1.5 -9.999998
v -12.5 1.5 -9.999998
v -11.5 1.5 -10.5
v -12.5 1.5 -10.5
v -11.5 1 -9.999998
v -11.5 1.5 -9.999998
v -11.5 1 -10.5
v -11.5 1.5 -10.5
v -11.5 1.5 -7.499998
v -12 1.5 -7.499998
v -11.5 2 -7.499998
v -12 2 -7.499998
v -11.5 1.5 -6.999998
v -12 1.5 -6.999998
v -11.5 2 -6.999998
v -12 2 -6.999998
v -11.5 2 -6.999998
v -12 2 -6.999998
v -11.5 2 -7.499998
v -12 2 -7.499998
v -11.5 1.5 -6.999998
v -11.5 2 -6.999998
v -11.5 1.5 -7.499998
v -11.5 2 -7.499998
v -12 1.5 -6.999998
v -12 2 -6.999998
v -12 1.5 -7.499998
v -12 2 -7.499998
v -11.5 2 -13
v -16 2 -13
v -11.5 2 -13.5
v -16 2 -13.5
v -11.5 1.5 -13
v -11.5 2 -13
v -11.5 1.5 -13.5
v -11.5 2 -13.5
v -12 1 -7.999998
v -13.5 1 -7.999998
v -12 1 -8.499998
v -13.5 1 -8.499998
v -12 1 -9.499998
v -12.5 1 -9.499998
v -12 1 -9.999998
v -12.5 1 -9.999998
v -12 0.5 -9.499998
v -12 1 -9.499998
v -12 0.5 -9.999998
v -12 1 -9.999998
v -12 1.5 -6.999998
v -13.5 1.5 -6.999998
v -12 1.5 -7.999998
v -13.5 1.5 -7.999998
v -12 1 -7.999998
v -13.5 1 -7.999998
v -12 1.5 -7.999998
v -13.5 1.5 -7.999998
v -12 1 -7.499998
v -12 1.5 -7.499998
v -12 1 -7.999998
v -12 1.5 -7.999998
v -12 1.5 -6.999998
v -13.5 1.5 -6.999998
v -12 2 -6.999998
v -13.5 2 -6.999998
v -12 2 -6.499998
v -16 2 -6.499998
v -12 2 -6.999998
v -16 2 -6.999998
v -12 1.5 -6.499998
v -12 2 -6.499998
v -12 1.5 -6.999998
v -12 2 -6.999998
v -12.5 1.5 -10.5
v -12.5 2 -10.5
v -12.5 1.5 -11
v -12.5 2 -11
v -12.5 1 -9.499998
v -13.5 1 -9.499998
v -12.5 1.5 -9.499998
v -13.5 1.5 -9.499998
v -12.5 1.5 -9.499998
v -14.5 1.5 -9.499998
v -12.5 1.5 -9.999998
v -14.5 1.5 -9.999998
v -12.5 1 -9.499998
v -12.5 1.5 -9.499998
v -12.5 1 -9.999998
v -12.5 1.5 -9.999998
v -12.5 1.5 -10.5
v -13 1.5 -10.5
v -12.5 1.5 -11
v -13 1.5 -11
v -12.5 1.5 -10.5
v -13 1.5 -10.5
v -12.5 2 -10.5
v -13 2 -10.5
v -12.5 1.5 -9.999998
v -14.5 1.5 -9.999998
v -12.5 2 -9.999998
v -14.5 2 -9.999998
v -12.5 2 -9.999998
v -16 2 -9.999998
v -12.5 2 -10.5
v -16 2 -10.5
v -12.5 1.5 -9.999998
v -12.5 2 -9.999998
v -12.5 1.5 -10.5
v -12.5 2 -10.5
v -12.5 1.5 -11
v -13 1.5 -11
v -12.5 2 -11
v -13 2 -11
v -12.5 2 -11
v -16 2 -11
v -12.5 2 -13
v -16 2 -13
v -13 2 -10.5
v -16 2 -10.5
v -13 2 -11
v -16 2 -11
v -13 1.5 -10.5
v -13 2 -10.5
v -13 1.5 -11
v -13 2 -11
v -13.5 1.5 -7.999998
v -14 1.5 -7.999998
v -13.5 1.5 -9.499998
v -14 1.5 -9.499998
v -13.5 1 -7.999998
v -13.5 1.5 -7.999998
v -13.5 1 -9.499998
v -13.5 1.5 -9.499998
v -13.5 2 -6.999998
v -15 2 -6.999998
v -13.5 2 -7.999998
v -15 2 -7.999998
v -13.5 1.5 -6.999998
v -13.5 2 -6.999998
v -13.5 1.5 -7.999998
v -13.5 2 -7.999998
v -13.5 1.5 -7.999998
v -14 1.5 -7.999998
v -13.5 2 -7.999998
v -14 2 -7.999998
v -14 1.5 -8.499998
v -15 1.5 -8.499998
v -14 1.5 -9.499998
v -15 1.5 -9.499998
v -14 1.5 -8.499998
v -15 1.5 -8.499998
v -14 2 -8.499998
v -15 2 -8.499998
v -14 2 -7.999998
v -16 2 -7.999998
v -14 2 -8.499998
v -16 2 -8.499998
v -14 1.5 -7.999998
v -14 2 -7.999998
v -14 1.5 -8.499998
v -14 2 -8.499998
v -15 1.5 -5.999998
v -15 2 -5.999998
v -15 1.5 -6.499998
v -15 2 -6.499998
v -15 1.5 -6.999998
v -15 2 -6.999998
v -15 1.5 -7.999998
v -15 2 -7.999998
v -14.5 1.5 -9.499998
v -15 1.5 -9.499998
v -14.5 2 -9.499998
v -15 2 -9.499998
v -14.5 2 -9.499998
v -16 2 -9.499998
v -14.5 2 -9.999998
v -16 2 -9.999998
v -14.5 1.5 -9.499998
v -14.5 2 -9.499998
v -14.5 1.5 -9.999998
v -14.5 2 -9.999998
v -15 1.5 -5.999998
v -15.5 1.5 -5.999998
v -15 1.5 -6.499998
v -15.5 1.5 -6.499998
v -15 1.5 -6.999998
v -15.5 1.5 -6.999998
v -15 1.5 -7.999998
v -15.5 1.5 -7.999998
v -15 1.5 -5.999998
v -15.5 1.5 -5.999998
v -15 2 -5.999998
v -15.5 2 -5.999998
v -15 1.5 -6.999998
v -15.5 1.5 -6.999998
v -15 2 -6.999998
v -15.5 2 -6.999998
v -15 1.5 -6.499998
v -15.5 1.5 -6.499998
v -15 2 -6.499998
v -15.5 2 -6.499998
v -15 1.5 -7.999998
v -15.5 1.5 -7.999998
v -15 2 -7.999998
v -15.5 2 -7.999998
v -15 2 -8.499998
v -16 2 -8.499998
v -15 2 -9.499998
v -16 2 -9.499998
v -15 1.5 -8.499998
v -15 2 -8.499998
v -15 1.5 -9.499998
v -15 2 -9.499998
v -16 0 1.907349E-06
v -16 2 1.907349E-06
v -16 0 -16
v -16 2 -16
v -15.5 2 -5.999998
v -16 2 -5.999998
v -15.5 2 -6.499998
v -16 2 -6.499998
v -15.5 1.5 -5.999998
v -15.5 2 -5.999998
v -15.5 1.5 -6.499998
v -15.5 2 -6.499998
v -15.5 2 -6.999998
v -16 2 -6.999998
v -15.5 2 -7.999998
v -16 2 -7.999998
v -15.5 1.5 -6.999998
v -15.5 2 -6.999998
v -15.5 1.5 -7.999998
v -15.5 2 -7.999998
vn 0 -5.960464E-08 0.9999999
vn 0 -0.9999999 -5.960464E-08
vn 1 0 0
vn 0 5.960464E-08 -0.9999999
vn 0 0.9999999 5.960464E-08
vn -1 0 0
vt 0.6015625 0.0078125
vt 0.8515625 0.0078125
vt 0.6015625 0.0390625
vt 0.8515625 0.0390625
vt 0.0078125 0.0078125
vt 0.2578125 0.0078125
vt 0.0078125 0.2578125
vt 0.2578125 0.2578125
vt 0.0078125 0.2890625
vt 0.0390625 0.2890625
vt 0.0078125 0.5390625
vt 0.0390625 0.5390625
vt 0.6015625 0.0703125
vt 0.8515625 0.0703125
vt 0.6015625 0.1015625
vt 0.8515625 0.1015625
vt 0.53125 0.0078125
vt 0.5703125 0.0078125
vt 0.53125 0.2578125
vt 0.5703125 0.2578125
vt 0.3125 0.71875
vt 0.3125 0.6875
vt 0.2890625 0.0078125
vt 0.5 0.0078125
vt 0.2890625 0.0703125
vt 0.5 0.0703125
vt 0.0703125 0.2890625
vt 0.078125 0.2890625
vt 0.0703125 0.46875
vt 0.078125 0.46875
vt 0.2890625 0.1015625
vt 0.4921875 0.1015625
vt 0.2890625 0.1171875
vt 0.4921875 0.1171875
vt 0.3125 0.65625
vt 0.0703125 0.5
vt 0.078125 0.5
vt 0.0703125 0.6640625
vt 0.078125 0.6640625
vt 0.3125 0.5625
vt 0.3125 0.53125
vt 0.0078125 0.8515625
vt 0.015625 0.8515625
vt 0.0078125 0.8984375
vt 0.015625 0.8984375
vt 0.2734375 0.4765625
vt 0.28125 0.4765625
vt 0.2734375 0.4921875
vt 0.28125 0.4921875
vt 0.3125 0.78125
vt 0.3125 0.5
vt 0.6953125 0.1328125
vt 0.703125 0.1328125
vt 0.6953125 0.234375
vt 0.703125 0.234375
vt 0.9609375 0.234375
vt 0.9765625 0.234375
vt 0.9609375 0.25
vt 0.9765625 0.25
vt 0.2734375 0.5234375
vt 0.28125 0.5234375
vt 0.2734375 0.5390625
vt 0.28125 0.5390625
vt 0.2109375 0.8359375
vt 0.234375 0.8359375
vt 0.2109375 0.84375
vt 0.234375 0.84375
vt 0.2109375 0.875
vt 0.234375 0.875
vt 0.2109375 0.8828125
vt 0.234375 0.8828125
vt 0.171875 0.9296875
vt 0.921875 0.1328125
vt 0.9296875 0.1328125
vt 0.921875 0.2265625
vt 0.9296875 0.2265625
vt 0.109375 0.71875
vt 0.1484375 0.71875
vt 0.109375 0.7265625
vt 0.1484375 0.7265625
vt 0.2734375 0.5703125
vt 0.28125 0.5703125
vt 0.2734375 0.5859375
vt 0.28125 0.5859375
vt 0.1796875 0.7578125
vt 0.1796875 0.640625
vt 0.796875 0.2890625
vt 0.8125 0.2890625
vt 0.796875 0.296875
vt 0.8125 0.296875
vt 0.109375 0.5234375
vt 0.15625 0.5234375
vt 0.109375 0.53125
vt 0.15625 0.53125
vt 0.84375 0.2890625
vt 0.859375 0.2890625
vt 0.84375 0.296875
vt 0.859375 0.296875
vt 0.6015625 0.1328125
vt 0.6171875 0.1328125
vt 0.6015625 0.21875
vt 0.6171875 0.21875
vt 0.109375 0.3671875
vt 0.171875 0.3671875
vt 0.109375 0.375
vt 0.171875 0.375
vt 0.3828125 0.2890625
vt 0.40625 0.2890625
vt 0.3828125 0.296875
vt 0.40625 0.296875
vt 0.890625 0.2890625
vt 0.90625 0.2890625
vt 0.890625 0.296875
vt 0.90625 0.296875
vt 0.4921875 0.2890625
vt 0.515625 0.2890625
vt 0.4921875 0.296875
vt 0.515625 0.296875
vt 0.3125 0.75
vt 0.2109375 0.71875
vt 0.234375 0.71875
vt 0.2109375 0.7265625
vt 0.234375 0.7265625
vt 0.8203125 0.2578125
vt 0.2734375 0.6171875
vt 0.28125 0.6171875
vt 0.2734375 0.6328125
vt 0.28125 0.6328125
vt 0.7890625 0.2578125
vt 0.109375 0.8359375
vt 0.1328125 0.8359375
vt 0.109375 0.8515625
vt 0.1328125 0.8515625
vt 0.2109375 0.2890625
vt 0.2421875 0.2890625
vt 0.2109375 0.296875
vt 0.2421875 0.296875
vt 0.109375 0.6796875
vt 0.1484375 0.6796875
vt 0.109375 0.6875
vt 0.1484375 0.6875
vt 0.109375 0.5625
vt 0.15625 0.5625
vt 0.109375 0.5703125
vt 0.15625 0.5703125
vt 0.2890625 0.1484375
vt 0.453125 0.1484375
vt 0.2890625 0.15625
vt 0.453125 0.15625
vt 0.3125 0.4140625
vt 0.328125 0.4140625
vt 0.3125 0.421875
vt 0.328125 0.421875
vt 0.6484375 0.1328125
vt 0.6640625 0.1328125
vt 0.6484375 0.2109375
vt 0.6640625 0.2109375
vt 0.2734375 0.2890625
vt 0.296875 0.2890625
vt 0.2734375 0.296875
vt 0.296875 0.296875
vt 0.109375 0.7578125
vt 0.1484375 0.7578125
vt 0.109375 0.765625
vt 0.1484375 0.765625
vt 0.2109375 0.328125
vt 0.2421875 0.328125
vt 0.2109375 0.3359375
vt 0.2421875 0.3359375
vt 0.2109375 0.640625
vt 0.234375 0.640625
vt 0.2109375 0.6484375
vt 0.234375 0.6484375
vt 0.2109375 0.6796875
vt 0.234375 0.6796875
vt 0.2109375 0.6875
vt 0.234375 0.6875
vt 0.171875 0.96875
vt 0.2109375 0.484375
vt 0.234375 0.484375
vt 0.2109375 0.4921875
vt 0.234375 0.4921875
vt 0.9609375 0.1328125
vt 0.96875 0.1328125
vt 0.9609375 0.203125
vt 0.96875 0.203125
vt 0.6015625 0.25
vt 0.6171875 0.25
vt 0.6015625 0.2578125
vt 0.6171875 0.2578125
vt 0.2109375 0.5625
vt 0.234375 0.5625
vt 0.2109375 0.5703125
vt 0.234375 0.5703125
vt 0.109375 0.484375
vt 0.1640625 0.484375
vt 0.109375 0.4921875
vt 0.1640625 0.4921875
vt 0.109375 0.96875
vt 0.140625 0.96875
vt 0.109375 0.9765625
vt 0.140625 0.9765625
vt 0.8671875 0.1328125
vt 0.890625 0.1328125
vt 0.8671875 0.1875
vt 0.890625 0.1875
vt 0.2109375 0.9140625
vt 0.234375 0.9140625
vt 0.2109375 0.921875
vt 0.234375 0.921875
vt 0.109375 0.4453125
vt 0.171875 0.4453125
vt 0.109375 0.453125
vt 0.171875 0.453125
vt 0.0703125 0.8046875
vt 0.078125 0.8046875
vt 0.0703125 0.828125
vt 0.078125 0.828125
vt 0.109375 0.796875
vt 0.1484375 0.796875
vt 0.109375 0.8046875
vt 0.1484375 0.8046875
vt 0.9375 0.2890625
vt 0.953125 0.2890625
vt 0.9375 0.296875
vt 0.953125 0.296875
vt 0.0703125 0.75
vt 0.078125 0.75
vt 0.0703125 0.7734375
vt 0.078125 0.7734375
vt 0.2734375 0.6640625
vt 0.28125 0.6640625
vt 0.2734375 0.6796875
vt 0.28125 0.6796875
vt 0.2734375 0.7578125
vt 0.28125 0.7578125
vt 0.2734375 0.7734375
vt 0.28125 0.7734375
vt 0.375 0.1875
vt 0.4921875 0.1875
vt 0.375 0.1953125
vt 0.4921875 0.1953125
vt 0.0703125 0.859375
vt 0.078125 0.859375
vt 0.0703125 0.8828125
vt 0.078125 0.8828125
vt 0.375 0.2265625
vt 0.4921875 0.2265625
vt 0.375 0.234375
vt 0.4921875 0.234375
vt 0.7890625 0.2109375
vt 0.8359375 0.2109375
vt 0.7890625 0.2265625
vt 0.8359375 0.2265625
vt 0.2734375 0.8046875
vt 0.28125 0.8046875
vt 0.2734375 0.8203125
vt 0.28125 0.8203125
vt 0.4375 0.2890625
vt 0.4609375 0.2890625
vt 0.4375 0.296875
vt 0.4609375 0.296875
vt 0.1640625 0.8359375
vt 0.1796875 0.8359375
vt 0.1640625 0.8515625
vt 0.1796875 0.8515625
vt 0.2109375 0.796875
vt 0.234375 0.796875
vt 0.2109375 0.8046875
vt 0.234375 0.8046875
vt 0.0078125 0.9296875
vt 0.015625 0.9296875
vt 0.0078125 0.96875
vt 0.015625 0.96875
vt 0.2734375 0.8984375
vt 0.28125 0.8984375
vt 0.2734375 0.9140625
vt 0.28125 0.9140625
vt 0.0703125 0.9140625
vt 0.078125 0.9140625
vt 0.0703125 0.9375
vt 0.078125 0.9375
vt 0.2109375 0.5234375
vt 0.234375 0.5234375
vt 0.2109375 0.53125
vt 0.234375 0.53125
vt 0.1796875 0.6796875
vt 0.484375 0.1484375
vt 0.5 0.1484375
vt 0.484375 0.15625
vt 0.5 0.15625
vt 0.1796875 0.796875
vt 0.2109375 0.6015625
vt 0.234375 0.6015625
vt 0.2109375 0.609375
vt 0.234375 0.609375
vt 0.734375 0.171875
vt 0.8359375 0.171875
vt 0.734375 0.1796875
vt 0.8359375 0.1796875
vt 0.734375 0.1328125
vt 0.8359375 0.1328125
vt 0.734375 0.140625
vt 0.8359375 0.140625
vt 0.8828125 0.0078125
vt 0.9765625 0.0078125
vt 0.8828125 0.015625
vt 0.9765625 0.015625
vt 0.328125 0.2890625
vt 0.3515625 0.2890625
vt 0.328125 0.296875
vt 0.3515625 0.296875
vt 0.2734375 0.3828125
vt 0.28125 0.3828125
vt 0.2734375 0.3984375
vt 0.28125 0.3984375
vt 0.2734375 0.4296875
vt 0.28125 0.4296875
vt 0.2734375 0.4453125
vt 0.28125 0.4453125
vt 0.921875 0.2578125
vt 0.2109375 0.953125
vt 0.234375 0.953125
vt 0.2109375 0.9609375
vt 0.234375 0.9609375
vt 0.703125 0.2890625
vt 0.71875 0.2890625
vt 0.703125 0.296875
vt 0.71875 0.296875
vt 0.1796875 0.71875
vt 0.109375 0.640625
vt 0.1484375 0.640625
vt 0.109375 0.6484375
vt 0.1484375 0.6484375
vt 0.65625 0.2890625
vt 0.671875 0.2890625
vt 0.65625 0.296875
vt 0.671875 0.296875
vt 0.109375 0.40625
vt 0.171875 0.40625
vt 0.109375 0.4140625
vt 0.171875 0.4140625
vt 0.2109375 0.7578125
vt 0.234375 0.7578125
vt 0.2109375 0.765625
vt 0.234375 0.765625
vt 0.734375 0.2109375
vt 0.7578125 0.2109375
vt 0.734375 0.25
vt 0.7578125 0.25
vt 0.8671875 0.21875
vt 0.875 0.21875
vt 0.8671875 0.2578125
vt 0.875 0.2578125
vt 0.3125 0.59375
vt 0.3125 0.625
vt 0.8828125 0.0703125
vt 0.9609375 0.0703125
vt 0.8828125 0.078125
vt 0.9609375 0.078125
vt 0.109375 0.9296875
vt 0.140625 0.9296875
vt 0.109375 0.9375
vt 0.140625 0.9375
vt 0.3125 0.8125
vt 0.109375 0.2890625
vt 0.1796875 0.2890625
vt 0.109375 0.296875
vt 0.1796875 0.296875
vt 0.6015625 0.2890625
vt 0.625 0.2890625
vt 0.6015625 0.296875
vt 0.625 0.296875
vt 0.109375 0.328125
vt 0.171875 0.328125
vt 0.109375 0.3359375
vt 0.171875 0.3359375
vt 0.75 0.2890625
vt 0.765625 0.2890625
vt 0.75 0.296875
vt 0.765625 0.296875
vt 0.2109375 0.3671875
vt 0.2421875 0.3671875
vt 0.2109375 0.375
vt 0.2421875 0.375
vt 0.0703125 0.96875
vt 0.2109375 0.40625
vt 0.2421875 0.40625
vt 0.2109375 0.4140625
vt 0.2421875 0.4140625
vt 0.2890625 0.25
vt 0.34375 0.25
vt 0.2890625 0.2578125
vt 0.34375 0.2578125
vt 0.2890625 0.1875
vt 0.34375 0.1875
vt 0.2890625 0.21875
vt 0.34375 0.21875
vt 0.109375 0.6015625
vt 0.15625 0.6015625
vt 0.109375 0.609375
vt 0.15625 0.609375
vt 0.2734375 0.328125
vt 0.28125 0.328125
vt 0.2734375 0.3515625
vt 0.28125 0.3515625
vt 0.0703125 0.6953125
vt 0.078125 0.6953125
vt 0.0703125 0.71875
vt 0.078125 0.71875
vt 0.109375 0.8828125
vt 0.1328125 0.8828125
vt 0.109375 0.8984375
vt 0.1328125 0.8984375
vt 0.2734375 0.7109375
vt 0.28125 0.7109375
vt 0.2734375 0.7265625
vt 0.28125 0.7265625
vt 0.1640625 0.8828125
vt 0.1796875 0.8828125
vt 0.1640625 0.8984375
vt 0.1796875 0.8984375
vt 0.3125 0.328125
vt 0.328125 0.328125
vt 0.3125 0.3359375
vt 0.328125 0.3359375
vt 0.2109375 0.4453125
vt 0.2421875 0.4453125
vt 0.2109375 0.453125
vt 0.2421875 0.453125
vt 0.2734375 0.8515625
vt 0.28125 0.8515625
vt 0.2734375 0.8671875
vt 0.28125 0.8671875
vt 0.546875 0.2890625
vt 0.5703125 0.2890625
vt 0.546875 0.296875
vt 0.5703125 0.296875
vt 0.6484375 0.2421875
vt 0.6640625 0.2421875
vt 0.6484375 0.2578125
vt 0.6640625 0.2578125
vt 0.3125 0.3671875
vt 0.3203125 0.3671875
vt 0.3125 0.3828125
vt 0.3203125 0.3828125
vt 0.0078125 0.5703125
vt 0.0390625 0.5703125
vt 0.0078125 0.8203125
vt 0.0390625 0.8203125
vt 0.3125 0.453125
vt 0.3203125 0.453125
vt 0.3125 0.46875
vt 0.3203125 0.46875
vt 0.2734375 0.9453125
vt 0.28125 0.9453125
vt 0.2734375 0.9609375
vt 0.28125 0.9609375
usemtl voxel
f 2/2/1 1/1/1 3/3/1
f 2/2/1 3/3/1 4/4/1
f 5/5/2 6/6/2 7/7/2
f 7/7/2 6/6/2 8/8/2
f 10/10/3 9/9/3 11/11/3
f 10/10/3 11/11/3 12/12/3
f 13/13/4 14/14/4 15/15/4
f 15/15/4 14/14/4 16/16/4
f 18/18/5 17/17/5 19/19/5
f 18/18/5 19/19/5 20/20/5
f 21/21/6 22/21/6 23/21/6
f 23/21/6 22/21/6 24/21/6
f 26/22/5 25/22/5 27/22/5
f 26/22/5 27/22/5 28/22/5
f 30/24/5 29/23/5 31/25/5
f 30/24/5 31/25/5 32/26/5
f 33/21/4 34/21/4 35/21/4
f 35/21/4 34/21/4 36/21/4
f 38/22/1 37/22/1 39/22/1
f 38/22/1 39/22/1 40/22/1
f 42/28/5 41/27/5 43/29/5
f 42/28/5 43/29/5 44/30/5
f 45/21/6 46/21/6 47/21/6
f 47/21/6 46/21/6 48/21/6
f 50/22/5 49/22/5 51/22/5
f 50/22/5 51/22/5 52/22/5
f 54/32/5 53/31/5 55/33/5
f 54/32/5 55/33/5 56/34/5
f 58/35/3 57/35/3 59/35/3
f 58/35/3 59/35/3 60/35/3
f 61/21/4 62/21/4 63/21/4
f 63/21/4 62/21/4 64/21/4
f 66/21/1 65/21/1 67/21/1
f 66/21/1 67/21/1 68/21/1
f 70/37/5 69/36/5 71/38/5
f 70/37/5 71/38/5 72/39/5
f 73/40/6 74/40/6 75/40/6
f 75/40/6 74/40/6 76/40/6
f 77/41/6 78/41/6 79/41/6
f 79/41/6 78/41/6 80/41/6
f 81/21/6 82/21/6 83/21/6
f 83/21/6 82/21/6 84/21/6
f 86/21/5 85/21/5 87/21/5
f 86/21/5 87/21/5 88/21/5
f 90/21/5 89/21/5 91/21/5
f 90/21/5 91/21/5 92/21/5
f 94/43/5 93/42/5 95/44/5
f 94/43/5 95/44/5 96/45/5
f 98/22/3 97/22/3 99/22/3
f 98/22/3 99/22/3 100/22/3
f 101/21/6 102/21/6 103/21/6
f 103/21/6 102/21/6 104/21/6
f 105/46/6 106/47/6 107/48/6
f 107/48/6 106/47/6 108/49/6
f 109/50/4 110/50/4 111/50/4
f 111/50/4 110/50/4 112/50/4
f 113/51/4 114/51/4 115/51/4
f 115/51/4 114/51/4 116/51/4
f 118/51/1 117/51/1 119/51/1
f 118/51/1 119/51/1 120/51/1
f 122/51/5 121/51/5 123/51/5
f 122/51/5 123/51/5 124/51/5
f 125/51/6 126/51/6 127/51/6
f 127/51/6 126/51/6 128/51/6
f 130/21/1 129/21/1 131/21/1
f 130/21/1 131/21/1 132/21/1
f 134/53/5 133/52/5 135/54/5
f 134/53/5 135/54/5 136/55/5
f 137/21/6 138/21/6 139/21/6
f 139/21/6 138/21/6 140/21/6
f 142/21/5 141/21/5 143/21/5
f 142/21/5 143/21/5 144/21/5
f 146/57/5 145/56/5 147/58/5
f 146/57/5 147/58/5 148/59/5
f 149/60/4 150/61/4 151/62/4
f 151/62/4 150/61/4 152/63/4
f 154/21/1 153/21/1 155/21/1
f 154/21/1 155/21/1 156/21/1
f 158/65/5 157/64/5 159/66/5
f 158/65/5 159/66/5 160/67/5
f 162/69/5 161/68/5 163/70/5
f 162/69/5 163/70/5 164/71/5
f 165/21/4 166/21/4 167/21/4
f 167/21/4 166/21/4 168/21/4
f 170/21/5 169/21/5 171/21/5
f 170/21/5 171/21/5 172/21/5
f 174/72/1 173/72/1 175/72/1
f 174/72/1 175/72/1 176/72/1
f 178/72/5 177/72/5 179/72/5
f 178/72/5 179/72/5 180/72/5
f 181/72/6 182/72/6 183/72/6
f 183/72/6 182/72/6 184/72/6
f 185/41/4 186/41/4 187/41/4
f 187/41/4 186/41/4 188/41/4
f 190/41/1 189/41/1 191/41/1
f 190/41/1 191/41/1 192/41/1
f 194/41/5 193/41/5 195/41/5
f 194/41/5 195/41/5 196/41/5
f 198/41/3 197/41/3 199/41/3
f 198/41/3 199/41/3 200/41/3
f 201/41/6 202/41/6 203/41/6
f 203/41/6 202/41/6 204/41/6
f 206/21/1 205/21/1 207/21/1
f 206/21/1 207/21/1 208/21/1
f 210/74/5 209/73/5 211/75/5
f 210/74/5 211/75/5 212/76/5
f 213/21/6 214/21/6 215/21/6
f 215/21/6 214/21/6 216/21/6
f 218/78/5 217/77/5 219/79/5
f 218/78/5 219/79/5 220/80/5
f 221/72/6 222/72/6 223/72/6
f 223/72/6 222/72/6 224/72/6
f 226/82/5 225/81/5 227/83/5
f 226/82/5 227/83/5 228/84/5
f 229/85/4 230/85/4 231/85/4
f 231/85/4 230/85/4 232/85/4
f 234/85/3 233/85/3 235/85/3
f 234/85/3 235/85/3 236/85/3
f 237/85/6 238/85/6 239/85/6
f 239/85/6 238/85/6 240/85/6
f 242/86/1 241/86/1 243/86/1
f 242/86/1 243/86/1 244/86/1
f 246/86/5 245/86/5 247/86/5
f 246/86/5 247/86/5 248/86/5
f 250/86/3 249/86/3 251/86/3
f 250/86/3 251/86/3 252/86/3
f 253/86/6 254/86/6 255/86/6
f 255/86/6 254/86/6 256/86/6
f 258/88/5 257/87/5 259/89/5
f 258/88/5 259/89/5 260/90/5
f 262/92/5 261/91/5 263/93/5
f 262/92/5 263/93/5 264/94/5
f 265/21/6 266/21/6 267/21/6
f 267/21/6 266/21/6 268/21/6
f 270/96/1 269/95/1 271/97/1
f 270/96/1 271/97/1 272/98/1
f 274/100/5 273/99/5 275/101/5
f 274/100/5 275/101/5 276/102/5
f 278/21/5 277/21/5 279/21/5
f 278/21/5 279/21/5 280/21/5
f 282/104/5 281/103/5 283/105/5
f 282/104/5 283/105/5 284/106/5
f 286/108/5 285/107/5 287/109/5
f 286/108/5 287/109/5 288/110/5
f 289/111/6 290/112/6 291/113/6
f 291/113/6 290/112/6 292/114/6
f 294/21/5 293/21/5 295/21/5
f 294/21/5 295/21/5 296/21/5
f 297/21/4 298/21/4 299/21/4
f 299/21/4 298/21/4 300/21/4
f 301/115/4 302/116/4 303/117/4
f 303/117/4 302/116/4 304/118/4
f 306/119/1 305/119/1 307/119/1
f 306/119/1 307/119/1 308/119/1
f 310/121/5 309/120/5 311/122/5
f 310/121/5 311/122/5 312/123/5
f 314/124/1 313/124/1 315/124/1
f 314/124/1 315/124/1 316/124/1
f 317/125/6 318/126/6 319/127/6
f 319/127/6 318/126/6 320/128/6
f 321/21/4 322/21/4 323/21/4
f 323/21/4 322/21/4 324/21/4
f 325/51/6 326/51/6 327/51/6
f 327/51/6 326/51/6 328/51/6
f 330/129/5 329/129/5 331/129/5
f 330/129/5 331/129/5 332/129/5
f 333/21/4 334/21/4 335/21/4
f 335/21/4 334/21/4 336/21/4
f 338/21/1 337/21/1 339/21/1
f 338/21/1 339/21/1 340/21/1
f 342/131/5 341/130/5 343/132/5
f 342/131/5 343/132/5 344/133/5
f 346/21/5 345/21/5 347/21/5
f 346/21/5 347/21/5 348/21/5
f 350/21/3 349/21/3 351/21/3
f 350/21/3 351/21/3 352/21/3
f 353/21/6 354/21/6 355/21/6
f 355/21/6 354/21/6 356/21/6
f 358/135/1 357/134/1 359/136/1
f 358/135/1 359/136/1 360/137/1
f 362/139/5 361/138/5 363/140/5
f 362/139/5 363/140/5 364/141/5
f 365/142/4 366/143/4 367/144/4
f 367/144/4 366/143/4 368/145/4
f 370/147/5 369/146/5 371/148/5
f 370/147/5 371/148/5 372/149/5
f 374/22/3 373/22/3 375/22/3
f 374/22/3 375/22/3 376/22/3
f 378/151/1 377/150/1 379/152/1
f 378/151/1 379/152/1 380/153/1
f 382/155/5 381/154/5 383/156/5
f 382/155/5 383/156/5 384/157/5
f 386/21/5 385/21/5 387/21/5
f 386/21/5 387/21/5 388/21/5
f 389/72/6 390/72/6 391/72/6
f 391/72/6 390/72/6 392/72/6
f 394/159/5 393/158/5 395/160/5
f 394/159/5 395/160/5 396/161/5
f 398/72/3 397/72/3 399/72/3
f 398/72/3 399/72/3 400/72/3
f 401/21/4 402/21/4 403/21/4
f 403/21/4 402/21/4 404/21/4
f 406/163/5 405/162/5 407/164/5
f 406/163/5 407/164/5 408/165/5
f 410/85/1 409/85/1 411/85/1
f 410/85/1 411/85/1 412/85/1
f 413/85/6 414/85/6 415/85/6
f 415/85/6 414/85/6 416/85/6
f 417/21/6 418/21/6 419/21/6
f 419/21/6 418/21/6 420/21/6
f 422/129/5 421/129/5 423/129/5
f 422/129/5 423/129/5 424/129/5
f 426/167/5 425/166/5 427/168/5
f 426/167/5 427/168/5 428/169/5
f 429/129/4 430/129/4 431/129/4
f 431/129/4 430/129/4 432/129/4
f 433/129/6 434/129/6 435/129/6
f 435/129/6 434/129/6 436/129/6
f 438/129/1 437/129/1 439/129/1
f 438/129/1 439/129/1 440/129/1
f 441/72/6 442/72/6 443/72/6
f 443/72/6 442/72/6 444/72/6
f 445/170/4 446/171/4 447/172/4
f 447/172/4 446/171/4 448/173/4
f 450/175/5 449/174/5 451/176/5
f 450/175/5 451/176/5 452/177/5
f 454/178/3 453/178/3 455/178/3
f 454/178/3 455/178/3 456/178/3
f 458/21/5 457/21/5 459/21/5
f 458/21/5 459/21/5 460/21/5
f 462/180/1 461/179/1 463/181/1
f 462/180/1 463/181/1 464/182/1
f 466/184/5 465/183/5 467/185/5
f 466/184/5 467/185/5 468/186/5
f 469/51/6 470/51/6 471/51/6
f 471/51/6 470/51/6 472/51/6
f 474/129/5 473/129/5 475/129/5
f 474/129/5 475/129/5 476/129/5
f 478/129/5 477/129/5 479/129/5
f 478/129/5 479/129/5 480/129/5
f 481/72/4 482/72/4 483/72/4
f 483/72/4 482/72/4 484/72/4
f 486/188/1 485/187/1 487/189/1
f 486/188/1 487/189/1 488/190/1
f 490/192/5 489/191/5 491/193/5
f 490/192/5 491/193/5 492/194/5
f 494/129/3 493/129/3 495/129/3
f 494/129/3 495/129/3 496/129/3
f 497/72/4 498/72/4 499/72/4
f 499/72/4 498/72/4 500/72/4
f 501/72/6 502/72/6 503/72/6
f 503/72/6 502/72/6 504/72/6
f 506/21/1 505/21/1 507/21/1
f 506/21/1 507/21/1 508/21/1
f 510/196/5 509/195/5 511/197/5
f 510/196/5 511/197/5 512/198/5
f 513/119/6 514/119/6 515/119/6
f 515/119/6 514/119/6 516/119/6
f 517/21/6 518/21/6 519/21/6
f 519/21/6 518/21/6 520/21/6
f 522/21/5 521/21/5 523/21/5
f 522/21/5 523/21/5 524/21/5
f 525/21/4 526/21/4 527/21/4
f 527/21/4 526/21/4 528/21/4
f 530/21/5 529/21/5 531/21/5
f 530/21/5 531/21/5 532/21/5
f 534/200/1 533/199/1 535/201/1
f 534/200/1 535/201/1 536/202/1
f 538/204/5 537/203/5 539/205/5
f 538/204/5 539/205/5 540/206/5
f 542/129/5 541/129/5 543/129/5
f 542/129/5 543/129/5 544/129/5
f 545/72/4 546/72/4 547/72/4
f 547/72/4 546/72/4 548/72/4
f 550/72/1 549/72/1 551/72/1
f 550/72/1 551/72/1 552/72/1
f 554/208/5 553/207/5 555/209/5
f 554/208/5 555/209/5 556/210/5
f 558/72/3 557/72/3 559/72/3
f 558/72/3 559/72/3 560/72/3
f 562/212/5 561/211/5 563/213/5
f 562/212/5 563/213/5 564/214/5
f 566/21/5 565/21/5 567/21/5
f 566/21/5 567/21/5 568/21/5
f 569/21/6 570/21/6 571/21/6
f 571/21/6 570/21/6 572/21/6
f 573/72/4 574/72/4 575/72/4
f 575/72/4 574/72/4 576/72/4
f 578/72/1 577/72/1 579/72/1
f 578/72/1 579/72/1 580/72/1
f 581/72/6 582/72/6 583/72/6
f 583/72/6 582/72/6 584/72/6
f 586/21/1 585/21/1 587/21/1
f 586/21/1 587/21/1 588/21/1
f 589/21/6 590/21/6 591/21/6
f 591/21/6 590/21/6 592/21/6
f 594/21/5 593/21/5 595/21/5
f 594/21/5 595/21/5 596/21/5
f 598/72/5 597/72/5 599/72/5
f 598/72/5 599/72/5 600/72/5
f 602/72/3 601/72/3 603/72/3
f 602/72/3 603/72/3 604/72/3
f 605/215/6 606/216/6 607/217/6
f 607/217/6 606/216/6 608/218/6
f 610/129/5 609/129/5 611/129/5
f 610/129/5 611/129/5 612/129/5
f 614/129/3 613/129/3 615/129/3
f 614/129/3 615/129/3 616/129/3
f 618/220/5 617/219/5 619/221/5
f 618/220/5 619/221/5 620/222/5
f 621/21/4 622/21/4 623/21/4
f 623/21/4 622/21/4 624/21/4
f 626/224/5 625/223/5 627/225/5
f 626/224/5 627/225/5 628/226/5
f 629/227/6 630/228/6 631/229/6
f 631/229/6 630/228/6 632/230/6
f 634/129/5 633/129/5 635/129/5
f 634/129/5 635/129/5 636/129/5
f 637/21/4 638/21/4 639/21/4
f 639/21/4 638/21/4 640/21/4
f 642/129/1 641/129/1 643/129/1
f 642/129/1 643/129/1 644/129/1
f 645/129/6 646/129/6 647/129/6
f 647/129/6 646/129/6 648/129/6
f 650/232/5 649/231/5 651/233/5
f 650/232/5 651/233/5 652/234/5
f 654/236/3 653/235/3 655/237/3
f 654/236/3 655/237/3 656/238/3
f 657/178/4 658/178/4 659/178/4
f 659/178/4 658/178/4 660/178/4
f 661/178/6 662/178/6 663/178/6
f 663/178/6 662/178/6 664/178/6
f 666/50/1 665/50/1 667/50/1
f 666/50/1 667/50/1 668/50/1
f 670/50/5 669/50/5 671/50/5
f 670/50/5 671/50/5 672/50/5
f 674/50/3 673/50/3 675/50/3
f 674/50/3 675/50/3 676/50/3
f 677/50/6 678/50/6 679/50/6
f 679/50/6 678/50/6 680/50/6
f 682/21/5 681/21/5 683/21/5
f 682/21/5 683/21/5 684/21/5
f 685/21/4 686/21/4 687/21/4
f 687/21/4 686/21/4 688/21/4
f 690/240/5 689/239/5 691/241/5
f 690/240/5 691/241/5 692/242/5
f 694/21/3 693/21/3 695/21/3
f 694/21/3 695/21/3 696/21/3
f 698/244/5 697/243/5 699/245/5
f 698/244/5 699/245/5 700/246/5
f 701/21/6 702/21/6 703/21/6
f 703/21/6 702/21/6 704/21/6
f 705/51/4 706/51/4 707/51/4
f 707/51/4 706/51/4 708/51/4
f 710/21/1 709/21/1 711/21/1
f 710/21/1 711/21/1 712/21/1
f 714/248/5 713/247/5 715/249/5
f 714/248/5 715/249/5 716/250/5
f 718/129/5 717/129/5 719/129/5
f 718/129/5 719/129/5 720/129/5
f 722/21/5 721/21/5 723/21/5
f 722/21/5 723/21/5 724/21/5
f 726/252/5 725/251/5 727/253/5
f 726/252/5 727/253/5 728/254/5
f 730/256/3 729/255/3 731/257/3
f 730/256/3 731/257/3 732/258/3
f 733/129/4 734/129/4 735/129/4
f 735/129/4 734/129/4 736/129/4
f 738/260/1 737/259/1 739/261/1
f 738/260/1 739/261/1 740/262/1
f 742/264/5 741/263/5 743/265/5
f 742/264/5 743/265/5 744/266/5
f 745/21/4 746/21/4 747/21/4
f 747/21/4 746/21/4 748/21/4
f 749/86/4 750/86/4 751/86/4
f 751/86/4 750/86/4 752/86/4
f 754/86/1 753/86/1 755/86/1
f 754/86/1 755/86/1 756/86/1
f 758/86/5 757/86/5 759/86/5
f 758/86/5 759/86/5 760/86/5
f 762/86/3 761/86/3 763/86/3
f 762/86/3 763/86/3 764/86/3
f 765/86/6 766/86/6 767/86/6
f 767/86/6 766/86/6 768/86/6
f 770/21/1 769/21/1 771/21/1
f 770/21/1 771/21/1 772/21/1
f 773/21/6 774/21/6 775/21/6
f 775/21/6 774/21/6 776/21/6
f 778/21/5 777/21/5 779/21/5
f 778/21/5 779/21/5 780/21/5
f 782/268/5 781/267/5 783/269/5
f 782/268/5 783/269/5 784/270/5
f 786/21/3 785/21/3 787/21/3
f 786/21/3 787/21/3 788/21/3
f 790/21/1 789/21/1 791/21/1
f 790/21/1 791/21/1 792/21/1
f 794/272/5 793/271/5 795/273/5
f 794/272/5 795/273/5 796/274/5
f 797/275/6 798/276/6 799/277/6
f 799/277/6 798/276/6 800/278/6
f 802/280/3 801/279/3 803/281/3
f 802/280/3 803/281/3 804/282/3
f 805/22/6 806/22/6 807/22/6
f 807/22/6 806/22/6 808/22/6
f 810/129/5 809/129/5 811/129/5
f 810/129/5 811/129/5 812/129/5
f 814/284/5 813/283/5 815/285/5
f 814/284/5 815/285/5 816/286/5
f 817/287/4 818/287/4 819/287/4
f 819/287/4 818/287/4 820/287/4
f 822/287/5 821/287/5 823/287/5
f 822/287/5 823/287/5 824/287/5
f 826/287/3 825/287/3 827/287/3
f 826/287/3 827/287/3 828/287/3
f 829/287/6 830/287/6 831/287/6
f 831/287/6 830/287/6 832/287/6
f 834/21/5 833/21/5 835/21/5
f 834/21/5 835/21/5 836/21/5
f 837/21/4 838/21/4 839/21/4
f 839/21/4 838/21/4 840/21/4
f 842/21/5 841/21/5 843/21/5
f 842/21/5 843/21/5 844/21/5
f 846/21/3 845/21/3 847/21/3
f 846/21/3 847/21/3 848/21/3
f 849/21/6 850/21/6 851/21/6
f 851/21/6 850/21/6 852/21/6
f 854/21/1 853/21/1 855/21/1
f 854/21/1 855/21/1 856/21/1
f 858/21/5 857/21/5 859/21/5
f 858/21/5 859/21/5 860/21/5
f 862/21/5 861/21/5 863/21/5
f 862/21/5 863/21/5 864/21/5
f 865/288/4 866/289/4 867/290/4
f 867/290/4 866/289/4 868/291/4
f 869/292/4 870/292/4 871/292/4
f 871/292/4 870/292/4 872/292/4
f 874/294/1 873/293/1 875/295/1
f 874/294/1 875/295/1 876/296/1
f 878/298/5 877/297/5 879/299/5
f 878/298/5 879/299/5 880/300/5
f 882/40/1 881/40/1 883/40/1
f 882/40/1 883/40/1 884/40/1
f 886/302/5 885/301/5 887/303/5
f 886/302/5 887/303/5 888/304/5
f 890/129/5 889/129/5 891/129/5
f 890/129/5 891/129/5 892/129/5
f 894/21/5 893/21/5 895/21/5
f 894/21/5 895/21/5 896/21/5
f 897/72/4 898/72/4 899/72/4
f 899/72/4 898/72/4 900/72/4
f 901/129/6 902/129/6 903/129/6
f 903/129/6 902/129/6 904/129/6
f 906/21/5 905/21/5 907/21/5
f 906/21/5 907/21/5 908/21/5
f 909/21/4 910/21/4 911/21/4
f 911/21/4 910/21/4 912/21/4
f 913/21/4 914/21/4 915/21/4
f 915/21/4 914/21/4 916/21/4
f 918/21/1 917/21/1 919/21/1
f 918/21/1 919/21/1 920/21/1
f 922/21/5 921/21/5 923/21/5
f 922/21/5 923/21/5 924/21/5
f 926/21/3 925/21/3 927/21/3
f 926/21/3 927/21/3 928/21/3
f 929/72/6 930/72/6 931/72/6
f 931/72/6 930/72/6 932/72/6
f 934/306/5 933/305/5 935/307/5
f 934/306/5 935/307/5 936/308/5
f 938/292/3 937/292/3 939/292/3
f 938/292/3 939/292/3 940/292/3
f 942/310/5 941/309/5 943/311/5
f 942/310/5 943/311/5 944/312/5
f 946/314/5 945/313/5 947/315/5
f 946/314/5 947/315/5 948/316/5
f 950/318/3 949/317/3 951/319/3
f 950/318/3 951/319/3 952/320/3
f 953/321/4 954/321/4 955/321/4
f 955/321/4 954/321/4 956/321/4
f 957/321/6 958/321/6 959/321/6
f 959/321/6 958/321/6 960/321/6
f 962/323/1 961/322/1 963/324/1
f 962/323/1 963/324/1 964/325/1
f 966/21/5 965/21/5 967/21/5
f 966/21/5 967/21/5 968/21/5
f 970/72/5 969/72/5 971/72/5
f 970/72/5 971/72/5 972/72/5
f 973/21/4 974/21/4 975/21/4
f 975/21/4 974/21/4 976/21/4
f 978/21/3 977/21/3 979/21/3
f 978/21/3 979/21/3 980/21/3
f 982/327/1 981/326/1 983/328/1
f 982/327/1 983/328/1 984/329/1
f 986/330/5 985/330/5 987/330/5
f 986/330/5 987/330/5 988/330/5
f 990/330/3 989/330/3 991/330/3
f 990/330/3 991/330/3 992/330/3
f 994/21/5 993/21/5 995/21/5
f 994/21/5 995/21/5 996/21/5
f 998/21/3 997/21/3 999/21/3
f 998/21/3 999/21/3 1000/21/3
f 1001/21/4 1002/21/4 1003/21/4
f 1003/21/4 1002/21/4 1004/21/4
f 1005/40/4 1006/40/4 1007/40/4
f 1007/40/4 1006/40/4 1008/40/4
f 1010/21/1 1009/21/1 1011/21/1
f 1010/21/1 1011/21/1 1012/21/1
f 1014/21/5 1013/21/5 1015/21/5
f 1014/21/5 1015/21/5 1016/21/5
f 1017/21/6 1018/21/6 1019/21/6
f 1019/21/6 1018/21/6 1020/21/6
f 1022/129/5 1021/129/5 1023/129/5
f 1022/129/5 1023/129/5 1024/129/5
f 1025/72/4 1026/72/4 1027/72/4
f 1027/72/4 1026/72/4 1028/72/4
f 1030/332/5 1029/331/5 1031/333/5
f 1030/332/5 1031/333/5 1032/334/5
f 1034/21/5 1033/21/5 1035/21/5
f 1034/21/5 1035/21/5 1036/21/5
f 1037/21/4 1038/21/4 1039/21/4
f 1039/21/4 1038/21/4 1040/21/4
f 1042/21/3 1041/21/3 1043/21/3
f 1042/21/3 1043/21/3 1044/21/3
f 1046/21/3 1045/21/3 1047/21/3
f 1046/21/3 1047/21/3 1048/21/3
f 1050/21/5 1049/21/5 1051/21/5
f 1050/21/5 1051/21/5 1052/21/5
f 1053/335/4 1054/336/4 1055/337/4
f 1055/337/4 1054/336/4 1056/338/4
f 1058/340/5 1057/339/5 1059/341/5
f 1058/340/5 1059/341/5 1060/342/5
f 1062/72/3 1061/72/3 1063/72/3
f 1062/72/3 1063/72/3 1064/72/3
f 1066/344/1 1065/343/1 1067/345/1
f 1066/344/1 1067/345/1 1068/346/1
f 1070/348/5 1069/347/5 1071/349/5
f 1070/348/5 1071/349/5 1072/350/5
f 1074/352/3 1073/351/3 1075/353/3
f 1074/352/3 1075/353/3 1076/354/3
f 1077/355/4 1078/355/4 1079/355/4
f 1079/355/4 1078/355/4 1080/355/4
f 1082/356/1 1081/356/1 1083/356/1
f 1082/356/1 1083/356/1 1084/356/1
f 1086/358/5 1085/357/5 1087/359/5
f 1086/358/5 1087/359/5 1088/360/5
f 1090/356/3 1089/356/3 1091/356/3
f 1090/356/3 1091/356/3 1092/356/3
f 1093/72/4 1094/72/4 1095/72/4
f 1095/72/4 1094/72/4 1096/72/4
f 1098/362/5 1097/361/5 1099/363/5
f 1098/362/5 1099/363/5 1100/364/5
f 1102/72/3 1101/72/3 1103/72/3
f 1102/72/3 1103/72/3 1104/72/3
f 1106/21/5 1105/21/5 1107/21/5
f 1106/21/5 1107/21/5 1108/21/5
f 1110/365/1 1109/365/1 1111/365/1
f 1110/365/1 1111/365/1 1112/365/1
f 1114/365/5 1113/365/5 1115/365/5
f 1114/365/5 1115/365/5 1116/365/5
f 1118/365/3 1117/365/3 1119/365/3
f 1118/365/3 1119/365/3 1120/365/3
f 1121/21/4 1122/21/4 1123/21/4
f 1123/21/4 1122/21/4 1124/21/4
f 1126/21/1 1125/21/1 1127/21/1
f 1126/21/1 1127/21/1 1128/21/1
f 1130/21/5 1129/21/5 1131/21/5
f 1130/21/5 1131/21/5 1132/21/5
f 1134/21/3 1133/21/3 1135/21/3
f 1134/21/3 1135/21/3 1136/21/3
f 1137/21/6 1138/21/6 1139/21/6
f 1139/21/6 1138/21/6 1140/21/6
f 1142/367/5 1141/366/5 1143/368/5
f 1142/367/5 1143/368/5 1144/369/5
f 1146/41/3 1145/41/3 1147/41/3
f 1146/41/3 1147/41/3 1148/41/3
f 1150/21/5 1149/21/5 1151/21/5
f 1150/21/5 1151/21/5 1152/21/5
f 1154/72/5 1153/72/5 1155/72/5
f 1154/72/5 1155/72/5 1156/72/5
f 1158/72/3 1157/72/3 1159/72/3
f 1158/72/3 1159/72/3 1160/72/3
f 1162/21/5 1161/21/5 1163/21/5
f 1162/21/5 1163/21/5 1164/21/5
f 1165/21/4 1166/21/4 1167/21/4
f 1167/21/4 1166/21/4 1168/21/4
f 1170/21/3 1169/21/3 1171/21/3
f 1170/21/3 1171/21/3 1172/21/3
f 1173/370/4 1174/371/4 1175/372/4
f 1175/372/4 1174/371/4 1176/373/4
f 1178/375/5 1177/374/5 1179/376/5
f 1178/375/5 1179/376/5 1180/377/5
f 1182/355/3 1181/355/3 1183/355/3
f 1182/355/3 1183/355/3 1184/355/3
f 1185/72/6 1186/72/6 1187/72/6
f 1187/72/6 1186/72/6 1188/72/6
f 1190/379/1 1189/378/1 1191/380/1
f 1190/379/1 1191/380/1 1192/381/1
f 1194/383/5 1193/382/5 1195/384/5
f 1194/383/5 1195/384/5 1196/385/5
f 1198/386/3 1197/386/3 1199/386/3
f 1198/386/3 1199/386/3 1200/386/3
f 1202/72/5 1201/72/5 1203/72/5
f 1202/72/5 1203/72/5 1204/72/5
f 1205/178/4 1206/178/4 1207/178/4
f 1207/178/4 1206/178/4 1208/178/4
f 1210/388/1 1209/387/1 1211/389/1
f 1210/388/1 1211/389/1 1212/390/1
f 1214/392/5 1213/391/5 1215/393/5
f 1214/392/5 1215/393/5 1216/394/5
f 1218/178/3 1217/178/3 1219/178/3
f 1218/178/3 1219/178/3 1220/178/3
f 1222/51/1 1221/51/1 1223/51/1
f 1222/51/1 1223/51/1 1224/51/1
f 1226/396/5 1225/395/5 1227/397/5
f 1226/396/5 1227/397/5 1228/398/5
f 1230/400/5 1229/399/5 1231/401/5
f 1230/400/5 1231/401/5 1232/402/5
f 1234/72/3 1233/72/3 1235/72/3
f 1234/72/3 1235/72/3 1236/72/3
f 1238/404/5 1237/403/5 1239/405/5
f 1238/404/5 1239/405/5 1240/406/5
f 1242/408/3 1241/407/3 1243/409/3
f 1242/408/3 1243/409/3 1244/410/3
f 1246/412/5 1245/411/5 1247/413/5
f 1246/412/5 1247/413/5 1248/414/5
f 1250/416/3 1249/415/3 1251/417/3
f 1250/416/3 1251/417/3 1252/418/3
f 1253/35/4 1254/35/4 1255/35/4
f 1255/35/4 1254/35/4 1256/35/4
f 1258/420/5 1257/419/5 1259/421/5
f 1258/420/5 1259/421/5 1260/422/5
f 1261/423/4 1262/424/4 1263/425/4
f 1263/425/4 1262/424/4 1264/426/4
f 1266/428/5 1265/427/5 1267/429/5
f 1266/428/5 1267/429/5 1268/430/5
f 1270/21/3 1269/21/3 1271/21/3
f 1270/21/3 1271/21/3 1272/21/3
f 1273/35/6 1274/35/6 1275/35/6
f 1275/35/6 1274/35/6 1276/35/6
f 1277/431/6 1278/432/6 1279/433/6
f 1279/433/6 1278/432/6 1280/434/6
f 1282/21/1 1281/21/1 1283/21/1
f 1282/21/1 1283/21/1 1284/21/1
f 1286/436/5 1285/435/5 1287/437/5
f 1286/436/5 1287/437/5 1288/438/5
f 1290/21/3 1289/21/3 1291/21/3
f 1290/21/3 1291/21/3 1292/21/3
f 1294/21/5 1293/21/5 1295/21/5
f 1294/21/5 1295/21/5 1296/21/5
f 1298/21/5 1297/21/5 1299/21/5
f 1298/21/5 1299/21/5 1300/21/5
f 1301/21/4 1302/21/4 1303/21/4
f 1303/21/4 1302/21/4 1304/21/4
f 1305/355/4 1306/355/4 1307/355/4
f 1307/355/4 1306/355/4 1308/355/4
f 1310/355/1 1309/355/1 1311/355/1
f 1310/355/1 1311/355/1 1312/355/1
f 1314/40/1 1313/40/1 1315/40/1
f 1314/40/1 1315/40/1 1316/40/1
f 1318/440/5 1317/439/5 1319/441/5
f 1318/440/5 1319/441/5 1320/442/5
f 1322/444/3 1321/443/3 1323/445/3
f 1322/444/3 1323/445/3 1324/446/3
f 1325/447/6 1326/448/6 1327/449/6
f 1327/449/6 1326/448/6 1328/450/6
f 1330/51/5 1329/51/5 1331/51/5
f 1330/51/5 1331/51/5 1332/51/5
f 1334/51/3 1333/51/3 1335/51/3
f 1334/51/3 1335/51/3 1336/51/3
f 1338/452/5 1337/451/5 1339/453/5
f 1338/452/5 1339/453/5 1340/454/5
f 1342/456/3 1341/455/3 1343/457/3
f 1342/456/3 1343/457/3 1344/458/3
