# Export of Cubik Model: Cubik Model
# Designed by MeLee with Cubik Studio - https://cubik.studio
# from Cubik OBJ Exporter v1.0
mtllib grass_1c_a_M.mtl
v 0 0 1.907349E-06
v -16 0 1.907349E-06
v 0 2 1.907349E-06
v -16 2 1.907349E-06
v 0 0 1.907349E-06
v -16 0 1.907349E-06
v 0 0 -16
v -16 0 -16
v 0 0 1.907349E-06
v 0 2 1.907349E-06
v 0 0 -16
v 0 2 -16
v 0 0 -16
v -16 0 -16
v 0 2 -16
v -16 2 -16
v 0 2 1.907349E-06
v -2.5 2 1.907349E-06
v 0 2 -16
v -2.5 2 -16
v -2.5 1.5 -3.999998
v -2.5 2 -3.999998
v -2.5 1.5 -4.499998
v -2.5 2 -4.499998
v -2.5 1.5 -9.499998
v -2.5 2 -9.499998
v -2.5 1.5 -9.999998
v -2.5 2 -9.999998
v -2.5 1.5 -3.999998
v -3 1.5 -3.999998
v -2.5 1.5 -4.499998
v -3 1.5 -4.499998
v -2.5 1.5 -9.499998
v -4.5 1.5 -9.499998
v -2.5 1.5 -9.999998
v -4.5 1.5 -9.999998
v -2.5 2 1.907349E-06
v -16 2 1.907349E-06
v -2.5 2 -3.999998
v -16 2 -3.999998
v -2.5 1.5 -3.999998
v -3 1.5 -3.999998
v -2.5 2 -3.999998
v -3 2 -3.999998
v -2.5 1.5 -4.499998
v -3 1.5 -4.499998
v -2.5 2 -4.499998
v -3 2 -4.499998
v -2.5 2 -4.499998
v -3 2 -4.499998
v -2.5 2 -9.499998
v -3 2 -9.499998
v -3 1.5 -4.999998
v -3 2 -4.999998
v -3 1.5 -5.499998
v -3 2 -5.499998
v -3 1.5 -8.499998
v -3 2 -8.499998
v -3 1.5 -9.499998
v -3 2 -9.499998
v -2.5 1.5 -9.499998
v -3 1.5 -9.499998
v -2.5 2 -9.499998
v -3 2 -9.499998
v -2.5 1.5 -9.999998
v -3 1.5 -9.999998
v -2.5 2 -9.999998
v -3 2 -9.999998
v -2.5 2 -9.999998
v -3 2 -9.999998
v -2.5 2 -16
v -3 2 -16
v -3 1.5 -9.999998
v -3 2 -9.999998
v -3 1.5 -10.5
v -3 2 -10.5
v -3 1.5 -4.999998
v -3.5 1.5 -4.999998
v -3 1.5 -5.499998
v -3.5 1.5 -5.499998
v -3 1.5 -8.499998
v -4.5 1.5 -8.499998
v -3 1.5 -9.499998
v -4.5 1.5 -9.499998
v -3 1.5 -9.999998
v -4.5 1.5 -9.999998
v -3 1.5 -10.5
v -4.5 1.5 -10.5
v -3 2 -3.999998
v -7 2 -3.999998
v -3 2 -4.999998
v -7 2 -4.999998
v -3 1.5 -3.999998
v -3 2 -3.999998
v -3 1.5 -4.499998
v -3 2 -4.499998
v -3 1.5 -4.999998
v -3.5 1.5 -4.999998
v -3 2 -4.999998
v -3.5 2 -4.999998
v -3 1.5 -5.499998
v -3.5 1.5 -5.499998
v -3 2 -5.499998
v -3.5 2 -5.499998
v -3 2 -5.499998
v -3.5 2 -5.499998
v -3 2 -8.499998
v -3.5 2 -8.499998
v -3 1.5 -8.499998
v -3.5 1.5 -8.499998
v -3 2 -8.499998
v -3.5 2 -8.499998
v -3.5 1.5 -7.999998
v -3.5 2 -7.999998
v -3.5 1.5 -8.499998
v -3.5 2 -8.499998
v -3 1.5 -10.5
v -4 1.5 -10.5
v -3 2 -10.5
v -4 2 -10.5
v -3 2 -10.5
v -4 2 -10.5
v -3 2 -16
v -4 2 -16
v -4 1 -6.999998
v -4 1.5 -6.999998
v -4 1 -8.499998
v -4 1.5 -8.499998
v -3.5 1.5 -7.999998
v -4 1.5 -7.999998
v -3.5 1.5 -8.499998
v -4 1.5 -8.499998
v -3.5 2 -4.999998
v -4 2 -4.999998
v -3.5 2 -7.999998
v -4 2 -7.999998
v -3.5 1.5 -4.999998
v -3.5 2 -4.999998
v -3.5 1.5 -5.499998
v -3.5 2 -5.499998
v -4 1.5 -5.499998
v -4 2 -5.499998
v -4 1.5 -6.499998
v -4 2 -6.499998
v -4 1.5 -6.999998
v -4 2 -6.999998
v -4 1.5 -7.999998
v -4 2 -7.999998
v -3.5 1.5 -7.999998
v -4 1.5 -7.999998
v -3.5 2 -7.999998
v -4 2 -7.999998
v -4 1.5 -10.5
v -4 2 -10.5
v -4 1.5 -11
v -4 2 -11
v -4 1 -6.999998
v -4.5 1 -6.999998
v -4 1 -8.499998
v -4.5 1 -8.499998
v -4 1.5 -5.499998
v -4.5 1.5 -5.499998
v -4 1.5 -6.499998
v -4.5 1.5 -6.499998
v -4.5 1 -5.999998
v -4.5 1.5 -5.999998
v -4.5 1 -6.999998
v -4.5 1.5 -6.999998
v -4 1 -6.999998
v -4.5 1 -6.999998
v -4 2 -6.999998
v -4.5 2 -6.999998
v -4 1 -8.499998
v -4.5 1 -8.499998
v -4 1.5 -8.499998
v -4.5 1.5 -8.499998
v -4.5 1 -8.999998
v -4.5 1.5 -8.999998
v -4.5 1 -10.5
v -4.5 1.5 -10.5
v -4 1.5 -10.5
v -6 1.5 -10.5
v -4 1.5 -11
v -6 1.5 -11
v -4.5 1 -11
v -4.5 2 -11
v -4.5 1 -11.5
v -4.5 2 -11.5
v -4 1.5 -5.499998
v -5 1.5 -5.499998
v -4 2 -5.499998
v -5 2 -5.499998
v -4 2 -4.999998
v -5 2 -4.999998
v -4 2 -5.499998
v -5 2 -5.499998
v -4 1.5 -6.499998
v -4.5 1.5 -6.499998
v -4 2 -6.499998
v -4.5 2 -6.499998
v -4 2 -6.499998
v -4.5 2 -6.499998
v -4 2 -6.999998
v -4.5 2 -6.999998
v -4.5 1.5 -6.499998
v -4.5 2 -6.499998
v -4.5 1.5 -6.999998
v -4.5 2 -6.999998
v -4 1.5 -11
v -4.5 1.5 -11
v -4 2 -11
v -4.5 2 -11
v -4 2 -11
v -4.5 2 -11
v -4 2 -16
v -4.5 2 -16
v -4.5 1.5 -11.5
v -4.5 2 -11.5
v -4.5 1.5 -12
v -4.5 2 -12
v -4.5 1 -5.999998
v -5 1 -5.999998
v -4.5 1 -6.999998
v -5 1 -6.999998
v -5 0.5 -5.999998
v -5 1 -5.999998
v -5 0.5 -6.499998
v -5 1 -6.499998
v -5 0.5 -6.999998
v -5 1.5 -6.999998
v -5 0.5 -7.499998
v -5 1.5 -7.499998
v -4.5 1 -7.499998
v -6 1 -7.499998
v -4.5 1 -7.999998
v -6 1 -7.999998
v -4.5 1 -8.999998
v -5 1 -8.999998
v -4.5 1 -10.5
v -5 1 -10.5
v -4.5 1 -11
v -5 1 -11
v -4.5 1 -11.5
v -5 1 -11.5
v -4.5 1 -5.999998
v -5 1 -5.999998
v -4.5 1.5 -5.999998
v -5 1.5 -5.999998
v -4.5 1.5 -5.499998
v -5 1.5 -5.499998
v -4.5 1.5 -5.999998
v -5 1.5 -5.999998
v -5 1 -5.499998
v -5 1.5 -5.499998
v -5 1 -5.999998
v -5 1.5 -5.999998
v -4.5 1 -7.499998
v -5 1 -7.499998
v -4.5 1.5 -7.499998
v -5 1.5 -7.499998
v -4.5 1 -6.999998
v -5 1 -6.999998
v -4.5 1.5 -6.999998
v -5 1.5 -6.999998
v -4.5 1.5 -6.999998
v -5 1.5 -6.999998
v -4.5 1.5 -7.499998
v -5 1.5 -7.499998
v -4.5 1 -6.999998
v -4.5 1.5 -6.999998
v -4.5 1 -7.499998
v -4.5 1.5 -7.499998
v -4.5 1 -7.999998
v -5 1 -7.999998
v -4.5 1.5 -7.999998
v -5 1.5 -7.999998
v -4.5 1.5 -7.999998
v -5 1.5 -7.999998
v -4.5 1.5 -8.999998
v -5 1.5 -8.999998
v -4.5 1 -7.999998
v -4.5 1.5 -7.999998
v -4.5 1 -8.499998
v -4.5 1.5 -8.499998
v -5 1 -7.999998
v -5 1.5 -7.999998
v -5 1 -8.499998
v -5 1.5 -8.499998
v -4.5 1 -8.999998
v -5 1 -8.999998
v -4.5 1.5 -8.999998
v -5 1.5 -8.999998
v -4.5 1 -11
v -5 1 -11
v -4.5 1.5 -11
v -5 1.5 -11
v -4.5 1 -10.5
v -5 1 -10.5
v -4.5 1.5 -10.5
v -5 1.5 -10.5
v -4.5 1 -11.5
v -5 1 -11.5
v -4.5 1.5 -11.5
v -5 1.5 -11.5
v -4.5 1.5 -11.5
v -5 1.5 -11.5
v -4.5 1.5 -12
v -5 1.5 -12
v -5 1 -11.5
v -5 1.5 -11.5
v -5 1 -12
v -5 1.5 -12
v -5 1.5 -4.999998
v -5 2 -4.999998
v -5 1.5 -5.499998
v -5 2 -5.499998
v -4.5 1.5 -12
v -5.5 1.5 -12
v -4.5 2 -12
v -5.5 2 -12
v -4.5 2 -12
v -5.5 2 -12
v -4.5 2 -16
v -5.5 2 -16
v -5 0.5 -5.999998
v -5.5 0.5 -5.999998
v -5 0.5 -6.499998
v -5.5 0.5 -6.499998
v -5 0.5 -6.999998
v -7.5 0.5 -6.999998
v -5 0.5 -7.499998
v -7.5 0.5 -7.499998
v -5 0.5 -5.999998
v -5.5 0.5 -5.999998
v -5 1 -5.999998
v -5.5 1 -5.999998
v -5 1 -5.499998
v -5.5 1 -5.499998
v -5 1 -5.999998
v -5.5 1 -5.999998
v -5 0.5 -6.999998
v -6 0.5 -6.999998
v -5 1 -6.999998
v -6 1 -6.999998
v -5 0.5 -6.499998
v -5.5 0.5 -6.499998
v -5 1 -6.499998
v -5.5 1 -6.499998
v -5 1 -6.499998
v -6 1 -6.499998
v -5 1 -6.999998
v -6 1 -6.999998
v -5 0.5 -7.499998
v -6 0.5 -7.499998
v -5 1 -7.499998
v -6 1 -7.499998
v -5 1 -7.999998
v -6 1 -7.999998
v -5 1 -8.499998
v -6 1 -8.499998
v -5.5 0.5 -8.499998
v -5.5 1.5 -8.499998
v -5.5 0.5 -8.999998
v -5.5 1.5 -8.999998
v -5 1 -11.5
v -5.5 1 -11.5
v -5 1 -12
v -5.5 1 -12
v -5 1 -5.499998
v -5.5 1 -5.499998
v -5 1.5 -5.499998
v -5.5 1.5 -5.499998
v -5 1.5 -4.999998
v -5.5 1.5 -4.999998
v -5 1.5 -5.499998
v -5.5 1.5 -5.499998
v -5 1 -8.499998
v -5.5 1 -8.499998
v -5 1.5 -8.499998
v -5.5 1.5 -8.499998
v -5 1.5 -8.499998
v -5.5 1.5 -8.499998
v -5 1.5 -10.5
v -5.5 1.5 -10.5
v -5 1 -8.999998
v -5 1.5 -8.999998
v -5 1 -10.5
v -5 1.5 -10.5
v -5.5 1 -8.999998
v -5.5 1.5 -8.999998
v -5.5 1 -10.5
v -5.5 1.5 -10.5
v -5 1 -11.5
v -5.5 1 -11.5
v -5 1.5 -11.5
v -5.5 1.5 -11.5
v -5 1.5 -11
v -5.5 1.5 -11
v -5 1.5 -11.5
v -5.5 1.5 -11.5
v -5 1 -11
v -5 1.5 -11
v -5 1 -11.5
v -5 1.5 -11.5
v -5 1 -12
v -5.5 1 -12
v -5 1.5 -12
v -5.5 1.5 -12
v -5 1.5 -4.999998
v -5.5 1.5 -4.999998
v -5 2 -4.999998
v -5.5 2 -4.999998
v -5.5 1.5 -12
v -5.5 2 -12
v -5.5 1.5 -12.5
v -5.5 2 -12.5
v -5.5 0.5 -8.499998
v -9.5 0.5 -8.499998
v -5.5 0.5 -8.999998
v -9.5 0.5 -8.999998
v -5.5 1 -5.999998
v -6 1 -5.999998
v -5.5 1 -6.499998
v -6 1 -6.499998
v -5.5 0.5 -5.999998
v -5.5 1 -5.999998
v -5.5 0.5 -6.499998
v -5.5 1 -6.499998
v -6 0.5 -5.999998
v -6 1 -5.999998
v -6 0.5 -6.999998
v -6 1 -6.999998
v -6 0.5 -7.499998
v -6 1 -7.499998
v -6 0.5 -8.499998
v -6 1 -8.499998
v -5.5 0.5 -8.499998
v -6 0.5 -8.499998
v -5.5 1 -8.499998
v -6 1 -8.499998
v -5.5 0.5 -8.999998
v -6.5 0.5 -8.999998
v -5.5 1 -8.999998
v -6.5 1 -8.999998
v -5.5 1 -8.999998
v -6 1 -8.999998
v -5.5 1 -10.5
v -6 1 -10.5
v -5.5 1 -5.999998
v -6 1 -5.999998
v -5.5 1.5 -5.999998
v -6 1.5 -5.999998
v -5.5 1.5 -5.499998
v -6 1.5 -5.499998
v -5.5 1.5 -5.999998
v -6 1.5 -5.999998
v -5.5 1 -5.499998
v -5.5 1.5 -5.499998
v -5.5 1 -5.999998
v -5.5 1.5 -5.999998
v -6 1 -5.499998
v -6 1.5 -5.499998
v -6 1 -5.999998
v -6 1.5 -5.999998
v -5.5 1 -10.5
v -6 1 -10.5
v -5.5 1.5 -10.5
v -6 1.5 -10.5
v -6 1 -10.5
v -6 1.5 -10.5
v -6 1 -11
v -6 1.5 -11
v -5.5 1.5 -11.5
v -6.5 1.5 -11.5
v -5.5 1.5 -12.5
v -6.5 1.5 -12.5
v -5.5 1 -11.5
v -5.5 1.5 -11.5
v -5.5 1 -12
v -5.5 1.5 -12
v -5.5 1.5 -5.499998
v -7 1.5 -5.499998
v -5.5 2 -5.499998
v -7 2 -5.499998
v -5.5 2 -4.999998
v -7 2 -4.999998
v -5.5 2 -5.499998
v -7 2 -5.499998
v -5.5 1.5 -4.999998
v -5.5 2 -4.999998
v -5.5 1.5 -5.499998
v -5.5 2 -5.499998
v -5.5 1.5 -11.5
v -6.5 1.5 -11.5
v -5.5 2 -11.5
v -6.5 2 -11.5
v -5.5 1.5 -11
v -6.5 1.5 -11
v -5.5 2 -11
v -6.5 2 -11
v -5.5 2 -11
v -6.5 2 -11
v -5.5 2 -11.5
v -6.5 2 -11.5
v -5.5 1.5 -11
v -5.5 2 -11
v -5.5 1.5 -11.5
v -5.5 2 -11.5
v -5.5 1.5 -12.5
v -6.5 1.5 -12.5
v -5.5 2 -12.5
v -6.5 2 -12.5
v -5.5 2 -12.5
v -7 2 -12.5
v -5.5 2 -16
v -7 2 -16
v -6 0.5 -5.999998
v -6.5 0.5 -5.999998
v -6 0.5 -6.999998
v -6.5 0.5 -6.999998
v -6 0.5 -7.499998
v -6.5 0.5 -7.499998
v -6 0.5 -8.499998
v -6.5 0.5 -8.499998
v -6 0.5 -5.999998
v -6.5 0.5 -5.999998
v -6 1 -5.999998
v -6.5 1 -5.999998
v -6 1 -5.499998
v -6.5 1 -5.499998
v -6 1 -5.999998
v -6.5 1 -5.999998
v -6 1 -8.999998
v -6.5 1 -8.999998
v -6 1 -9.999998
v -6.5 1 -9.999998
v -6.5 0.5 -8.999998
v -6.5 1 -8.999998
v -6.5 0.5 -9.499998
v -6.5 1 -9.499998
v -6 1 -10.5
v -6.5 1 -10.5
v -6 1 -11
v -6.5 1 -11
v -6 1 -5.499998
v -6.5 1 -5.499998
v -6 1.5 -5.499998
v -6.5 1.5 -5.499998
v -6 1 -10.5
v -6.5 1 -10.5
v -6 1.5 -10.5
v -6.5 1.5 -10.5
v -6 1 -9.999998
v -7.5 1 -9.999998
v -6 1.5 -9.999998
v -7.5 1.5 -9.999998
v -6 1.5 -9.999998
v -7.5 1.5 -9.999998
v -6 1.5 -10.5
v -7.5 1.5 -10.5
v -6 1 -9.999998
v -6 1.5 -9.999998
v -6 1 -10.5
v -6 1.5 -10.5
v -6 1 -11
v -6.5 1 -11
v -6 1.5 -11
v -6.5 1.5 -11
v -6.5 1 -11
v -6.5 2 -11
v -6.5 1 -11.5
v -6.5 2 -11.5
v -6.5 0.5 -6.499998
v -9 0.5 -6.499998
v -6.5 0.5 -6.999998
v -9 0.5 -6.999998
v -6.5 0.5 -7.999998
v -9.5 0.5 -7.999998
v -6.5 0.5 -8.499998
v -9.5 0.5 -8.499998
v -6.5 0.5 -8.999998
v -12 0.5 -8.999998
v -6.5 0.5 -9.499998
v -12 0.5 -9.499998
v -6.5 0.5 -6.499998
v -9 0.5 -6.499998
v -6.5 1 -6.499998
v -9 1 -6.499998
v -6.5 1 -5.999998
v -7 1 -5.999998
v -6.5 1 -6.499998
v -7 1 -6.499998
v -6.5 0.5 -5.999998
v -6.5 1 -5.999998
v -6.5 0.5 -6.499998
v -6.5 1 -6.499998
v -6.5 0.5 -7.999998
v -7 0.5 -7.999998
v -6.5 1 -7.999998
v -7 1 -7.999998
v -6.5 0.5 -7.499998
v -7 0.5 -7.499998
v -6.5 1 -7.499998
v -7 1 -7.499998
v -6.5 1 -7.499998
v -7 1 -7.499998
v -6.5 1 -7.999998
v -7 1 -7.999998
v -6.5 0.5 -7.499998
v -6.5 1 -7.499998
v -6.5 0.5 -7.999998
v -6.5 1 -7.999998
v -7 0.5 -7.499998
v -7 1 -7.499998
v -7 0.5 -7.999998
v -7 1 -7.999998
v -6.5 0.5 -9.499998
v -7.5 0.5 -9.499998
v -6.5 1 -9.499998
v -7.5 1 -9.499998
v -6.5 1 -9.499998
v -7.5 1 -9.499998
v -6.5 1 -9.999998
v -7.5 1 -9.999998
v -6.5 1 -11
v -7 1 -11
v -6.5 1 -11.5
v -7 1 -11.5
v -6.5 1 -5.999998
v -7 1 -5.999998
v -6.5 1.5 -5.999998
v -7 1.5 -5.999998
v -6.5 1.5 -5.499998
v -7 1.5 -5.499998
v -6.5 1.5 -5.999998
v -7 1.5 -5.999998
v -6.5 1 -5.499998
v -6.5 1.5 -5.499998
v -6.5 1 -5.999998
v -6.5 1.5 -5.999998
v -7 1 -5.499998
v -7 1.5 -5.499998
v -7 1 -5.999998
v -7 1.5 -5.999998
v -6.5 1 -11
v -7 1 -11
v -6.5 1.5 -11
v -7 1.5 -11
v -6.5 1.5 -10.5
v -8 1.5 -10.5
v -6.5 1.5 -11
v -8 1.5 -11
v -6.5 1 -10.5
v -6.5 1.5 -10.5
v -6.5 1 -11
v -6.5 1.5 -11
v -6.5 1 -11.5
v -7 1 -11.5
v -6.5 1.5 -11.5
v -7 1.5 -11.5
v -6.5 1.5 -11.5
v -9 1.5 -11.5
v -6.5 1.5 -12
v -9 1.5 -12
v -7 1.5 -4.499998
v -7 2 -4.499998
v -7 1.5 -5.499998
v -7 2 -5.499998
v -6.5 1.5 -12
v -7 1.5 -12
v -6.5 2 -12
v -7 2 -12
v -6.5 2 -12
v -7 2 -12
v -6.5 2 -12.5
v -7 2 -12.5
v -6.5 1.5 -12
v -6.5 2 -12
v -6.5 1.5 -12.5
v -6.5 2 -12.5
v -7 1.5 -12
v -7 2 -12
v -7 1.5 -12.5
v -7 2 -12.5
v -7 1.5 -13
v -7 2 -13
v -7 1.5 -13.5
v -7 2 -13.5
v -7 0.5 -7.499998
v -8 0.5 -7.499998
v -7 0.5 -7.999998
v -8 0.5 -7.999998
v -7 1 -5.499998
v -7.5 1 -5.499998
v -7 1 -5.999998
v -7.5 1 -5.999998
v -7.5 0.5 -9.499998
v -7.5 1 -9.499998
v -7.5 0.5 -9.999998
v -7.5 1 -9.999998
v -7 1.5 -4.499998
v -7.5 1.5 -4.499998
v -7 1.5 -5.499998
v -7.5 1.5 -5.499998
v -7 1 -5.499998
v -7.5 1 -5.499998
v -7 1.5 -5.499998
v -7.5 1.5 -5.499998
v -7 1 -6.499998
v -8 1 -6.499998
v -7 1.5 -6.499998
v -8 1.5 -6.499998
v -7 1 -5.999998
v -7.5 1 -5.999998
v -7 1.5 -5.999998
v -7.5 1.5 -5.999998
v -7 1.5 -5.999998
v -8 1.5 -5.999998
v -7 1.5 -6.499998
v -8 1.5 -6.499998
v -7 1 -5.999998
v -7 1.5 -5.999998
v -7 1 -6.499998
v -7 1.5 -6.499998
v -7.5 1 -9.999998
v -7.5 1.5 -9.999998
v -7.5 1 -10.5
v -7.5 1.5 -10.5
v -7 1.5 -11
v -7.5 1.5 -11
v -7 1.5 -11.5
v -7.5 1.5 -11.5
v -7 1 -11
v -7 1.5 -11
v -7 1 -11.5
v -7 1.5 -11.5
v -7.5 1 -11
v -7.5 1.5 -11
v -7.5 1 -11.5
v -7.5 1.5 -11.5
v -7 1.5 -12
v -7.5 1.5 -12
v -7 1.5 -12.5
v -7.5 1.5 -12.5
v -7.5 1 -12
v -7.5 1.5 -12
v -7.5 1 -12.5
v -7.5 1.5 -12.5
v -7 1.5 -13
v -8.5 1.5 -13
v -7 1.5 -13.5
v -8.5 1.5 -13.5
v -7 1.5 -4.499998
v -7.5 1.5 -4.499998
v -7 2 -4.499998
v -7.5 2 -4.499998
v -7 2 -3.999998
v -16 2 -3.999998
v -7 2 -4.499998
v -16 2 -4.499998
v -7 1.5 -13
v -7.5 1.5 -13
v -7 2 -13
v -7.5 2 -13
v -7 1.5 -12.5
v -7.5 1.5 -12.5
v -7 2 -12.5
v -7.5 2 -12.5
v -7 2 -12.5
v -7.5 2 -12.5
v -7 2 -13
v -7.5 2 -13
v -7.5 1.5 -12.5
v -7.5 2 -12.5
v -7.5 1.5 -13
v -7.5 2 -13
v -7 1.5 -13.5
v -8 1.5 -13.5
v -7 2 -13.5
v -8 2 -13.5
v -7 2 -13.5
v -8 2 -13.5
v -7 2 -16
v -8 2 -16
v -7.5 0.5 -9.499998
v -8 0.5 -9.499998
v -7.5 0.5 -9.999998
v -8 0.5 -9.999998
v -7.5 0.5 -7.499998
v -8 0.5 -7.499998
v -7.5 1 -7.499998
v -8 1 -7.499998
v -7.5 0.5 -6.999998
v -8 0.5 -6.999998
v -7.5 1 -6.999998
v -8 1 -6.999998
v -7.5 1 -6.999998
v -8 1 -6.999998
v -7.5 1 -7.499998
v -8 1 -7.499998
v -7.5 0.5 -6.999998
v -7.5 1 -6.999998
v -7.5 0.5 -7.499998
v -7.5 1 -7.499998
v -8 0.5 -6.999998
v -8 1 -6.999998
v -8 0.5 -7.499998
v -8 1 -7.499998
v -7.5 0.5 -9.999998
v -8 0.5 -9.999998
v -7.5 1 -9.999998
v -8 1 -9.999998
v -7.5 1 -9.999998
v -8.5 1 -9.999998
v -7.5 1 -10.5
v -8.5 1 -10.5
v -7.5 1 -11
v -8.5 1 -11
v -7.5 1 -11.5
v -8.5 1 -11.5
v -7.5 1 -12
v -8 1 -12
v -7.5 1 -12.5
v -8 1 -12.5
v -7.5 1.5 -4.999998
v -8 1.5 -4.999998
v -7.5 1.5 -5.999998
v -8 1.5 -5.999998
v -7.5 1 -5.499998
v -7.5 1.5 -5.499998
v -7.5 1 -5.999998
v -7.5 1.5 -5.999998
v -8 1 -5.499998
v -8 1.5 -5.499998
v -8 1 -6.499998
v -8 1.5 -6.499998
v -7.5 1 -11
v -8 1 -11
v -7.5 1.5 -11
v -8 1.5 -11
v -7.5 1 -10.5
v -8 1 -10.5
v -7.5 1.5 -10.5
v -8 1.5 -10.5
v -8 1 -10.5
v -8 1.5 -10.5
v -8 1 -11
v -8 1.5 -11
v -7.5 1 -12
v -8 1 -12
v -7.5 1.5 -12
v -8 1.5 -12
v -7.5 1 -11.5
v -8.5 1 -11.5
v -7.5 1.5 -11.5
v -8.5 1.5 -11.5
v -7.5 1 -12.5
v -8 1 -12.5
v -7.5 1.5 -12.5
v -8 1.5 -12.5
v -7.5 1.5 -12.5
v -9.5 1.5 -12.5
v -7.5 1.5 -13
v -9.5 1.5 -13
v -7.5 1.5 -4.999998
v -8 1.5 -4.999998
v -7.5 2 -4.999998
v -8 2 -4.999998
v -7.5 2 -4.499998
v -8 2 -4.499998
v -7.5 2 -4.999998
v -8 2 -4.999998
v -7.5 1.5 -4.499998
v -7.5 2 -4.499998
v -7.5 1.5 -4.999998
v -7.5 2 -4.999998
v -8 1.5 -4.499998
v -8 2 -4.499998
v -8 1.5 -4.999998
v -8 2 -4.999998
v -8 1.5 -13.5
v -8 2 -13.5
v -8 1.5 -14
v -8 2 -14
v -8 0.5 -6.999998
v -11 0.5 -6.999998
v -8 0.5 -7.499998
v -11 0.5 -7.499998
v -8 1 -5.499998
v -8.5 1 -5.499998
v -8 1 -6.499998
v -8.5 1 -6.499998
v -8 0.5 -7.999998
v -8.5 0.5 -7.999998
v -8 1 -7.999998
v -8.5 1 -7.999998
v -8 0.5 -7.499998
v -8.5 0.5 -7.499998
v -8 1 -7.499998
v -8.5 1 -7.499998
v -8 1 -7.499998
v -8.5 1 -7.499998
v -8 1 -7.999998
v -8.5 1 -7.999998
v -8 0.5 -7.499998
v -8 1 -7.499998
v -8 0.5 -7.999998
v -8 1 -7.999998
v -8.5 0.5 -7.499998
v -8.5 1 -7.499998
v -8.5 0.5 -7.999998
v -8.5 1 -7.999998
v -8 0.5 -9.499998
v -8.5 0.5 -9.499998
v -8 1 -9.499998
v -8.5 1 -9.499998
v -8 1 -9.499998
v -8.5 1 -9.499998
v -8 1 -9.999998
v -8.5 1 -9.999998
v -8 0.5 -9.499998
v -8 1 -9.499998
v -8 0.5 -9.999998
v -8 1 -9.999998
v -8.5 0.5 -9.499998
v -8.5 1 -9.499998
v -8.5 0.5 -10.5
v -8.5 1 -10.5
v -8 1 -10.5
v -10.5 1 -10.5
v -8 1 -11
v -10.5 1 -11
v -8 1.5 -4.499998
v -9 1.5 -4.499998
v -8 1.5 -5.499998
v -9 1.5 -5.499998
v -8 1 -5.499998
v -8.5 1 -5.499998
v -8 1.5 -5.499998
v -8.5 1.5 -5.499998
v -8 1.5 -12
v -9.5 1.5 -12
v -8 1.5 -12.5
v -9.5 1.5 -12.5
v -8 1 -12
v -8 1.5 -12
v -8 1 -12.5
v -8 1.5 -12.5
v -8 1.5 -13.5
v -9 1.5 -13.5
v -8 1.5 -14
v -9 1.5 -14
v -8 1.5 -4.499998
v -9 1.5 -4.499998
v -8 2 -4.499998
v -9 2 -4.499998
v -8 1.5 -14
v -8.5 1.5 -14
v -8 2 -14
v -8.5 2 -14
v -8 2 -14
v -8.5 2 -14
v -8 2 -16
v -8.5 2 -16
v -8.5 1.5 -14
v -8.5 2 -14
v -8.5 1.5 -15.5
v -8.5 2 -15.5
v -8.5 0.5 -7.499998
v -10.5 0.5 -7.499998
v -8.5 0.5 -7.999998
v -10.5 0.5 -7.999998
v -8.5 0.5 -9.499998
v -9 0.5 -9.499998
v -8.5 0.5 -10.5
v -9 0.5 -10.5
v -8.5 1 -5.999998
v -9.5 1 -5.999998
v -8.5 1 -6.499998
v -9.5 1 -6.499998
v -8.5 0.5 -10.5
v -9 0.5 -10.5
v -8.5 1 -10.5
v -9 1 -10.5
v -8.5 1 -5.999998
v -9.5 1 -5.999998
v -8.5 1.5 -5.999998
v -9.5 1.5 -5.999998
v -8.5 1.5 -5.499998
v -9.5 1.5 -5.499998
v -8.5 1.5 -5.999998
v -9.5 1.5 -5.999998
v -8.5 1 -5.499998
v -8.5 1.5 -5.499998
v -8.5 1 -5.999998
v -8.5 1.5 -5.999998
v -8.5 1 -11
v -9 1 -11
v -8.5 1.5 -11
v -9 1.5 -11
v -8.5 1.5 -11
v -9 1.5 -11
v -8.5 1.5 -11.5
v -9 1.5 -11.5
v -8.5 1 -11
v -8.5 1.5 -11
v -8.5 1 -11.5
v -8.5 1.5 -11.5
v -9 1 -11
v -9 1.5 -11
v -9 1 -12
v -9 1.5 -12
v -8.5 1.5 -14
v -9 1.5 -14
v -8.5 1.5 -15.5
v -9 1.5 -15.5
v -8.5 1.5 -13.5
v -9 1.5 -13.5
v -8.5 2 -13.5
v -9 2 -13.5
v -8.5 1.5 -13
v -9 1.5 -13
v -8.5 2 -13
v -9 2 -13
v -8.5 2 -13
v -9 2 -13
v -8.5 2 -13.5
v -9 2 -13.5
v -8.5 1.5 -13
v -8.5 2 -13
v -8.5 1.5 -13.5
v -8.5 2 -13.5
v -9 1.5 -13
v -9 2 -13
v -9 1.5 -13.5
v -9 2 -13.5
v -8.5 1.5 -15.5
v -9 1.5 -15.5
v -8.5 2 -15.5
v -9 2 -15.5
v -8.5 2 -15.5
v -16 2 -15.5
v -8.5 2 -16
v -16 2 -16
v -9.5 0.5 -5.999998
v -9.5 1 -5.999998
v -9.5 0.5 -6.999998
v -9.5 1 -6.999998
v -9 0.5 -6.999998
v -9.5 0.5 -6.999998
v -9 1 -6.999998
v -9.5 1 -6.999998
v -9 1 -6.499998
v -9.5 1 -6.499998
v -9 1 -6.999998
v -9.5 1 -6.999998
v -9 0.5 -6.499998
v -9 1 -6.499998
v -9 0.5 -6.999998
v -9 1 -6.999998
v -9 0.5 -9.499998
v -10.5 0.5 -9.499998
v -9 1 -9.499998
v -10.5 1 -9.499998
v -9 1 -9.499998
v -9.5 1 -9.499998
v -9 1 -10.5
v -9.5 1 -10.5
v -9 0.5 -9.499998
v -9 1 -9.499998
v -9 0.5 -10.5
v -9 1 -10.5
v -9.5 0.5 -9.999998
v -9.5 1 -9.999998
v -9.5 0.5 -10.5
v -9.5 1 -10.5
v -9 1 -11
v -10 1 -11
v -9 1 -12
v -10 1 -12
v -9.5 0.5 -13
v -9.5 1.5 -13
v -9.5 0.5 -13.5
v -9.5 1.5 -13.5
v -9.5 1 -5.499998
v -9.5 1.5 -5.499998
v -9.5 1 -5.999998
v -9.5 1.5 -5.999998
v -9 1 -12
v -9.5 1 -12
v -9 1.5 -12
v -9.5 1.5 -12
v -9.5 1 -12
v -9.5 1.5 -12
v -9.5 1 -13
v -9.5 1.5 -13
v -9 1.5 -13
v -9.5 1.5 -13
v -9 1.5 -13.5
v -9.5 1.5 -13.5
v -9.5 1 -13.5
v -9.5 2 -13.5
v -9.5 1 -14
v -9.5 2 -14
v -9 1.5 -14
v -10.5 1.5 -14
v -9 1.5 -14.5
v -10.5 1.5 -14.5
v -9 2 -4.499998
v -9.5 2 -4.499998
v -9 2 -5.499998
v -9.5 2 -5.499998
v -9 1.5 -4.499998
v -9 2 -4.499998
v -9 1.5 -5.499998
v -9 2 -5.499998
v -9.5 1.5 -4.499998
v -9.5 2 -4.499998
v -9.5 1.5 -5.499998
v -9.5 2 -5.499998
v -9 1.5 -5.499998
v -9.5 1.5 -5.499998
v -9 2 -5.499998
v -9.5 2 -5.499998
v -9 1.5 -14
v -9.5 1.5 -14
v -9 2 -14
v -9.5 2 -14
v -9 1.5 -13.5
v -9.5 1.5 -13.5
v -9 2 -13.5
v -9.5 2 -13.5
v -9 2 -13.5
v -9.5 2 -13.5
v -9 2 -14
v -9.5 2 -14
v -9 1.5 -13.5
v -9 2 -13.5
v -9 1.5 -14
v -9 2 -14
v -9 1.5 -14.5
v -9.5 1.5 -14.5
v -9 2 -14.5
v -9.5 2 -14.5
v -9 2 -14.5
v -9.5 2 -14.5
v -9 2 -15.5
v -9.5 2 -15.5
v -9 1.5 -14.5
v -9 2 -14.5
v -9 1.5 -15.5
v -9 2 -15.5
v -9.5 1.5 -14.5
v -9.5 2 -14.5
v -9.5 1.5 -15
v -9.5 2 -15
v -9.5 0.5 -5.999998
v -10 0.5 -5.999998
v -9.5 0.5 -6.999998
v -10 0.5 -6.999998
v -9.5 0.5 -9.999998
v -10 0.5 -9.999998
v -9.5 0.5 -10.5
v -10 0.5 -10.5
v -9.5 0.5 -13
v -10 0.5 -13
v -9.5 0.5 -13.5
v -10 0.5 -13.5
v -9.5 0.5 -5.999998
v -10 0.5 -5.999998
v -9.5 1 -5.999998
v -10 1 -5.999998
v -9.5 1 -5.499998
v -10.5 1 -5.499998
v -9.5 1 -5.999998
v -10.5 1 -5.999998
v -9.5 0.5 -7.999998
v -10 0.5 -7.999998
v -9.5 1 -7.999998
v -10 1 -7.999998
v -9.5 1 -7.999998
v -10 1 -7.999998
v -9.5 1 -8.999998
v -10 1 -8.999998
v -9.5 0.5 -7.999998
v -9.5 1 -7.999998
v -9.5 0.5 -8.999998
v -9.5 1 -8.999998
v -10 0.5 -7.999998
v -10 1 -7.999998
v -10 0.5 -8.999998
v -10 1 -8.999998
v -9.5 0.5 -8.999998
v -10 0.5 -8.999998
v -9.5 1 -8.999998
v -10 1 -8.999998
v -9.5 0.5 -9.999998
v -10 0.5 -9.999998
v -9.5 1 -9.999998
v -10 1 -9.999998
v -9.5 1 -9.499998
v -10.5 1 -9.499998
v -9.5 1 -9.999998
v -10.5 1 -9.999998
v -9.5 0.5 -10.5
v -10 0.5 -10.5
v -9.5 1 -10.5
v -10 1 -10.5
v -9.5 1 -12
v -10.5 1 -12
v -9.5 1 -13
v -10.5 1 -13
v -9.5 0.5 -13
v -10 0.5 -13
v -9.5 1 -13
v -10 1 -13
v -9.5 0.5 -13.5
v -10 0.5 -13.5
v -9.5 1 -13.5
v -10 1 -13.5
v -9.5 1 -13.5
v -10 1 -13.5
v -9.5 1 -14
v -10 1 -14
v -9.5 1.5 -4.499998
v -10.5 1.5 -4.499998
v -9.5 1.5 -5.499998
v -10.5 1.5 -5.499998
v -9.5 1 -5.499998
v -10.5 1 -5.499998
v -9.5 1.5 -5.499998
v -10.5 1.5 -5.499998
v -9.5 1 -14
v -10 1 -14
v -9.5 1.5 -14
v -10 1.5 -14
v -9.5 1.5 -14.5
v -10 1.5 -14.5
v -9.5 1.5 -15
v -10 1.5 -15
v -9.5 1.5 -4.499998
v -10.5 1.5 -4.499998
v -9.5 2 -4.499998
v -10.5 2 -4.499998
v -9.5 1.5 -15
v -10 1.5 -15
v -9.5 2 -15
v -10 2 -15
v -9.5 2 -15
v -16 2 -15
v -9.5 2 -15.5
v -16 2 -15.5
v -10 0.5 -6.499998
v -10.5 0.5 -6.499998
v -10 0.5 -6.999998
v -10.5 0.5 -6.999998
v -10 0.5 -7.999998
v -11 0.5 -7.999998
v -10 0.5 -8.999998
v -11 0.5 -8.999998
v -10 0.5 -6.499998
v -10.5 0.5 -6.499998
v -10 1 -6.499998
v -10.5 1 -6.499998
v -10 1 -5.999998
v -11.5 1 -5.999998
v -10 1 -6.499998
v -11.5 1 -6.499998
v -10 0.5 -5.999998
v -10 1 -5.999998
v -10 0.5 -6.499998
v -10 1 -6.499998
v -10.5 0.5 -9.499998
v -10.5 1 -9.499998
v -10.5 0.5 -10.5
v -10.5 1 -10.5
v -10 1 -9.999998
v -10.5 1 -9.999998
v -10 1 -10.5
v -10.5 1 -10.5
v -10 0.5 -9.999998
v -10 1 -9.999998
v -10 0.5 -10.5
v -10 1 -10.5
v -10 1 -11.5
v -10.5 1 -11.5
v -10 1 -12
v -10.5 1 -12
v -10 1 -13
v -11 1 -13
v -10 1 -13.5
v -11 1 -13.5
v -10 0.5 -13
v -10 1 -13
v -10 0.5 -13.5
v -10 1 -13.5
v -10 1 -11.5
v -10.5 1 -11.5
v -10 1.5 -11.5
v -10.5 1.5 -11.5
v -10 1 -11
v -10.5 1 -11
v -10 1.5 -11
v -10.5 1.5 -11
v -10 1.5 -11
v -11 1.5 -11
v -10 1.5 -11.5
v -11 1.5 -11.5
v -10 1 -11
v -10 1.5 -11
v -10 1 -11.5
v -10 1.5 -11.5
v -10 1 -13.5
v -10.5 1 -13.5
v -10 1.5 -13.5
v -10.5 1.5 -13.5
v -10 1.5 -13.5
v -10.5 1.5 -13.5
v -10 1.5 -14
v -10.5 1.5 -14
v -10 1 -13.5
v -10 1.5 -13.5
v -10 1 -14
v -10 1.5 -14
v -10.5 1 -13.5
v -10.5 1.5 -13.5
v -10.5 1 -14
v -10.5 1.5 -14
v -10 1.5 -14.5
v -10.5 1.5 -14.5
v -10 2 -14.5
v -10.5 2 -14.5
v -10 2 -14.5
v -16 2 -14.5
v -10 2 -15
v -16 2 -15
v -10 1.5 -14.5
v -10 2 -14.5
v -10 1.5 -15
v -10 2 -15
v -10.5 0.5 -9.499998
v -11 0.5 -9.499998
v -10.5 0.5 -10.5
v -11 0.5 -10.5
v -10.5 0.5 -6.999998
v -11 0.5 -6.999998
v -10.5 1 -6.999998
v -11 1 -6.999998
v -10.5 1 -6.499998
v -11 1 -6.499998
v -10.5 1 -6.999998
v -11 1 -6.999998
v -10.5 0.5 -6.499998
v -10.5 1 -6.499998
v -10.5 0.5 -6.999998
v -10.5 1 -6.999998
v -11 0.5 -6.499998
v -11 1 -6.499998
v -11 0.5 -6.999998
v -11 1 -6.999998
v -10.5 0.5 -7.999998
v -11 0.5 -7.999998
v -10.5 1 -7.999998
v -11 1 -7.999998
v -10.5 0.5 -7.499998
v -11 0.5 -7.499998
v -10.5 1 -7.499998
v -11 1 -7.499998
v -10.5 1 -7.499998
v -11 1 -7.499998
v -10.5 1 -7.999998
v -11 1 -7.999998
v -10.5 0.5 -7.499998
v -10.5 1 -7.499998
v -10.5 0.5 -7.999998
v -10.5 1 -7.999998
v -11 0.5 -7.499998
v -11 1 -7.499998
v -11 0.5 -7.999998
v -11 1 -7.999998
v -10.5 0.5 -10.5
v -11 0.5 -10.5
v -10.5 1.5 -10.5
v -11 1.5 -10.5
v -10.5 1 -12.5
v -11 1 -12.5
v -10.5 1 -13
v -11 1 -13
v -10.5 1 -13.5
v -11 1 -13.5
v -10.5 1 -14
v -11 1 -14
v -10.5 1 -5.999998
v -11.5 1 -5.999998
v -10.5 1.5 -5.999998
v -11.5 1.5 -5.999998
v -10.5 1.5 -5.499998
v -11.5 1.5 -5.499998
v -10.5 1.5 -5.999998
v -11.5 1.5 -5.999998
v -10.5 1 -5.499998
v -10.5 1.5 -5.499998
v -10.5 1 -5.999998
v -10.5 1.5 -5.999998
v -10.5 1.5 -10.5
v -11 1.5 -10.5
v -10.5 1.5 -11
v -11 1.5 -11
v -10.5 1 -10.5
v -10.5 1.5 -10.5
v -10.5 1 -11
v -10.5 1.5 -11
v -10.5 1.5 -11.5
v -11 1.5 -11.5
v -10.5 1.5 -12.5
v -11 1.5 -12.5
v -10.5 1 -11.5
v -10.5 1.5 -11.5
v -10.5 1 -12.5
v -10.5 1.5 -12.5
v -10.5 1 -12.5
v -11 1 -12.5
v -10.5 1.5 -12.5
v -11 1.5 -12.5
v -10.5 1 -14
v -11 1 -14
v -10.5 2 -14
v -11 2 -14
v -10.5 2 -4.499998
v -11 2 -4.499998
v -10.5 2 -5.499998
v -11 2 -5.499998
v -10.5 1.5 -4.499998
v -10.5 2 -4.499998
v -10.5 1.5 -5.499998
v -10.5 2 -5.499998
v -10.5 1.5 -5.499998
v -11 1.5 -5.499998
v -10.5 2 -5.499998
v -11 2 -5.499998
v -11 1.5 -4.999998
v -11 2 -4.999998
v -11 1.5 -5.499998
v -11 2 -5.499998
v -10.5 2 -14
v -16 2 -14
v -10.5 2 -14.5
v -16 2 -14.5
v -10.5 1.5 -14
v -10.5 2 -14
v -10.5 1.5 -14.5
v -10.5 2 -14.5
v -11 0.5 -6.499998
v -13 0.5 -6.499998
v -11 0.5 -6.999998
v -13 0.5 -6.999998
v -11 0.5 -7.499998
v -12 0.5 -7.499998
v -11 0.5 -8.499998
v -12 0.5 -8.499998
v -11 0.5 -9.499998
v -12 0.5 -9.499998
v -11 0.5 -9.999998
v -12 0.5 -9.999998
v -11 0.5 -6.499998
v -11.5 0.5 -6.499998
v -11 1 -6.499998
v -11.5 1 -6.499998
v -11.5 0.5 -5.999998
v -11.5 1 -5.999998
v -11.5 0.5 -6.499998
v -11.5 1 -6.499998
v -11 0.5 -7.499998
v -12 0.5 -7.499998
v -11 1 -7.499998
v -12 1 -7.499998
v -11 0.5 -6.999998
v -13 0.5 -6.999998
v -11 1 -6.999998
v -13 1 -6.999998
v -11 1 -6.999998
v -13 1 -6.999998
v -11 1 -7.499998
v -13 1 -7.499998
v -11 0.5 -6.999998
v -11 1 -6.999998
v -11 0.5 -7.499998
v -11 1 -7.499998
v -11 0.5 -8.999998
v -11.5 0.5 -8.999998
v -11 1 -8.999998
v -11.5 1 -8.999998
v -11 0.5 -8.499998
v -11.5 0.5 -8.499998
v -11 1 -8.499998
v -11.5 1 -8.499998
v -11 1 -8.499998
v -11.5 1 -8.499998
v -11 1 -8.999998
v -11.5 1 -8.999998
v -11 0.5 -8.499998
v -11 1 -8.499998
v -11 0.5 -8.999998
v -11 1 -8.999998
v -11.5 0.5 -8.499998
v -11.5 1 -8.499998
v -11.5 0.5 -8.999998
v -11.5 1 -8.999998
v -11 0.5 -9.999998
v -12 0.5 -9.999998
v -11 1 -9.999998
v -12 1 -9.999998
v -11 1 -9.999998
v -11.5 1 -9.999998
v -11 1 -10.5
v -11.5 1 -10.5
v -11 0.5 -9.999998
v -11 1 -9.999998
v -11 0.5 -10.5
v -11 1 -10.5
v -11 1.5 -4.999998
v -12 1.5 -4.999998
v -11 1.5 -5.499998
v -12 1.5 -5.499998
v -11.5 1 -5.499998
v -11.5 1.5 -5.499998
v -11.5 1 -5.999998
v -11.5 1.5 -5.999998
v -11 1 -10.5
v -11.5 1 -10.5
v -11 2 -10.5
v -11.5 2 -10.5
v -11 1 -12.5
v -11 1.5 -12.5
v -11 1 -14
v -11 1.5 -14
v -11 1.5 -13
v -11.5 1.5 -13
v -11 1.5 -13.5
v -11.5 1.5 -13.5
v -11 1.5 -4.999998
v -12 1.5 -4.999998
v -11 2 -4.999998
v -12 2 -4.999998
v -11 2 -4.499998
v -16 2 -4.499998
v -11 2 -4.999998
v -16 2 -4.999998
v -11 2 -10.5
v -12.5 2 -10.5
v -11 2 -13
v -12.5 2 -13
v -11 1.5 -10.5
v -11 2 -10.5
v -11 1.5 -13
v -11 2 -13
v -11 1.5 -13
v -11.5 1.5 -13
v -11 2 -13
v -11.5 2 -13
v -11 1.5 -13.5
v -11.5 1.5 -13.5
v -11 2 -13.5
v -11.5 2 -13.5
v -11 2 -13.5
v -16 2 -13.5
v -11 2 -14
v -16 2 -14
v -11 1.5 -13.5
v -11 2 -13.5
v -11 1.5 -14
v -11 2 -14
v -11.5 0.5 -5.999998
v -12 0.5 -5.999998
v -11.5 0.5 -6.499998
v -12 0.5 -6.499998
v -11.5 0.5 -8.499998
v -12.5 0.5 -8.499998
v -11.5 0.5 -8.999998
v -12.5 0.5 -8.999998
v -11.5 0.5 -5.999998
v -12 0.5 -5.999998
v -11.5 1 -5.999998
v -12 1 -5.999998
v -11.5 1 -5.499998
v -12 1 -5.499998
v -11.5 1 -5.999998
v -12 1 -5.999998
v -11.5 1 -5.499998
v -12 1 -5.499998
v -11.5 1.5 -5.499998
v -12 1.5 -5.499998
v -11.5 1 -9.999998
v -12.5 1 -9.999998
v -11.5 1.5 -9.999998
v -12.5 1.5 -9.999998
v -11.5 1.5 -9.999998
v -12.5 1.5 -9.999998
v -11.5 1.5 -10.5
v -12.5 1.5 -10.5
v -11.5 1 -9.999998
v -11.5 1.5 -9.999998
v -11.5 1 -10.5
v -11.5 1.5 -10.5
v -11.5 1.5 -10.5
v -12.5 1.5 -10.5
v -11.5 2 -10.5
v -12.5 2 -10.5
v -11.5 2 -13
v -16 2 -13
v -11.5 2 -13.5
v -16 2 -13.5
v -11.5 1.5 -13
v -11.5 2 -13
v -11.5 1.5 -13.5
v -11.5 2 -13.5
v -12 0.5 -6.499998
v -13 0.5 -6.499998
v -12 1 -6.499998
v -13 1 -6.499998
v -12 1 -5.999998
v -13 1 -5.999998
v -12 1 -6.499998
v -13 1 -6.499998
v -12 0.5 -5.999998
v -12 1 -5.999998
v -12 0.5 -6.499998
v -12 1 -6.499998
v -12 1 -7.499998
v -13 1 -7.499998
v -12 1 -8.499998
v -13 1 -8.499998
v -12 0.5 -7.499998
v -12 1 -7.499998
v -12 0.5 -8.499998
v -12 1 -8.499998
v -12 0.5 -8.499998
v -12.5 0.5 -8.499998
v -12 1 -8.499998
v -12.5 1 -8.499998
v -12 0.5 -8.999998
v -12.5 0.5 -8.999998
v -12 1 -8.999998
v -12.5 1 -8.999998
v -12 1 -8.999998
v -12.5 1 -8.999998
v -12 1 -9.999998
v -12.5 1 -9.999998
v -12 0.5 -8.999998
v -12 1 -8.999998
v -12 0.5 -9.999998
v -12 1 -9.999998
v -12 1 -5.999998
v -13 1 -5.999998
v -12 1.5 -5.999998
v -13 1.5 -5.999998
v -12 1.5 -5.499998
v -14 1.5 -5.499998
v -12 1.5 -5.999998
v -14 1.5 -5.999998
v -12 1 -5.499998
v -12 1.5 -5.499998
v -12 1 -5.999998
v -12 1.5 -5.999998
v -12 1.5 -5.499998
v -14 1.5 -5.499998
v -12 2 -5.499998
v -14 2 -5.499998
v -12 2 -4.999998
v -16 2 -4.999998
v -12 2 -5.499998
v -16 2 -5.499998
v -12 1.5 -4.999998
v -12 2 -4.999998
v -12 1.5 -5.499998
v -12 2 -5.499998
v -12.5 1.5 -10.5
v -12.5 2 -10.5
v -12.5 1.5 -11
v -12.5 2 -11
v -13 0.5 -6.999998
v -13 1 -6.999998
v -13 0.5 -7.999998
v -13 1 -7.999998
v -12.5 1 -8.499998
v -13.5 1 -8.499998
v -12.5 1 -9.499998
v -13.5 1 -9.499998
v -12.5 0.5 -8.499998
v -12.5 1 -8.499998
v -12.5 0.5 -8.999998
v -12.5 1 -8.999998
v -12.5 1 -9.499998
v -13.5 1 -9.499998
v -12.5 1.5 -9.499998
v -13.5 1.5 -9.499998
v -12.5 1.5 -9.499998
v -14.5 1.5 -9.499998
v -12.5 1.5 -9.999998
v -14.5 1.5 -9.999998
v -12.5 1 -9.499998
v -12.5 1.5 -9.499998
v -12.5 1 -9.999998
v -12.5 1.5 -9.999998
v -12.5 1.5 -10.5
v -13 1.5 -10.5
v -12.5 1.5 -11
v -13 1.5 -11
v -12.5 1.5 -10.5
v -13 1.5 -10.5
v -12.5 2 -10.5
v -13 2 -10.5
v -12.5 1.5 -9.999998
v -14.5 1.5 -9.999998
v -12.5 2 -9.999998
v -14.5 2 -9.999998
v -12.5 2 -9.999998
v -16 2 -9.999998
v -12.5 2 -10.5
v -16 2 -10.5
v -12.5 1.5 -9.999998
v -12.5 2 -9.999998
v -12.5 1.5 -10.5
v -12.5 2 -10.5
v -12.5 1.5 -11
v -13 1.5 -11
v -12.5 2 -11
v -13 2 -11
v -12.5 2 -11
v -16 2 -11
v -12.5 2 -13
v -16 2 -13
v -13 0.5 -6.999998
v -13.5 0.5 -6.999998
v -13 0.5 -7.999998
v -13.5 0.5 -7.999998
v -13 0.5 -6.999998
v -13.5 0.5 -6.999998
v -13 1 -6.999998
v -13.5 1 -6.999998
v -13 1 -6.499998
v -13.5 1 -6.499998
v -13 1 -6.999998
v -13.5 1 -6.999998
v -13 0.5 -6.499998
v -13 1 -6.499998
v -13 0.5 -6.999998
v -13 1 -6.999998
v -13 0.5 -7.999998
v -13.5 0.5 -7.999998
v -13 1 -7.999998
v -13.5 1 -7.999998
v -13 1 -7.999998
v -13.5 1 -7.999998
v -13 1 -8.499998
v -13.5 1 -8.499998
v -13 1 -6.499998
v -13.5 1 -6.499998
v -13 2 -6.499998
v -13.5 2 -6.499998
v -13 1 -5.999998
v -13 2 -5.999998
v -13 1 -6.499998
v -13 2 -6.499998
v -13 1.5 -5.999998
v -13.5 1.5 -5.999998
v -13 2 -5.999998
v -13.5 2 -5.999998
v -13 2 -5.999998
v -13.5 2 -5.999998
v -13 2 -6.499998
v -13.5 2 -6.499998
v -13.5 1.5 -5.999998
v -13.5 2 -5.999998
v -13.5 1.5 -6.499998
v -13.5 2 -6.499998
v -13 2 -10.5
v -16 2 -10.5
v -13 2 -11
v -16 2 -11
v -13 1.5 -10.5
v -13 2 -10.5
v -13 1.5 -11
v -13 2 -11
v -13.5 0.5 -6.999998
v -13.5 1 -6.999998
v -13.5 0.5 -7.999998
v -13.5 1 -7.999998
v -13.5 1 -7.499998
v -14 1 -7.499998
v -13.5 1 -7.999998
v -14 1 -7.999998
v -13.5 1.5 -5.999998
v -14.5 1.5 -5.999998
v -13.5 1.5 -7.499998
v -14.5 1.5 -7.499998
v -13.5 1 -6.499998
v -13.5 1.5 -6.499998
v -13.5 1 -7.499998
v -13.5 1.5 -7.499998
v -13.5 1 -7.499998
v -14 1 -7.499998
v -13.5 1.5 -7.499998
v -14 1.5 -7.499998
v -13.5 1 -7.999998
v -14 1 -7.999998
v -13.5 1.5 -7.999998
v -14 1.5 -7.999998
v -13.5 1.5 -7.999998
v -14 1.5 -7.999998
v -13.5 1.5 -9.499998
v -14 1.5 -9.499998
v -13.5 1 -7.999998
v -13.5 1.5 -7.999998
v -13.5 1 -9.499998
v -13.5 1.5 -9.499998
v -14 1.5 -7.499998
v -14.5 1.5 -7.499998
v -14 1.5 -7.999998
v -14.5 1.5 -7.999998
v -14 1 -7.499998
v -14 1.5 -7.499998
v -14 1 -7.999998
v -14 1.5 -7.999998
v -14 1.5 -8.499998
v -15 1.5 -8.499998
v -14 1.5 -9.499998
v -15 1.5 -9.499998
v -14 1.5 -5.999998
v -14.5 1.5 -5.999998
v -14 2 -5.999998
v -14.5 2 -5.999998
v -14 2 -5.499998
v -16 2 -5.499998
v -14 2 -5.999998
v -16 2 -5.999998
v -14 1.5 -5.499998
v -14 2 -5.499998
v -14 1.5 -5.999998
v -14 2 -5.999998
v -14 1.5 -8.499998
v -15 1.5 -8.499998
v -14 2 -8.499998
v -15 2 -8.499998
v -14 1.5 -7.999998
v -14.5 1.5 -7.999998
v -14 2 -7.999998
v -14.5 2 -7.999998
v -14 2 -7.999998
v -16 2 -7.999998
v -14 2 -8.499998
v -16 2 -8.499998
v -14 1.5 -7.999998
v -14 2 -7.999998
v -14 1.5 -8.499998
v -14 2 -8.499998
v -14.5 1.5 -6.999998
v -15.5 1.5 -6.999998
v -14.5 1.5 -7.499998
v -15.5 1.5 -7.499998
v -14.5 2 -5.999998
v -15 2 -5.999998
v -14.5 2 -6.999998
v -15 2 -6.999998
v -14.5 1.5 -5.999998
v -14.5 2 -5.999998
v -14.5 1.5 -6.999998
v -14.5 2 -6.999998
v -15 1.5 -5.999998
v -15 2 -5.999998
v -15 1.5 -6.499998
v -15 2 -6.499998
v -14.5 1.5 -6.999998
v -15.5 1.5 -6.999998
v -14.5 2 -6.999998
v -15.5 2 -6.999998
v -14.5 1.5 -7.499998
v -15 1.5 -7.499998
v -14.5 2 -7.499998
v -15 2 -7.499998
v -14.5 2 -7.499998
v -15 2 -7.499998
v -14.5 2 -7.999998
v -15 2 -7.999998
v -14.5 1.5 -7.499998
v -14.5 2 -7.499998
v -14.5 1.5 -7.999998
v -14.5 2 -7.999998
v -15 1.5 -7.499998
v -15 2 -7.499998
v -15 1.5 -7.999998
v -15 2 -7.999998
v -14.5 1.5 -9.499998
v -15 1.5 -9.499998
v -14.5 2 -9.499998
v -15 2 -9.499998
v -14.5 2 -9.499998
v -16 2 -9.499998
v -14.5 2 -9.999998
v -16 2 -9.999998
v -14.5 1.5 -9.499998
v -14.5 2 -9.499998
v -14.5 1.5 -9.999998
v -14.5 2 -9.999998
v -15 1.5 -5.999998
v -15.5 1.5 -5.999998
v -15 1.5 -6.499998
v -15.5 1.5 -6.499998
v -15 1.5 -7.499998
v -15.5 1.5 -7.499998
v -15 1.5 -7.999998
v -15.5 1.5 -7.999998
v -15 1.5 -5.999998
v -15.5 1.5 -5.999998
v -15 2 -5.999998
v -15.5 2 -5.999998
v -15 1.5 -6.499998
v -15.5 1.5 -6.499998
v -15 2 -6.499998
v -15.5 2 -6.499998
v -15 2 -6.499998
v -16 2 -6.499998
v -15 2 -6.999998
v -16 2 -6.999998
v -15 1.5 -7.999998
v -15.5 1.5 -7.999998
v -15 2 -7.999998
v -15.5 2 -7.999998
v -15 2 -8.499998
v -16 2 -8.499998
v -15 2 -9.499998
v -16 2 -9.499998
v -15 1.5 -8.499998
v -15 2 -8.499998
v -15 1.5 -9.499998
v -15 2 -9.499998
v -16 0 1.907349E-06
v -16 2 1.907349E-06
v -16 0 -16
v -16 2 -16
v -15.5 2 -5.999998
v -16 2 -5.999998
v -15.5 2 -6.499998
v -16 2 -6.499998
v -15.5 1.5 -5.999998
v -15.5 2 -5.999998
v -15.5 1.5 -6.499998
v -15.5 2 -6.499998
v -15.5 2 -6.999998
v -16 2 -6.999998
v -15.5 2 -7.999998
v -16 2 -7.999998
v -15.5 1.5 -6.999998
v -15.5 2 -6.999998
v -15.5 1.5 -7.999998
v -15.5 2 -7.999998
vn 0 -5.960464E-08 0.9999999
vn 0 -0.9999999 -5.960464E-08
vn 1 0 0
vn 0 5.960464E-08 -0.9999999
vn 0 0.9999999 5.960464E-08
vn -1 0 0
vt 0.6640625 0.0703125
vt 0.9140625 0.0703125
vt 0.6640625 0.1015625
vt 0.9140625 0.1015625
vt 0.0078125 0.0078125
vt 0.2578125 0.0078125
vt 0.0078125 0.2578125
vt 0.2578125 0.2578125
vt 0.6015625 0.0078125
vt 0.6328125 0.0078125
vt 0.6015625 0.2578125
vt 0.6328125 0.2578125
vt 0.6640625 0.0078125
vt 0.9140625 0.0078125
vt 0.6640625 0.0390625
vt 0.9140625 0.0390625
vt 0.53125 0.0078125
vt 0.5703125 0.0078125
vt 0.53125 0.2578125
vt 0.5703125 0.2578125
vt 0.1484375 0.7109375
vt 0.2890625 0.0078125
vt 0.5 0.0078125
vt 0.2890625 0.0703125
vt 0.5 0.0703125
vt 0.34375 0.203125
vt 0.9296875 0.1796875
vt 0.9375 0.1796875
vt 0.9296875 0.2578125
vt 0.9375 0.2578125
vt 0.421875 0.140625
vt 0.4296875 0.140625
vt 0.421875 0.234375
vt 0.4296875 0.234375
vt 0.8125 0.1328125
vt 0.875 0.1328125
vt 0.8125 0.1484375
vt 0.875 0.1484375
vt 0.34375 0.234375
vt 0.0078125 0.7109375
vt 0.015625 0.7109375
vt 0.0078125 0.7578125
vt 0.015625 0.7578125
vt 0.1328125 0.5625
vt 0.1484375 0.5625
vt 0.1328125 0.5703125
vt 0.1484375 0.5703125
vt 0.375 0.140625
vt 0.390625 0.140625
vt 0.375 0.2265625
vt 0.390625 0.2265625
vt 0.0078125 0.7890625
vt 0.015625 0.7890625
vt 0.0078125 0.8359375
vt 0.015625 0.8359375
vt 0.1796875 0.75
vt 0.1875 0.75
vt 0.1796875 0.765625
vt 0.1875 0.765625
vt 0.28125 0.8046875
vt 0.1796875 0.796875
vt 0.1875 0.796875
vt 0.1796875 0.8125
vt 0.1875 0.8125
vt 0.0703125 0.5234375
vt 0.1015625 0.5234375
vt 0.0703125 0.53125
vt 0.1015625 0.53125
vt 0.1328125 0.6015625
vt 0.1484375 0.6015625
vt 0.1328125 0.609375
vt 0.1484375 0.609375
vt 0.375 0.2578125
vt 0.96875 0.1796875
vt 0.9765625 0.1796875
vt 0.96875 0.2578125
vt 0.9765625 0.2578125
vt 0.78125 0.25
vt 0.8125 0.2578125
vt 0.4140625 0.2890625
vt 0.4296875 0.2890625
vt 0.4140625 0.296875
vt 0.4296875 0.296875
vt 0.1796875 0.609375
vt 0.203125 0.609375
vt 0.1796875 0.6171875
vt 0.203125 0.6171875
vt 0.28125 0.7734375
vt 0.28125 0.7109375
vt 0.234375 0.6015625
vt 0.2421875 0.6015625
vt 0.234375 0.6171875
vt 0.2421875 0.6171875
vt 0.4609375 0.140625
vt 0.4765625 0.140625
vt 0.4609375 0.203125
vt 0.4765625 0.203125
vt 0.1328125 0.640625
vt 0.1484375 0.640625
vt 0.1328125 0.6484375
vt 0.1484375 0.6484375
vt 0.1328125 0.5234375
vt 0.1484375 0.5234375
vt 0.1328125 0.53125
vt 0.1484375 0.53125
vt 0.1484375 0.4453125
vt 0.0703125 0.6796875
vt 0.078125 0.6796875
vt 0.0703125 0.7109375
vt 0.078125 0.7109375
vt 0.1796875 0.6484375
vt 0.1875 0.6484375
vt 0.1796875 0.671875
vt 0.1875 0.671875
vt 0.0703125 0.9296875
vt 0.078125 0.9296875
vt 0.0703125 0.953125
vt 0.078125 0.953125
vt 0.0703125 0.328125
vt 0.1328125 0.328125
vt 0.0703125 0.3359375
vt 0.1328125 0.3359375
vt 0.28125 0.6171875
vt 0.2890625 0.6171875
vt 0.28125 0.6328125
vt 0.2890625 0.6328125
vt 0.9296875 0.2890625
vt 0.9453125 0.2890625
vt 0.9296875 0.296875
vt 0.9453125 0.296875
vt 0.109375 0.9296875
vt 0.1171875 0.9296875
vt 0.109375 0.953125
vt 0.1171875 0.953125
vt 0.0703125 0.7890625
vt 0.0859375 0.7890625
vt 0.0703125 0.8046875
vt 0.0859375 0.8046875
vt 0.8359375 0.2890625
vt 0.8515625 0.2890625
vt 0.8359375 0.296875
vt 0.8515625 0.296875
vt 0.7890625 0.2890625
vt 0.8046875 0.2890625
vt 0.7890625 0.296875
vt 0.8046875 0.296875
vt 0.7421875 0.2890625
vt 0.7578125 0.2890625
vt 0.7421875 0.296875
vt 0.7578125 0.296875
vt 0.6953125 0.2890625
vt 0.7109375 0.2890625
vt 0.6953125 0.296875
vt 0.7109375 0.296875
vt 0.2890625 0.203125
vt 0.3125 0.203125
vt 0.2890625 0.2578125
vt 0.3125 0.2578125
vt 0.28125 0.4765625
vt 0.2890625 0.4765625
vt 0.28125 0.4921875
vt 0.2890625 0.4921875
vt 0.0390625 0.9765625
vt 0.28125 0.8359375
vt 0.1171875 0.8828125
vt 0.140625 0.8828125
vt 0.1171875 0.890625
vt 0.140625 0.890625
vt 0.1796875 0.328125
vt 0.203125 0.328125
vt 0.1796875 0.3359375
vt 0.203125 0.3359375
vt 0.6015625 0.2890625
vt 0.6171875 0.2890625
vt 0.6015625 0.296875
vt 0.6171875 0.296875
vt 0.6640625 0.25
vt 0.75 0.25
vt 0.6640625 0.2578125
vt 0.75 0.2578125
vt 0.1796875 0.9765625
vt 0.1796875 0.2890625
vt 0.203125 0.2890625
vt 0.1796875 0.296875
vt 0.203125 0.296875
vt 0.4609375 0.1015625
vt 0.5 0.1015625
vt 0.4609375 0.109375
vt 0.5 0.109375
vt 0.1796875 0.890625
vt 0.1953125 0.890625
vt 0.1796875 0.8984375
vt 0.1953125 0.8984375
vt 0.0078125 0.9765625
vt 0.4609375 0.2890625
vt 0.4765625 0.2890625
vt 0.4609375 0.296875
vt 0.4765625 0.296875
vt 0.234375 0.9453125
vt 0.25 0.9453125
vt 0.234375 0.953125
vt 0.25 0.953125
vt 0.2890625 0.1015625
vt 0.4296875 0.1015625
vt 0.2890625 0.109375
vt 0.4296875 0.109375
vt 0.0078125 0.640625
vt 0.0234375 0.640625
vt 0.0078125 0.6796875
vt 0.0234375 0.6796875
vt 0.234375 0.8203125
vt 0.25 0.8203125
vt 0.234375 0.828125
vt 0.25 0.828125
vt 0.1796875 0.9296875
vt 0.1875 0.9296875
vt 0.1796875 0.9453125
vt 0.1875 0.9453125
vt 0.28125 0.5703125
vt 0.2890625 0.5703125
vt 0.28125 0.5859375
vt 0.2890625 0.5859375
vt 0.4609375 0.234375
vt 0.5 0.234375
vt 0.4609375 0.2421875
vt 0.5 0.2421875
vt 0.109375 0.6796875
vt 0.1171875 0.6796875
vt 0.109375 0.7109375
vt 0.1171875 0.7109375
vt 0.1796875 0.40625
vt 0.1875 0.40625
vt 0.1796875 0.4296875
vt 0.1875 0.4296875
vt 0.6640625 0.1328125
vt 0.78125 0.1328125
vt 0.6640625 0.140625
vt 0.78125 0.140625
vt 0.234375 0.734375
vt 0.2421875 0.734375
vt 0.234375 0.75
vt 0.2421875 0.75
vt 0.1796875 0.3671875
vt 0.203125 0.3671875
vt 0.1796875 0.375
vt 0.203125 0.375
vt 0.1796875 0.84375
vt 0.1875 0.84375
vt 0.1796875 0.859375
vt 0.1875 0.859375
vt 0.234375 0.6484375
vt 0.2421875 0.6484375
vt 0.234375 0.6640625
vt 0.2421875 0.6640625
vt 0.0703125 0.7421875
vt 0.0859375 0.7421875
vt 0.0703125 0.7578125
vt 0.0859375 0.7578125
vt 0.234375 0.2890625
vt 0.25 0.2890625
vt 0.234375 0.296875
vt 0.25 0.296875
vt 0.234375 0.328125
vt 0.25 0.328125
vt 0.234375 0.3359375
vt 0.25 0.3359375
vt 0.234375 0.3671875
vt 0.2421875 0.3671875
vt 0.234375 0.3828125
vt 0.2421875 0.3828125
vt 0.234375 0.4140625
vt 0.2421875 0.4140625
vt 0.234375 0.4296875
vt 0.2421875 0.4296875
vt 0.234375 0.4609375
vt 0.2421875 0.4609375
vt 0.234375 0.4765625
vt 0.2421875 0.4765625
vt 0.234375 0.5078125
vt 0.2421875 0.5078125
vt 0.234375 0.5234375
vt 0.2421875 0.5234375
vt 0.234375 0.5546875
vt 0.2421875 0.5546875
vt 0.234375 0.5703125
vt 0.2421875 0.5703125
vt 0.1796875 0.703125
vt 0.1875 0.703125
vt 0.1796875 0.71875
vt 0.1875 0.71875
vt 0.84375 0.2578125
vt 0.234375 0.6953125
vt 0.25 0.6953125
vt 0.234375 0.703125
vt 0.25 0.703125
vt 0.0703125 0.8828125
vt 0.0859375 0.8828125
vt 0.0703125 0.8984375
vt 0.0859375 0.8984375
vt 0.234375 0.78125
vt 0.25 0.78125
vt 0.234375 0.7890625
vt 0.25 0.7890625
vt 0.6640625 0.171875
vt 0.765625 0.171875
vt 0.6640625 0.1796875
vt 0.765625 0.1796875
vt 0.234375 0.859375
vt 0.2421875 0.859375
vt 0.234375 0.875
vt 0.2421875 0.875
vt 0.234375 0.90625
vt 0.25 0.90625
vt 0.234375 0.9140625
vt 0.25 0.9140625
vt 0.6640625 0.2109375
vt 0.7578125 0.2109375
vt 0.6640625 0.21875
vt 0.7578125 0.21875
vt 0.28125 0.2890625
vt 0.2890625 0.2890625
vt 0.28125 0.3046875
vt 0.2890625 0.3046875
vt 0.3203125 0.2890625
vt 0.3359375 0.2890625
vt 0.3203125 0.296875
vt 0.3359375 0.296875
vt 0.3671875 0.2890625
vt 0.3828125 0.2890625
vt 0.3671875 0.296875
vt 0.3828125 0.296875
vt 0.875 0.2578125
vt 0.28125 0.3359375
vt 0.2890625 0.3359375
vt 0.28125 0.3515625
vt 0.2890625 0.3515625
vt 0.8125 0.1796875
vt 0.8984375 0.1796875
vt 0.8125 0.1875
vt 0.8984375 0.1875
vt 0.5078125 0.2890625
vt 0.5234375 0.2890625
vt 0.5078125 0.296875
vt 0.5234375 0.296875
vt 0.5546875 0.2890625
vt 0.5703125 0.2890625
vt 0.5546875 0.296875
vt 0.5703125 0.296875
vt 0.0703125 0.6015625
vt 0.1015625 0.6015625
vt 0.0703125 0.609375
vt 0.1015625 0.609375
vt 0.0703125 0.640625
vt 0.1015625 0.640625
vt 0.0703125 0.6484375
vt 0.1015625 0.6484375
vt 0.3203125 0.328125
vt 0.3359375 0.328125
vt 0.3203125 0.3359375
vt 0.3359375 0.3359375
vt 0.1484375 0.9296875
vt 0.8125 0.21875
vt 0.890625 0.21875
vt 0.8125 0.2265625
vt 0.890625 0.2265625
vt 0.0078125 0.5703125
vt 0.03125 0.5703125
vt 0.0078125 0.609375
vt 0.03125 0.609375
vt 0.0078125 0.8671875
vt 0.015625 0.8671875
vt 0.0078125 0.90625
vt 0.015625 0.90625
vt 0.0703125 0.2890625
vt 0.1484375 0.2890625
vt 0.0703125 0.296875
vt 0.1484375 0.296875
vt 0.1484375 0.9609375
vt 0.6484375 0.2890625
vt 0.6640625 0.2890625
vt 0.6484375 0.296875
vt 0.6640625 0.296875
vt 0.90625 0.1328125
vt 0.9765625 0.1328125
vt 0.90625 0.140625
vt 0.9765625 0.140625
vt 0.0703125 0.8359375
vt 0.0859375 0.8359375
vt 0.0703125 0.8515625
vt 0.0859375 0.8515625
vt 0.28125 0.5234375
vt 0.2890625 0.5234375
vt 0.28125 0.5390625
vt 0.2890625 0.5390625
vt 0.0703125 0.3671875
vt 0.1328125 0.3671875
vt 0.0703125 0.375
vt 0.1328125 0.375
vt 0.1171875 0.7890625
vt 0.1328125 0.7890625
vt 0.1171875 0.8046875
vt 0.1328125 0.8046875
vt 0.8828125 0.2890625
vt 0.8984375 0.2890625
vt 0.8828125 0.296875
vt 0.8984375 0.296875
vt 0.0703125 0.5625
vt 0.1015625 0.5625
vt 0.0703125 0.5703125
vt 0.1015625 0.5703125
vt 0.1484375 0.6796875
vt 0.28125 0.8671875
vt 0.9453125 0.0703125
vt 0.9765625 0.0703125
vt 0.9453125 0.078125
vt 0.9765625 0.078125
vt 0.0703125 0.40625
vt 0.125 0.40625
vt 0.0703125 0.4140625
vt 0.125 0.4140625
vt 0.28125 0.7421875
vt 0.2890625 0.140625
vt 0.34375 0.140625
vt 0.2890625 0.171875
vt 0.34375 0.171875
vt 0.28125 0.6640625
vt 0.2890625 0.6640625
vt 0.28125 0.6796875
vt 0.2890625 0.6796875
vt 0.1328125 0.484375
vt 0.1484375 0.484375
vt 0.1328125 0.4921875
vt 0.1484375 0.4921875
vt 0.0703125 0.4453125
vt 0.1171875 0.4453125
vt 0.0703125 0.453125
vt 0.1171875 0.453125
vt 0.9453125 0.0078125
vt 0.9609375 0.0078125
vt 0.9453125 0.03125
vt 0.9609375 0.03125
vt 0.1796875 0.4609375
vt 0.1875 0.4609375
vt 0.1796875 0.484375
vt 0.1875 0.484375
vt 0.1796875 0.515625
vt 0.1875 0.515625
vt 0.1796875 0.5390625
vt 0.1875 0.5390625
vt 0.1171875 0.8359375
vt 0.1328125 0.8359375
vt 0.1171875 0.8515625
vt 0.1328125 0.8515625
vt 0.0703125 0.484375
vt 0.1015625 0.484375
vt 0.0703125 0.4921875
vt 0.1015625 0.4921875
vt 0.0078125 0.9375
vt 0.0390625 0.9375
vt 0.0078125 0.9453125
vt 0.0390625 0.9453125
vt 0.1796875 0.5703125
vt 0.203125 0.5703125
vt 0.1796875 0.578125
vt 0.203125 0.578125
vt 0.1171875 0.7421875
vt 0.1328125 0.7421875
vt 0.1171875 0.7578125
vt 0.1328125 0.7578125
vt 0.0078125 0.2890625
vt 0.0390625 0.2890625
vt 0.0078125 0.5390625
vt 0.0390625 0.5390625
vt 0.28125 0.3828125
vt 0.2890625 0.3828125
vt 0.28125 0.3984375
vt 0.2890625 0.3984375
vt 0.28125 0.4296875
vt 0.2890625 0.4296875
vt 0.28125 0.4453125
vt 0.2890625 0.4453125
usemtl voxel
f 2/2/1 1/1/1 3/3/1
f 2/2/1 3/3/1 4/4/1
f 5/5/2 6/6/2 7/7/2
f 7/7/2 6/6/2 8/8/2
f 10/10/3 9/9/3 11/11/3
f 10/10/3 11/11/3 12/12/3
f 13/13/4 14/14/4 15/15/4
f 15/15/4 14/14/4 16/16/4
f 18/18/5 17/17/5 19/19/5
f 18/18/5 19/19/5 20/20/5
f 21/21/6 22/21/6 23/21/6
f 23/21/6 22/21/6 24/21/6
f 25/21/6 26/21/6 27/21/6
f 27/21/6 26/21/6 28/21/6
f 30/21/5 29/21/5 31/21/5
f 30/21/5 31/21/5 32/21/5
f 34/21/5 33/21/5 35/21/5
f 34/21/5 35/21/5 36/21/5
f 38/23/5 37/22/5 39/24/5
f 38/23/5 39/24/5 40/25/5
f 41/21/4 42/21/4 43/21/4
f 43/21/4 42/21/4 44/21/4
f 46/26/1 45/26/1 47/26/1
f 46/26/1 47/26/1 48/26/1
f 50/28/5 49/27/5 51/29/5
f 50/28/5 51/29/5 52/30/5
f 53/21/6 54/21/6 55/21/6
f 55/21/6 54/21/6 56/21/6
f 57/21/6 58/21/6 59/21/6
f 59/21/6 58/21/6 60/21/6
f 61/21/4 62/21/4 63/21/4
f 63/21/4 62/21/4 64/21/4
f 66/21/1 65/21/1 67/21/1
f 66/21/1 67/21/1 68/21/1
f 70/32/5 69/31/5 71/33/5
f 70/32/5 71/33/5 72/34/5
f 73/21/6 74/21/6 75/21/6
f 75/21/6 74/21/6 76/21/6
f 78/21/5 77/21/5 79/21/5
f 78/21/5 79/21/5 80/21/5
f 82/21/5 81/21/5 83/21/5
f 82/21/5 83/21/5 84/21/5
f 86/21/5 85/21/5 87/21/5
f 86/21/5 87/21/5 88/21/5
f 90/36/5 89/35/5 91/37/5
f 90/36/5 91/37/5 92/38/5
f 94/39/3 93/39/3 95/39/3
f 94/39/3 95/39/3 96/39/3
f 97/21/4 98/21/4 99/21/4
f 99/21/4 98/21/4 100/21/4
f 102/21/1 101/21/1 103/21/1
f 102/21/1 103/21/1 104/21/1
f 106/41/5 105/40/5 107/42/5
f 106/41/5 107/42/5 108/43/5
f 109/21/4 110/21/4 111/21/4
f 111/21/4 110/21/4 112/21/4
f 113/21/6 114/21/6 115/21/6
f 115/21/6 114/21/6 116/21/6
f 118/45/1 117/44/1 119/46/1
f 118/45/1 119/46/1 120/47/1
f 122/49/5 121/48/5 123/50/5
f 122/49/5 123/50/5 124/51/5
f 125/21/6 126/21/6 127/21/6
f 127/21/6 126/21/6 128/21/6
f 130/21/5 129/21/5 131/21/5
f 130/21/5 131/21/5 132/21/5
f 134/53/5 133/52/5 135/54/5
f 134/53/5 135/54/5 136/55/5
f 138/26/3 137/26/3 139/26/3
f 138/26/3 139/26/3 140/26/3
f 141/21/6 142/21/6 143/21/6
f 143/21/6 142/21/6 144/21/6
f 145/56/6 146/57/6 147/58/6
f 147/58/6 146/57/6 148/59/6
f 149/60/4 150/60/4 151/60/4
f 151/60/4 150/60/4 152/60/4
f 153/21/6 154/21/6 155/21/6
f 155/21/6 154/21/6 156/21/6
f 158/21/5 157/21/5 159/21/5
f 158/21/5 159/21/5 160/21/5
f 162/21/5 161/21/5 163/21/5
f 162/21/5 163/21/5 164/21/5
f 165/21/6 166/21/6 167/21/6
f 167/21/6 166/21/6 168/21/6
f 169/61/4 170/62/4 171/63/4
f 171/63/4 170/62/4 172/64/4
f 174/21/1 173/21/1 175/21/1
f 174/21/1 175/21/1 176/21/1
f 177/21/6 178/21/6 179/21/6
f 179/21/6 178/21/6 180/21/6
f 182/66/5 181/65/5 183/67/5
f 182/66/5 183/67/5 184/68/5
f 185/69/6 186/70/6 187/71/6
f 187/71/6 186/70/6 188/72/6
f 189/21/4 190/21/4 191/21/4
f 191/21/4 190/21/4 192/21/4
f 194/21/5 193/21/5 195/21/5
f 194/21/5 195/21/5 196/21/5
f 198/73/1 197/73/1 199/73/1
f 198/73/1 199/73/1 200/73/1
f 202/73/5 201/73/5 203/73/5
f 202/73/5 203/73/5 204/73/5
f 205/73/6 206/73/6 207/73/6
f 207/73/6 206/73/6 208/73/6
f 210/21/1 209/21/1 211/21/1
f 210/21/1 211/21/1 212/21/1
f 214/75/5 213/74/5 215/76/5
f 214/75/5 215/76/5 216/77/5
f 217/78/6 218/78/6 219/78/6
f 219/78/6 218/78/6 220/78/6
f 222/79/5 221/79/5 223/79/5
f 222/79/5 223/79/5 224/79/5
f 225/79/6 226/79/6 227/79/6
f 227/79/6 226/79/6 228/79/6
f 229/80/6 230/81/6 231/82/6
f 231/82/6 230/81/6 232/83/6
f 234/85/5 233/84/5 235/86/5
f 234/85/5 235/86/5 236/87/5
f 238/79/5 237/79/5 239/79/5
f 238/79/5 239/79/5 240/79/5
f 242/21/5 241/21/5 243/21/5
f 242/21/5 243/21/5 244/21/5
f 245/73/4 246/73/4 247/73/4
f 247/73/4 246/73/4 248/73/4
f 250/73/5 249/73/5 251/73/5
f 250/73/5 251/73/5 252/73/5
f 253/73/6 254/73/6 255/73/6
f 255/73/6 254/73/6 256/73/6
f 257/88/4 258/88/4 259/88/4
f 259/88/4 258/88/4 260/88/4
f 262/88/1 261/88/1 263/88/1
f 262/88/1 263/88/1 264/88/1
f 266/88/5 265/88/5 267/88/5
f 266/88/5 267/88/5 268/88/5
f 270/88/3 269/88/3 271/88/3
f 270/88/3 271/88/3 272/88/3
f 274/89/1 273/89/1 275/89/1
f 274/89/1 275/89/1 276/89/1
f 278/91/5 277/90/5 279/92/5
f 278/91/5 279/92/5 280/93/5
f 282/89/3 281/89/3 283/89/3
f 282/89/3 283/89/3 284/89/3
f 285/89/6 286/89/6 287/89/6
f 287/89/6 286/89/6 288/89/6
f 289/60/4 290/60/4 291/60/4
f 291/60/4 290/60/4 292/60/4
f 293/21/4 294/21/4 295/21/4
f 295/21/4 294/21/4 296/21/4
f 298/21/1 297/21/1 299/21/1
f 298/21/1 299/21/1 300/21/1
f 302/21/1 301/21/1 303/21/1
f 302/21/1 303/21/1 304/21/1
f 306/21/5 305/21/5 307/21/5
f 306/21/5 307/21/5 308/21/5
f 309/21/6 310/21/6 311/21/6
f 311/21/6 310/21/6 312/21/6
f 313/21/6 314/21/6 315/21/6
f 315/21/6 314/21/6 316/21/6
f 318/21/1 317/21/1 319/21/1
f 318/21/1 319/21/1 320/21/1
f 322/95/5 321/94/5 323/96/5
f 322/95/5 323/96/5 324/97/5
f 326/73/5 325/73/5 327/73/5
f 326/73/5 327/73/5 328/73/5
f 330/73/5 329/73/5 331/73/5
f 330/73/5 331/73/5 332/73/5
f 333/79/4 334/79/4 335/79/4
f 335/79/4 334/79/4 336/79/4
f 338/79/5 337/79/5 339/79/5
f 338/79/5 339/79/5 340/79/5
f 341/79/4 342/79/4 343/79/4
f 343/79/4 342/79/4 344/79/4
f 346/79/1 345/79/1 347/79/1
f 346/79/1 347/79/1 348/79/1
f 350/79/5 349/79/5 351/79/5
f 350/79/5 351/79/5 352/79/5
f 354/99/1 353/98/1 355/100/1
f 354/99/1 355/100/1 356/101/1
f 358/21/5 357/21/5 359/21/5
f 358/21/5 359/21/5 360/21/5
f 361/102/6 362/103/6 363/104/6
f 363/104/6 362/103/6 364/105/6
f 366/79/5 365/79/5 367/79/5
f 366/79/5 367/79/5 368/79/5
f 369/21/4 370/21/4 371/21/4
f 371/21/4 370/21/4 372/21/4
f 374/21/5 373/21/5 375/21/5
f 374/21/5 375/21/5 376/21/5
f 378/106/1 377/106/1 379/106/1
f 378/106/1 379/106/1 380/106/1
f 382/108/5 381/107/5 383/109/5
f 382/108/5 383/109/5 384/110/5
f 386/112/3 385/111/3 387/113/3
f 386/112/3 387/113/3 388/114/3
f 389/115/6 390/116/6 391/117/6
f 391/117/6 390/116/6 392/118/6
f 393/79/4 394/79/4 395/79/4
f 395/79/4 394/79/4 396/79/4
f 398/79/5 397/79/5 399/79/5
f 398/79/5 399/79/5 400/79/5
f 402/79/3 401/79/3 403/79/3
f 402/79/3 403/79/3 404/79/3
f 406/21/1 405/21/1 407/21/1
f 406/21/1 407/21/1 408/21/1
f 409/21/4 410/21/4 411/21/4
f 411/21/4 410/21/4 412/21/4
f 413/21/6 414/21/6 415/21/6
f 415/21/6 414/21/6 416/21/6
f 418/120/5 417/119/5 419/121/5
f 418/120/5 419/121/5 420/122/5
f 422/79/5 421/79/5 423/79/5
f 422/79/5 423/79/5 424/79/5
f 426/79/3 425/79/3 427/79/3
f 426/79/3 427/79/3 428/79/3
f 429/79/6 430/79/6 431/79/6
f 431/79/6 430/79/6 432/79/6
f 433/123/6 434/124/6 435/125/6
f 435/125/6 434/124/6 436/126/6
f 437/21/4 438/21/4 439/21/4
f 439/21/4 438/21/4 440/21/4
f 442/128/1 441/127/1 443/129/1
f 442/128/1 443/129/1 444/130/1
f 446/132/5 445/131/5 447/133/5
f 446/132/5 447/133/5 448/134/5
f 449/21/4 450/21/4 451/21/4
f 451/21/4 450/21/4 452/21/4
f 454/21/5 453/21/5 455/21/5
f 454/21/5 455/21/5 456/21/5
f 458/21/3 457/21/3 459/21/3
f 458/21/3 459/21/3 460/21/3
f 461/21/6 462/21/6 463/21/6
f 463/21/6 462/21/6 464/21/6
f 466/73/1 465/73/1 467/73/1
f 466/73/1 467/73/1 468/73/1
f 469/73/6 470/73/6 471/73/6
f 471/73/6 470/73/6 472/73/6
f 474/136/5 473/135/5 475/137/5
f 474/136/5 475/137/5 476/138/5
f 478/79/3 477/79/3 479/79/3
f 478/79/3 479/79/3 480/79/3
f 481/21/4 482/21/4 483/21/4
f 483/21/4 482/21/4 484/21/4
f 486/21/5 485/21/5 487/21/5
f 486/21/5 487/21/5 488/21/5
f 490/21/3 489/21/3 491/21/3
f 490/21/3 491/21/3 492/21/3
f 493/139/4 494/140/4 495/141/4
f 495/141/4 494/140/4 496/142/4
f 498/144/1 497/143/1 499/145/1
f 498/144/1 499/145/1 500/146/1
f 502/148/5 501/147/5 503/149/5
f 502/148/5 503/149/5 504/150/5
f 506/73/3 505/73/3 507/73/3
f 506/73/3 507/73/3 508/73/3
f 510/152/1 509/151/1 511/153/1
f 510/152/1 511/153/1 512/154/1
f 514/156/5 513/155/5 515/157/5
f 514/156/5 515/157/5 516/158/5
f 518/73/5 517/73/5 519/73/5
f 518/73/5 519/73/5 520/73/5
f 522/73/5 521/73/5 523/73/5
f 522/73/5 523/73/5 524/73/5
f 525/79/4 526/79/4 527/79/4
f 527/79/4 526/79/4 528/79/4
f 530/79/5 529/79/5 531/79/5
f 530/79/5 531/79/5 532/79/5
f 534/160/5 533/159/5 535/161/5
f 534/160/5 535/161/5 536/162/5
f 537/163/6 538/163/6 539/163/6
f 539/163/6 538/163/6 540/163/6
f 542/79/5 541/79/5 543/79/5
f 542/79/5 543/79/5 544/79/5
f 545/164/4 546/164/4 547/164/4
f 547/164/4 546/164/4 548/164/4
f 549/79/4 550/79/4 551/79/4
f 551/79/4 550/79/4 552/79/4
f 554/166/1 553/165/1 555/167/1
f 554/166/1 555/167/1 556/168/1
f 558/170/5 557/169/5 559/171/5
f 558/170/5 559/171/5 560/172/5
f 562/79/3 561/79/3 563/79/3
f 562/79/3 563/79/3 564/79/3
f 566/79/1 565/79/1 567/79/1
f 566/79/1 567/79/1 568/79/1
f 569/173/6 570/174/6 571/175/6
f 571/175/6 570/174/6 572/176/6
f 574/73/5 573/73/5 575/73/5
f 574/73/5 575/73/5 576/73/5
f 578/73/5 577/73/5 579/73/5
f 578/73/5 579/73/5 580/73/5
f 582/178/5 581/177/5 583/179/5
f 582/178/5 583/179/5 584/180/5
f 585/79/4 586/79/4 587/79/4
f 587/79/4 586/79/4 588/79/4
f 590/79/5 589/79/5 591/79/5
f 590/79/5 591/79/5 592/79/5
f 594/79/3 593/79/3 595/79/3
f 594/79/3 595/79/3 596/79/3
f 597/163/4 598/163/4 599/163/4
f 599/163/4 598/163/4 600/163/4
f 602/163/1 601/163/1 603/163/1
f 602/163/1 603/163/1 604/163/1
f 606/163/5 605/163/5 607/163/5
f 606/163/5 607/163/5 608/163/5
f 610/163/3 609/163/3 611/163/3
f 610/163/3 611/163/3 612/163/3
f 613/163/6 614/163/6 615/163/6
f 615/163/6 614/163/6 616/163/6
f 618/21/1 617/21/1 619/21/1
f 618/21/1 619/21/1 620/21/1
f 622/21/5 621/21/5 623/21/5
f 622/21/5 623/21/5 624/21/5
f 626/79/5 625/79/5 627/79/5
f 626/79/5 627/79/5 628/79/5
f 629/21/4 630/21/4 631/21/4
f 631/21/4 630/21/4 632/21/4
f 634/21/5 633/21/5 635/21/5
f 634/21/5 635/21/5 636/21/5
f 638/21/3 637/21/3 639/21/3
f 638/21/3 639/21/3 640/21/3
f 641/21/6 642/21/6 643/21/6
f 643/21/6 642/21/6 644/21/6
f 645/181/4 646/181/4 647/181/4
f 647/181/4 646/181/4 648/181/4
f 650/183/5 649/182/5 651/184/5
f 650/183/5 651/184/5 652/185/5
f 654/181/3 653/181/3 655/181/3
f 654/181/3 655/181/3 656/181/3
f 658/21/1 657/21/1 659/21/1
f 658/21/1 659/21/1 660/21/1
f 662/187/5 661/186/5 663/188/5
f 662/187/5 663/188/5 664/189/5
f 665/21/6 666/21/6 667/21/6
f 667/21/6 666/21/6 668/21/6
f 670/21/1 669/21/1 671/21/1
f 670/21/1 671/21/1 672/21/1
f 674/21/5 673/21/5 675/21/5
f 674/21/5 675/21/5 676/21/5
f 678/21/3 677/21/3 679/21/3
f 678/21/3 679/21/3 680/21/3
f 681/21/6 682/21/6 683/21/6
f 683/21/6 682/21/6 684/21/6
f 685/78/6 686/78/6 687/78/6
f 687/78/6 686/78/6 688/78/6
f 690/191/5 689/190/5 691/192/5
f 690/191/5 691/192/5 692/193/5
f 694/194/5 693/194/5 695/194/5
f 694/194/5 695/194/5 696/194/5
f 697/21/6 698/21/6 699/21/6
f 699/21/6 698/21/6 700/21/6
f 702/21/5 701/21/5 703/21/5
f 702/21/5 703/21/5 704/21/5
f 705/21/4 706/21/4 707/21/4
f 707/21/4 706/21/4 708/21/4
f 709/195/4 710/196/4 711/197/4
f 711/197/4 710/196/4 712/198/4
f 714/79/1 713/79/1 715/79/1
f 714/79/1 715/79/1 716/79/1
f 718/200/5 717/199/5 719/201/5
f 718/200/5 719/201/5 720/202/5
f 722/79/3 721/79/3 723/79/3
f 722/79/3 723/79/3 724/79/3
f 725/181/6 726/181/6 727/181/6
f 727/181/6 726/181/6 728/181/6
f 730/21/5 729/21/5 731/21/5
f 730/21/5 731/21/5 732/21/5
f 734/21/3 733/21/3 735/21/3
f 734/21/3 735/21/3 736/21/3
f 737/21/6 738/21/6 739/21/6
f 739/21/6 738/21/6 740/21/6
f 742/21/5 741/21/5 743/21/5
f 742/21/5 743/21/5 744/21/5
f 745/21/6 746/21/6 747/21/6
f 747/21/6 746/21/6 748/21/6
f 750/21/5 749/21/5 751/21/5
f 750/21/5 751/21/5 752/21/5
f 753/21/4 754/21/4 755/21/4
f 755/21/4 754/21/4 756/21/4
f 758/204/5 757/203/5 759/205/5
f 758/204/5 759/205/5 760/206/5
f 761/21/4 762/21/4 763/21/4
f 763/21/4 762/21/4 764/21/4
f 766/21/1 765/21/1 767/21/1
f 766/21/1 767/21/1 768/21/1
f 770/21/5 769/21/5 771/21/5
f 770/21/5 771/21/5 772/21/5
f 773/21/6 774/21/6 775/21/6
f 775/21/6 774/21/6 776/21/6
f 778/21/1 777/21/1 779/21/1
f 778/21/1 779/21/1 780/21/1
f 782/208/5 781/207/5 783/209/5
f 782/208/5 783/209/5 784/210/5
f 786/73/5 785/73/5 787/73/5
f 786/73/5 787/73/5 788/73/5
f 789/73/4 790/73/4 791/73/4
f 791/73/4 790/73/4 792/73/4
f 794/73/1 793/73/1 795/73/1
f 794/73/1 795/73/1 796/73/1
f 798/73/5 797/73/5 799/73/5
f 798/73/5 799/73/5 800/73/5
f 802/73/3 801/73/3 803/73/3
f 802/73/3 803/73/3 804/73/3
f 805/73/6 806/73/6 807/73/6
f 807/73/6 806/73/6 808/73/6
f 810/21/1 809/21/1 811/21/1
f 810/21/1 811/21/1 812/21/1
f 814/212/5 813/211/5 815/213/5
f 814/212/5 815/213/5 816/214/5
f 818/21/5 817/21/5 819/21/5
f 818/21/5 819/21/5 820/21/5
f 822/79/5 821/79/5 823/79/5
f 822/79/5 823/79/5 824/79/5
f 826/216/5 825/215/5 827/217/5
f 826/216/5 827/217/5 828/218/5
f 830/79/3 829/79/3 831/79/3
f 830/79/3 831/79/3 832/79/3
f 833/219/6 834/220/6 835/221/6
f 835/221/6 834/220/6 836/222/6
f 837/79/4 838/79/4 839/79/4
f 839/79/4 838/79/4 840/79/4
f 842/79/1 841/79/1 843/79/1
f 842/79/1 843/79/1 844/79/1
f 845/79/6 846/79/6 847/79/6
f 847/79/6 846/79/6 848/79/6
f 849/21/4 850/21/4 851/21/4
f 851/21/4 850/21/4 852/21/4
f 854/21/1 853/21/1 855/21/1
f 854/21/1 855/21/1 856/21/1
f 858/21/1 857/21/1 859/21/1
f 858/21/1 859/21/1 860/21/1
f 862/21/5 861/21/5 863/21/5
f 862/21/5 863/21/5 864/21/5
f 865/21/4 866/21/4 867/21/4
f 867/21/4 866/21/4 868/21/4
f 870/21/5 869/21/5 871/21/5
f 870/21/5 871/21/5 872/21/5
f 874/21/3 873/21/3 875/21/3
f 874/21/3 875/21/3 876/21/3
f 877/21/6 878/21/6 879/21/6
f 879/21/6 878/21/6 880/21/6
f 881/21/6 882/21/6 883/21/6
f 883/21/6 882/21/6 884/21/6
f 886/73/5 885/73/5 887/73/5
f 886/73/5 887/73/5 888/73/5
f 890/79/5 889/79/5 891/79/5
f 890/79/5 891/79/5 892/79/5
f 893/73/4 894/73/4 895/73/4
f 895/73/4 894/73/4 896/73/4
f 898/73/1 897/73/1 899/73/1
f 898/73/1 899/73/1 900/73/1
f 902/73/5 901/73/5 903/73/5
f 902/73/5 903/73/5 904/73/5
f 906/73/3 905/73/3 907/73/3
f 906/73/3 907/73/3 908/73/3
f 909/73/6 910/73/6 911/73/6
f 911/73/6 910/73/6 912/73/6
f 914/79/1 913/79/1 915/79/1
f 914/79/1 915/79/1 916/79/1
f 918/79/5 917/79/5 919/79/5
f 918/79/5 919/79/5 920/79/5
f 922/79/3 921/79/3 923/79/3
f 922/79/3 923/79/3 924/79/3
f 925/79/6 926/79/6 927/79/6
f 927/79/6 926/79/6 928/79/6
f 930/224/5 929/223/5 931/225/5
f 930/224/5 931/225/5 932/226/5
f 934/21/5 933/21/5 935/21/5
f 934/21/5 935/21/5 936/21/5
f 937/21/4 938/21/4 939/21/4
f 939/21/4 938/21/4 940/21/4
f 942/21/5 941/21/5 943/21/5
f 942/21/5 943/21/5 944/21/5
f 946/21/3 945/21/3 947/21/3
f 946/21/3 947/21/3 948/21/3
f 950/21/5 949/21/5 951/21/5
f 950/21/5 951/21/5 952/21/5
f 953/21/4 954/21/4 955/21/4
f 955/21/4 954/21/4 956/21/4
f 958/21/1 957/21/1 959/21/1
f 958/21/1 959/21/1 960/21/1
f 962/228/5 961/227/5 963/229/5
f 962/228/5 963/229/5 964/230/5
f 965/231/6 966/232/6 967/233/6
f 967/233/6 966/232/6 968/234/6
f 970/73/5 969/73/5 971/73/5
f 970/73/5 971/73/5 972/73/5
f 974/73/5 973/73/5 975/73/5
f 974/73/5 975/73/5 976/73/5
f 978/79/5 977/79/5 979/79/5
f 978/79/5 979/79/5 980/79/5
f 982/21/1 981/21/1 983/21/1
f 982/21/1 983/21/1 984/21/1
f 985/21/4 986/21/4 987/21/4
f 987/21/4 986/21/4 988/21/4
f 990/21/5 989/21/5 991/21/5
f 990/21/5 991/21/5 992/21/5
f 994/21/3 993/21/3 995/21/3
f 994/21/3 995/21/3 996/21/3
f 998/60/1 997/60/1 999/60/1
f 998/60/1 999/60/1 1000/60/1
f 1002/60/5 1001/60/5 1003/60/5
f 1002/60/5 1003/60/5 1004/60/5
f 1006/60/3 1005/60/3 1007/60/3
f 1006/60/3 1007/60/3 1008/60/3
f 1009/60/6 1010/60/6 1011/60/6
f 1011/60/6 1010/60/6 1012/60/6
f 1014/21/5 1013/21/5 1015/21/5
f 1014/21/5 1015/21/5 1016/21/5
f 1017/21/4 1018/21/4 1019/21/4
f 1019/21/4 1018/21/4 1020/21/4
f 1022/21/1 1021/21/1 1023/21/1
f 1022/21/1 1023/21/1 1024/21/1
f 1026/21/5 1025/21/5 1027/21/5
f 1026/21/5 1027/21/5 1028/21/5
f 1030/21/3 1029/21/3 1031/21/3
f 1030/21/3 1031/21/3 1032/21/3
f 1033/21/6 1034/21/6 1035/21/6
f 1035/21/6 1034/21/6 1036/21/6
f 1038/21/1 1037/21/1 1039/21/1
f 1038/21/1 1039/21/1 1040/21/1
f 1042/236/5 1041/235/5 1043/237/5
f 1042/236/5 1043/237/5 1044/238/5
f 1045/239/6 1046/240/6 1047/241/6
f 1047/241/6 1046/240/6 1048/242/6
f 1049/21/4 1050/21/4 1051/21/4
f 1051/21/4 1050/21/4 1052/21/4
f 1054/21/5 1053/21/5 1055/21/5
f 1054/21/5 1055/21/5 1056/21/5
f 1058/21/3 1057/21/3 1059/21/3
f 1058/21/3 1059/21/3 1060/21/3
f 1062/244/1 1061/243/1 1063/245/1
f 1062/244/1 1063/245/1 1064/246/1
f 1066/248/5 1065/247/5 1067/249/5
f 1066/248/5 1067/249/5 1068/250/5
f 1070/252/3 1069/251/3 1071/253/3
f 1070/252/3 1071/253/3 1072/254/3
f 1073/79/6 1074/79/6 1075/79/6
f 1075/79/6 1074/79/6 1076/79/6
f 1078/256/5 1077/255/5 1079/257/5
f 1078/256/5 1079/257/5 1080/258/5
f 1081/259/6 1082/260/6 1083/261/6
f 1083/261/6 1082/260/6 1084/262/6
f 1085/21/6 1086/21/6 1087/21/6
f 1087/21/6 1086/21/6 1088/21/6
f 1090/21/1 1089/21/1 1091/21/1
f 1090/21/1 1091/21/1 1092/21/1
f 1093/21/6 1094/21/6 1095/21/6
f 1095/21/6 1094/21/6 1096/21/6
f 1098/21/5 1097/21/5 1099/21/5
f 1098/21/5 1099/21/5 1100/21/5
f 1101/263/6 1102/264/6 1103/265/6
f 1103/265/6 1102/264/6 1104/266/6
f 1106/21/5 1105/21/5 1107/21/5
f 1106/21/5 1107/21/5 1108/21/5
f 1110/268/5 1109/267/5 1111/269/5
f 1110/268/5 1111/269/5 1112/270/5
f 1114/272/3 1113/271/3 1115/273/3
f 1114/272/3 1115/273/3 1116/274/3
f 1117/275/6 1118/276/6 1119/277/6
f 1119/277/6 1118/276/6 1120/278/6
f 1121/73/4 1122/73/4 1123/73/4
f 1123/73/4 1122/73/4 1124/73/4
f 1125/21/4 1126/21/4 1127/21/4
f 1127/21/4 1126/21/4 1128/21/4
f 1130/21/1 1129/21/1 1131/21/1
f 1130/21/1 1131/21/1 1132/21/1
f 1134/21/5 1133/21/5 1135/21/5
f 1134/21/5 1135/21/5 1136/21/5
f 1138/21/3 1137/21/3 1139/21/3
f 1138/21/3 1139/21/3 1140/21/3
f 1142/21/1 1141/21/1 1143/21/1
f 1142/21/1 1143/21/1 1144/21/1
f 1146/21/5 1145/21/5 1147/21/5
f 1146/21/5 1147/21/5 1148/21/5
f 1150/21/3 1149/21/3 1151/21/3
f 1150/21/3 1151/21/3 1152/21/3
f 1153/21/6 1154/21/6 1155/21/6
f 1155/21/6 1154/21/6 1156/21/6
f 1158/73/5 1157/73/5 1159/73/5
f 1158/73/5 1159/73/5 1160/73/5
f 1162/73/5 1161/73/5 1163/73/5
f 1162/73/5 1163/73/5 1164/73/5
f 1166/73/5 1165/73/5 1167/73/5
f 1166/73/5 1167/73/5 1168/73/5
f 1169/79/4 1170/79/4 1171/79/4
f 1171/79/4 1170/79/4 1172/79/4
f 1174/79/5 1173/79/5 1175/79/5
f 1174/79/5 1175/79/5 1176/79/5
f 1178/73/1 1177/73/1 1179/73/1
f 1178/73/1 1179/73/1 1180/73/1
f 1182/280/5 1181/279/5 1183/281/5
f 1182/280/5 1183/281/5 1184/282/5
f 1186/284/3 1185/283/3 1187/285/3
f 1186/284/3 1187/285/3 1188/286/3
f 1189/287/6 1190/288/6 1191/289/6
f 1191/289/6 1190/288/6 1192/290/6
f 1193/291/4 1194/291/4 1195/291/4
f 1195/291/4 1194/291/4 1196/291/4
f 1197/73/4 1198/73/4 1199/73/4
f 1199/73/4 1198/73/4 1200/73/4
f 1202/293/5 1201/292/5 1203/294/5
f 1202/293/5 1203/294/5 1204/295/5
f 1206/79/1 1205/79/1 1207/79/1
f 1206/79/1 1207/79/1 1208/79/1
f 1210/297/5 1209/296/5 1211/298/5
f 1210/297/5 1211/298/5 1212/299/5
f 1213/21/4 1214/21/4 1215/21/4
f 1215/21/4 1214/21/4 1216/21/4
f 1218/73/1 1217/73/1 1219/73/1
f 1218/73/1 1219/73/1 1220/73/1
f 1222/73/5 1221/73/5 1223/73/5
f 1222/73/5 1223/73/5 1224/73/5
f 1226/21/5 1225/21/5 1227/21/5
f 1226/21/5 1227/21/5 1228/21/5
f 1229/21/4 1230/21/4 1231/21/4
f 1231/21/4 1230/21/4 1232/21/4
f 1234/21/1 1233/21/1 1235/21/1
f 1234/21/1 1235/21/1 1236/21/1
f 1238/21/5 1237/21/5 1239/21/5
f 1238/21/5 1239/21/5 1240/21/5
f 1241/300/4 1242/301/4 1243/302/4
f 1243/302/4 1242/301/4 1244/303/4
f 1246/164/1 1245/164/1 1247/164/1
f 1246/164/1 1247/164/1 1248/164/1
f 1250/305/5 1249/304/5 1251/306/5
f 1250/305/5 1251/306/5 1252/307/5
f 1254/73/5 1253/73/5 1255/73/5
f 1254/73/5 1255/73/5 1256/73/5
f 1258/73/5 1257/73/5 1259/73/5
f 1258/73/5 1259/73/5 1260/73/5
f 1261/79/4 1262/79/4 1263/79/4
f 1263/79/4 1262/79/4 1264/79/4
f 1266/79/5 1265/79/5 1267/79/5
f 1266/79/5 1267/79/5 1268/79/5
f 1270/79/3 1269/79/3 1271/79/3
f 1270/79/3 1271/79/3 1272/79/3
f 1273/308/6 1274/309/6 1275/310/6
f 1275/310/6 1274/309/6 1276/311/6
f 1278/79/5 1277/79/5 1279/79/5
f 1278/79/5 1279/79/5 1280/79/5
f 1282/79/3 1281/79/3 1283/79/3
f 1282/79/3 1283/79/3 1284/79/3
f 1286/21/5 1285/21/5 1287/21/5
f 1286/21/5 1287/21/5 1288/21/5
f 1290/313/5 1289/312/5 1291/314/5
f 1290/313/5 1291/314/5 1292/315/5
f 1294/73/3 1293/73/3 1295/73/3
f 1294/73/3 1295/73/3 1296/73/3
f 1297/21/4 1298/21/4 1299/21/4
f 1299/21/4 1298/21/4 1300/21/4
f 1302/21/1 1301/21/1 1303/21/1
f 1302/21/1 1303/21/1 1304/21/1
f 1306/21/5 1305/21/5 1307/21/5
f 1306/21/5 1307/21/5 1308/21/5
f 1310/21/3 1309/21/3 1311/21/3
f 1310/21/3 1311/21/3 1312/21/3
f 1314/21/1 1313/21/1 1315/21/1
f 1314/21/1 1315/21/1 1316/21/1
f 1318/21/5 1317/21/5 1319/21/5
f 1318/21/5 1319/21/5 1320/21/5
f 1322/21/3 1321/21/3 1323/21/3
f 1322/21/3 1323/21/3 1324/21/3
f 1325/21/6 1326/21/6 1327/21/6
f 1327/21/6 1326/21/6 1328/21/6
f 1330/21/1 1329/21/1 1331/21/1
f 1330/21/1 1331/21/1 1332/21/1
f 1334/317/5 1333/316/5 1335/318/5
f 1334/317/5 1335/318/5 1336/319/5
f 1338/21/3 1337/21/3 1339/21/3
f 1338/21/3 1339/21/3 1340/21/3
f 1342/73/5 1341/73/5 1343/73/5
f 1342/73/5 1343/73/5 1344/73/5
f 1345/79/4 1346/79/4 1347/79/4
f 1347/79/4 1346/79/4 1348/79/4
f 1350/79/5 1349/79/5 1351/79/5
f 1350/79/5 1351/79/5 1352/79/5
f 1354/79/3 1353/79/3 1355/79/3
f 1354/79/3 1355/79/3 1356/79/3
f 1357/79/6 1358/79/6 1359/79/6
f 1359/79/6 1358/79/6 1360/79/6
f 1361/79/4 1362/79/4 1363/79/4
f 1363/79/4 1362/79/4 1364/79/4
f 1366/79/1 1365/79/1 1367/79/1
f 1366/79/1 1367/79/1 1368/79/1
f 1370/79/5 1369/79/5 1371/79/5
f 1370/79/5 1371/79/5 1372/79/5
f 1374/79/3 1373/79/3 1375/79/3
f 1374/79/3 1375/79/3 1376/79/3
f 1377/79/6 1378/79/6 1379/79/6
f 1379/79/6 1378/79/6 1380/79/6
f 1382/321/1 1381/320/1 1383/322/1
f 1382/321/1 1383/322/1 1384/323/1
f 1386/21/5 1385/21/5 1387/21/5
f 1386/21/5 1387/21/5 1388/21/5
f 1390/21/5 1389/21/5 1391/21/5
f 1390/21/5 1391/21/5 1392/21/5
f 1393/324/4 1394/325/4 1395/326/4
f 1395/326/4 1394/325/4 1396/327/4
f 1398/329/5 1397/328/5 1399/330/5
f 1398/329/5 1399/330/5 1400/331/5
f 1402/73/3 1401/73/3 1403/73/3
f 1402/73/3 1403/73/3 1404/73/3
f 1406/332/5 1405/332/5 1407/332/5
f 1406/332/5 1407/332/5 1408/332/5
f 1410/332/3 1409/332/3 1411/332/3
f 1410/332/3 1411/332/3 1412/332/3
f 1414/21/5 1413/21/5 1415/21/5
f 1414/21/5 1415/21/5 1416/21/5
f 1418/21/3 1417/21/3 1419/21/3
f 1418/21/3 1419/21/3 1420/21/3
f 1421/21/4 1422/21/4 1423/21/4
f 1423/21/4 1422/21/4 1424/21/4
f 1426/334/1 1425/333/1 1427/335/1
f 1426/334/1 1427/335/1 1428/336/1
f 1430/21/5 1429/21/5 1431/21/5
f 1430/21/5 1431/21/5 1432/21/5
f 1434/21/3 1433/21/3 1435/21/3
f 1434/21/3 1435/21/3 1436/21/3
f 1437/21/4 1438/21/4 1439/21/4
f 1439/21/4 1438/21/4 1440/21/4
f 1441/21/6 1442/21/6 1443/21/6
f 1443/21/6 1442/21/6 1444/21/6
f 1446/338/5 1445/337/5 1447/339/5
f 1446/338/5 1447/339/5 1448/340/5
f 1450/21/3 1449/21/3 1451/21/3
f 1450/21/3 1451/21/3 1452/21/3
f 1454/73/5 1453/73/5 1455/73/5
f 1454/73/5 1455/73/5 1456/73/5
f 1458/73/5 1457/73/5 1459/73/5
f 1458/73/5 1459/73/5 1460/73/5
f 1462/342/5 1461/341/5 1463/343/5
f 1462/342/5 1463/343/5 1464/344/5
f 1465/79/4 1466/79/4 1467/79/4
f 1467/79/4 1466/79/4 1468/79/4
f 1469/79/6 1470/79/6 1471/79/6
f 1471/79/6 1470/79/6 1472/79/6
f 1473/345/4 1474/346/4 1475/347/4
f 1475/347/4 1474/346/4 1476/348/4
f 1478/350/1 1477/349/1 1479/351/1
f 1478/350/1 1479/351/1 1480/352/1
f 1482/354/5 1481/353/5 1483/355/5
f 1482/354/5 1483/355/5 1484/356/5
f 1486/73/3 1485/73/3 1487/73/3
f 1486/73/3 1487/73/3 1488/73/3
f 1489/73/4 1490/73/4 1491/73/4
f 1491/73/4 1490/73/4 1492/73/4
f 1494/73/1 1493/73/1 1495/73/1
f 1494/73/1 1495/73/1 1496/73/1
f 1498/73/5 1497/73/5 1499/73/5
f 1498/73/5 1499/73/5 1500/73/5
f 1502/73/3 1501/73/3 1503/73/3
f 1502/73/3 1503/73/3 1504/73/3
f 1505/73/6 1506/73/6 1507/73/6
f 1507/73/6 1506/73/6 1508/73/6
f 1510/358/1 1509/357/1 1511/359/1
f 1510/358/1 1511/359/1 1512/360/1
f 1514/361/5 1513/361/5 1515/361/5
f 1514/361/5 1515/361/5 1516/361/5
f 1518/361/3 1517/361/3 1519/361/3
f 1518/361/3 1519/361/3 1520/361/3
f 1522/21/5 1521/21/5 1523/21/5
f 1522/21/5 1523/21/5 1524/21/5
f 1525/21/6 1526/21/6 1527/21/6
f 1527/21/6 1526/21/6 1528/21/6
f 1530/79/1 1529/79/1 1531/79/1
f 1530/79/1 1531/79/1 1532/79/1
f 1534/21/3 1533/21/3 1535/21/3
f 1534/21/3 1535/21/3 1536/21/3
f 1538/21/5 1537/21/5 1539/21/5
f 1538/21/5 1539/21/5 1540/21/5
f 1541/21/4 1542/21/4 1543/21/4
f 1543/21/4 1542/21/4 1544/21/4
f 1546/363/5 1545/362/5 1547/364/5
f 1546/363/5 1547/364/5 1548/365/5
f 1550/367/5 1549/366/5 1551/368/5
f 1550/367/5 1551/368/5 1552/369/5
f 1554/371/3 1553/370/3 1555/372/3
f 1554/371/3 1555/372/3 1556/373/3
f 1557/21/4 1558/21/4 1559/21/4
f 1559/21/4 1558/21/4 1560/21/4
f 1562/21/1 1561/21/1 1563/21/1
f 1562/21/1 1563/21/1 1564/21/1
f 1566/375/5 1565/374/5 1567/376/5
f 1566/375/5 1567/376/5 1568/377/5
f 1570/21/3 1569/21/3 1571/21/3
f 1570/21/3 1571/21/3 1572/21/3
f 1574/73/5 1573/73/5 1575/73/5
f 1574/73/5 1575/73/5 1576/73/5
f 1578/73/5 1577/73/5 1579/73/5
f 1578/73/5 1579/73/5 1580/73/5
f 1581/79/4 1582/79/4 1583/79/4
f 1583/79/4 1582/79/4 1584/79/4
f 1586/79/5 1585/79/5 1587/79/5
f 1586/79/5 1587/79/5 1588/79/5
f 1589/21/4 1590/21/4 1591/21/4
f 1591/21/4 1590/21/4 1592/21/4
f 1594/378/1 1593/378/1 1595/378/1
f 1594/378/1 1595/378/1 1596/378/1
f 1598/378/5 1597/378/5 1599/378/5
f 1598/378/5 1599/378/5 1600/378/5
f 1602/378/3 1601/378/3 1603/378/3
f 1602/378/3 1603/378/3 1604/378/3
f 1606/380/1 1605/379/1 1607/381/1
f 1606/380/1 1607/381/1 1608/382/1
f 1610/384/5 1609/383/5 1611/385/5
f 1610/384/5 1611/385/5 1612/386/5
f 1614/78/3 1613/78/3 1615/78/3
f 1614/78/3 1615/78/3 1616/78/3
f 1617/79/4 1618/79/4 1619/79/4
f 1619/79/4 1618/79/4 1620/79/4
f 1622/79/5 1621/79/5 1623/79/5
f 1622/79/5 1623/79/5 1624/79/5
f 1626/79/3 1625/79/3 1627/79/3
f 1626/79/3 1627/79/3 1628/79/3
f 1630/388/5 1629/387/5 1631/389/5
f 1630/388/5 1631/389/5 1632/390/5
f 1634/392/3 1633/391/3 1635/393/3
f 1634/392/3 1635/393/3 1636/394/3
f 1637/79/4 1638/79/4 1639/79/4
f 1639/79/4 1638/79/4 1640/79/4
f 1642/79/1 1641/79/1 1643/79/1
f 1642/79/1 1643/79/1 1644/79/1
f 1646/79/5 1645/79/5 1647/79/5
f 1646/79/5 1647/79/5 1648/79/5
f 1650/79/3 1649/79/3 1651/79/3
f 1650/79/3 1651/79/3 1652/79/3
f 1653/21/4 1654/21/4 1655/21/4
f 1655/21/4 1654/21/4 1656/21/4
f 1658/21/5 1657/21/5 1659/21/5
f 1658/21/5 1659/21/5 1660/21/5
f 1662/21/3 1661/21/3 1663/21/3
f 1662/21/3 1663/21/3 1664/21/3
f 1665/21/4 1666/21/4 1667/21/4
f 1667/21/4 1666/21/4 1668/21/4
f 1670/396/5 1669/395/5 1671/397/5
f 1670/396/5 1671/397/5 1672/398/5
f 1674/21/3 1673/21/3 1675/21/3
f 1674/21/3 1675/21/3 1676/21/3
f 1677/73/6 1678/73/6 1679/73/6
f 1679/73/6 1678/73/6 1680/73/6
f 1681/79/6 1682/79/6 1683/79/6
f 1683/79/6 1682/79/6 1684/79/6
f 1686/400/5 1685/399/5 1687/401/5
f 1686/400/5 1687/401/5 1688/402/5
f 1690/79/3 1689/79/3 1691/79/3
f 1690/79/3 1691/79/3 1692/79/3
f 1694/404/1 1693/403/1 1695/405/1
f 1694/404/1 1695/405/1 1696/406/1
f 1698/408/5 1697/407/5 1699/409/5
f 1698/408/5 1699/409/5 1700/410/5
f 1702/411/3 1701/411/3 1703/411/3
f 1702/411/3 1703/411/3 1704/411/3
f 1706/79/5 1705/79/5 1707/79/5
f 1706/79/5 1707/79/5 1708/79/5
f 1709/412/4 1710/412/4 1711/412/4
f 1711/412/4 1710/412/4 1712/412/4
f 1714/414/1 1713/413/1 1715/415/1
f 1714/414/1 1715/415/1 1716/416/1
f 1718/418/5 1717/417/5 1719/419/5
f 1718/418/5 1719/419/5 1720/420/5
f 1722/412/3 1721/412/3 1723/412/3
f 1722/412/3 1723/412/3 1724/412/3
f 1726/421/1 1725/421/1 1727/421/1
f 1726/421/1 1727/421/1 1728/421/1
f 1730/423/5 1729/422/5 1731/424/5
f 1730/423/5 1731/424/5 1732/425/5
f 1734/73/5 1733/73/5 1735/73/5
f 1734/73/5 1735/73/5 1736/73/5
f 1737/79/4 1738/79/4 1739/79/4
f 1739/79/4 1738/79/4 1740/79/4
f 1742/79/5 1741/79/5 1743/79/5
f 1742/79/5 1743/79/5 1744/79/5
f 1746/79/3 1745/79/3 1747/79/3
f 1746/79/3 1747/79/3 1748/79/3
f 1750/21/1 1749/21/1 1751/21/1
f 1750/21/1 1751/21/1 1752/21/1
f 1754/21/5 1753/21/5 1755/21/5
f 1754/21/5 1755/21/5 1756/21/5
f 1757/426/4 1758/427/4 1759/428/4
f 1759/428/4 1758/427/4 1760/429/4
f 1762/431/3 1761/430/3 1763/432/3
f 1762/431/3 1763/432/3 1764/433/3
f 1766/21/1 1765/21/1 1767/21/1
f 1766/21/1 1767/21/1 1768/21/1
f 1770/21/5 1769/21/5 1771/21/5
f 1770/21/5 1771/21/5 1772/21/5
f 1773/21/6 1774/21/6 1775/21/6
f 1775/21/6 1774/21/6 1776/21/6
f 1778/435/5 1777/434/5 1779/436/5
f 1778/435/5 1779/436/5 1780/437/5
f 1782/79/3 1781/79/3 1783/79/3
f 1782/79/3 1783/79/3 1784/79/3
f 1786/79/3 1785/79/3 1787/79/3
f 1786/79/3 1787/79/3 1788/79/3
f 1790/79/5 1789/79/5 1791/79/5
f 1790/79/5 1791/79/5 1792/79/5
f 1794/439/5 1793/438/5 1795/440/5
f 1794/439/5 1795/440/5 1796/441/5
f 1798/79/3 1797/79/3 1799/79/3
f 1798/79/3 1799/79/3 1800/79/3
f 1801/79/4 1802/79/4 1803/79/4
f 1803/79/4 1802/79/4 1804/79/4
f 1806/21/1 1805/21/1 1807/21/1
f 1806/21/1 1807/21/1 1808/21/1
f 1810/443/5 1809/442/5 1811/444/5
f 1810/443/5 1811/444/5 1812/445/5
f 1814/447/3 1813/446/3 1815/448/3
f 1814/447/3 1815/448/3 1816/449/3
f 1818/21/5 1817/21/5 1819/21/5
f 1818/21/5 1819/21/5 1820/21/5
f 1822/21/3 1821/21/3 1823/21/3
f 1822/21/3 1823/21/3 1824/21/3
f 1826/451/5 1825/450/5 1827/452/5
f 1826/451/5 1827/452/5 1828/453/5
f 1829/73/4 1830/73/4 1831/73/4
f 1831/73/4 1830/73/4 1832/73/4
f 1834/455/5 1833/454/5 1835/456/5
f 1834/455/5 1835/456/5 1836/457/5
f 1838/73/3 1837/73/3 1839/73/3
f 1838/73/3 1839/73/3 1840/73/3
f 1841/21/4 1842/21/4 1843/21/4
f 1843/21/4 1842/21/4 1844/21/4
f 1846/21/1 1845/21/1 1847/21/1
f 1846/21/1 1847/21/1 1848/21/1
f 1850/459/5 1849/458/5 1851/460/5
f 1850/459/5 1851/460/5 1852/461/5
f 1854/21/3 1853/21/3 1855/21/3
f 1854/21/3 1855/21/3 1856/21/3
f 1858/21/5 1857/21/5 1859/21/5
f 1858/21/5 1859/21/5 1860/21/5
f 1862/21/5 1861/21/5 1863/21/5
f 1862/21/5 1863/21/5 1864/21/5
f 1866/21/3 1865/21/3 1867/21/3
f 1866/21/3 1867/21/3 1868/21/3
f 1869/21/6 1870/21/6 1871/21/6
f 1871/21/6 1870/21/6 1872/21/6
f 1873/21/4 1874/21/4 1875/21/4
f 1875/21/4 1874/21/4 1876/21/4
f 1878/21/1 1877/21/1 1879/21/1
f 1878/21/1 1879/21/1 1880/21/1
f 1882/21/5 1881/21/5 1883/21/5
f 1882/21/5 1883/21/5 1884/21/5
f 1886/21/3 1885/21/3 1887/21/3
f 1886/21/3 1887/21/3 1888/21/3
f 1889/21/6 1890/21/6 1891/21/6
f 1891/21/6 1890/21/6 1892/21/6
f 1894/21/1 1893/21/1 1895/21/1
f 1894/21/1 1895/21/1 1896/21/1
f 1898/463/5 1897/462/5 1899/464/5
f 1898/463/5 1899/464/5 1900/465/5
f 1902/21/3 1901/21/3 1903/21/3
f 1902/21/3 1903/21/3 1904/21/3
f 1906/21/5 1905/21/5 1907/21/5
f 1906/21/5 1907/21/5 1908/21/5
f 1910/21/5 1909/21/5 1911/21/5
f 1910/21/5 1911/21/5 1912/21/5
f 1913/21/4 1914/21/4 1915/21/4
f 1915/21/4 1914/21/4 1916/21/4
f 1918/21/1 1917/21/1 1919/21/1
f 1918/21/1 1919/21/1 1920/21/1
f 1922/21/5 1921/21/5 1923/21/5
f 1922/21/5 1923/21/5 1924/21/5
f 1926/21/1 1925/21/1 1927/21/1
f 1926/21/1 1927/21/1 1928/21/1
f 1930/467/5 1929/466/5 1931/468/5
f 1930/467/5 1931/468/5 1932/469/5
f 1934/21/3 1933/21/3 1935/21/3
f 1934/21/3 1935/21/3 1936/21/3
f 1937/470/6 1938/471/6 1939/472/6
f 1939/472/6 1938/471/6 1940/473/6
f 1942/421/5 1941/421/5 1943/421/5
f 1942/421/5 1943/421/5 1944/421/5
f 1946/421/3 1945/421/3 1947/421/3
f 1946/421/3 1947/421/3 1948/421/3
f 1950/475/5 1949/474/5 1951/476/5
f 1950/475/5 1951/476/5 1952/477/5
f 1954/479/3 1953/478/3 1955/480/3
f 1954/479/3 1955/480/3 1956/481/3
