# Export of Cubik Model: Cubik Model
# Designed by MeLee with Cubik Studio - https://cubik.studio
# from Cubik OBJ Exporter v1.0
mtllib grass_1b_a_M.mtl
v 0 0 1.907349E-06
v -16 0 1.907349E-06
v 0 2 1.907349E-06
v -16 2 1.907349E-06
v 0 0 1.907349E-06
v -16 0 1.907349E-06
v 0 0 -16
v -16 0 -16
v 0 0 1.907349E-06
v 0 2 1.907349E-06
v 0 0 -16
v 0 2 -16
v 0 0 -16
v -16 0 -16
v 0 2 -16
v -16 2 -16
v 0 2 1.907349E-06
v -1.5 2 1.907349E-06
v 0 2 -16
v -1.5 2 -16
v -1.5 1.5 -12.5
v -1.5 2 -12.5
v -1.5 1.5 -13.5
v -1.5 2 -13.5
v -1.5 1.5 -12.5
v -2.5 1.5 -12.5
v -1.5 1.5 -13.5
v -2.5 1.5 -13.5
v -1.5 2 1.907349E-06
v -2.5 2 1.907349E-06
v -1.5 2 -3.999998
v -2.5 2 -3.999998
v -1.5 2 -4.499998
v -2 2 -4.499998
v -1.5 2 -7.499998
v -2 2 -7.499998
v -1.5 2 -7.999998
v -2 2 -7.999998
v -1.5 2 -8.499998
v -2 2 -8.499998
v -1.5 2 -9.499998
v -2 2 -9.499998
v -1.5 2 -9.999998
v -2 2 -9.999998
v -1.5 2 -10.5
v -2 2 -10.5
v -1.5 2 -12.5
v -2 2 -12.5
v -1.5 1.5 -12.5
v -2.5 1.5 -12.5
v -1.5 2 -12.5
v -2.5 2 -12.5
v -1.5 1.5 -13.5
v -2 1.5 -13.5
v -1.5 2 -13.5
v -2 2 -13.5
v -1.5 2 -13.5
v -2 2 -13.5
v -1.5 2 -16
v -2 2 -16
v -2 1.5 -13.5
v -2 2 -13.5
v -2 1.5 -14
v -2 2 -14
v -1.5 2 -4.499998
v -2 2 -4.499998
v -1.5 2.5 -4.499998
v -2 2.5 -4.499998
v -1.5 2 -3.999998
v -2 2 -3.999998
v -1.5 2.5 -3.999998
v -2 2.5 -3.999998
v -1.5 2.5 -3.999998
v -2 2.5 -3.999998
v -1.5 2.5 -4.499998
v -2 2.5 -4.499998
v -1.5 2 -3.999998
v -1.5 2.5 -3.999998
v -1.5 2 -4.499998
v -1.5 2.5 -4.499998
v -2 2 -3.999998
v -2 2.5 -3.999998
v -2 2 -4.499998
v -2 2.5 -4.499998
v -1.5 2 -7.999998
v -2 2 -7.999998
v -1.5 2.5 -7.999998
v -2 2.5 -7.999998
v -1.5 2 -7.499998
v -2 2 -7.499998
v -1.5 2.5 -7.499998
v -2 2.5 -7.499998
v -1.5 2.5 -7.499998
v -4 2.5 -7.499998
v -1.5 2.5 -7.999998
v -4 2.5 -7.999998
v -1.5 2 -7.499998
v -1.5 2.5 -7.499998
v -1.5 2 -7.999998
v -1.5 2.5 -7.999998
v -1.5 2 -8.499998
v -2 2 -8.499998
v -1.5 2.5 -8.499998
v -2 2.5 -8.499998
v -1.5 2.5 -8.499998
v -2 2.5 -8.499998
v -1.5 2.5 -9.499998
v -2 2.5 -9.499998
v -1.5 2 -8.499998
v -1.5 2.5 -8.499998
v -1.5 2 -9.499998
v -1.5 2.5 -9.499998
v -2 2 -8.499998
v -2 2.5 -8.499998
v -2 2 -9.499998
v -2 2.5 -9.499998
v -1.5 2 -9.499998
v -2 2 -9.499998
v -1.5 2.5 -9.499998
v -2 2.5 -9.499998
v -1.5 2 -10.5
v -2 2 -10.5
v -1.5 2.5 -10.5
v -2 2.5 -10.5
v -1.5 2 -9.999998
v -2 2 -9.999998
v -1.5 2.5 -9.999998
v -2 2.5 -9.999998
v -1.5 2.5 -9.999998
v -2 2.5 -9.999998
v -1.5 2.5 -10.5
v -2 2.5 -10.5
v -1.5 2 -9.999998
v -1.5 2.5 -9.999998
v -1.5 2 -10.5
v -1.5 2.5 -10.5
v -2 2 -9.999998
v -2 2.5 -9.999998
v -2 2 -10.5
v -2 2.5 -10.5
v -2.5 1 -11.5
v -2.5 2 -11.5
v -2.5 1 -12
v -2.5 2 -12
v -2.5 1 -13
v -2.5 1.5 -13
v -2.5 1 -13.5
v -2.5 1.5 -13.5
v -2 1.5 -13.5
v -5 1.5 -13.5
v -2 1.5 -14
v -5 1.5 -14
v -2 2 -3.999998
v -2.5 2 -3.999998
v -2 2 -4.499998
v -2.5 2 -4.499998
v -2 2 -8.499998
v -2.5 2 -8.499998
v -2 2 -9.499998
v -2.5 2 -9.499998
v -2 2 -9.999998
v -3 2 -9.999998
v -2 2 -10.5
v -3 2 -10.5
v -2 2 -11
v -2.5 2 -11
v -2 2 -12.5
v -2.5 2 -12.5
v -2.5 1.5 -12
v -2.5 2 -12
v -2.5 1.5 -12.5
v -2.5 2 -12.5
v -2 1.5 -14
v -5 1.5 -14
v -2 2 -14
v -5 2 -14
v -2 2 -14
v -16 2 -14
v -2 2 -16
v -16 2 -16
v -2 2 -4.499998
v -2.5 2 -4.499998
v -2 2.5 -4.499998
v -2.5 2.5 -4.499998
v -2 2.5 -4.499998
v -4.5 2.5 -4.499998
v -2 2.5 -7.499998
v -4.5 2.5 -7.499998
v -2 2 -4.499998
v -2 2.5 -4.499998
v -2 2 -7.499998
v -2 2.5 -7.499998
v -2 2 -8.499998
v -2.5 2 -8.499998
v -2 2.5 -8.499998
v -2.5 2.5 -8.499998
v -2 2.5 -7.999998
v -6 2.5 -7.999998
v -2 2.5 -8.499998
v -6 2.5 -8.499998
v -2 2 -7.999998
v -2 2.5 -7.999998
v -2 2 -8.499998
v -2 2.5 -8.499998
v -2 2 -9.999998
v -2.5 2 -9.999998
v -2 2.5 -9.999998
v -2.5 2.5 -9.999998
v -2 2 -9.499998
v -2.5 2 -9.499998
v -2 2.5 -9.499998
v -2.5 2.5 -9.499998
v -2 2.5 -9.499998
v -2.5 2.5 -9.499998
v -2 2.5 -9.999998
v -2.5 2.5 -9.999998
v -2 2 -9.499998
v -2 2.5 -9.499998
v -2 2 -9.999998
v -2 2.5 -9.999998
v -2.5 2 -9.499998
v -2.5 2.5 -9.499998
v -2.5 2 -9.999998
v -2.5 2.5 -9.999998
v -2 2 -11
v -2.5 2 -11
v -2 2.5 -11
v -2.5 2.5 -11
v -2 2 -10.5
v -2.5 2 -10.5
v -2 2.5 -10.5
v -2.5 2.5 -10.5
v -2 2.5 -10.5
v -2.5 2.5 -10.5
v -2 2.5 -11
v -2.5 2.5 -11
v -2 2 -10.5
v -2 2.5 -10.5
v -2 2 -11
v -2 2.5 -11
v -2.5 2 -10.5
v -2.5 2.5 -10.5
v -2.5 2 -11
v -2.5 2.5 -11
v -2.5 1 -11.5
v -3 1 -11.5
v -2.5 1 -12
v -3 1 -12
v -2.5 1 -13
v -4.5 1 -13
v -2.5 1 -13.5
v -4.5 1 -13.5
v -2.5 1 -11.5
v -3 1 -11.5
v -2.5 2 -11.5
v -3 2 -11.5
v -2.5 1 -12
v -3 1 -12
v -2.5 1.5 -12
v -3 1.5 -12
v -2.5 1.5 -12
v -3 1.5 -12
v -2.5 1.5 -13
v -3 1.5 -13
v -2.5 1 -13
v -3 1 -13
v -2.5 1.5 -13
v -3 1.5 -13
v -3 1 -12.5
v -3 1.5 -12.5
v -3 1 -13
v -3 1.5 -13
v -2.5 1 -13.5
v -4.5 1 -13.5
v -2.5 1.5 -13.5
v -4.5 1.5 -13.5
v -2.5 2 1.907349E-06
v -4 2 1.907349E-06
v -2.5 2 -3.499998
v -4 2 -3.499998
v -2.5 2 -9.499998
v -3 2 -9.499998
v -2.5 2 -9.999998
v -3 2 -9.999998
v -3 1.5 -9.999998
v -3 2 -9.999998
v -3 1.5 -10.5
v -3 2 -10.5
v -2.5 2 -10.5
v -3.5 2 -10.5
v -2.5 2 -11.5
v -3.5 2 -11.5
v -2.5 2 -3.499998
v -4 2 -3.499998
v -2.5 2.5 -3.499998
v -4 2.5 -3.499998
v -2.5 2.5 -3.499998
v -6.5 2.5 -3.499998
v -2.5 2.5 -4.499998
v -6.5 2.5 -4.499998
v -2.5 2 -3.499998
v -2.5 2.5 -3.499998
v -2.5 2 -4.499998
v -2.5 2.5 -4.499998
v -2.5 2.5 -8.499998
v -5 2.5 -8.499998
v -2.5 2.5 -9.499998
v -5 2.5 -9.499998
v -2.5 2 -8.499998
v -2.5 2.5 -8.499998
v -2.5 2 -9.499998
v -2.5 2.5 -9.499998
v -2.5 2 -9.499998
v -3 2 -9.499998
v -2.5 2.5 -9.499998
v -3 2.5 -9.499998
v -3.5 0.5 -11.5
v -3.5 2 -11.5
v -3.5 0.5 -12
v -3.5 2 -12
v -3 1 -12.5
v -5 1 -12.5
v -3 1 -13
v -5 1 -13
v -3 1.5 -9.999998
v -3.5 1.5 -9.999998
v -3 1.5 -10.5
v -3.5 1.5 -10.5
v -3 1 -11.5
v -3 2 -11.5
v -3 1 -12
v -3 2 -12
v -3 1 -12.5
v -3.5 1 -12.5
v -3 1.5 -12.5
v -3.5 1.5 -12.5
v -3 1.5 -12
v -3.5 1.5 -12
v -3 1.5 -12.5
v -3.5 1.5 -12.5
v -3.5 1 -12
v -3.5 1.5 -12
v -3.5 1 -12.5
v -3.5 1.5 -12.5
v -3 1.5 -9.999998
v -3.5 1.5 -9.999998
v -3 2.5 -9.999998
v -3.5 2.5 -9.999998
v -3 1.5 -10.5
v -3.5 1.5 -10.5
v -3 2 -10.5
v -3.5 2 -10.5
v -3.5 1.5 -11
v -3.5 2 -11
v -3.5 1.5 -11.5
v -3.5 2 -11.5
v -3 1.5 -12
v -3.5 1.5 -12
v -3 2 -12
v -3.5 2 -12
v -3 2 -11.5
v -3.5 2 -11.5
v -3 2 -12
v -3.5 2 -12
v -3 2.5 -9.499998
v -3.5 2.5 -9.499998
v -3 2.5 -9.999998
v -3.5 2.5 -9.999998
v -3 2 -9.499998
v -3 2.5 -9.499998
v -3 2 -9.999998
v -3 2.5 -9.999998
v -3.5 2 -9.499998
v -3.5 2.5 -9.499998
v -3.5 2 -9.999998
v -3.5 2.5 -9.999998
v -3.5 0.5 -11.5
v -5.5 0.5 -11.5
v -3.5 0.5 -12
v -5.5 0.5 -12
v -3.5 0.5 -11.5
v -4 0.5 -11.5
v -3.5 1.5 -11.5
v -4 1.5 -11.5
v -4 0.5 -11
v -4 1.5 -11
v -4 0.5 -11.5
v -4 1.5 -11.5
v -3.5 0.5 -12
v -4 0.5 -12
v -3.5 1 -12
v -4 1 -12
v -3.5 1 -12
v -4 1 -12
v -3.5 1 -12.5
v -4 1 -12.5
v -4 0.5 -12
v -4 1 -12
v -4 0.5 -12.5
v -4 1 -12.5
v -3.5 1.5 -11
v -4 1.5 -11
v -3.5 1.5 -11.5
v -4 1.5 -11.5
v -3.5 2 -9.499998
v -5 2 -9.499998
v -3.5 2 -9.999998
v -5 2 -9.999998
v -3.5 1.5 -9.999998
v -3.5 2.5 -9.999998
v -3.5 1.5 -10.5
v -3.5 2.5 -10.5
v -3.5 1.5 -11
v -4 1.5 -11
v -3.5 2.5 -11
v -4 2.5 -11
v -4 1.5 -10.5
v -4 2.5 -10.5
v -4 1.5 -11
v -4 2.5 -11
v -4 2 -7.499998
v -4 2.5 -7.499998
v -4 2 -7.999998
v -4 2.5 -7.999998
v -3.5 2 -9.499998
v -5 2 -9.499998
v -3.5 2.5 -9.499998
v -5 2.5 -9.499998
v -3.5 2 -9.999998
v -4 2 -9.999998
v -3.5 2.5 -9.999998
v -4 2.5 -9.999998
v -3.5 2.5 -9.999998
v -4 2.5 -9.999998
v -3.5 2.5 -11
v -4 2.5 -11
v -4 2 -9.999998
v -4 2.5 -9.999998
v -4 2 -10.5
v -4 2.5 -10.5
v -3.5 2 -10.5
v -3.5 2.5 -10.5
v -3.5 2 -11
v -3.5 2.5 -11
v -4 0.5 -11
v -5 0.5 -11
v -4 0.5 -11.5
v -5 0.5 -11.5
v -4 0.5 -12
v -5 0.5 -12
v -4 0.5 -12.5
v -5 0.5 -12.5
v -4 0.5 -11
v -5 0.5 -11
v -4 1.5 -11
v -5 1.5 -11
v -4 0.5 -12.5
v -5 0.5 -12.5
v -4 1 -12.5
v -5 1 -12.5
v -4 1.5 -10.5
v -5 1.5 -10.5
v -4 1.5 -11
v -5 1.5 -11
v -4 2 1.907349E-06
v -5.5 2 1.907349E-06
v -4 2 -2.999998
v -5.5 2 -2.999998
v -4 2 -7.499998
v -4.5 2 -7.499998
v -4 2 -7.999998
v -4.5 2 -7.999998
v -4 1.5 -10.5
v -5 1.5 -10.5
v -4 2 -10.5
v -5 2 -10.5
v -4 2 -9.999998
v -5 2 -9.999998
v -4 2 -10.5
v -5 2 -10.5
v -4 2 -2.999998
v -5.5 2 -2.999998
v -4 2.5 -2.999998
v -5.5 2.5 -2.999998
v -4 2.5 -2.999998
v -6.5 2.5 -2.999998
v -4 2.5 -3.499998
v -6.5 2.5 -3.499998
v -4 2 -2.999998
v -4 2.5 -2.999998
v -4 2 -3.499998
v -4 2.5 -3.499998
v -4.5 2 -4.999998
v -4.5 2.5 -4.999998
v -4.5 2 -6.999998
v -4.5 2.5 -6.999998
v -4 2 -7.499998
v -4.5 2 -7.499998
v -4 2.5 -7.499998
v -4.5 2.5 -7.499998
v -4 2 -7.999998
v -4.5 2 -7.999998
v -4 2.5 -7.999998
v -4.5 2.5 -7.999998
v -5 1 -10.5
v -5 1.5 -10.5
v -5 1 -11
v -5 1.5 -11
v -4.5 1 -13
v -5 1 -13
v -4.5 1.5 -13
v -5 1.5 -13
v -4.5 1.5 -13
v -8 1.5 -13
v -4.5 1.5 -13.5
v -8 1.5 -13.5
v -4.5 1 -13
v -4.5 1.5 -13
v -4.5 1 -13.5
v -4.5 1.5 -13.5
v -4.5 2 -4.999998
v -5 2 -4.999998
v -4.5 2 -6.999998
v -5 2 -6.999998
v -5 1.5 -9.499998
v -5 2 -9.499998
v -5 1.5 -10.5
v -5 2 -10.5
v -4.5 2 -4.999998
v -5 2 -4.999998
v -4.5 2.5 -4.999998
v -5 2.5 -4.999998
v -4.5 2.5 -4.499998
v -6.5 2.5 -4.499998
v -4.5 2.5 -4.999998
v -6.5 2.5 -4.999998
v -4.5 2 -6.999998
v -5 2 -6.999998
v -4.5 2.5 -6.999998
v -5 2.5 -6.999998
v -4.5 2.5 -6.999998
v -5 2.5 -6.999998
v -4.5 2.5 -7.999998
v -5 2.5 -7.999998
v -5 2 -6.999998
v -5 2.5 -6.999998
v -5 2 -7.499998
v -5 2.5 -7.499998
v -4.5 2 -7.499998
v -4.5 2.5 -7.499998
v -4.5 2 -7.999998
v -4.5 2.5 -7.999998
v -5 2 -8.999998
v -5 2.5 -8.999998
v -5 2 -9.499998
v -5 2.5 -9.499998
v -5 1 -10.5
v -5.5 1 -10.5
v -5 1 -11.5
v -5.5 1 -11.5
v -5 0.5 -11.5
v -5.5 0.5 -11.5
v -5 1 -11.5
v -5.5 1 -11.5
v -5 0.5 -11
v -5 1 -11
v -5 0.5 -11.5
v -5 1 -11.5
v -5.5 0.5 -11
v -5.5 1 -11
v -5.5 0.5 -11.5
v -5.5 1 -11.5
v -5 0.5 -12
v -5.5 0.5 -12
v -5 1 -12
v -5.5 1 -12
v -5 1 -12
v -6 1 -12
v -5 1 -12.5
v -6 1 -12.5
v -5 0.5 -12
v -5 1 -12
v -5 0.5 -12.5
v -5 1 -12.5
v -5 1.5 -9.499998
v -5.5 1.5 -9.499998
v -5 1.5 -10.5
v -5.5 1.5 -10.5
v -5.5 1 -9.499998
v -5.5 1.5 -9.499998
v -5.5 1 -10.5
v -5.5 1.5 -10.5
v -5 1 -10.5
v -5.5 1 -10.5
v -5 1.5 -10.5
v -5.5 1.5 -10.5
v -5 1 -12.5
v -6 1 -12.5
v -5 1.5 -12.5
v -6 1.5 -12.5
v -5 1.5 -12.5
v -6 1.5 -12.5
v -5 1.5 -13
v -6 1.5 -13
v -5 1 -12.5
v -5 1.5 -12.5
v -5 1 -13
v -5 1.5 -13
v -5 2 -6.499998
v -16 2 -6.499998
v -5 2 -7.499998
v -16 2 -7.499998
v -5 1.5 -9.499998
v -6 1.5 -9.499998
v -5 2 -9.499998
v -6 2 -9.499998
v -5 2 -8.999998
v -6 2 -8.999998
v -5 2 -9.499998
v -6 2 -9.499998
v -5 1.5 -13.5
v -5.5 1.5 -13.5
v -5 2 -13.5
v -5.5 2 -13.5
v -5 2 -13.5
v -5.5 2 -13.5
v -5 2 -14
v -5.5 2 -14
v -5 1.5 -13.5
v -5 2 -13.5
v -5 1.5 -14
v -5 2 -14
v -5.5 1.5 -13.5
v -5.5 2 -13.5
v -5.5 1.5 -14
v -5.5 2 -14
v -5 2.5 -4.999998
v -5.5 2.5 -4.999998
v -5 2.5 -6.499998
v -5.5 2.5 -6.499998
v -5 2 -4.999998
v -5 2.5 -4.999998
v -5 2 -6.499998
v -5 2.5 -6.499998
v -5 2 -6.499998
v -5.5 2 -6.499998
v -5 2.5 -6.499998
v -5.5 2.5 -6.499998
v -5.5 2 -5.999998
v -5.5 2.5 -5.999998
v -5.5 2 -6.499998
v -5.5 2.5 -6.499998
v -5 2 -7.499998
v -5.5 2 -7.499998
v -5 2.5 -7.499998
v -5.5 2.5 -7.499998
v -5 2.5 -7.499998
v -5.5 2.5 -7.499998
v -5 2.5 -7.999998
v -5.5 2.5 -7.999998
v -5.5 2 -7.499998
v -5.5 2.5 -7.499998
v -5.5 2 -7.999998
v -5.5 2.5 -7.999998
v -5 2 -8.999998
v -5.5 2 -8.999998
v -5 2.5 -8.999998
v -5.5 2.5 -8.999998
v -5 2.5 -8.499998
v -5.5 2.5 -8.499998
v -5 2.5 -8.999998
v -5.5 2.5 -8.999998
v -5.5 2 -8.499998
v -5.5 2.5 -8.499998
v -5.5 2 -8.999998
v -5.5 2.5 -8.999998
v -5.5 0.5 -11
v -8 0.5 -11
v -5.5 0.5 -11.5
v -8 0.5 -11.5
v -5.5 1 -9.499998
v -6.5 1 -9.499998
v -5.5 1 -11
v -6.5 1 -11
v -5.5 0.5 -11
v -6.5 0.5 -11
v -5.5 1 -11
v -6.5 1 -11
v -5.5 0.5 -11.5
v -6.5 0.5 -11.5
v -5.5 1 -11.5
v -6.5 1 -11.5
v -5.5 1 -11.5
v -6.5 1 -11.5
v -5.5 1 -12
v -6.5 1 -12
v -5.5 0.5 -11.5
v -5.5 1 -11.5
v -5.5 0.5 -12
v -5.5 1 -12
v -6 0.5 -12
v -6 1 -12
v -6 0.5 -12.5
v -6 1 -12.5
v -5.5 1 -9.499998
v -6 1 -9.499998
v -5.5 1.5 -9.499998
v -6 1.5 -9.499998
v -6 1 -8.999998
v -6 2 -8.999998
v -6 1 -9.499998
v -6 2 -9.499998
v -6 1 -12.5
v -6 1.5 -12.5
v -6 1 -13
v -6 1.5 -13
v -5.5 1.5 -13.5
v -7 1.5 -13.5
v -5.5 1.5 -14
v -7 1.5 -14
v -5.5 2 1.907349E-06
v -16 2 1.907349E-06
v -5.5 2 -2.499998
v -16 2 -2.499998
v -5.5 2 -5.999998
v -16 2 -5.999998
v -5.5 2 -6.499998
v -16 2 -6.499998
v -5.5 2 -7.499998
v -6 2 -7.499998
v -5.5 2 -7.999998
v -6 2 -7.999998
v -6 1.5 -7.999998
v -6 2 -7.999998
v -6 1.5 -8.999998
v -6 2 -8.999998
v -5.5 2 -8.499998
v -6 2 -8.499998
v -5.5 2 -8.999998
v -6 2 -8.999998
v -5.5 1.5 -14
v -7 1.5 -14
v -5.5 2 -14
v -7 2 -14
v -5.5 2 -2.499998
v -6.5 2 -2.499998
v -5.5 2.5 -2.499998
v -6.5 2.5 -2.499998
v -5.5 2.5 -2.499998
v -6.5 2.5 -2.499998
v -5.5 2.5 -2.999998
v -6.5 2.5 -2.999998
v -5.5 2 -2.499998
v -5.5 2.5 -2.499998
v -5.5 2 -2.999998
v -5.5 2.5 -2.999998
v -5.5 2.5 -4.999998
v -6 2.5 -4.999998
v -5.5 2.5 -5.999998
v -6 2.5 -5.999998
v -5.5 2 -5.999998
v -6 2 -5.999998
v -5.5 2.5 -5.999998
v -6 2.5 -5.999998
v -6 2 -5.499998
v -6 2.5 -5.499998
v -6 2 -5.999998
v -6 2.5 -5.999998
v -5.5 2 -8.499998
v -6 2 -8.499998
v -5.5 2.5 -8.499998
v -6 2.5 -8.499998
v -5.5 2 -7.999998
v -6 2 -7.999998
v -5.5 2.5 -7.999998
v -6 2.5 -7.999998
v -6 2 -7.999998
v -6 2.5 -7.999998
v -6 2 -8.499998
v -6 2.5 -8.499998
v -6 0.5 -12
v -8.5 0.5 -12
v -6 0.5 -12.5
v -8.5 0.5 -12.5
v -6 1 -8.999998
v -7.5 1 -8.999998
v -6 1 -9.499998
v -7.5 1 -9.499998
v -6.5 0.5 -9.499998
v -6.5 1 -9.499998
v -6.5 0.5 -11
v -6.5 1 -11
v -6 0.5 -12
v -6.5 0.5 -12
v -6 1 -12
v -6.5 1 -12
v -6.5 0.5 -11.5
v -6.5 1 -11.5
v -6.5 0.5 -12
v -6.5 1 -12
v -6 0.5 -12.5
v -8.5 0.5 -12.5
v -6 1 -12.5
v -8.5 1 -12.5
v -6 1 -12.5
v -8 1 -12.5
v -6 1 -13
v -8 1 -13
v -6 1.5 -7.999998
v -6.5 1.5 -7.999998
v -6 1.5 -8.999998
v -6.5 1.5 -8.999998
v -6.5 1 -7.999998
v -6.5 1.5 -7.999998
v -6.5 1 -8.999998
v -6.5 1.5 -8.999998
v -6 1 -8.999998
v -6.5 1 -8.999998
v -6 1.5 -8.999998
v -6.5 1.5 -8.999998
v -6 1 -13
v -8 1 -13
v -6 1.5 -13
v -8 1.5 -13
v -6 2 -5.499998
v -16 2 -5.499998
v -6 2 -5.999998
v -16 2 -5.999998
v -6 1.5 -7.999998
v -6.5 1.5 -7.999998
v -6 2.5 -7.999998
v -6.5 2.5 -7.999998
v -6.5 2 -2.499998
v -6.5 2.5 -2.499998
v -6.5 2 -5.499998
v -6.5 2.5 -5.499998
v -6 2 -5.499998
v -6.5 2 -5.499998
v -6 2.5 -5.499998
v -6.5 2.5 -5.499998
v -6 2.5 -4.999998
v -6.5 2.5 -4.999998
v -6 2.5 -5.499998
v -6.5 2.5 -5.499998
v -6 2 -7.499998
v -6.5 2 -7.499998
v -6 2.5 -7.499998
v -6.5 2.5 -7.499998
v -6 2.5 -7.499998
v -6.5 2.5 -7.499998
v -6 2.5 -7.999998
v -6.5 2.5 -7.999998
v -6 2 -7.499998
v -6 2.5 -7.499998
v -6 2 -7.999998
v -6 2.5 -7.999998
v -6.5 2 -7.499998
v -6.5 2.5 -7.499998
v -6.5 2 -7.999998
v -6.5 2.5 -7.999998
v -6.5 0.5 -9.499998
v -7.5 0.5 -9.499998
v -6.5 0.5 -11
v -7.5 0.5 -11
v -6.5 0.5 -11.5
v -8 0.5 -11.5
v -6.5 0.5 -12
v -8 0.5 -12
v -6.5 1 -7.999998
v -7 1 -7.999998
v -6.5 1 -8.999998
v -7 1 -8.999998
v -6.5 0.5 -9.499998
v -7.5 0.5 -9.499998
v -6.5 1 -9.499998
v -7.5 1 -9.499998
v -6.5 1 -7.999998
v -7 1 -7.999998
v -6.5 2 -7.999998
v -7 2 -7.999998
v -6.5 2 -2.499998
v -16 2 -2.499998
v -6.5 2 -5.499998
v -16 2 -5.499998
v -6.5 2 -7.499998
v -7 2 -7.499998
v -6.5 2 -7.999998
v -7 2 -7.999998
v -7 1.5 -7.499998
v -7 2 -7.499998
v -7 1.5 -7.999998
v -7 2 -7.999998
v -7 1 -8.499998
v -9 1 -8.499998
v -7 1 -8.999998
v -9 1 -8.999998
v -7.5 0.5 -8.999998
v -7.5 1 -8.999998
v -7.5 0.5 -9.499998
v -7.5 1 -9.499998
v -7 1.5 -7.499998
v -7.5 1.5 -7.499998
v -7 1.5 -8.499998
v -7.5 1.5 -8.499998
v -7 1 -8.499998
v -9 1 -8.499998
v -7 1.5 -8.499998
v -9 1.5 -8.499998
v -7 1 -7.999998
v -7 1.5 -7.999998
v -7 1 -8.499998
v -7 1.5 -8.499998
v -7 1.5 -7.499998
v -7.5 1.5 -7.499998
v -7 2 -7.499998
v -7.5 2 -7.499998
v -7 1.5 -13.5
v -7.5 1.5 -13.5
v -7 2 -13.5
v -7.5 2 -13.5
v -7 2 -13.5
v -7.5 2 -13.5
v -7 2 -14
v -7.5 2 -14
v -7 1.5 -13.5
v -7 2 -13.5
v -7 1.5 -14
v -7 2 -14
v -7.5 1.5 -13.5
v -7.5 2 -13.5
v -7.5 1.5 -14
v -7.5 2 -14
v -7.5 0.5 -8.999998
v -8 0.5 -8.999998
v -7.5 0.5 -10.5
v -8 0.5 -10.5
v -7.5 0.5 -8.999998
v -8 0.5 -8.999998
v -7.5 1 -8.999998
v -8 1 -8.999998
v -7.5 0.5 -11
v -8 0.5 -11
v -7.5 1 -11
v -8 1 -11
v -7.5 0.5 -10.5
v -8 0.5 -10.5
v -7.5 1 -10.5
v -8 1 -10.5
v -7.5 1 -10.5
v -8 1 -10.5
v -7.5 1 -11
v -8 1 -11
v -7.5 0.5 -10.5
v -7.5 1 -10.5
v -7.5 0.5 -11
v -7.5 1 -11
v -8 0.5 -10.5
v -8 1 -10.5
v -8 0.5 -11
v -8 1 -11
v -7.5 1.5 -7.999998
v -8 1.5 -7.999998
v -7.5 1.5 -8.499998
v -8 1.5 -8.499998
v -8 1 -13
v -8 1.5 -13
v -8 1 -13.5
v -8 1.5 -13.5
v -7.5 1.5 -13.5
v -8.5 1.5 -13.5
v -7.5 1.5 -14
v -8.5 1.5 -14
v -7.5 1.5 -7.999998
v -8 1.5 -7.999998
v -7.5 2 -7.999998
v -8 2 -7.999998
v -7.5 2 -7.499998
v -8 2 -7.499998
v -7.5 2 -7.999998
v -8 2 -7.999998
v -7.5 1.5 -7.499998
v -7.5 2 -7.499998
v -7.5 1.5 -7.999998
v -7.5 2 -7.999998
v -8 1.5 -7.499998
v -8 2 -7.499998
v -8 1.5 -7.999998
v -8 2 -7.999998
v -7.5 1.5 -14
v -8.5 1.5 -14
v -7.5 2 -14
v -8.5 2 -14
v -8 0.5 -9.999998
v -9 0.5 -9.999998
v -8 0.5 -11
v -9 0.5 -11
v -8 1 -8.999998
v -9.5 1 -8.999998
v -8 1 -9.999998
v -9.5 1 -9.999998
v -8 0.5 -8.999998
v -8 1 -8.999998
v -8 0.5 -9.999998
v -8 1 -9.999998
v -8 0.5 -9.999998
v -9 0.5 -9.999998
v -8 1 -9.999998
v -9 1 -9.999998
v -8 0.5 -11
v -8.5 0.5 -11
v -8 1 -11
v -8.5 1 -11
v -8 1 -11
v -8.5 1 -11
v -8 1 -12
v -8.5 1 -12
v -8 0.5 -11
v -8 1 -11
v -8 0.5 -12
v -8 1 -12
v -8.5 0.5 -11
v -8.5 1 -11
v -8.5 0.5 -12
v -8.5 1 -12
v -8 0.5 -12
v -8.5 0.5 -12
v -8 1 -12
v -8.5 1 -12
v -8 1 -13
v -9 1 -13
v -8 1 -13.5
v -9 1 -13.5
v -8 1.5 -7.499998
v -9 1.5 -7.499998
v -8 1.5 -7.999998
v -9 1.5 -7.999998
v -8 1 -13
v -8.5 1 -13
v -8 1.5 -13
v -8.5 1.5 -13
v -8 1 -12.5
v -8.5 1 -12.5
v -8 1.5 -12.5
v -8.5 1.5 -12.5
v -8 1.5 -12.5
v -8.5 1.5 -12.5
v -8 1.5 -13
v -8.5 1.5 -13
v -8 1 -12.5
v -8 1.5 -12.5
v -8 1 -13
v -8 1.5 -13
v -8.5 1 -12.5
v -8.5 1.5 -12.5
v -8.5 1 -13
v -8.5 1.5 -13
v -8 1 -13.5
v -9 1 -13.5
v -8 1.5 -13.5
v -9 1.5 -13.5
v -8 1.5 -7.499998
v -9 1.5 -7.499998
v -8 2 -7.499998
v -9 2 -7.499998
v -8 1.5 -8.499998
v -8.5 1.5 -8.499998
v -8 2 -8.499998
v -8.5 2 -8.499998
v -8 1.5 -7.999998
v -8.5 1.5 -7.999998
v -8 2 -7.999998
v -8.5 2 -7.999998
v -8 2 -7.999998
v -8.5 2 -7.999998
v -8 2 -8.499998
v -8.5 2 -8.499998
v -8 1.5 -7.999998
v -8 2 -7.999998
v -8 1.5 -8.499998
v -8 2 -8.499998
v -8.5 1.5 -7.999998
v -8.5 2 -7.999998
v -8.5 1.5 -8.499998
v -8.5 2 -8.499998
v -8.5 0.5 -11
v -9 0.5 -11
v -8.5 0.5 -12
v -9 0.5 -12
v -8.5 0.5 -12
v -9 0.5 -12
v -8.5 1 -12
v -9 1 -12
v -8.5 1 -12
v -9 1 -12
v -8.5 1 -13
v -9 1 -13
v -8.5 0.5 -12
v -8.5 1 -12
v -8.5 0.5 -12.5
v -8.5 1 -12.5
v -8.5 1.5 -7.999998
v -9.5 1.5 -7.999998
v -8.5 1.5 -8.499998
v -9.5 1.5 -8.499998
v -8.5 1.5 -13.5
v -9 1.5 -13.5
v -8.5 2 -13.5
v -9 2 -13.5
v -8.5 2 -13.5
v -9 2 -13.5
v -8.5 2 -14
v -9 2 -14
v -8.5 1.5 -13.5
v -8.5 2 -13.5
v -8.5 1.5 -14
v -8.5 2 -14
v -9 1.5 -13.5
v -9 2 -13.5
v -9 1.5 -14
v -9 2 -14
v -9 0.5 -10.5
v -10 0.5 -10.5
v -9 0.5 -11
v -10 0.5 -11
v -9 0.5 -10.5
v -10 0.5 -10.5
v -9 1 -10.5
v -10 1 -10.5
v -9 1 -9.999998
v -10 1 -9.999998
v -9 1 -10.5
v -10 1 -10.5
v -9 0.5 -9.999998
v -9 1 -9.999998
v -9 0.5 -10.5
v -9 1 -10.5
v -9 0.5 -11
v -10 0.5 -11
v -9 1 -11
v -10 1 -11
v -9 1 -11
v -10 1 -11
v -9 1 -12.5
v -10 1 -12.5
v -9 0.5 -11
v -9 1 -11
v -9 0.5 -12
v -9 1 -12
v -9 1 -8.999998
v -9.5 1 -8.999998
v -9 1.5 -8.999998
v -9.5 1.5 -8.999998
v -9 1.5 -8.499998
v -9.5 1.5 -8.499998
v -9 1.5 -8.999998
v -9.5 1.5 -8.999998
v -9 1 -8.499998
v -9 1.5 -8.499998
v -9 1 -8.999998
v -9 1.5 -8.999998
v -9 1 -12.5
v -9.5 1 -12.5
v -9 1.5 -12.5
v -9.5 1.5 -12.5
v -9 1.5 -12.5
v -9.5 1.5 -12.5
v -9 1.5 -14
v -9.5 1.5 -14
v -9 1 -12.5
v -9 1.5 -12.5
v -9 1 -13.5
v -9 1.5 -13.5
v -9.5 1 -12.5
v -9.5 1.5 -12.5
v -9.5 1 -13
v -9.5 1.5 -13
v -9 1.5 -7.999998
v -9.5 1.5 -7.999998
v -9 2 -7.999998
v -9.5 2 -7.999998
v -9 2 -7.499998
v -16 2 -7.499998
v -9 2 -7.999998
v -16 2 -7.999998
v -9 1.5 -7.499998
v -9 2 -7.499998
v -9 1.5 -7.999998
v -9 2 -7.999998
v -9 1.5 -14
v -11.5 1.5 -14
v -9 2 -14
v -11.5 2 -14
v -10 0.5 -11
v -10 1 -11
v -10 0.5 -11.5
v -10 1 -11.5
v -9.5 1 -12.5
v -10 1 -12.5
v -9.5 1 -13
v -10 1 -13
v -9.5 1 -8.999998
v -9.5 1.5 -8.999998
v -9.5 1 -9.999998
v -9.5 1.5 -9.999998
v -9.5 1 -9.999998
v -10 1 -9.999998
v -9.5 1.5 -9.999998
v -10 1.5 -9.999998
v -9.5 1.5 -9.499998
v -11 1.5 -9.499998
v -9.5 1.5 -9.999998
v -11 1.5 -9.999998
v -9.5 1 -13
v -10 1 -13
v -9.5 1.5 -13
v -10 1.5 -13
v -9.5 1.5 -13
v -11.5 1.5 -13
v -9.5 1.5 -14
v -11.5 1.5 -14
v -9.5 2 -7.999998
v -16 2 -7.999998
v -9.5 2 -9.499998
v -16 2 -9.499998
v -9.5 1.5 -7.999998
v -9.5 2 -7.999998
v -9.5 1.5 -9.499998
v -9.5 2 -9.499998
v -9.5 1.5 -9.499998
v -11 1.5 -9.499998
v -9.5 2 -9.499998
v -11 2 -9.499998
v -10 0.5 -11
v -10.5 0.5 -11
v -10 0.5 -11.5
v -10.5 0.5 -11.5
v -10 0.5 -11
v -10.5 0.5 -11
v -10 1 -11
v -10.5 1 -11
v -10 1 -10.5
v -10.5 1 -10.5
v -10 1 -11
v -10.5 1 -11
v -10 0.5 -10.5
v -10 1 -10.5
v -10 0.5 -11
v -10 1 -11
v -10 0.5 -11.5
v -10.5 0.5 -11.5
v -10 1 -11.5
v -10.5 1 -11.5
v -10 1 -11.5
v -10.5 1 -11.5
v -10 1 -12.5
v -10.5 1 -12.5
v -10 1 -10.5
v -10.5 1 -10.5
v -10 1.5 -10.5
v -10.5 1.5 -10.5
v -10 1.5 -9.999998
v -11.5 1.5 -9.999998
v -10 1.5 -10.5
v -11.5 1.5 -10.5
v -10 1 -9.999998
v -10 1.5 -9.999998
v -10 1 -10.5
v -10 1.5 -10.5
v -10 1 -12.5
v -10.5 1 -12.5
v -10 1.5 -12.5
v -10.5 1.5 -12.5
v -10 1.5 -12.5
v -11.5 1.5 -12.5
v -10 1.5 -13
v -11.5 1.5 -13
v -10 1 -12.5
v -10 1.5 -12.5
v -10 1 -13
v -10 1.5 -13
v -10.5 1 -11
v -11 1 -11
v -10.5 1 -12
v -11 1 -12
v -10.5 0.5 -11
v -10.5 1 -11
v -10.5 0.5 -11.5
v -10.5 1 -11.5
v -10.5 1 -11
v -11 1 -11
v -10.5 1.5 -11
v -11 1.5 -11
v -10.5 1.5 -10.5
v -11 1.5 -10.5
v -10.5 1.5 -11
v -11 1.5 -11
v -10.5 1 -10.5
v -10.5 1.5 -10.5
v -10.5 1 -11
v -10.5 1.5 -11
v -10.5 1 -12
v -11.5 1 -12
v -10.5 1.5 -12
v -11.5 1.5 -12
v -10.5 1.5 -12
v -11.5 1.5 -12
v -10.5 1.5 -12.5
v -11.5 1.5 -12.5
v -10.5 1 -12
v -10.5 1.5 -12
v -10.5 1 -12.5
v -10.5 1.5 -12.5
v -11 1 -11.5
v -11.5 1 -11.5
v -11 1 -12
v -11.5 1 -12
v -11 1 -11.5
v -11.5 1 -11.5
v -11 1.5 -11.5
v -11.5 1.5 -11.5
v -11 1.5 -11
v -11.5 1.5 -11
v -11 1.5 -11.5
v -11.5 1.5 -11.5
v -11 1 -11
v -11 1.5 -11
v -11 1 -11.5
v -11 1.5 -11.5
v -11.5 1 -12
v -11.5 1.5 -12
v -11.5 1 -13
v -11.5 1.5 -13
v -11 1.5 -9.999998
v -11.5 1.5 -9.999998
v -11 2 -9.999998
v -11.5 2 -9.999998
v -11 2 -9.499998
v -16 2 -9.499998
v -11 2 -9.999998
v -16 2 -9.999998
v -11 1.5 -9.499998
v -11 2 -9.499998
v -11 1.5 -9.999998
v -11 2 -9.999998
v -11 1.5 -11
v -11.5 1.5 -11
v -11 2 -11
v -11.5 2 -11
v -11 1.5 -10.5
v -11.5 1.5 -10.5
v -11 2 -10.5
v -11.5 2 -10.5
v -11 2 -10.5
v -11.5 2 -10.5
v -11 2 -11
v -11.5 2 -11
v -11 1.5 -10.5
v -11 2 -10.5
v -11 1.5 -11
v -11 2 -11
v -11.5 1.5 -10.5
v -11.5 2 -10.5
v -11.5 1.5 -11
v -11.5 2 -11
v -11.5 1 -12
v -12 1 -12
v -11.5 1 -13
v -12 1 -13
v -11.5 1.5 -10.5
v -12 1.5 -10.5
v -11.5 1.5 -11
v -12 1.5 -11
v -11.5 1 -12
v -12 1 -12
v -11.5 1.5 -12
v -12 1.5 -12
v -11.5 1.5 -11.5
v -13 1.5 -11.5
v -11.5 1.5 -12
v -13 1.5 -12
v -11.5 1 -11.5
v -11.5 1.5 -11.5
v -11.5 1 -12
v -11.5 1.5 -12
v -11.5 1 -13
v -12 1 -13
v -11.5 1.5 -13
v -12 1.5 -13
v -11.5 1.5 -13
v -13.5 1.5 -13
v -11.5 1.5 -13.5
v -13.5 1.5 -13.5
v -11.5 1.5 -10.5
v -12 1.5 -10.5
v -11.5 2 -10.5
v -12 2 -10.5
v -11.5 2 -9.999998
v -16 2 -9.999998
v -11.5 2 -10.5
v -16 2 -10.5
v -11.5 1.5 -9.999998
v -11.5 2 -9.999998
v -11.5 1.5 -10.5
v -11.5 2 -10.5
v -11.5 1.5 -11.5
v -12 1.5 -11.5
v -11.5 2 -11.5
v -12 2 -11.5
v -11.5 1.5 -11
v -12 1.5 -11
v -11.5 2 -11
v -12 2 -11
v -11.5 2 -11
v -12 2 -11
v -11.5 2 -11.5
v -12 2 -11.5
v -11.5 1.5 -11
v -11.5 2 -11
v -11.5 1.5 -11.5
v -11.5 2 -11.5
v -12 1.5 -11
v -12 2 -11
v -12 1.5 -11.5
v -12 2 -11.5
v -11.5 1.5 -13.5
v -12.5 1.5 -13.5
v -11.5 2 -13.5
v -12.5 2 -13.5
v -11.5 2 -13.5
v -12.5 2 -13.5
v -11.5 2 -14
v -12.5 2 -14
v -11.5 1.5 -13.5
v -11.5 2 -13.5
v -11.5 1.5 -14
v -11.5 2 -14
v -12 1.5 -11
v -12.5 1.5 -11
v -12 1.5 -11.5
v -12.5 1.5 -11.5
v -12 1.5 -12
v -12.5 1.5 -12
v -12 1.5 -13
v -12.5 1.5 -13
v -12 1 -12
v -12 1.5 -12
v -12 1 -13
v -12 1.5 -13
v -12.5 1 -12.5
v -12.5 1.5 -12.5
v -12.5 1 -13
v -12.5 1.5 -13
v -12 1.5 -11
v -12.5 1.5 -11
v -12 2 -11
v -12.5 2 -11
v -12 2 -10.5
v -16 2 -10.5
v -12 2 -11
v -16 2 -11
v -12 1.5 -10.5
v -12 2 -10.5
v -12 1.5 -11
v -12 2 -11
v -12.5 1.5 -13.5
v -12.5 2 -13.5
v -12.5 1.5 -14
v -12.5 2 -14
v -12.5 1 -12.5
v -13 1 -12.5
v -12.5 1 -13
v -13 1 -13
v -12.5 1 -12.5
v -13 1 -12.5
v -12.5 1.5 -12.5
v -13 1.5 -12.5
v -12.5 1.5 -12
v -13 1.5 -12
v -12.5 1.5 -12.5
v -13 1.5 -12.5
v -12.5 1 -13
v -13 1 -13
v -12.5 1.5 -13
v -13 1.5 -13
v -12.5 1.5 -13.5
v -13.5 1.5 -13.5
v -12.5 1.5 -14
v -13.5 1.5 -14
v -12.5 1.5 -11.5
v -13 1.5 -11.5
v -12.5 2 -11.5
v -13 2 -11.5
v -12.5 2 -11
v -16 2 -11
v -12.5 2 -11.5
v -16 2 -11.5
v -12.5 1.5 -11
v -12.5 2 -11
v -12.5 1.5 -11.5
v -12.5 2 -11.5
v -12.5 1.5 -14
v -13.5 1.5 -14
v -12.5 2 -14
v -13.5 2 -14
v -13 1.5 -12.5
v -13.5 1.5 -12.5
v -13 1.5 -13
v -13.5 1.5 -13
v -13 1 -12.5
v -13 1.5 -12.5
v -13 1 -13
v -13 1.5 -13
v -13 2 -11.5
v -16 2 -11.5
v -13 2 -12.5
v -16 2 -12.5
v -13 1.5 -11.5
v -13 2 -11.5
v -13 1.5 -12.5
v -13 2 -12.5
v -13 1.5 -12.5
v -13.5 1.5 -12.5
v -13 2 -12.5
v -13.5 2 -12.5
v -13.5 2 -12.5
v -16 2 -12.5
v -13.5 2 -14
v -16 2 -14
v -13.5 1.5 -12.5
v -13.5 2 -12.5
v -13.5 1.5 -14
v -13.5 2 -14
v -16 0 1.907349E-06
v -16 2 1.907349E-06
v -16 0 -16
v -16 2 -16
vn 0 -5.960464E-08 0.9999999
vn 0 -0.9999999 -5.960464E-08
vn 1 0 0
vn 0 5.960464E-08 -0.9999999
vn 0 0.9999999 5.960464E-08
vn -1 0 0
vt 0.2890625 0.0078125
vt 0.5390625 0.0078125
vt 0.2890625 0.0390625
vt 0.5390625 0.0390625
vt 0.0078125 0.0078125
vt 0.2578125 0.0078125
vt 0.0078125 0.2578125
vt 0.2578125 0.2578125
vt 0.5703125 0.0078125
vt 0.6015625 0.0078125
vt 0.5703125 0.2578125
vt 0.6015625 0.2578125
vt 0.2890625 0.0703125
vt 0.5390625 0.0703125
vt 0.2890625 0.1015625
vt 0.5390625 0.1015625
vt 0.6953125 0.0078125
vt 0.71875 0.0078125
vt 0.6953125 0.2578125
vt 0.71875 0.2578125
vt 0.5390625 0.1328125
vt 0.8828125 0.125
vt 0.8984375 0.125
vt 0.8828125 0.1875
vt 0.8984375 0.1875
vt 0.0859375 0.5703125
vt 0.09375 0.5703125
vt 0.0859375 0.6171875
vt 0.09375 0.6171875
vt 0.8046875 0.2578125
vt 0.5390625 0.2578125
vt 0.0078125 0.7421875
vt 0.015625 0.7421875
vt 0.0078125 0.7734375
vt 0.015625 0.7734375
vt 0.8828125 0.21875
vt 0.890625 0.21875
vt 0.8828125 0.2578125
vt 0.890625 0.2578125
vt 0.5390625 0.2265625
vt 0.5390625 0.1640625
vt 0.0078125 0.6484375
vt 0.046875 0.6484375
vt 0.0078125 0.65625
vt 0.046875 0.65625
vt 0.171875 0.53125
vt 0.2578125 0.8046875
vt 0.265625 0.8046875
vt 0.2578125 0.8203125
vt 0.265625 0.8203125
vt 0.2578125 0.8515625
vt 0.265625 0.8515625
vt 0.2578125 0.8671875
vt 0.265625 0.8671875
vt 0.3828125 0.2890625
vt 0.390625 0.2890625
vt 0.3828125 0.3046875
vt 0.390625 0.3046875
vt 0.1640625 0.84375
vt 0.46875 0.2890625
vt 0.484375 0.2890625
vt 0.46875 0.296875
vt 0.484375 0.296875
vt 0.09375 0.53125
vt 0.140625 0.53125
vt 0.09375 0.5390625
vt 0.140625 0.5390625
vt 0.8359375 0.2578125
vt 0.5625 0.2890625
vt 0.578125 0.2890625
vt 0.5625 0.296875
vt 0.578125 0.296875
vt 0.0078125 0.9375
vt 0.015625 0.9375
vt 0.0078125 0.9609375
vt 0.015625 0.9609375
vt 0.2890625 0.1328125
vt 0.5078125 0.1328125
vt 0.2890625 0.1640625
vt 0.5078125 0.1640625
vt 0.46875 0.1953125
vt 0.5078125 0.1953125
vt 0.46875 0.2421875
vt 0.5078125 0.2421875
vt 0.046875 0.5703125
vt 0.0546875 0.5703125
vt 0.046875 0.6171875
vt 0.0546875 0.6171875
vt 0.0546875 0.9765625
vt 0.0078125 0.4921875
vt 0.0703125 0.4921875
vt 0.0078125 0.5
vt 0.0703125 0.5
vt 0.5390625 0.1953125
vt 0.0859375 0.7421875
vt 0.1171875 0.7421875
vt 0.0859375 0.75
vt 0.1171875 0.75
vt 0.6484375 0.2890625
vt 0.65625 0.2890625
vt 0.6484375 0.3046875
vt 0.65625 0.3046875
vt 0.0078125 0.8046875
vt 0.0390625 0.8046875
vt 0.0078125 0.8125
vt 0.0390625 0.8125
vt 0.75 0.1796875
vt 0.7734375 0.1796875
vt 0.75 0.234375
vt 0.7734375 0.234375
vt 0.0078125 0.84375
vt 0.0234375 0.84375
vt 0.0078125 0.859375
vt 0.0234375 0.859375
vt 0.0546875 0.84375
vt 0.078125 0.84375
vt 0.0546875 0.8515625
vt 0.078125 0.8515625
vt 0.0078125 0.40625
vt 0.0703125 0.40625
vt 0.0078125 0.421875
vt 0.0703125 0.421875
vt 0.203125 0.328125
vt 0.2109375 0.328125
vt 0.203125 0.34375
vt 0.2109375 0.34375
vt 0.9296875 0.2265625
vt 0.96875 0.2265625
vt 0.9296875 0.2421875
vt 0.96875 0.2421875
vt 0.609375 0.2890625
vt 0.6171875 0.2890625
vt 0.609375 0.3046875
vt 0.6171875 0.3046875
vt 0.203125 0.2890625
vt 0.2265625 0.2890625
vt 0.203125 0.296875
vt 0.2265625 0.296875
vt 0.0703125 0.8046875
vt 0.1015625 0.8046875
vt 0.0703125 0.8125
vt 0.1015625 0.8125
vt 0.421875 0.2890625
vt 0.4375 0.2890625
vt 0.421875 0.296875
vt 0.4375 0.296875
vt 0.203125 0.7109375
vt 0.2109375 0.7109375
vt 0.203125 0.7265625
vt 0.2109375 0.7265625
vt 0.34375 0.2890625
vt 0.3515625 0.2890625
vt 0.34375 0.3046875
vt 0.3515625 0.3046875
vt 0.2578125 0.8984375
vt 0.2734375 0.8984375
vt 0.2578125 0.90625
vt 0.2734375 0.90625
vt 0.109375 0.9375
vt 0.1328125 0.9375
vt 0.109375 0.9453125
vt 0.1328125 0.9453125
vt 0.1484375 0.3671875
vt 0.171875 0.3671875
vt 0.1484375 0.375
vt 0.171875 0.375
vt 0.2578125 0.546875
vt 0.265625 0.546875
vt 0.2578125 0.5625
vt 0.265625 0.5625
vt 0.0078125 0.890625
vt 0.0234375 0.890625
vt 0.0078125 0.90625
vt 0.0234375 0.90625
vt 0.2578125 0.4609375
vt 0.2734375 0.4609375
vt 0.2578125 0.46875
vt 0.2734375 0.46875
vt 0.8046875 0.1796875
vt 0.828125 0.1796875
vt 0.8046875 0.2265625
vt 0.828125 0.2265625
vt 0.203125 0.9140625
vt 0.21875 0.9140625
vt 0.203125 0.921875
vt 0.21875 0.921875
vt 0.203125 0.875
vt 0.21875 0.875
vt 0.203125 0.8828125
vt 0.21875 0.8828125
vt 0.125 0.609375
vt 0.1640625 0.609375
vt 0.125 0.6171875
vt 0.1640625 0.6171875
vt 0.046875 0.7421875
vt 0.0546875 0.7421875
vt 0.046875 0.7734375
vt 0.0546875 0.7734375
vt 0.1171875 0.453125
vt 0.171875 0.453125
vt 0.1171875 0.4609375
vt 0.171875 0.4609375
vt 0.1484375 0.7421875
vt 0.15625 0.7421875
vt 0.1484375 0.7734375
vt 0.15625 0.7734375
vt 0.2578125 0.4140625
vt 0.265625 0.4140625
vt 0.2578125 0.4296875
vt 0.265625 0.4296875
vt 0.078125 0.6484375
vt 0.109375 0.6484375
vt 0.078125 0.65625
vt 0.109375 0.65625
vt 0.203125 0.375
vt 0.2109375 0.375
vt 0.203125 0.390625
vt 0.2109375 0.390625
vt 0.109375 0.9765625
vt 0.203125 0.421875
vt 0.21875 0.421875
vt 0.203125 0.4296875
vt 0.21875 0.4296875
vt 0.203125 0.4609375
vt 0.2109375 0.4609375
vt 0.203125 0.4765625
vt 0.2109375 0.4765625
vt 0.203125 0.5078125
vt 0.2109375 0.5078125
vt 0.203125 0.5234375
vt 0.2109375 0.5234375
vt 0.203125 0.5546875
vt 0.21875 0.5546875
vt 0.203125 0.5625
vt 0.21875 0.5625
vt 0.203125 0.59375
vt 0.21875 0.59375
vt 0.203125 0.6015625
vt 0.21875 0.6015625
vt 0.75 0.078125
vt 0.921875 0.078125
vt 0.75 0.09375
vt 0.921875 0.09375
vt 0.203125 0.6328125
vt 0.21875 0.6328125
vt 0.203125 0.640625
vt 0.21875 0.640625
vt 0.203125 0.671875
vt 0.21875 0.671875
vt 0.203125 0.6796875
vt 0.21875 0.6796875
vt 0.0546875 0.921875
vt 0.0625 0.921875
vt 0.0546875 0.9453125
vt 0.0625 0.9453125
vt 0.1484375 0.8828125
vt 0.15625 0.8828125
vt 0.1484375 0.90625
vt 0.15625 0.90625
vt 0.0546875 0.6875
vt 0.0703125 0.6875
vt 0.0546875 0.7109375
vt 0.0703125 0.7109375
vt 0.203125 0.7578125
vt 0.21875 0.7578125
vt 0.203125 0.765625
vt 0.21875 0.765625
vt 0.203125 0.796875
vt 0.21875 0.796875
vt 0.203125 0.8046875
vt 0.21875 0.8046875
vt 0.203125 0.8359375
vt 0.21875 0.8359375
vt 0.203125 0.84375
vt 0.21875 0.84375
vt 0.75 0.0078125
vt 0.9140625 0.0078125
vt 0.75 0.046875
vt 0.9140625 0.046875
vt 0.0078125 0.2890625
vt 0.171875 0.2890625
vt 0.0078125 0.296875
vt 0.171875 0.296875
vt 0.203125 0.953125
vt 0.2109375 0.953125
vt 0.203125 0.96875
vt 0.2109375 0.96875
vt 0.2578125 0.2890625
vt 0.2734375 0.2890625
vt 0.2578125 0.296875
vt 0.2734375 0.296875
vt 0.2578125 0.328125
vt 0.2734375 0.328125
vt 0.2578125 0.3359375
vt 0.2734375 0.3359375
vt 0.2578125 0.3671875
vt 0.265625 0.3671875
vt 0.2578125 0.3828125
vt 0.265625 0.3828125
vt 0.0546875 0.8828125
vt 0.078125 0.8828125
vt 0.0546875 0.890625
vt 0.078125 0.890625
vt 0.109375 0.8828125
vt 0.1171875 0.8828125
vt 0.109375 0.90625
vt 0.1171875 0.90625
vt 0.125 0.5703125
vt 0.1640625 0.5703125
vt 0.125 0.578125
vt 0.1640625 0.578125
vt 0.1015625 0.6875
vt 0.1328125 0.6875
vt 0.1015625 0.6953125
vt 0.1328125 0.6953125
vt 0.0078125 0.328125
vt 0.1640625 0.328125
vt 0.0078125 0.3359375
vt 0.1640625 0.3359375
vt 0.0078125 0.5703125
vt 0.015625 0.5703125
vt 0.0078125 0.6171875
vt 0.015625 0.6171875
vt 0.2578125 0.5
vt 0.265625 0.5
vt 0.2578125 0.515625
vt 0.265625 0.515625
vt 0.2890625 0.1953125
vt 0.4375 0.1953125
vt 0.2890625 0.2421875
vt 0.4375 0.2421875
vt 0.140625 0.6484375
vt 0.171875 0.6484375
vt 0.140625 0.65625
vt 0.171875 0.65625
vt 0.953125 0.078125
vt 0.9765625 0.078125
vt 0.953125 0.09375
vt 0.9765625 0.09375
vt 0.2578125 0.59375
vt 0.265625 0.59375
vt 0.2578125 0.609375
vt 0.265625 0.609375
vt 0.2578125 0.640625
vt 0.2734375 0.640625
vt 0.2578125 0.6484375
vt 0.2734375 0.6484375
vt 0.2578125 0.6796875
vt 0.2734375 0.6796875
vt 0.2578125 0.6875
vt 0.2734375 0.6875
vt 0.6875 0.2890625
vt 0.703125 0.2890625
vt 0.6875 0.296875
vt 0.703125 0.296875
vt 0.2578125 0.71875
vt 0.2734375 0.71875
vt 0.2578125 0.7265625
vt 0.2734375 0.7265625
vt 0.0078125 0.6875
vt 0.0234375 0.6875
vt 0.0078125 0.7109375
vt 0.0234375 0.7109375
vt 0.1640625 0.6875
vt 0.171875 0.6875
vt 0.1640625 0.7109375
vt 0.171875 0.7109375
vt 0.0078125 0.3671875
vt 0.1171875 0.3671875
vt 0.0078125 0.375
vt 0.1171875 0.375
vt 0.2578125 0.7578125
vt 0.265625 0.7578125
vt 0.2578125 0.7734375
vt 0.265625 0.7734375
vt 0.109375 0.84375
vt 0.1328125 0.84375
vt 0.109375 0.8515625
vt 0.1328125 0.8515625
vt 0.9453125 0.0078125
vt 0.9765625 0.0078125
vt 0.9453125 0.0234375
vt 0.9765625 0.0234375
vt 0.75 0.125
vt 0.8515625 0.125
vt 0.75 0.1484375
vt 0.8515625 0.1484375
vt 0.2578125 0.9375
vt 0.265625 0.9375
vt 0.2578125 0.953125
vt 0.265625 0.953125
vt 0.1328125 0.8046875
vt 0.15625 0.8046875
vt 0.1328125 0.8125
vt 0.15625 0.8125
vt 0.3046875 0.2890625
vt 0.3125 0.2890625
vt 0.3046875 0.3046875
vt 0.3125 0.3046875
vt 0.0078125 0.453125
vt 0.0859375 0.453125
vt 0.0078125 0.4609375
vt 0.0859375 0.4609375
vt 0.1015625 0.40625
vt 0.171875 0.40625
vt 0.1015625 0.4140625
vt 0.171875 0.4140625
vt 0.1015625 0.4921875
vt 0.1640625 0.4921875
vt 0.1015625 0.5
vt 0.1640625 0.5
vt 0.0078125 0.53125
vt 0.0625 0.53125
vt 0.0078125 0.5390625
vt 0.0625 0.5390625
vt 0.515625 0.2890625
vt 0.53125 0.2890625
vt 0.515625 0.296875
vt 0.53125 0.296875
vt 0.9296875 0.1796875
vt 0.9765625 0.1796875
vt 0.9296875 0.1953125
vt 0.9765625 0.1953125
vt 0.9296875 0.125
vt 0.96875 0.125
vt 0.9296875 0.1484375
vt 0.96875 0.1484375
vt 0.1640625 0.9375
vt 0.171875 0.9375
vt 0.1640625 0.9609375
vt 0.171875 0.9609375
vt 0.6328125 0.0078125
vt 0.6640625 0.0078125
vt 0.6328125 0.2578125
vt 0.6640625 0.2578125
usemtl voxel
f 2/2/1 1/1/1 3/3/1
f 2/2/1 3/3/1 4/4/1
f 5/5/2 6/6/2 7/7/2
f 7/7/2 6/6/2 8/8/2
f 10/10/3 9/9/3 11/11/3
f 10/10/3 11/11/3 12/12/3
f 13/13/4 14/14/4 15/15/4
f 15/15/4 14/14/4 16/16/4
f 18/18/5 17/17/5 19/19/5
f 18/18/5 19/19/5 20/20/5
f 21/21/6 22/21/6 23/21/6
f 23/21/6 22/21/6 24/21/6
f 26/21/5 25/21/5 27/21/5
f 26/21/5 27/21/5 28/21/5
f 30/23/5 29/22/5 31/24/5
f 30/23/5 31/24/5 32/25/5
f 34/27/5 33/26/5 35/28/5
f 34/27/5 35/28/5 36/29/5
f 38/30/5 37/30/5 39/30/5
f 38/30/5 39/30/5 40/30/5
f 42/31/5 41/31/5 43/31/5
f 42/31/5 43/31/5 44/31/5
f 46/33/5 45/32/5 47/34/5
f 46/33/5 47/34/5 48/35/5
f 49/21/4 50/21/4 51/21/4
f 51/21/4 50/21/4 52/21/4
f 54/21/1 53/21/1 55/21/1
f 54/21/1 55/21/1 56/21/1
f 58/37/5 57/36/5 59/38/5
f 58/37/5 59/38/5 60/39/5
f 61/21/6 62/21/6 63/21/6
f 63/21/6 62/21/6 64/21/6
f 65/40/4 66/40/4 67/40/4
f 67/40/4 66/40/4 68/40/4
f 70/40/1 69/40/1 71/40/1
f 70/40/1 71/40/1 72/40/1
f 74/40/5 73/40/5 75/40/5
f 74/40/5 75/40/5 76/40/5
f 78/40/3 77/40/3 79/40/3
f 78/40/3 79/40/3 80/40/3
f 81/40/6 82/40/6 83/40/6
f 83/40/6 82/40/6 84/40/6
f 85/41/4 86/41/4 87/41/4
f 87/41/4 86/41/4 88/41/4
f 90/41/1 89/41/1 91/41/1
f 90/41/1 91/41/1 92/41/1
f 94/43/5 93/42/5 95/44/5
f 94/43/5 95/44/5 96/45/5
f 98/41/3 97/41/3 99/41/3
f 98/41/3 99/41/3 100/41/3
f 102/46/1 101/46/1 103/46/1
f 102/46/1 103/46/1 104/46/1
f 106/48/5 105/47/5 107/49/5
f 106/48/5 107/49/5 108/50/5
f 110/52/3 109/51/3 111/53/3
f 110/52/3 111/53/3 112/54/3
f 113/55/6 114/56/6 115/57/6
f 115/57/6 114/56/6 116/58/6
f 117/59/4 118/59/4 119/59/4
f 119/59/4 118/59/4 120/59/4
f 121/40/4 122/40/4 123/40/4
f 123/40/4 122/40/4 124/40/4
f 126/40/1 125/40/1 127/40/1
f 126/40/1 127/40/1 128/40/1
f 130/40/5 129/40/5 131/40/5
f 130/40/5 131/40/5 132/40/5
f 134/40/3 133/40/3 135/40/3
f 134/40/3 135/40/3 136/40/3
f 137/40/6 138/40/6 139/40/6
f 139/40/6 138/40/6 140/40/6
f 141/60/6 142/61/6 143/62/6
f 143/62/6 142/61/6 144/63/6
f 145/21/6 146/21/6 147/21/6
f 147/21/6 146/21/6 148/21/6
f 150/65/5 149/64/5 151/66/5
f 150/65/5 151/66/5 152/67/5
f 154/68/5 153/68/5 155/68/5
f 154/68/5 155/68/5 156/68/5
f 158/46/5 157/46/5 159/46/5
f 158/46/5 159/46/5 160/46/5
f 162/70/5 161/69/5 163/71/5
f 162/70/5 163/71/5 164/72/5
f 166/74/5 165/73/5 167/75/5
f 166/74/5 167/75/5 168/76/5
f 169/21/6 170/21/6 171/21/6
f 171/21/6 170/21/6 172/21/6
f 174/21/1 173/21/1 175/21/1
f 174/21/1 175/21/1 176/21/1
f 178/78/5 177/77/5 179/79/5
f 178/78/5 179/79/5 180/80/5
f 182/46/1 181/46/1 183/46/1
f 182/46/1 183/46/1 184/46/1
f 186/82/5 185/81/5 187/83/5
f 186/82/5 187/83/5 188/84/5
f 190/86/3 189/85/3 191/87/3
f 190/86/3 191/87/3 192/88/3
f 193/89/4 194/89/4 195/89/4
f 195/89/4 194/89/4 196/89/4
f 198/91/5 197/90/5 199/92/5
f 198/91/5 199/92/5 200/93/5
f 202/89/3 201/89/3 203/89/3
f 202/89/3 203/89/3 204/89/3
f 205/59/4 206/59/4 207/59/4
f 207/59/4 206/59/4 208/59/4
f 210/59/1 209/59/1 211/59/1
f 210/59/1 211/59/1 212/59/1
f 214/59/5 213/59/5 215/59/5
f 214/59/5 215/59/5 216/59/5
f 218/59/3 217/59/3 219/59/3
f 218/59/3 219/59/3 220/59/3
f 221/59/6 222/59/6 223/59/6
f 223/59/6 222/59/6 224/59/6
f 225/68/4 226/68/4 227/68/4
f 227/68/4 226/68/4 228/68/4
f 230/68/1 229/68/1 231/68/1
f 230/68/1 231/68/1 232/68/1
f 234/68/5 233/68/5 235/68/5
f 234/68/5 235/68/5 236/68/5
f 238/68/3 237/68/3 239/68/3
f 238/68/3 239/68/3 240/68/3
f 241/68/6 242/68/6 243/68/6
f 243/68/6 242/68/6 244/68/6
f 246/94/5 245/94/5 247/94/5
f 246/94/5 247/94/5 248/94/5
f 250/96/5 249/95/5 251/97/5
f 250/96/5 251/97/5 252/98/5
f 253/99/4 254/100/4 255/101/4
f 255/101/4 254/100/4 256/102/4
f 258/21/1 257/21/1 259/21/1
f 258/21/1 259/21/1 260/21/1
f 262/21/5 261/21/5 263/21/5
f 262/21/5 263/21/5 264/21/5
f 265/21/4 266/21/4 267/21/4
f 267/21/4 266/21/4 268/21/4
f 269/21/6 270/21/6 271/21/6
f 271/21/6 270/21/6 272/21/6
f 274/104/1 273/103/1 275/105/1
f 274/104/1 275/105/1 276/106/1
f 278/108/5 277/107/5 279/109/5
f 278/108/5 279/109/5 280/110/5
f 282/89/5 281/89/5 283/89/5
f 282/89/5 283/89/5 284/89/5
f 285/46/6 286/46/6 287/46/6
f 287/46/6 286/46/6 288/46/6
f 290/112/5 289/111/5 291/113/5
f 290/112/5 291/113/5 292/114/5
f 294/116/1 293/115/1 295/117/1
f 294/116/1 295/117/1 296/118/1
f 298/120/5 297/119/5 299/121/5
f 298/120/5 299/121/5 300/122/5
f 302/124/3 301/123/3 303/125/3
f 302/124/3 303/125/3 304/126/3
f 306/128/5 305/127/5 307/129/5
f 306/128/5 307/129/5 308/130/5
f 310/132/3 309/131/3 311/133/3
f 310/132/3 311/133/3 312/134/3
f 313/40/4 314/40/4 315/40/4
f 315/40/4 314/40/4 316/40/4
f 317/135/6 318/136/6 319/137/6
f 319/137/6 318/136/6 320/138/6
f 322/140/5 321/139/5 323/141/5
f 322/140/5 323/141/5 324/142/5
f 326/40/5 325/40/5 327/40/5
f 326/40/5 327/40/5 328/40/5
f 330/144/3 329/143/3 331/145/3
f 330/144/3 331/145/3 332/146/3
f 333/21/4 334/21/4 335/21/4
f 335/21/4 334/21/4 336/21/4
f 338/21/5 337/21/5 339/21/5
f 338/21/5 339/21/5 340/21/5
f 341/21/6 342/21/6 343/21/6
f 343/21/6 342/21/6 344/21/6
f 345/147/4 346/148/4 347/149/4
f 347/149/4 346/148/4 348/150/4
f 350/41/1 349/41/1 351/41/1
f 350/41/1 351/41/1 352/41/1
f 353/41/6 354/41/6 355/41/6
f 355/41/6 354/41/6 356/41/6
f 357/21/4 358/21/4 359/21/4
f 359/21/4 358/21/4 360/21/4
f 362/21/5 361/21/5 363/21/5
f 362/21/5 363/21/5 364/21/5
f 366/21/5 365/21/5 367/21/5
f 366/21/5 367/21/5 368/21/5
f 370/21/3 369/21/3 371/21/3
f 370/21/3 371/21/3 372/21/3
f 373/21/6 374/21/6 375/21/6
f 375/21/6 374/21/6 376/21/6
f 378/94/5 377/94/5 379/94/5
f 378/94/5 379/94/5 380/94/5
f 381/151/4 382/152/4 383/153/4
f 383/153/4 382/152/4 384/154/4
f 385/155/6 386/156/6 387/157/6
f 387/157/6 386/156/6 388/158/6
f 390/94/1 389/94/1 391/94/1
f 390/94/1 391/94/1 392/94/1
f 394/94/5 393/94/5 395/94/5
f 394/94/5 395/94/5 396/94/5
f 397/94/6 398/94/6 399/94/6
f 399/94/6 398/94/6 400/94/6
f 402/21/5 401/21/5 403/21/5
f 402/21/5 403/21/5 404/21/5
f 406/160/5 405/159/5 407/161/5
f 406/160/5 407/161/5 408/162/5
f 410/68/3 409/68/3 411/68/3
f 410/68/3 411/68/3 412/68/3
f 413/59/4 414/59/4 415/59/4
f 415/59/4 414/59/4 416/59/4
f 417/59/6 418/59/6 419/59/6
f 419/59/6 418/59/6 420/59/6
f 421/46/6 422/46/6 423/46/6
f 423/46/6 422/46/6 424/46/6
f 425/163/4 426/164/4 427/165/4
f 427/165/4 426/164/4 428/166/4
f 430/68/1 429/68/1 431/68/1
f 430/68/1 431/68/1 432/68/1
f 434/168/5 433/167/5 435/169/5
f 434/168/5 435/169/5 436/170/5
f 437/68/6 438/68/6 439/68/6
f 439/68/6 438/68/6 440/68/6
f 442/59/3 441/59/3 443/59/3
f 442/59/3 443/59/3 444/59/3
f 446/94/5 445/94/5 447/94/5
f 446/94/5 447/94/5 448/94/5
f 450/94/5 449/94/5 451/94/5
f 450/94/5 451/94/5 452/94/5
f 453/171/4 454/172/4 455/173/4
f 455/173/4 454/172/4 456/174/4
f 458/176/1 457/175/1 459/177/1
f 458/176/1 459/177/1 460/178/1
f 462/21/5 461/21/5 463/21/5
f 462/21/5 463/21/5 464/21/5
f 466/180/5 465/179/5 467/181/5
f 466/180/5 467/181/5 468/182/5
f 470/89/5 469/89/5 471/89/5
f 470/89/5 471/89/5 472/89/5
f 473/183/4 474/184/4 475/185/4
f 475/185/4 474/184/4 476/186/4
f 478/188/5 477/187/5 479/189/5
f 478/188/5 479/189/5 480/190/5
f 482/89/1 481/89/1 483/89/1
f 482/89/1 483/89/1 484/89/1
f 486/192/5 485/191/5 487/193/5
f 486/192/5 487/193/5 488/194/5
f 490/89/3 489/89/3 491/89/3
f 490/89/3 491/89/3 492/89/3
f 493/195/6 494/196/6 495/197/6
f 495/197/6 494/196/6 496/198/6
f 497/59/4 498/59/4 499/59/4
f 499/59/4 498/59/4 500/59/4
f 502/40/1 501/40/1 503/40/1
f 502/40/1 503/40/1 504/40/1
f 505/21/6 506/21/6 507/21/6
f 507/21/6 506/21/6 508/21/6
f 510/21/1 509/21/1 511/21/1
f 510/21/1 511/21/1 512/21/1
f 514/200/5 513/199/5 515/201/5
f 514/200/5 515/201/5 516/202/5
f 518/21/3 517/21/3 519/21/3
f 518/21/3 519/21/3 520/21/3
f 522/204/5 521/203/5 523/205/5
f 522/204/5 523/205/5 524/206/5
f 525/207/6 526/208/6 527/209/6
f 527/209/6 526/208/6 528/210/6
f 529/59/4 530/59/4 531/59/4
f 531/59/4 530/59/4 532/59/4
f 534/212/5 533/211/5 535/213/5
f 534/212/5 535/213/5 536/214/5
f 538/89/1 537/89/1 539/89/1
f 538/89/1 539/89/1 540/89/1
f 542/216/5 541/215/5 543/217/5
f 542/216/5 543/217/5 544/218/5
f 545/89/6 546/89/6 547/89/6
f 547/89/6 546/89/6 548/89/6
f 550/30/3 549/30/3 551/30/3
f 550/30/3 551/30/3 552/30/3
f 553/40/6 554/40/6 555/40/6
f 555/40/6 554/40/6 556/40/6
f 558/219/5 557/219/5 559/219/5
f 558/219/5 559/219/5 560/219/5
f 561/219/4 562/219/4 563/219/4
f 563/219/4 562/219/4 564/219/4
f 566/219/3 565/219/3 567/219/3
f 566/219/3 567/219/3 568/219/3
f 569/219/6 570/219/6 571/219/6
f 571/219/6 570/219/6 572/219/6
f 574/219/1 573/219/1 575/219/1
f 574/219/1 575/219/1 576/219/1
f 578/221/5 577/220/5 579/222/5
f 578/221/5 579/222/5 580/223/5
f 582/219/3 581/219/3 583/219/3
f 582/219/3 583/219/3 584/219/3
f 586/225/5 585/224/5 587/226/5
f 586/225/5 587/226/5 588/227/5
f 589/228/6 590/229/6 591/230/6
f 591/230/6 590/229/6 592/231/6
f 593/219/4 594/219/4 595/219/4
f 595/219/4 594/219/4 596/219/4
f 598/233/1 597/232/1 599/234/1
f 598/233/1 599/234/1 600/235/1
f 602/237/5 601/236/5 603/238/5
f 602/237/5 603/238/5 604/239/5
f 606/219/3 605/219/3 607/219/3
f 606/219/3 607/219/3 608/219/3
f 610/241/5 609/240/5 611/242/5
f 610/241/5 611/242/5 612/243/5
f 613/244/4 614/245/4 615/246/4
f 615/246/4 614/245/4 616/247/4
f 618/249/5 617/248/5 619/250/5
f 618/249/5 619/250/5 620/251/5
f 622/21/1 621/21/1 623/21/1
f 622/21/1 623/21/1 624/21/1
f 626/21/5 625/21/5 627/21/5
f 626/21/5 627/21/5 628/21/5
f 630/21/3 629/21/3 631/21/3
f 630/21/3 631/21/3 632/21/3
f 633/21/6 634/21/6 635/21/6
f 635/21/6 634/21/6 636/21/6
f 638/253/5 637/252/5 639/254/5
f 638/253/5 639/254/5 640/255/5
f 642/257/3 641/256/3 643/258/3
f 642/257/3 643/258/3 644/259/3
f 645/40/4 646/40/4 647/40/4
f 647/40/4 646/40/4 648/40/4
f 649/40/6 650/40/6 651/40/6
f 651/40/6 650/40/6 652/40/6
f 654/46/1 653/46/1 655/46/1
f 654/46/1 655/46/1 656/46/1
f 658/46/5 657/46/5 659/46/5
f 658/46/5 659/46/5 660/46/5
f 661/46/6 662/46/6 663/46/6
f 663/46/6 662/46/6 664/46/6
f 665/41/4 666/41/4 667/41/4
f 667/41/4 666/41/4 668/41/4
f 670/41/5 669/41/5 671/41/5
f 670/41/5 671/41/5 672/41/5
f 673/41/6 674/41/6 675/41/6
f 675/41/6 674/41/6 676/41/6
f 678/94/5 677/94/5 679/94/5
f 678/94/5 679/94/5 680/94/5
f 682/261/5 681/260/5 683/262/5
f 682/261/5 683/262/5 684/263/5
f 685/264/4 686/265/4 687/266/4
f 687/266/4 686/265/4 688/267/4
f 690/269/1 689/268/1 691/270/1
f 690/269/1 691/270/1 692/271/1
f 694/273/5 693/272/5 695/274/5
f 694/273/5 695/274/5 696/275/5
f 698/219/3 697/219/3 699/219/3
f 698/219/3 699/219/3 700/219/3
f 701/94/6 702/94/6 703/94/6
f 703/94/6 702/94/6 704/94/6
f 705/21/4 706/21/4 707/21/4
f 707/21/4 706/21/4 708/21/4
f 709/21/6 710/21/6 711/21/6
f 711/21/6 710/21/6 712/21/6
f 713/21/6 714/21/6 715/21/6
f 715/21/6 714/21/6 716/21/6
f 718/21/5 717/21/5 719/21/5
f 718/21/5 719/21/5 720/21/5
f 722/277/5 721/276/5 723/278/5
f 722/277/5 723/278/5 724/279/5
f 726/281/5 725/280/5 727/282/5
f 726/281/5 727/282/5 728/283/5
f 730/41/5 729/41/5 731/41/5
f 730/41/5 731/41/5 732/41/5
f 733/284/6 734/285/6 735/286/6
f 735/286/6 734/285/6 736/287/6
f 738/21/5 737/21/5 739/21/5
f 738/21/5 739/21/5 740/21/5
f 742/21/1 741/21/1 743/21/1
f 742/21/1 743/21/1 744/21/1
f 746/289/1 745/288/1 747/290/1
f 746/289/1 747/290/1 748/291/1
f 750/293/5 749/292/5 751/294/5
f 750/293/5 751/294/5 752/295/5
f 754/40/3 753/40/3 755/40/3
f 754/40/3 755/40/3 756/40/3
f 758/297/5 757/296/5 759/298/5
f 758/297/5 759/298/5 760/299/5
f 761/30/4 762/30/4 763/30/4
f 763/30/4 762/30/4 764/30/4
f 765/30/6 766/30/6 767/30/6
f 767/30/6 766/30/6 768/30/6
f 769/31/4 770/31/4 771/31/4
f 771/31/4 770/31/4 772/31/4
f 774/31/1 773/31/1 775/31/1
f 774/31/1 775/31/1 776/31/1
f 777/31/6 778/31/6 779/31/6
f 779/31/6 778/31/6 780/31/6
f 782/94/5 781/94/5 783/94/5
f 782/94/5 783/94/5 784/94/5
f 786/301/5 785/300/5 787/302/5
f 786/301/5 787/302/5 788/303/5
f 789/304/6 790/305/6 791/306/6
f 791/306/6 790/305/6 792/307/6
f 793/94/4 794/94/4 795/94/4
f 795/94/4 794/94/4 796/94/4
f 797/94/6 798/94/6 799/94/6
f 799/94/6 798/94/6 800/94/6
f 802/309/1 801/308/1 803/310/1
f 802/309/1 803/310/1 804/311/1
f 806/219/5 805/219/5 807/219/5
f 806/219/5 807/219/5 808/219/5
f 810/21/5 809/21/5 811/21/5
f 810/21/5 811/21/5 812/21/5
f 813/21/6 814/21/6 815/21/6
f 815/21/6 814/21/6 816/21/6
f 817/21/4 818/21/4 819/21/4
f 819/21/4 818/21/4 820/21/4
f 822/313/1 821/312/1 823/314/1
f 822/313/1 823/314/1 824/315/1
f 826/317/5 825/316/5 827/318/5
f 826/317/5 827/318/5 828/319/5
f 829/89/4 830/89/4 831/89/4
f 831/89/4 830/89/4 832/89/4
f 833/320/6 834/321/6 835/322/6
f 835/322/6 834/321/6 836/323/6
f 837/41/4 838/41/4 839/41/4
f 839/41/4 838/41/4 840/41/4
f 842/41/5 841/41/5 843/41/5
f 842/41/5 843/41/5 844/41/5
f 846/89/1 845/89/1 847/89/1
f 846/89/1 847/89/1 848/89/1
f 850/89/5 849/89/5 851/89/5
f 850/89/5 851/89/5 852/89/5
f 854/89/3 853/89/3 855/89/3
f 854/89/3 855/89/3 856/89/3
f 857/89/6 858/89/6 859/89/6
f 859/89/6 858/89/6 860/89/6
f 862/94/5 861/94/5 863/94/5
f 862/94/5 863/94/5 864/94/5
f 866/94/5 865/94/5 867/94/5
f 866/94/5 867/94/5 868/94/5
f 870/21/5 869/21/5 871/21/5
f 870/21/5 871/21/5 872/21/5
f 873/94/4 874/94/4 875/94/4
f 875/94/4 874/94/4 876/94/4
f 877/324/4 878/325/4 879/326/4
f 879/326/4 878/325/4 880/327/4
f 882/329/5 881/328/5 883/330/5
f 882/329/5 883/330/5 884/331/5
f 886/21/5 885/21/5 887/21/5
f 886/21/5 887/21/5 888/21/5
f 889/21/6 890/21/6 891/21/6
f 891/21/6 890/21/6 892/21/6
f 894/333/5 893/332/5 895/334/5
f 894/333/5 895/334/5 896/335/5
f 897/94/6 898/94/6 899/94/6
f 899/94/6 898/94/6 900/94/6
f 902/21/5 901/21/5 903/21/5
f 902/21/5 903/21/5 904/21/5
f 905/21/4 906/21/4 907/21/4
f 907/21/4 906/21/4 908/21/4
f 910/21/3 909/21/3 911/21/3
f 910/21/3 911/21/3 912/21/3
f 913/21/4 914/21/4 915/21/4
f 915/21/4 914/21/4 916/21/4
f 918/21/1 917/21/1 919/21/1
f 918/21/1 919/21/1 920/21/1
f 922/21/5 921/21/5 923/21/5
f 922/21/5 923/21/5 924/21/5
f 926/21/3 925/21/3 927/21/3
f 926/21/3 927/21/3 928/21/3
f 929/21/6 930/21/6 931/21/6
f 931/21/6 930/21/6 932/21/6
f 934/94/5 933/94/5 935/94/5
f 934/94/5 935/94/5 936/94/5
f 937/219/4 938/219/4 939/219/4
f 939/219/4 938/219/4 940/219/4
f 941/219/4 942/219/4 943/219/4
f 943/219/4 942/219/4 944/219/4
f 946/219/1 945/219/1 947/219/1
f 946/219/1 947/219/1 948/219/1
f 950/219/5 949/219/5 951/219/5
f 950/219/5 951/219/5 952/219/5
f 954/219/3 953/219/3 955/219/3
f 954/219/3 955/219/3 956/219/3
f 957/219/6 958/219/6 959/219/6
f 959/219/6 958/219/6 960/219/6
f 962/21/5 961/21/5 963/21/5
f 962/21/5 963/21/5 964/21/5
f 965/94/6 966/94/6 967/94/6
f 967/94/6 966/94/6 968/94/6
f 970/21/5 969/21/5 971/21/5
f 970/21/5 971/21/5 972/21/5
f 973/21/4 974/21/4 975/21/4
f 975/21/4 974/21/4 976/21/4
f 978/21/5 977/21/5 979/21/5
f 978/21/5 979/21/5 980/21/5
f 982/21/3 981/21/3 983/21/3
f 982/21/3 983/21/3 984/21/3
f 985/21/6 986/21/6 987/21/6
f 987/21/6 986/21/6 988/21/6
f 990/21/1 989/21/1 991/21/1
f 990/21/1 991/21/1 992/21/1
f 994/94/5 993/94/5 995/94/5
f 994/94/5 995/94/5 996/94/5
f 998/337/5 997/336/5 999/338/5
f 998/337/5 999/338/5 1000/339/5
f 1002/341/3 1001/340/3 1003/342/3
f 1002/341/3 1003/342/3 1004/343/3
f 1005/344/4 1006/345/4 1007/346/4
f 1007/346/4 1006/345/4 1008/347/4
f 1010/219/1 1009/219/1 1011/219/1
f 1010/219/1 1011/219/1 1012/219/1
f 1014/219/5 1013/219/5 1015/219/5
f 1014/219/5 1015/219/5 1016/219/5
f 1018/219/3 1017/219/3 1019/219/3
f 1018/219/3 1019/219/3 1020/219/3
f 1021/219/6 1022/219/6 1023/219/6
f 1023/219/6 1022/219/6 1024/219/6
f 1025/219/4 1026/219/4 1027/219/4
f 1027/219/4 1026/219/4 1028/219/4
f 1030/219/5 1029/219/5 1031/219/5
f 1030/219/5 1031/219/5 1032/219/5
f 1034/349/5 1033/348/5 1035/350/5
f 1034/349/5 1035/350/5 1036/351/5
f 1037/219/4 1038/219/4 1039/219/4
f 1039/219/4 1038/219/4 1040/219/4
f 1042/219/1 1041/219/1 1043/219/1
f 1042/219/1 1043/219/1 1044/219/1
f 1046/219/5 1045/219/5 1047/219/5
f 1046/219/5 1047/219/5 1048/219/5
f 1050/219/3 1049/219/3 1051/219/3
f 1050/219/3 1051/219/3 1052/219/3
f 1053/219/6 1054/219/6 1055/219/6
f 1055/219/6 1054/219/6 1056/219/6
f 1058/353/1 1057/352/1 1059/354/1
f 1058/353/1 1059/354/1 1060/355/1
f 1061/21/4 1062/21/4 1063/21/4
f 1063/21/4 1062/21/4 1064/21/4
f 1065/21/4 1066/21/4 1067/21/4
f 1067/21/4 1066/21/4 1068/21/4
f 1070/21/1 1069/21/1 1071/21/1
f 1070/21/1 1071/21/1 1072/21/1
f 1074/21/5 1073/21/5 1075/21/5
f 1074/21/5 1075/21/5 1076/21/5
f 1078/21/3 1077/21/3 1079/21/3
f 1078/21/3 1079/21/3 1080/21/3
f 1081/21/6 1082/21/6 1083/21/6
f 1083/21/6 1082/21/6 1084/21/6
f 1086/94/5 1085/94/5 1087/94/5
f 1086/94/5 1087/94/5 1088/94/5
f 1090/219/1 1089/219/1 1091/219/1
f 1090/219/1 1091/219/1 1092/219/1
f 1094/219/5 1093/219/5 1095/219/5
f 1094/219/5 1095/219/5 1096/219/5
f 1098/219/3 1097/219/3 1099/219/3
f 1098/219/3 1099/219/3 1100/219/3
f 1102/21/5 1101/21/5 1103/21/5
f 1102/21/5 1103/21/5 1104/21/5
f 1106/21/1 1105/21/1 1107/21/1
f 1106/21/1 1107/21/1 1108/21/1
f 1110/21/5 1109/21/5 1111/21/5
f 1110/21/5 1111/21/5 1112/21/5
f 1114/21/3 1113/21/3 1115/21/3
f 1114/21/3 1115/21/3 1116/21/3
f 1117/21/6 1118/21/6 1119/21/6
f 1119/21/6 1118/21/6 1120/21/6
f 1122/94/5 1121/94/5 1123/94/5
f 1122/94/5 1123/94/5 1124/94/5
f 1125/94/4 1126/94/4 1127/94/4
f 1127/94/4 1126/94/4 1128/94/4
f 1130/94/5 1129/94/5 1131/94/5
f 1130/94/5 1131/94/5 1132/94/5
f 1134/94/3 1133/94/3 1135/94/3
f 1134/94/3 1135/94/3 1136/94/3
f 1138/357/1 1137/356/1 1139/358/1
f 1138/357/1 1139/358/1 1140/359/1
f 1142/361/5 1141/360/5 1143/362/5
f 1142/361/5 1143/362/5 1144/363/5
f 1146/219/3 1145/219/3 1147/219/3
f 1146/219/3 1147/219/3 1148/219/3
f 1149/21/4 1150/21/4 1151/21/4
f 1151/21/4 1150/21/4 1152/21/4
f 1154/21/5 1153/21/5 1155/21/5
f 1154/21/5 1155/21/5 1156/21/5
f 1158/21/3 1157/21/3 1159/21/3
f 1158/21/3 1159/21/3 1160/21/3
f 1162/219/1 1161/219/1 1163/219/1
f 1162/219/1 1163/219/1 1164/219/1
f 1166/365/5 1165/364/5 1167/366/5
f 1166/365/5 1167/366/5 1168/367/5
f 1170/219/3 1169/219/3 1171/219/3
f 1170/219/3 1171/219/3 1172/219/3
f 1173/219/6 1174/219/6 1175/219/6
f 1175/219/6 1174/219/6 1176/219/6
f 1177/21/4 1178/21/4 1179/21/4
f 1179/21/4 1178/21/4 1180/21/4
f 1182/369/5 1181/368/5 1183/370/5
f 1182/369/5 1183/370/5 1184/371/5
f 1186/21/3 1185/21/3 1187/21/3
f 1186/21/3 1187/21/3 1188/21/3
f 1190/21/1 1189/21/1 1191/21/1
f 1190/21/1 1191/21/1 1192/21/1
f 1193/94/6 1194/94/6 1195/94/6
f 1195/94/6 1194/94/6 1196/94/6
f 1198/219/5 1197/219/5 1199/219/5
f 1198/219/5 1199/219/5 1200/219/5
f 1202/373/3 1201/372/3 1203/374/3
f 1202/373/3 1203/374/3 1204/375/3
f 1205/219/4 1206/219/4 1207/219/4
f 1207/219/4 1206/219/4 1208/219/4
f 1210/377/5 1209/376/5 1211/378/5
f 1210/377/5 1211/378/5 1212/379/5
f 1214/21/1 1213/21/1 1215/21/1
f 1214/21/1 1215/21/1 1216/21/1
f 1218/381/5 1217/380/5 1219/382/5
f 1218/381/5 1219/382/5 1220/383/5
f 1222/385/5 1221/384/5 1223/386/5
f 1222/385/5 1223/386/5 1224/387/5
f 1226/21/3 1225/21/3 1227/21/3
f 1226/21/3 1227/21/3 1228/21/3
f 1229/21/4 1230/21/4 1231/21/4
f 1231/21/4 1230/21/4 1232/21/4
f 1234/94/5 1233/94/5 1235/94/5
f 1234/94/5 1235/94/5 1236/94/5
f 1237/94/4 1238/94/4 1239/94/4
f 1239/94/4 1238/94/4 1240/94/4
f 1242/94/5 1241/94/5 1243/94/5
f 1242/94/5 1243/94/5 1244/94/5
f 1246/94/3 1245/94/3 1247/94/3
f 1246/94/3 1247/94/3 1248/94/3
f 1250/94/1 1249/94/1 1251/94/1
f 1250/94/1 1251/94/1 1252/94/1
f 1254/389/5 1253/388/5 1255/390/5
f 1254/389/5 1255/390/5 1256/391/5
f 1257/219/4 1258/219/4 1259/219/4
f 1259/219/4 1258/219/4 1260/219/4
f 1262/393/5 1261/392/5 1263/394/5
f 1262/393/5 1263/394/5 1264/395/5
f 1266/219/3 1265/219/3 1267/219/3
f 1266/219/3 1267/219/3 1268/219/3
f 1270/21/1 1269/21/1 1271/21/1
f 1270/21/1 1271/21/1 1272/21/1
f 1274/21/5 1273/21/5 1275/21/5
f 1274/21/5 1275/21/5 1276/21/5
f 1278/21/3 1277/21/3 1279/21/3
f 1278/21/3 1279/21/3 1280/21/3
f 1282/397/5 1281/396/5 1283/398/5
f 1282/397/5 1283/398/5 1284/399/5
f 1286/219/3 1285/219/3 1287/219/3
f 1286/219/3 1287/219/3 1288/219/3
f 1289/219/4 1290/219/4 1291/219/4
f 1291/219/4 1290/219/4 1292/219/4
f 1294/219/5 1293/219/5 1295/219/5
f 1294/219/5 1295/219/5 1296/219/5
f 1298/219/3 1297/219/3 1299/219/3
f 1298/219/3 1299/219/3 1300/219/3
f 1302/21/1 1301/21/1 1303/21/1
f 1302/21/1 1303/21/1 1304/21/1
f 1306/21/5 1305/21/5 1307/21/5
f 1306/21/5 1307/21/5 1308/21/5
f 1310/21/3 1309/21/3 1311/21/3
f 1310/21/3 1311/21/3 1312/21/3
f 1314/94/5 1313/94/5 1315/94/5
f 1314/94/5 1315/94/5 1316/94/5
f 1317/21/4 1318/21/4 1319/21/4
f 1319/21/4 1318/21/4 1320/21/4
f 1322/21/5 1321/21/5 1323/21/5
f 1322/21/5 1323/21/5 1324/21/5
f 1326/21/3 1325/21/3 1327/21/3
f 1326/21/3 1327/21/3 1328/21/3
f 1329/21/6 1330/21/6 1331/21/6
f 1331/21/6 1330/21/6 1332/21/6
f 1333/21/4 1334/21/4 1335/21/4
f 1335/21/4 1334/21/4 1336/21/4
f 1338/401/5 1337/400/5 1339/402/5
f 1338/401/5 1339/402/5 1340/403/5
f 1342/21/3 1341/21/3 1343/21/3
f 1342/21/3 1343/21/3 1344/21/3
f 1345/21/4 1346/21/4 1347/21/4
f 1347/21/4 1346/21/4 1348/21/4
f 1350/21/1 1349/21/1 1351/21/1
f 1350/21/1 1351/21/1 1352/21/1
f 1354/21/5 1353/21/5 1355/21/5
f 1354/21/5 1355/21/5 1356/21/5
f 1358/21/3 1357/21/3 1359/21/3
f 1358/21/3 1359/21/3 1360/21/3
f 1361/21/6 1362/21/6 1363/21/6
f 1363/21/6 1362/21/6 1364/21/6
f 1366/219/5 1365/219/5 1367/219/5
f 1366/219/5 1367/219/5 1368/219/5
f 1370/21/5 1369/21/5 1371/21/5
f 1370/21/5 1371/21/5 1372/21/5
f 1373/21/4 1374/21/4 1375/21/4
f 1375/21/4 1374/21/4 1376/21/4
f 1378/21/5 1377/21/5 1379/21/5
f 1378/21/5 1379/21/5 1380/21/5
f 1382/21/3 1381/21/3 1383/21/3
f 1382/21/3 1383/21/3 1384/21/3
f 1386/21/1 1385/21/1 1387/21/1
f 1386/21/1 1387/21/1 1388/21/1
f 1390/21/5 1389/21/5 1391/21/5
f 1390/21/5 1391/21/5 1392/21/5
f 1393/21/4 1394/21/4 1395/21/4
f 1395/21/4 1394/21/4 1396/21/4
f 1398/405/5 1397/404/5 1399/406/5
f 1398/405/5 1399/406/5 1400/407/5
f 1402/21/3 1401/21/3 1403/21/3
f 1402/21/3 1403/21/3 1404/21/3
f 1405/94/4 1406/94/4 1407/94/4
f 1407/94/4 1406/94/4 1408/94/4
f 1410/94/1 1409/94/1 1411/94/1
f 1410/94/1 1411/94/1 1412/94/1
f 1414/94/5 1413/94/5 1415/94/5
f 1414/94/5 1415/94/5 1416/94/5
f 1418/94/3 1417/94/3 1419/94/3
f 1418/94/3 1419/94/3 1420/94/3
f 1421/94/6 1422/94/6 1423/94/6
f 1423/94/6 1422/94/6 1424/94/6
f 1426/21/1 1425/21/1 1427/21/1
f 1426/21/1 1427/21/1 1428/21/1
f 1430/21/5 1429/21/5 1431/21/5
f 1430/21/5 1431/21/5 1432/21/5
f 1434/21/3 1433/21/3 1435/21/3
f 1434/21/3 1435/21/3 1436/21/3
f 1438/21/5 1437/21/5 1439/21/5
f 1438/21/5 1439/21/5 1440/21/5
f 1442/21/5 1441/21/5 1443/21/5
f 1442/21/5 1443/21/5 1444/21/5
f 1446/21/3 1445/21/3 1447/21/3
f 1446/21/3 1447/21/3 1448/21/3
f 1449/21/6 1450/21/6 1451/21/6
f 1451/21/6 1450/21/6 1452/21/6
f 1453/21/4 1454/21/4 1455/21/4
f 1455/21/4 1454/21/4 1456/21/4
f 1458/409/5 1457/408/5 1459/410/5
f 1458/409/5 1459/410/5 1460/411/5
f 1462/21/3 1461/21/3 1463/21/3
f 1462/21/3 1463/21/3 1464/21/3
f 1465/21/6 1466/21/6 1467/21/6
f 1467/21/6 1466/21/6 1468/21/6
f 1470/219/5 1469/219/5 1471/219/5
f 1470/219/5 1471/219/5 1472/219/5
f 1473/21/4 1474/21/4 1475/21/4
f 1475/21/4 1474/21/4 1476/21/4
f 1478/21/5 1477/21/5 1479/21/5
f 1478/21/5 1479/21/5 1480/21/5
f 1482/21/1 1481/21/1 1483/21/1
f 1482/21/1 1483/21/1 1484/21/1
f 1486/21/5 1485/21/5 1487/21/5
f 1486/21/5 1487/21/5 1488/21/5
f 1489/21/4 1490/21/4 1491/21/4
f 1491/21/4 1490/21/4 1492/21/4
f 1494/413/5 1493/412/5 1495/414/5
f 1494/413/5 1495/414/5 1496/415/5
f 1498/21/3 1497/21/3 1499/21/3
f 1498/21/3 1499/21/3 1500/21/3
f 1502/417/1 1501/416/1 1503/418/1
f 1502/417/1 1503/418/1 1504/419/1
f 1506/21/5 1505/21/5 1507/21/5
f 1506/21/5 1507/21/5 1508/21/5
f 1510/21/3 1509/21/3 1511/21/3
f 1510/21/3 1511/21/3 1512/21/3
f 1514/421/5 1513/420/5 1515/422/5
f 1514/421/5 1515/422/5 1516/423/5
f 1518/21/3 1517/21/3 1519/21/3
f 1518/21/3 1519/21/3 1520/21/3
f 1521/21/4 1522/21/4 1523/21/4
f 1523/21/4 1522/21/4 1524/21/4
f 1526/425/5 1525/424/5 1527/426/5
f 1526/425/5 1527/426/5 1528/427/5
f 1530/429/3 1529/428/3 1531/430/3
f 1530/429/3 1531/430/3 1532/431/3
f 1533/432/6 1534/433/6 1535/434/6
f 1535/434/6 1534/433/6 1536/435/6
