# Export of Cubik Model: Cubik Model
# Designed by MeLee with Cubik Studio - https://cubik.studio
# from Cubik OBJ Exporter v1.0
mtllib weapons_crate_top.mtl
v 3.8125 -0.375 0.25
v 3.9375 -0.25 0.25
v 3.9375 -0.375 0.25
v 3.8125 -0.25 0.25
v 3.9375 -0.375 0.25
v 3.9375 -0.375 -0.25
v 3.8125 -0.375 0.25
v 3.8125 -0.375 -0.25
v 3.8125 -0.25 0.25
v 3.9375 -0.25 -0.25
v 3.9375 -0.25 0.25
v 3.8125 -0.25 -0.25
v 3.9375 -0.25 0.25
v 3.9375 -0.375 -0.25
v 3.9375 -0.375 0.25
v 3.9375 -0.25 -0.25
v 3.8125 -0.375 0.25
v 3.8125 -0.375 -0.25
v 3.8125 -0.25 0.25
v 3.8125 -0.25 -0.25
v 3.9375 -0.375 -0.25
v 3.9375 -0.25 -0.25
v 3.8125 -0.375 -0.25
v 3.8125 -0.25 -0.25
v 3.6875 -0.5 0.25
v 3.8125 -0.375 0.25
v 3.8125 -0.5 0.25
v 3.6875 -0.375 0.25
v 3.8125 -0.5 0.25
v 3.8125 -0.5 -0.25
v 3.6875 -0.5 0.25
v 3.6875 -0.5 -0.25
v 3.6875 -0.375 0.25
v 3.8125 -0.375 -0.25
v 3.8125 -0.375 0.25
v 3.6875 -0.375 -0.25
v 3.8125 -0.375 0.25
v 3.8125 -0.5 -0.25
v 3.8125 -0.5 0.25
v 3.8125 -0.375 -0.25
v 3.6875 -0.5 0.25
v 3.6875 -0.5 -0.25
v 3.6875 -0.375 0.25
v 3.6875 -0.375 -0.25
v 3.8125 -0.5 -0.25
v 3.8125 -0.375 -0.25
v 3.6875 -0.5 -0.25
v 3.6875 -0.375 -0.25
v 3.5625 -0.375 0.25
v 3.6875 0.125 0.25
v 3.6875 -0.375 0.25
v 3.5625 0.125 0.25
v 3.6875 -0.375 0.25
v 3.6875 -0.375 -0.25
v -3.9375 -0.375 0.25
v -3.9375 -0.375 -0.25
v 3.6875 0.125 0.25
v 3.6875 -0.375 -0.25
v 3.6875 -0.375 0.25
v 3.6875 0.125 -0.25
v 3.6875 -0.375 -0.25
v 3.6875 0.125 -0.25
v 3.5625 -0.375 -0.25
v 3.5625 0.125 -0.25
v 2.1875 0.125 0.25
v 3.6875 0.125 -0.25
v 3.6875 0.125 0.25
v 2.1875 0.125 -0.25
v -3.6875 -0.375 8.499999
v 3.5625 -0.25 8.499999
v 3.5625 -0.375 8.499999
v -3.6875 -0.25 8.499999
v 3.5625 -0.375 8.499999
v 3.5625 -0.375 0.25
v -3.6875 -0.375 8.499999
v -3.6875 -0.375 0.25
v 3.5625 0 8.499999
v 3.5625 -0.375 0.25
v 3.5625 -0.375 8.499999
v 3.5625 0 0.25
v 3.5625 -0.375 -0.25
v 3.5625 -0.375 -8.5
v -3.6875 -0.375 -0.25
v -3.6875 -0.375 -8.5
v 3.5625 0 -0.25
v 3.5625 -0.375 -8.5
v 3.5625 -0.375 -0.25
v 3.5625 0 -8.5
v 3.5625 -0.375 -8.5
v 3.5625 -0.25 -8.5
v -3.6875 -0.375 -8.5
v -3.6875 -0.25 -8.5
v 1.9375 -0.25 8.624999
v 3.5625 0 8.624999
v 3.5625 -0.25 8.624999
v 1.9375 0 8.624999
v 3.5625 -0.25 8.624999
v 3.5625 -0.25 8.499999
v 1.9375 -0.25 8.624999
v 1.9375 -0.25 8.499999
v 3.5625 0 8.624999
v 3.5625 -0.25 8.499999
v 3.5625 -0.25 8.624999
v 3.5625 0 8.499999
v 3.5625 -0.25 -8.625
v 3.5625 0 -8.625
v 1.9375 -0.25 -8.625
v 1.9375 0 -8.625
v 3.5625 -0.25 -8.5
v 3.5625 -0.25 -8.625
v 1.9375 -0.25 -8.5
v 1.9375 -0.25 -8.625
v 3.5625 0 -8.5
v 3.5625 -0.25 -8.625
v 3.5625 -0.25 -8.5
v 3.5625 0 -8.625
v 1.9375 0 8.624999
v 3.5625 0 7.499998
v 3.5625 0 8.624999
v 1.9375 0 7.499998
v 1.9375 0 6.624998
v 3.5625 0 0.25
v 3.5625 0 6.624998
v 1.9375 0 0.25
v 1.9375 0 -0.25
v 3.5625 0 -6.625
v 3.5625 0 -0.25
v 1.9375 0 -6.625
v 1.9375 0 -7.5
v 3.5625 0 -8.625
v 3.5625 0 -7.5
v 1.9375 0 -8.625
v -3.6875 0 7.499998
v 3.5625 0.125 7.499998
v 3.5625 0 7.499998
v -3.6875 0.125 7.499998
v 3.4375 0.125 7.499998
v 3.5625 0.125 6.624998
v 3.5625 0.125 7.499998
v 3.4375 0.125 6.624998
v 3.5625 0.125 7.499998
v 3.5625 0 6.624998
v 3.5625 0 7.499998
v 3.5625 0.125 6.624998
v 3.5625 0 6.624998
v 3.5625 0.125 6.624998
v -3.6875 0 6.624998
v -3.6875 0.125 6.624998
v 2.1875 0 0.25
v 3.5625 0.125 0.25
v 3.5625 0 0.25
v 2.1875 0.125 0.25
v 3.5625 0 -0.25
v 3.5625 0.125 -0.25
v 2.1875 0 -0.25
v 2.1875 0.125 -0.25
v -3.6875 0 -6.625
v 3.5625 0.125 -6.625
v 3.5625 0 -6.625
v -3.6875 0.125 -6.625
v 3.4375 0.125 -6.625
v 3.5625 0.125 -7.5
v 3.5625 0.125 -6.625
v 3.4375 0.125 -7.5
v 3.5625 0.125 -6.625
v 3.5625 0 -7.5
v 3.5625 0 -6.625
v 3.5625 0.125 -7.5
v 3.5625 0 -7.5
v 3.5625 0.125 -7.5
v -3.6875 0 -7.5
v -3.6875 0.125 -7.5
v -3.5625 0.125 7.499998
v 3.4375 0.25 7.499998
v 3.4375 0.125 7.499998
v -3.5625 0.25 7.499998
v 3.3125 0.25 7.499998
v 3.4375 0.25 6.624998
v 3.4375 0.25 7.499998
v 3.3125 0.25 6.624998
v 3.4375 0.25 7.499998
v 3.4375 0.125 6.624998
v 3.4375 0.125 7.499998
v 3.4375 0.25 6.624998
v 3.4375 0.125 6.624998
v 3.4375 0.25 6.624998
v -3.5625 0.125 6.624998
v -3.5625 0.25 6.624998
v -3.5625 0.125 -6.625
v 3.4375 0.25 -6.625
v 3.4375 0.125 -6.625
v -3.5625 0.25 -6.625
v 3.3125 0.25 -6.625
v 3.4375 0.25 -7.5
v 3.4375 0.25 -6.625
v 3.3125 0.25 -7.5
v 3.4375 0.25 -6.625
v 3.4375 0.125 -7.5
v 3.4375 0.125 -6.625
v 3.4375 0.25 -7.5
v 3.4375 0.125 -7.5
v 3.4375 0.25 -7.5
v -3.5625 0.125 -7.5
v -3.5625 0.25 -7.5
v -3.4375 0.25 7.499998
v 3.3125 0.375 7.499998
v 3.3125 0.25 7.499998
v -3.4375 0.375 7.499998
v 3.1875 0.375 7.499998
v 3.3125 0.375 6.624998
v 3.3125 0.375 7.499998
v 3.1875 0.375 6.624998
v 3.3125 0.375 7.499998
v 3.3125 0.25 6.624998
v 3.3125 0.25 7.499998
v 3.3125 0.375 6.624998
v 3.3125 0.25 6.624998
v 3.3125 0.375 6.624998
v -3.4375 0.25 6.624998
v -3.4375 0.375 6.624998
v -3.4375 0.25 -6.625
v 3.3125 0.375 -6.625
v 3.3125 0.25 -6.625
v -3.4375 0.375 -6.625
v 3.1875 0.375 -6.625
v 3.3125 0.375 -7.5
v 3.3125 0.375 -6.625
v 3.1875 0.375 -7.5
v 3.3125 0.375 -6.625
v 3.3125 0.25 -7.5
v 3.3125 0.25 -6.625
v 3.3125 0.375 -7.5
v 3.3125 0.25 -7.5
v 3.3125 0.375 -7.5
v -3.4375 0.25 -7.5
v -3.4375 0.375 -7.5
v -3.3125 0.375 7.499998
v 3.1875 0.5 7.499998
v 3.1875 0.375 7.499998
v -3.3125 0.5 7.499998
v -3.3125 0.5 7.499998
v 3.1875 0.5 6.624998
v 3.1875 0.5 7.499998
v -3.3125 0.5 6.624998
v 3.1875 0.5 7.499998
v 3.1875 0.375 6.624998
v 3.1875 0.375 7.499998
v 3.1875 0.5 6.624998
v 3.1875 0.375 6.624998
v 3.1875 0.5 6.624998
v -3.3125 0.375 6.624998
v -3.3125 0.5 6.624998
v -3.3125 0.375 -6.625
v 3.1875 0.5 -6.625
v 3.1875 0.375 -6.625
v -3.3125 0.5 -6.625
v -3.3125 0.5 -6.625
v 3.1875 0.5 -7.5
v 3.1875 0.5 -6.625
v -3.3125 0.5 -7.5
v 3.1875 0.5 -6.625
v 3.1875 0.375 -7.5
v 3.1875 0.375 -6.625
v 3.1875 0.5 -7.5
v 3.1875 0.375 -7.5
v 3.1875 0.5 -7.5
v -3.3125 0.375 -7.5
v -3.3125 0.5 -7.5
v 2.1875 0 0.25
v 2.1875 0 -0.25
v 2.1875 0.125 0.25
v 2.1875 0.125 -0.25
v 1.9375 0 0.25
v 2.1875 0 -0.25
v 2.1875 0 0.25
v 1.9375 0 -0.25
v 1.9375 -0.25 8.624999
v 1.9375 -0.25 -8.625
v 1.9375 0 8.624999
v 1.9375 0 -8.625
v 1.8125 -0.25 8.499999
v 1.9375 -0.25 -8.5
v 1.9375 -0.25 8.499999
v 1.8125 -0.25 -8.5
v 1.9375 0 7.499998
v 1.9375 0 6.624998
v 1.8125 0 7.499998
v 1.8125 0 6.624998
v 1.9375 0 -6.625
v 1.9375 0 -7.5
v 1.8125 0 -6.625
v 1.8125 0 -7.5
v 0.0625 -0.25 8.624999
v 1.8125 0 8.624999
v 1.8125 -0.25 8.624999
v 0.0625 0 8.624999
v 1.8125 -0.25 8.624999
v 1.8125 -0.25 8.499999
v 0.0625 -0.25 8.624999
v 0.0625 -0.25 8.499999
v 1.8125 0 8.624999
v 1.8125 -0.25 -8.625
v 1.8125 -0.25 8.624999
v 1.8125 0 -8.625
v 1.8125 -0.25 -8.625
v 1.8125 0 -8.625
v 0.0625 -0.25 -8.625
v 0.0625 0 -8.625
v 1.8125 -0.25 -8.5
v 1.8125 -0.25 -8.625
v 0.0625 -0.25 -8.5
v 0.0625 -0.25 -8.625
v 0.0625 0 8.624999
v 1.8125 0 7.499998
v 1.8125 0 8.624999
v 0.0625 0 7.499998
v 0.0625 0 6.624998
v 1.8125 0 -6.625
v 1.8125 0 6.624998
v 0.0625 0 -6.625
v 0.0625 0 -7.5
v 1.8125 0 -8.625
v 1.8125 0 -7.5
v 0.0625 0 -8.625
v 0.0625 -0.25 8.624999
v 0.0625 -0.25 -8.625
v 0.0625 0 8.624999
v 0.0625 0 -8.625
v -0.0625 -0.25 8.499999
v 0.0625 -0.25 -8.5
v 0.0625 -0.25 8.499999
v -0.0625 -0.25 -8.5
v 0.0625 0 7.499998
v 0.0625 0 6.624998
v -0.0625 0 7.499998
v -0.0625 0 6.624998
v 0.0625 0 -6.625
v 0.0625 0 -7.5
v -0.0625 0 -6.625
v -0.0625 0 -7.5
v -1.8125 -0.25 8.624999
v -0.0625 0 8.624999
v -0.0625 -0.25 8.624999
v -1.8125 0 8.624999
v -0.0625 -0.25 8.624999
v -0.0625 -0.25 8.499999
v -1.8125 -0.25 8.624999
v -1.8125 -0.25 8.499999
v -0.0625 0 8.624999
v -0.0625 -0.25 -8.625
v -0.0625 -0.25 8.624999
v -0.0625 0 -8.625
v -0.0625 -0.25 -8.625
v -0.0625 0 -8.625
v -1.8125 -0.25 -8.625
v -1.8125 0 -8.625
v -0.0625 -0.25 -8.5
v -0.0625 -0.25 -8.625
v -1.8125 -0.25 -8.5
v -1.8125 -0.25 -8.625
v -1.8125 0 8.624999
v -0.0625 0 7.499998
v -0.0625 0 8.624999
v -1.8125 0 7.499998
v -1.8125 0 6.624998
v -0.0625 0 -6.625
v -0.0625 0 6.624998
v -1.8125 0 -6.625
v -1.8125 0 -7.5
v -0.0625 0 -8.625
v -0.0625 0 -7.5
v -1.8125 0 -8.625
v -1.8125 -0.25 8.624999
v -1.8125 -0.25 -8.625
v -1.8125 0 8.624999
v -1.8125 0 -8.625
v -1.9375 -0.25 8.499999
v -1.8125 -0.25 -8.5
v -1.8125 -0.25 8.499999
v -1.9375 -0.25 -8.5
v -1.8125 0 7.499998
v -1.8125 0 6.624998
v -1.9375 0 7.499998
v -1.9375 0 6.624998
v -1.8125 0 -6.625
v -1.8125 0 -7.5
v -1.9375 0 -6.625
v -1.9375 0 -7.5
v -3.6875 -0.25 8.624999
v -1.9375 0 8.624999
v -1.9375 -0.25 8.624999
v -3.6875 0 8.624999
v -1.9375 -0.25 8.624999
v -1.9375 -0.25 8.499999
v -3.6875 -0.25 8.624999
v -3.6875 -0.25 8.499999
v -1.9375 0 8.624999
v -1.9375 -0.25 -8.625
v -1.9375 -0.25 8.624999
v -1.9375 0 -8.625
v -1.9375 -0.25 -8.625
v -1.9375 0 -8.625
v -3.6875 -0.25 -8.625
v -3.6875 0 -8.625
v -1.9375 -0.25 -8.5
v -1.9375 -0.25 -8.625
v -3.6875 -0.25 -8.5
v -3.6875 -0.25 -8.625
v -3.6875 0 8.624999
v -1.9375 0 7.499998
v -1.9375 0 8.624999
v -3.6875 0 7.499998
v -2.1875 0 6.624998
v -1.9375 0 -6.625
v -1.9375 0 6.624998
v -2.1875 0 -6.625
v -3.6875 0 -7.5
v -1.9375 0 -8.625
v -1.9375 0 -7.5
v -3.6875 0 -8.625
v -3.6875 0 6.624998
v -2.1875 0 0.25
v -2.1875 0 6.624998
v -3.6875 0 0.25
v -3.6875 0 -0.25
v -2.1875 0 -6.625
v -2.1875 0 -0.25
v -3.6875 0 -6.625
v -3.8125 0 0.25
v -2.1875 0.125 0.25
v -2.1875 0 0.25
v -3.8125 0.125 0.25
v -3.8125 0.125 0.25
v -2.1875 0.125 -0.25
v -2.1875 0.125 0.25
v -3.8125 0.125 -0.25
v -2.1875 0.125 0.25
v -2.1875 0 -0.25
v -2.1875 0 0.25
v -2.1875 0.125 -0.25
v -2.1875 0 -0.25
v -2.1875 0.125 -0.25
v -3.8125 0 -0.25
v -3.8125 0.125 -0.25
v -3.3125 0.375 7.499998
v -3.3125 0.375 6.624998
v -3.3125 0.5 7.499998
v -3.3125 0.5 6.624998
v -3.3125 0.375 -6.625
v -3.3125 0.375 -7.5
v -3.3125 0.5 -6.625
v -3.3125 0.5 -7.5
v -3.4375 0.375 7.499998
v -3.3125 0.375 6.624998
v -3.3125 0.375 7.499998
v -3.4375 0.375 6.624998
v -3.4375 0.25 7.499998
v -3.4375 0.25 6.624998
v -3.4375 0.375 7.499998
v -3.4375 0.375 6.624998
v -3.4375 0.375 -6.625
v -3.3125 0.375 -7.5
v -3.3125 0.375 -6.625
v -3.4375 0.375 -7.5
v -3.4375 0.25 -6.625
v -3.4375 0.25 -7.5
v -3.4375 0.375 -6.625
v -3.4375 0.375 -7.5
v -3.5625 0.25 7.499998
v -3.4375 0.25 6.624998
v -3.4375 0.25 7.499998
v -3.5625 0.25 6.624998
v -3.5625 0.125 7.499998
v -3.5625 0.125 6.624998
v -3.5625 0.25 7.499998
v -3.5625 0.25 6.624998
v -3.5625 0.25 -6.625
v -3.4375 0.25 -7.5
v -3.4375 0.25 -6.625
v -3.5625 0.25 -7.5
v -3.5625 0.125 -6.625
v -3.5625 0.125 -7.5
v -3.5625 0.25 -6.625
v -3.5625 0.25 -7.5
v -3.6875 -0.375 8.499999
v -3.6875 -0.375 0.25
v -3.6875 0 8.499999
v -3.6875 0 0.25
v -3.6875 -0.375 -0.25
v -3.6875 -0.375 -8.5
v -3.6875 0 -0.25
v -3.6875 0 -8.5
v -3.6875 -0.25 8.624999
v -3.6875 -0.25 8.499999
v -3.6875 0 8.624999
v -3.6875 0 8.499999
v -3.6875 -0.25 -8.5
v -3.6875 -0.25 -8.625
v -3.6875 0 -8.5
v -3.6875 0 -8.625
v -3.6875 0.125 7.499998
v -3.5625 0.125 6.624998
v -3.5625 0.125 7.499998
v -3.6875 0.125 6.624998
v -3.6875 0 7.499998
v -3.6875 0 6.624998
v -3.6875 0.125 7.499998
v -3.6875 0.125 6.624998
v -3.6875 0.125 -6.625
v -3.5625 0.125 -7.5
v -3.5625 0.125 -6.625
v -3.6875 0.125 -7.5
v -3.6875 0 -6.625
v -3.6875 0 -7.5
v -3.6875 0.125 -6.625
v -3.6875 0.125 -7.5
v -3.8125 -0.375 0.25
v -3.6875 0 0.25
v -3.6875 -0.375 0.25
v -3.8125 0 0.25
v -3.6875 -0.375 -0.25
v -3.6875 0 -0.25
v -3.8125 -0.375 -0.25
v -3.8125 0 -0.25
v -3.8125 -0.25 0.25
v -3.8125 -0.25 -0.25
v -3.8125 0.125 0.25
v -3.8125 0.125 -0.25
v -3.9375 -0.375 0.25
v -3.8125 -0.25 0.25
v -3.8125 -0.375 0.25
v -3.9375 -0.25 0.25
v -3.9375 -0.25 0.25
v -3.8125 -0.25 -0.25
v -3.8125 -0.25 0.25
v -3.9375 -0.25 -0.25
v -3.9375 -0.375 0.25
v -3.9375 -0.375 -0.25
v -3.9375 -0.25 0.25
v -3.9375 -0.25 -0.25
v -3.8125 -0.375 -0.25
v -3.8125 -0.25 -0.25
v -3.9375 -0.375 -0.25
v -3.9375 -0.25 -0.25
vn 0 -5.960464E-08 0.9999999
vn 0 -0.9999999 -5.960464E-08
vn 0 0.9999999 5.960464E-08
vn 1 0 0
vn -1 0 0
vn 0 5.960464E-08 -0.9999999
vt 0.2304688 0.5820313
vt 0.5898438 0.00390625
vt 0.5898438 0.01953125
vt 0.828125 0.00390625
vt 0.828125 0.01953125
vt 0.9570313 0.00390625
vt 0.9101563 0.01953125
vt 0.9101563 0.00390625
vt 0.9570313 0.01953125
vt 0.8164063 0.03515625
vt 0.5898438 0.0390625
vt 0.5898438 0.03515625
vt 0.8164063 0.0390625
vt 0.00390625 0.00390625
vt 0.00390625 0.2617188
vt 0.2304688 0.00390625
vt 0.2304688 0.2617188
vt 0.421875 0.21875
vt 0.4101563 0.4765625
vt 0.4101563 0.21875
vt 0.421875 0.4765625
vt 0.00390625 0.2773438
vt 0.00390625 0.5351563
vt 0.2304688 0.2773438
vt 0.2304688 0.5351563
vt 0.421875 0.4921875
vt 0.4101563 0.75
vt 0.4101563 0.4921875
vt 0.421875 0.75
vt 0.5898438 0.0546875
vt 0.5898438 0.05859375
vt 0.8164063 0.0546875
vt 0.8164063 0.05859375
vt 0.1953125 0.9804688
vt 0.1445313 0.9882813
vt 0.1445313 0.9804688
vt 0.1953125 0.9882813
vt 0.9023438 0.1289063
vt 0.9023438 0.1328125
vt 0.953125 0.1289063
vt 0.953125 0.1328125
vt 0.2304688 0.640625
vt 0.9023438 0.0859375
vt 0.9023438 0.09375
vt 0.953125 0.0859375
vt 0.953125 0.09375
vt 0.9023438 0.1484375
vt 0.9023438 0.1523438
vt 0.953125 0.1484375
vt 0.953125 0.1523438
vt 0.2304688 0.625
vt 0.8828125 0.03515625
vt 0.8320313 0.0703125
vt 0.8320313 0.03515625
vt 0.8828125 0.0703125
vt 0.1953125 0.5507813
vt 0.1445313 0.75
vt 0.1445313 0.5507813
vt 0.1953125 0.75
vt 0.1953125 0.765625
vt 0.1445313 0.9648438
vt 0.1445313 0.765625
vt 0.1953125 0.9648438
vt 0.9492188 0.03515625
vt 0.8984375 0.0703125
vt 0.8984375 0.03515625
vt 0.9492188 0.0703125
vt 0.8164063 0.07421875
vt 0.5898438 0.078125
vt 0.5898438 0.07421875
vt 0.8164063 0.078125
vt 0.9726563 0.1679688
vt 0.96875 0.1953125
vt 0.96875 0.1679688
vt 0.9726563 0.1953125
vt 0.25 0.7734375
vt 0.2460938 0.8007813
vt 0.2460938 0.7734375
vt 0.25 0.8007813
vt 0.5898438 0.09375
vt 0.5898438 0.09765625
vt 0.8164063 0.09375
vt 0.8164063 0.09765625
vt 0.8164063 0.1132813
vt 0.5898438 0.1171875
vt 0.5898438 0.1132813
vt 0.8164063 0.1171875
vt 0.25 0.8164063
vt 0.2460938 0.84375
vt 0.2460938 0.8164063
vt 0.25 0.84375
vt 0.25 0.9453125
vt 0.2460938 0.9726563
vt 0.2460938 0.9453125
vt 0.25 0.9726563
vt 0.5898438 0.1328125
vt 0.5898438 0.1367188
vt 0.8164063 0.1328125
vt 0.8164063 0.1367188
vt 0.8085938 0.1523438
vt 0.5898438 0.15625
vt 0.5898438 0.1523438
vt 0.8085938 0.15625
vt 0.9882813 0.03515625
vt 0.984375 0.0625
vt 0.984375 0.03515625
vt 0.9882813 0.0625
vt 0.2734375 0.7734375
vt 0.2695313 0.8007813
vt 0.2695313 0.7734375
vt 0.2734375 0.8007813
vt 0.4648438 0.21875
vt 0.4648438 0.2226563
vt 0.6835938 0.21875
vt 0.6835938 0.2226563
vt 0.8085938 0.1914063
vt 0.5898438 0.1953125
vt 0.5898438 0.1914063
vt 0.8085938 0.1953125
vt 0.3203125 0.7734375
vt 0.3164063 0.8007813
vt 0.3164063 0.7734375
vt 0.3203125 0.8007813
vt 0.3203125 0.8164063
vt 0.3164063 0.84375
vt 0.3164063 0.8164063
vt 0.3203125 0.84375
vt 0.5898438 0.171875
vt 0.5898438 0.1757813
vt 0.8085938 0.171875
vt 0.8085938 0.1757813
vt 0.9101563 0.21875
vt 0.6992188 0.2226563
vt 0.6992188 0.21875
vt 0.9101563 0.2226563
vt 0.34375 0.8164063
vt 0.3398438 0.84375
vt 0.3398438 0.8164063
vt 0.34375 0.84375
vt 0.2148438 0.5820313
vt 0.2109375 0.609375
vt 0.2109375 0.5820313
vt 0.2148438 0.609375
vt 0.6914063 0.2382813
vt 0.6914063 0.2421875
vt 0.9023438 0.2382813
vt 0.9023438 0.2421875
vt 0.6757813 0.2382813
vt 0.4648438 0.2421875
vt 0.4648438 0.2382813
vt 0.6757813 0.2421875
vt 0.2148438 0.625
vt 0.2109375 0.6523438
vt 0.2109375 0.625
vt 0.2148438 0.6523438
vt 0.2148438 0.6679688
vt 0.2109375 0.6953125
vt 0.2109375 0.6679688
vt 0.2148438 0.6953125
vt 0.4648438 0.2578125
vt 0.4648438 0.2617188
vt 0.6757813 0.2578125
vt 0.6757813 0.2617188
vt 0.6679688 0.2773438
vt 0.4648438 0.28125
vt 0.4648438 0.2773438
vt 0.6679688 0.28125
vt 0.5742188 0.046875
vt 0.3710938 0.07421875
vt 0.3710938 0.046875
vt 0.5742188 0.07421875
vt 0.2148438 0.7109375
vt 0.2109375 0.7382813
vt 0.2109375 0.7109375
vt 0.2148438 0.7382813
vt 0.4648438 0.296875
vt 0.4648438 0.3007813
vt 0.6679688 0.296875
vt 0.6679688 0.3007813
vt 0.8945313 0.2578125
vt 0.6914063 0.2617188
vt 0.6914063 0.2578125
vt 0.8945313 0.2617188
vt 0.5742188 0.00390625
vt 0.3710938 0.03125
vt 0.3710938 0.00390625
vt 0.5742188 0.03125
vt 0.2148438 0.8515625
vt 0.2109375 0.8789063
vt 0.2109375 0.8515625
vt 0.2148438 0.8789063
vt 0.6835938 0.2773438
vt 0.6835938 0.28125
vt 0.8867188 0.2773438
vt 0.8867188 0.28125
vt 0.9804688 0.00390625
vt 0.9726563 0.01953125
vt 0.9726563 0.00390625
vt 0.9804688 0.01953125
vt 0.2460938 0.21875
vt 0.2460938 0.7578125
vt 0.2539063 0.21875
vt 0.2539063 0.7578125
vt 0.2304688 0.5976563
vt 0.2109375 0.8945313
vt 0.2109375 0.921875
vt 0.2148438 0.8945313
vt 0.2148438 0.921875
vt 0.2109375 0.9375
vt 0.2109375 0.9648438
vt 0.2148438 0.9375
vt 0.2148438 0.9648438
vt 0.8867188 0.0859375
vt 0.8320313 0.09375
vt 0.8320313 0.0859375
vt 0.8867188 0.09375
vt 0.8320313 0.1679688
vt 0.8320313 0.171875
vt 0.8867188 0.1679688
vt 0.8867188 0.171875
vt 0.3242188 0.21875
vt 0.3164063 0.7578125
vt 0.3164063 0.21875
vt 0.3242188 0.7578125
vt 0.00390625 0.9804688
vt 0.00390625 0.9882813
vt 0.05859375 0.9804688
vt 0.05859375 0.9882813
vt 0.9023438 0.109375
vt 0.9023438 0.1132813
vt 0.9570313 0.109375
vt 0.9570313 0.1132813
vt 0.4257813 0.140625
vt 0.3710938 0.1757813
vt 0.3710938 0.140625
vt 0.4257813 0.1757813
vt 0.1289063 0.5507813
vt 0.07421875 0.9648438
vt 0.07421875 0.5507813
vt 0.1289063 0.9648438
vt 0.4257813 0.08984375
vt 0.3710938 0.125
vt 0.3710938 0.08984375
vt 0.4257813 0.125
vt 0.2929688 0.21875
vt 0.2929688 0.7578125
vt 0.3007813 0.21875
vt 0.3007813 0.7578125
vt 0.2460938 0.859375
vt 0.2460938 0.8867188
vt 0.25 0.859375
vt 0.25 0.8867188
vt 0.2460938 0.9023438
vt 0.2460938 0.9296875
vt 0.25 0.9023438
vt 0.25 0.9296875
vt 0.5664063 0.1914063
vt 0.5117188 0.1992188
vt 0.5117188 0.1914063
vt 0.5664063 0.1992188
vt 0.8320313 0.1875
vt 0.8320313 0.1914063
vt 0.8867188 0.1875
vt 0.8867188 0.1914063
vt 0.2773438 0.21875
vt 0.2695313 0.7578125
vt 0.2695313 0.21875
vt 0.2773438 0.7578125
vt 0.4414063 0.1914063
vt 0.4414063 0.1992188
vt 0.4960938 0.1914063
vt 0.4960938 0.1992188
vt 0.8320313 0.1289063
vt 0.8320313 0.1328125
vt 0.8867188 0.1289063
vt 0.8867188 0.1328125
vt 0.4960938 0.08984375
vt 0.4414063 0.125
vt 0.4414063 0.08984375
vt 0.4960938 0.125
vt 0.05859375 0.5507813
vt 0.00390625 0.9648438
vt 0.00390625 0.5507813
vt 0.05859375 0.9648438
vt 0.4960938 0.140625
vt 0.4414063 0.1757813
vt 0.4414063 0.140625
vt 0.4960938 0.1757813
vt 0.3632813 0.21875
vt 0.3632813 0.7578125
vt 0.3710938 0.21875
vt 0.3710938 0.7578125
vt 0.2109375 0.765625
vt 0.2109375 0.7929688
vt 0.2148438 0.765625
vt 0.2148438 0.7929688
vt 0.2109375 0.8085938
vt 0.2109375 0.8359375
vt 0.2148438 0.8085938
vt 0.2148438 0.8359375
vt 0.1289063 0.9804688
vt 0.07421875 0.9882813
vt 0.07421875 0.9804688
vt 0.1289063 0.9882813
vt 0.8320313 0.109375
vt 0.8320313 0.1132813
vt 0.8867188 0.109375
vt 0.8867188 0.1132813
vt 0.3476563 0.21875
vt 0.3398438 0.7578125
vt 0.3398438 0.21875
vt 0.3476563 0.7578125
vt 0.3710938 0.1914063
vt 0.3710938 0.1992188
vt 0.4257813 0.1914063
vt 0.4257813 0.1992188
vt 0.8320313 0.1484375
vt 0.8320313 0.1523438
vt 0.8867188 0.1484375
vt 0.8867188 0.1523438
vt 0.5664063 0.08984375
vt 0.5117188 0.125
vt 0.5117188 0.08984375
vt 0.5664063 0.125
vt 0.3945313 0.21875
vt 0.3867188 0.6328125
vt 0.3867188 0.21875
vt 0.3945313 0.6328125
vt 0.5664063 0.140625
vt 0.5117188 0.1757813
vt 0.5117188 0.140625
vt 0.5664063 0.1757813
vt 0.3554688 0.00390625
vt 0.3085938 0.203125
vt 0.3085938 0.00390625
vt 0.3554688 0.203125
vt 0.2929688 0.00390625
vt 0.2460938 0.203125
vt 0.2460938 0.00390625
vt 0.2929688 0.203125
vt 0.8945313 0.00390625
vt 0.84375 0.01953125
vt 0.84375 0.00390625
vt 0.8945313 0.01953125
vt 0.9023438 0.1679688
vt 0.9023438 0.171875
vt 0.953125 0.1679688
vt 0.953125 0.171875
vt 0.2695313 0.8164063
vt 0.2695313 0.84375
vt 0.2734375 0.8164063
vt 0.2734375 0.84375
vt 0.2695313 0.859375
vt 0.2695313 0.8867188
vt 0.2734375 0.859375
vt 0.2734375 0.8867188
vt 0.2734375 0.9023438
vt 0.2695313 0.9296875
vt 0.2695313 0.9023438
vt 0.2734375 0.9296875
vt 0.2695313 0.9453125
vt 0.2695313 0.9726563
vt 0.2734375 0.9453125
vt 0.2734375 0.9726563
vt 0.296875 0.7734375
vt 0.2929688 0.8007813
vt 0.2929688 0.7734375
vt 0.296875 0.8007813
vt 0.2929688 0.8164063
vt 0.2929688 0.84375
vt 0.296875 0.8164063
vt 0.296875 0.84375
vt 0.296875 0.859375
vt 0.2929688 0.8867188
vt 0.2929688 0.859375
vt 0.296875 0.8867188
vt 0.9648438 0.03515625
vt 0.9648438 0.0625
vt 0.96875 0.03515625
vt 0.96875 0.0625
vt 0.296875 0.9023438
vt 0.2929688 0.9296875
vt 0.2929688 0.9023438
vt 0.296875 0.9296875
vt 0.2929688 0.9453125
vt 0.2929688 0.9726563
vt 0.296875 0.9453125
vt 0.296875 0.9726563
vt 0.4375 0.4921875
vt 0.4375 0.75
vt 0.4492188 0.4921875
vt 0.4492188 0.75
vt 0.4375 0.21875
vt 0.4375 0.4765625
vt 0.4492188 0.21875
vt 0.4492188 0.4765625
vt 0.2109375 0.9804688
vt 0.2109375 0.984375
vt 0.21875 0.9804688
vt 0.21875 0.984375
vt 0.96875 0.0859375
vt 0.96875 0.08984375
vt 0.9765625 0.0859375
vt 0.9765625 0.08984375
vt 0.3203125 0.859375
vt 0.3164063 0.8867188
vt 0.3164063 0.859375
vt 0.3203125 0.8867188
vt 0.3164063 0.9023438
vt 0.3164063 0.9296875
vt 0.3203125 0.9023438
vt 0.3203125 0.9296875
vt 0.3203125 0.9453125
vt 0.3164063 0.9726563
vt 0.3164063 0.9453125
vt 0.3203125 0.9726563
vt 0.3398438 0.7734375
vt 0.3398438 0.8007813
vt 0.34375 0.7734375
vt 0.34375 0.8007813
vt 0.2109375 0.5507813
vt 0.2109375 0.5664063
vt 0.2226563 0.5507813
vt 0.2226563 0.5664063
vt 0.2304688 0.6679688
vt 0.90625 0.1875
vt 0.9023438 0.203125
vt 0.9023438 0.1875
vt 0.90625 0.203125
vt 0.921875 0.1875
vt 0.921875 0.203125
vt 0.9257813 0.1875
vt 0.9257813 0.203125
usemtl voxel (Instance) (Instance)
f 3/1/1 2/1/1 1/1/1
f 2/1/1 4/1/1 1/1/1
f 7/1/2 6/1/2 5/1/2
f 7/1/2 8/1/2 6/1/2
f 11/1/3 10/1/3 9/1/3
f 10/1/3 12/1/3 9/1/3
f 15/1/4 14/1/4 13/1/4
f 14/1/4 16/1/4 13/1/4
f 19/1/5 18/1/5 17/1/5
f 19/1/5 20/1/5 18/1/5
f 23/1/6 22/1/6 21/1/6
f 23/1/6 24/1/6 22/1/6
f 27/1/1 26/1/1 25/1/1
f 26/1/1 28/1/1 25/1/1
f 31/1/2 30/1/2 29/1/2
f 31/1/2 32/1/2 30/1/2
f 35/1/3 34/1/3 33/1/3
f 34/1/3 36/1/3 33/1/3
f 39/1/4 38/1/4 37/1/4
f 38/1/4 40/1/4 37/1/4
f 43/1/5 42/1/5 41/1/5
f 43/1/5 44/1/5 42/1/5
f 47/1/6 46/1/6 45/1/6
f 47/1/6 48/1/6 46/1/6
f 51/1/1 50/1/1 49/1/1
f 50/1/1 52/1/1 49/1/1
f 55/4/2 54/3/2 53/2/2
f 55/4/2 56/5/2 54/3/2
f 59/1/4 58/1/4 57/1/4
f 58/1/4 60/1/4 57/1/4
f 63/1/6 62/1/6 61/1/6
f 63/1/6 64/1/6 62/1/6
f 67/8/3 66/7/3 65/6/3
f 66/7/3 68/9/3 65/6/3
f 71/12/1 70/11/1 69/10/1
f 70/11/1 72/13/1 69/10/1
f 75/16/2 74/15/2 73/14/2
f 75/16/2 76/17/2 74/15/2
f 79/20/4 78/19/4 77/18/4
f 78/19/4 80/21/4 77/18/4
f 83/24/2 82/23/2 81/22/2
f 83/24/2 84/25/2 82/23/2
f 87/28/4 86/27/4 85/26/4
f 86/27/4 88/29/4 85/26/4
f 91/32/6 90/31/6 89/30/6
f 91/32/6 92/33/6 90/31/6
f 95/36/1 94/35/1 93/34/1
f 94/35/1 96/37/1 93/34/1
f 99/40/2 98/39/2 97/38/2
f 99/40/2 100/41/2 98/39/2
f 103/42/4 102/42/4 101/42/4
f 102/42/4 104/42/4 101/42/4
f 107/45/6 106/44/6 105/43/6
f 107/45/6 108/46/6 106/44/6
f 111/49/2 110/48/2 109/47/2
f 111/49/2 112/50/2 110/48/2
f 115/51/4 114/51/4 113/51/4
f 114/51/4 116/51/4 113/51/4
f 119/54/3 118/53/3 117/52/3
f 118/53/3 120/55/3 117/52/3
f 123/58/3 122/57/3 121/56/3
f 122/57/3 124/59/3 121/56/3
f 127/62/3 126/61/3 125/60/3
f 126/61/3 128/63/3 125/60/3
f 131/66/3 130/65/3 129/64/3
f 130/65/3 132/67/3 129/64/3
f 135/70/1 134/69/1 133/68/1
f 134/69/1 136/71/1 133/68/1
f 139/74/3 138/73/3 137/72/3
f 138/73/3 140/75/3 137/72/3
f 143/78/4 142/77/4 141/76/4
f 142/77/4 144/79/4 141/76/4
f 147/82/6 146/81/6 145/80/6
f 147/82/6 148/83/6 146/81/6
f 151/1/1 150/1/1 149/1/1
f 150/1/1 152/1/1 149/1/1
f 155/1/6 154/1/6 153/1/6
f 155/1/6 156/1/6 154/1/6
f 159/86/1 158/85/1 157/84/1
f 158/85/1 160/87/1 157/84/1
f 163/90/3 162/89/3 161/88/3
f 162/89/3 164/91/3 161/88/3
f 167/94/4 166/93/4 165/92/4
f 166/93/4 168/95/4 165/92/4
f 171/98/6 170/97/6 169/96/6
f 171/98/6 172/99/6 170/97/6
f 175/102/1 174/101/1 173/100/1
f 174/101/1 176/103/1 173/100/1
f 179/106/3 178/105/3 177/104/3
f 178/105/3 180/107/3 177/104/3
f 183/110/4 182/109/4 181/108/4
f 182/109/4 184/111/4 181/108/4
f 187/114/6 186/113/6 185/112/6
f 187/114/6 188/115/6 186/113/6
f 191/118/1 190/117/1 189/116/1
f 190/117/1 192/119/1 189/116/1
f 195/122/3 194/121/3 193/120/3
f 194/121/3 196/123/3 193/120/3
f 199/126/4 198/125/4 197/124/4
f 198/125/4 200/127/4 197/124/4
f 203/130/6 202/129/6 201/128/6
f 203/130/6 204/131/6 202/129/6
f 207/134/1 206/133/1 205/132/1
f 206/133/1 208/135/1 205/132/1
f 211/138/3 210/137/3 209/136/3
f 210/137/3 212/139/3 209/136/3
f 215/142/4 214/141/4 213/140/4
f 214/141/4 216/143/4 213/140/4
f 219/146/6 218/145/6 217/144/6
f 219/146/6 220/147/6 218/145/6
f 223/150/1 222/149/1 221/148/1
f 222/149/1 224/151/1 221/148/1
f 227/154/3 226/153/3 225/152/3
f 226/153/3 228/155/3 225/152/3
f 231/158/4 230/157/4 229/156/4
f 230/157/4 232/159/4 229/156/4
f 235/162/6 234/161/6 233/160/6
f 235/162/6 236/163/6 234/161/6
f 239/166/1 238/165/1 237/164/1
f 238/165/1 240/167/1 237/164/1
f 243/170/3 242/169/3 241/168/3
f 242/169/3 244/171/3 241/168/3
f 247/174/4 246/173/4 245/172/4
f 246/173/4 248/175/4 245/172/4
f 251/178/6 250/177/6 249/176/6
f 251/178/6 252/179/6 250/177/6
f 255/182/1 254/181/1 253/180/1
f 254/181/1 256/183/1 253/180/1
f 259/186/3 258/185/3 257/184/3
f 258/185/3 260/187/3 257/184/3
f 263/190/4 262/189/4 261/188/4
f 262/189/4 264/191/4 261/188/4
f 267/194/6 266/193/6 265/192/6
f 267/194/6 268/195/6 266/193/6
f 271/1/5 270/1/5 269/1/5
f 271/1/5 272/1/5 270/1/5
f 275/198/3 274/197/3 273/196/3
f 274/197/3 276/199/3 273/196/3
f 279/202/5 278/201/5 277/200/5
f 279/202/5 280/203/5 278/201/5
f 283/204/3 282/204/3 281/204/3
f 282/204/3 284/204/3 281/204/3
f 287/207/2 286/206/2 285/205/2
f 287/207/2 288/208/2 286/206/2
f 291/211/2 290/210/2 289/209/2
f 291/211/2 292/212/2 290/210/2
f 295/215/1 294/214/1 293/213/1
f 294/214/1 296/216/1 293/213/1
f 299/219/2 298/218/2 297/217/2
f 299/219/2 300/220/2 298/218/2
f 303/223/4 302/222/4 301/221/4
f 302/222/4 304/224/4 301/221/4
f 307/227/6 306/226/6 305/225/6
f 307/227/6 308/228/6 306/226/6
f 311/231/2 310/230/2 309/229/2
f 311/231/2 312/232/2 310/230/2
f 315/235/3 314/234/3 313/233/3
f 314/234/3 316/236/3 313/233/3
f 319/239/3 318/238/3 317/237/3
f 318/238/3 320/240/3 317/237/3
f 323/243/3 322/242/3 321/241/3
f 322/242/3 324/244/3 321/241/3
f 327/247/5 326/246/5 325/245/5
f 327/247/5 328/248/5 326/246/5
f 331/204/3 330/204/3 329/204/3
f 330/204/3 332/204/3 329/204/3
f 335/251/2 334/250/2 333/249/2
f 335/251/2 336/252/2 334/250/2
f 339/255/2 338/254/2 337/253/2
f 339/255/2 340/256/2 338/254/2
f 343/259/1 342/258/1 341/257/1
f 342/258/1 344/260/1 341/257/1
f 347/263/2 346/262/2 345/261/2
f 347/263/2 348/264/2 346/262/2
f 351/267/4 350/266/4 349/265/4
f 350/266/4 352/268/4 349/265/4
f 355/271/6 354/270/6 353/269/6
f 355/271/6 356/272/6 354/270/6
f 359/275/2 358/274/2 357/273/2
f 359/275/2 360/276/2 358/274/2
f 363/279/3 362/278/3 361/277/3
f 362/278/3 364/280/3 361/277/3
f 367/283/3 366/282/3 365/281/3
f 366/282/3 368/284/3 365/281/3
f 371/287/3 370/286/3 369/285/3
f 370/286/3 372/288/3 369/285/3
f 375/291/5 374/290/5 373/289/5
f 375/291/5 376/292/5 374/290/5
f 379/204/3 378/204/3 377/204/3
f 378/204/3 380/204/3 377/204/3
f 383/295/2 382/294/2 381/293/2
f 383/295/2 384/296/2 382/294/2
f 387/299/2 386/298/2 385/297/2
f 387/299/2 388/300/2 386/298/2
f 391/303/1 390/302/1 389/301/1
f 390/302/1 392/304/1 389/301/1
f 395/307/2 394/306/2 393/305/2
f 395/307/2 396/308/2 394/306/2
f 399/311/4 398/310/4 397/309/4
f 398/310/4 400/312/4 397/309/4
f 403/315/6 402/314/6 401/313/6
f 403/315/6 404/316/6 402/314/6
f 407/319/2 406/318/2 405/317/2
f 407/319/2 408/320/2 406/318/2
f 411/323/3 410/322/3 409/321/3
f 410/322/3 412/324/3 409/321/3
f 415/327/3 414/326/3 413/325/3
f 414/326/3 416/328/3 413/325/3
f 419/331/3 418/330/3 417/329/3
f 418/330/3 420/332/3 417/329/3
f 423/335/3 422/334/3 421/333/3
f 422/334/3 424/336/3 421/333/3
f 427/339/3 426/338/3 425/337/3
f 426/338/3 428/340/3 425/337/3
f 431/1/1 430/1/1 429/1/1
f 430/1/1 432/1/1 429/1/1
f 435/343/3 434/342/3 433/341/3
f 434/342/3 436/344/3 433/341/3
f 439/1/4 438/1/4 437/1/4
f 438/1/4 440/1/4 437/1/4
f 443/347/6 442/346/6 441/345/6
f 443/347/6 444/348/6 442/346/6
f 447/351/5 446/350/5 445/349/5
f 447/351/5 448/352/5 446/350/5
f 451/355/5 450/354/5 449/353/5
f 451/355/5 452/356/5 450/354/5
f 455/359/3 454/358/3 453/357/3
f 454/358/3 456/360/3 453/357/3
f 459/363/5 458/362/5 457/361/5
f 459/363/5 460/364/5 458/362/5
f 463/367/3 462/366/3 461/365/3
f 462/366/3 464/368/3 461/365/3
f 467/371/5 466/370/5 465/369/5
f 467/371/5 468/372/5 466/370/5
f 471/375/3 470/374/3 469/373/3
f 470/374/3 472/376/3 469/373/3
f 475/379/5 474/378/5 473/377/5
f 475/379/5 476/380/5 474/378/5
f 479/383/3 478/382/3 477/381/3
f 478/382/3 480/384/3 477/381/3
f 483/387/5 482/386/5 481/385/5
f 483/387/5 484/388/5 482/386/5
f 487/391/5 486/390/5 485/389/5
f 487/391/5 488/392/5 486/390/5
f 491/395/5 490/394/5 489/393/5
f 491/395/5 492/396/5 490/394/5
f 495/399/5 494/398/5 493/397/5
f 495/399/5 496/400/5 494/398/5
f 499/403/5 498/402/5 497/401/5
f 499/403/5 500/404/5 498/402/5
f 503/407/3 502/406/3 501/405/3
f 502/406/3 504/408/3 501/405/3
f 507/411/5 506/410/5 505/409/5
f 507/411/5 508/412/5 506/410/5
f 511/415/3 510/414/3 509/413/3
f 510/414/3 512/416/3 509/413/3
f 515/419/5 514/418/5 513/417/5
f 515/419/5 516/420/5 514/418/5
f 519/1/1 518/1/1 517/1/1
f 518/1/1 520/1/1 517/1/1
f 523/1/6 522/1/6 521/1/6
f 523/1/6 524/1/6 522/1/6
f 527/423/5 526/422/5 525/421/5
f 527/423/5 528/424/5 526/422/5
f 531/425/1 530/425/1 529/425/1
f 530/425/1 532/425/1 529/425/1
f 535/428/3 534/427/3 533/426/3
f 534/427/3 536/429/3 533/426/3
f 539/432/5 538/431/5 537/430/5
f 539/432/5 540/433/5 538/431/5
f 543/1/6 542/1/6 541/1/6
f 543/1/6 544/1/6 542/1/6
