%YAML 1.1
%TAG !u! tag:unity3d.com,2011:
--- !u!114 &11400000
MonoBehaviour:
  m_ObjectHideFlags: 0
  m_CorrespondingSourceObject: {fileID: 0}
  m_PrefabInstance: {fileID: 0}
  m_PrefabAsset: {fileID: 0}
  m_GameObject: {fileID: 0}
  m_Enabled: 1
  m_EditorHideFlags: 0
  m_Script: {fileID: 11500000, guid: 61db9cbc47f01dd45891c7e2f33a1733, type: 3}
  m_Name: RocketLauncherExplosiveRadiusUpgradeSO
  m_EditorClassIdentifier: 
  price: 20000
  type: 5
