{
    "name": "Game",
    "rootNamespace": "",
    "references": [
        "Unity.TextMeshPro",
        "Unity.RenderPipelines.Universal.Shaders",
        "Unity.RenderPipeline.Universal.ShaderLibrary",
        "Unity.RenderPipelines.Universal.Runtime",
        "Unity.RenderPipelines.Universal.Editor",
        "Unity.RenderPipelines.ShaderGraph.ShaderGraphLibrary",
        "Unity.RenderPipelines.Core.Editor",
        "Unity.RenderPipelines.Core.Runtime",
        "Novasloth.Timer"
    ],
    "includePlatforms": [],
    "excludePlatforms": [],
    "allowUnsafeCode": false,
    "overrideReferences": false,
    "precompiledReferences": [],
    "autoReferenced": true,
    "defineConstraints": [],
    "versionDefines": [],
    "noEngineReferences": false
}