%YAML 1.1
%TAG !u! tag:unity3d.com,2011:
--- !u!114 &-5082881215152052495
MonoBehaviour:
  m_ObjectHideFlags: 11
  m_CorrespondingSourceObject: {fileID: 0}
  m_PrefabInstance: {fileID: 0}
  m_PrefabAsset: {fileID: 0}
  m_GameObject: {fileID: 0}
  m_Enabled: 1
  m_EditorHideFlags: 0
  m_Script: {fileID: 11500000, guid: d0353a89b1f911e48b9e16bdc9f2e058, type: 3}
  m_Name: 
  m_EditorClassIdentifier: 
  version: 5
--- !u!21 &2100000
Material:
  serializedVersion: 8
  m_ObjectHideFlags: 0
  m_CorrespondingSourceObject: {fileID: 0}
  m_PrefabInstance: {fileID: 0}
  m_PrefabAsset: {fileID: 0}
  m_Name: PoisonGas
  m_Shader: {fileID: -6465566751694194690, guid: 8173f85c538b9854ba0dfdf4bbf981e8,
    type: 3}
  m_ValidKeywords: []
  m_InvalidKeywords: []
  m_LightmapFlags: 4
  m_EnableInstancingVariants: 0
  m_DoubleSidedGI: 0
  m_CustomRenderQueue: -1
  stringTagMap: {}
  disabledShaderPasses: []
  m_SavedProperties:
    serializedVersion: 3
    m_TexEnvs:
    - Texture2D_0117f1b104324061936ad3c836b3567e:
        m_Texture: {fileID: 2800000, guid: 5b303ff28ad9368468a2edd759cf458d, type: 3}
        m_Scale: {x: 1, y: 1}
        m_Offset: {x: 0, y: 0}
    - Texture2D_44d6646b1ea64ebfb97c387cbcc035db:
        m_Texture: {fileID: 10300, guid: 0000000000000000f000000000000000, type: 0}
        m_Scale: {x: 1, y: 1}
        m_Offset: {x: 0, y: 0}
    - unity_Lightmaps:
        m_Texture: {fileID: 0}
        m_Scale: {x: 1, y: 1}
        m_Offset: {x: 0, y: 0}
    - unity_LightmapsInd:
        m_Texture: {fileID: 0}
        m_Scale: {x: 1, y: 1}
        m_Offset: {x: 0, y: 0}
    - unity_ShadowMasks:
        m_Texture: {fileID: 0}
        m_Scale: {x: 1, y: 1}
        m_Offset: {x: 0, y: 0}
    m_Ints: []
    m_Floats:
    - Vector1_3ebf46da71454ef0be88870a12b3c378: 1.25
    - Vector1_511ba6caea5c4936895449c2e97be18c: 25
    - Vector1_7119c22b76af4bdd84299482084a36d1: 0.153
    - Vector1_f69402704e02410087a57d54ff09d1c6: 0.123
    - _QueueControl: 0
    - _QueueOffset: 0
    m_Colors:
    - Color_7e74b5280ab14c25bf8ee7041bed633e: {r: 2.4622889, g: 2.4622889, b: 2.4622889,
        a: 1}
    - Vector2_15fe04dd9d7e4228895167d4894cc47b: {r: -0.175, g: 0, b: 0, a: 0}
    - Vector2_b8ceca1d1fea457496cc1cdf235f3e9c: {r: 0, g: 0, b: 0, a: 0}
  m_BuildTextureStacks: []
