# Export of Cubik Model: Cubik Model
# Designed by MeLee with Cubik Studio - https://cubik.studio
# from Cubik OBJ Exporter v1.0
mtllib street_piece_b.mtl
v 1.5 -0.5 1.000002
v 1 -0.5 1.000002
v 1.5 0 1.000002
v 1 0 1.000002
v 1.5 -0.5 1.000002
v 1 -0.5 1.000002
v 1.5 -0.5 -0.4999981
v 1 -0.5 -0.4999981
v 1.5 0 1.000002
v 1 0 1.000002
v 1.5 0 -0.4999981
v 1 0 -0.4999981
v 1.5 -0.5 1.000002
v 1.5 0 1.000002
v 1.5 -0.5 -0.4999981
v 1.5 0 -0.4999981
v 1.5 -0.5 -0.4999981
v 1 -0.5 -0.4999981
v 1.5 0 -0.4999981
v 1 0 -0.4999981
v 1 -1 0.5000019
v 0.5 -1 0.5000019
v 1 -0.5 0.5000019
v 0.5 -0.5 0.5000019
v 1 -1 0.5000019
v -1 -1 0.5000019
v 1 -1 -0.4999981
v -1 -1 -0.4999981
v 1 -1 0.5000019
v 1 -0.5 0.5000019
v 1 -1 -0.4999981
v 1 -0.5 -0.4999981
v 1 -1 -0.4999981
v 0.5 -1 -0.4999981
v 1 -0.5 -0.4999981
v 0.5 -0.5 -0.4999981
v 1 -0.5 2.000002
v 0.5 -0.5 2.000002
v 1 0 2.000002
v 0.5 0 2.000002
v 1 -0.5 2.000002
v 0.5 -0.5 2.000002
v 1 -0.5 0.5000019
v 0.5 -0.5 0.5000019
v 1 0 2.000002
v 0.5 0 2.000002
v 1 0 1.000002
v 0.5 0 1.000002
v 1 -0.5 2.000002
v 1 0 2.000002
v 1 -0.5 1.000002
v 1 0 1.000002
v 0.5 -0.5 2.000002
v 0.5 0 2.000002
v 0.5 -0.5 1.500002
v 0.5 0 1.500002
v 1 0 0.5000019
v 0.5 0 0.5000019
v 1 0 -0.9999981
v 0.5 0 -0.9999981
v 1 -0.5 -0.9999981
v 0.5 -0.5 -0.9999981
v 1 0 -0.9999981
v 0.5 0 -0.9999981
v 1 -0.5 -0.4999981
v 0.5 -0.5 -0.4999981
v 1 -0.5 -0.9999981
v 0.5 -0.5 -0.9999981
v 1 -0.5 -0.4999981
v 1 0 -0.4999981
v 1 -0.5 -0.9999981
v 1 0 -0.9999981
v 1 0 0.5000019
v 0.5 0 0.5000019
v 1 0.5 0.5000019
v 0.5 0.5 0.5000019
v 1 0 1.000002
v 0.5 0 1.000002
v 1 0.5 1.000002
v 0.5 0.5 1.000002
v 1 0.5 1.000002
v -1.5 0.5 1.000002
v 1 0.5 0.5000019
v -1.5 0.5 0.5000019
v 1 0 1.000002
v 1 0.5 1.000002
v 1 0 0.5000019
v 1 0.5 0.5000019
v 0.5 -1 1.500002
v 0 -1 1.500002
v 0.5 0.5 1.500002
v 0 0.5 1.500002
v 0.5 -1 1.500002
v -0.5 -1 1.500002
v 0.5 -1 0.5000019
v -0.5 -1 0.5000019
v 0.5 -1 1.500002
v 0.5 -0.5 1.500002
v 0.5 -1 0.5000019
v 0.5 -0.5 0.5000019
v 0.5 -1 -0.9999981
v -0.5 -1 -0.9999981
v 0.5 -0.5 -0.9999981
v -0.5 -0.5 -0.9999981
v 0.5 -1 -0.4999981
v -0.5 -1 -0.4999981
v 0.5 -1 -0.9999981
v -0.5 -1 -0.9999981
v 0.5 -1 -0.4999981
v 0.5 -0.5 -0.4999981
v 0.5 -1 -0.9999981
v 0.5 -0.5 -0.9999981
v 0.5 -0.5 -1.499998
v -0.5 -0.5 -1.499998
v 0.5 0.5 -1.499998
v -0.5 0.5 -1.499998
v 0.5 -0.5 -0.9999981
v -0.5 -0.5 -0.9999981
v 0.5 -0.5 -1.499998
v -0.5 -0.5 -1.499998
v 0.5 -0.5 -0.9999981
v 0.5 0.5 -0.9999981
v 0.5 -0.5 -1.499998
v 0.5 0.5 -1.499998
v 0.5 0.5 1.500002
v 0 0.5 1.500002
v 0.5 0.5 1.000002
v 0 0.5 1.000002
v 0.5 0 1.500002
v 0.5 0.5 1.500002
v 0.5 0 1.000002
v 0.5 0.5 1.000002
v 0 0 1.500002
v 0 0.5 1.500002
v 0 0 1.000002
v 0 0.5 1.000002
v 0.5 0.5 0.5000019
v -0.5 0.5 0.5000019
v 0.5 0.5 -1.499998
v -0.5 0.5 -1.499998
v 0.5 0 0.5000019
v 0.5 0.5 0.5000019
v 0.5 0 -0.9999981
v 0.5 0.5 -0.9999981
v 0 -1 2.000002
v -0.5 -1 2.000002
v 0 -0.5 2.000002
v -0.5 -0.5 2.000002
v 0 -1 2.000002
v -0.5 -1 2.000002
v 0 -1 1.500002
v -0.5 -1 1.500002
v 0 -0.5 2.000002
v -0.5 -0.5 2.000002
v 0 -0.5 1.500002
v -0.5 -0.5 1.500002
v 0 -1 2.000002
v 0 -0.5 2.000002
v 0 -1 1.500002
v 0 -0.5 1.500002
v -0.5 -1 2.000002
v -0.5 -0.5 2.000002
v -0.5 -1 1.000002
v -0.5 -0.5 1.000002
v -0.5 -1 -0.4999981
v -0.5 -0.5 -0.4999981
v -0.5 -1 -0.9999981
v -0.5 -0.5 -0.9999981
v 0 -0.5 1.500002
v -1 -0.5 1.500002
v 0 0 1.500002
v -1 0 1.500002
v 0 0 1.500002
v -1 0 1.500002
v 0 0 1.000002
v -1 0 1.000002
v -0.5 -0.5 -0.9999981
v -0.5 0.5 -0.9999981
v -0.5 -0.5 -1.499998
v -0.5 0.5 -1.499998
v 0 0 1.000002
v -1.5 0 1.000002
v 0 0.5 1.000002
v -1.5 0.5 1.000002
v -0.5 0 0.5000019
v -0.5 0.5 0.5000019
v -0.5 0 1.907349E-06
v -0.5 0.5 1.907349E-06
v -0.5 -1 1.000002
v -1 -1 1.000002
v -0.5 -0.5 1.000002
v -1 -0.5 1.000002
v -0.5 -1 1.000002
v -1 -1 1.000002
v -0.5 -1 0.5000019
v -1 -1 0.5000019
v -1 -1 1.000002
v -1 -0.5 1.000002
v -1 -1 -0.4999981
v -1 -0.5 -0.4999981
v -0.5 -1 -0.4999981
v -1 -1 -0.4999981
v -0.5 -0.5 -0.4999981
v -1 -0.5 -0.4999981
v -0.5 -0.5 1.500002
v -1 -0.5 1.500002
v -0.5 -0.5 1.000002
v -1 -0.5 1.000002
v -1 -0.5 1.500002
v -1 0 1.500002
v -1 -0.5 1.000002
v -1 0 1.000002
v -0.5 0 0.5000019
v -1 0 0.5000019
v -0.5 0 1.907349E-06
v -1 0 1.907349E-06
v -1 -0.5 1.907349E-06
v -1 0.5 1.907349E-06
v -1 -0.5 -0.9999981
v -1 0.5 -0.9999981
v -0.5 -0.5 -0.9999981
v -1 -0.5 -0.9999981
v -0.5 0.5 -0.9999981
v -1 0.5 -0.9999981
v -0.5 -0.5 -0.4999981
v -1 -0.5 -0.4999981
v -0.5 -0.5 -0.9999981
v -1 -0.5 -0.9999981
v -0.5 0 0.5000019
v -1 0 0.5000019
v -0.5 0.5 0.5000019
v -1 0.5 0.5000019
v -0.5 0 1.907349E-06
v -1 0 1.907349E-06
v -0.5 0.5 1.907349E-06
v -1 0.5 1.907349E-06
v -0.5 0.5 1.907349E-06
v -1 0.5 1.907349E-06
v -0.5 0.5 -0.9999981
v -1 0.5 -0.9999981
v -1 -0.5 1.000002
v -1.5 -0.5 1.000002
v -1 0 1.000002
v -1.5 0 1.000002
v -1 -0.5 1.000002
v -1.5 -0.5 1.000002
v -1 -0.5 1.907349E-06
v -1.5 -0.5 1.907349E-06
v -1.5 -0.5 1.000002
v -1.5 0.5 1.000002
v -1.5 -0.5 1.907349E-06
v -1.5 0.5 1.907349E-06
v -1 -0.5 1.907349E-06
v -1.5 -0.5 1.907349E-06
v -1 0.5 1.907349E-06
v -1.5 0.5 1.907349E-06
v -1 0.5 0.5000019
v -1.5 0.5 0.5000019
v -1 0.5 1.907349E-06
v -1.5 0.5 1.907349E-06
v -1 0 0.5000019
v -1 0.5 0.5000019
v -1 0 1.907349E-06
v -1 0.5 1.907349E-06
vn 0 -5.960464E-08 0.9999999
vn 0 -0.9999999 -5.960464E-08
vn 0 0.9999999 5.960464E-08
vn 1 0 0
vn 0 5.960464E-08 -0.9999999
vn -1 0 0
vt 0.46875 0.53125
vt 0.59375 0.109375
vt 0.625 0.109375
vt 0.59375 0.15625
vt 0.625 0.15625
vt 0.75 0.109375
vt 0.78125 0.109375
vt 0.75 0.15625
vt 0.78125 0.15625
vt 0.03125 0.234375
vt 0.0625 0.234375
vt 0.03125 0.28125
vt 0.0625 0.28125
vt 0.90625 0.109375
vt 0.03125 0.015625
vt 0.15625 0.015625
vt 0.03125 0.046875
vt 0.15625 0.046875
vt 0.03125 0.53125
vt 0.0625 0.53125
vt 0.03125 0.5625
vt 0.0625 0.5625
vt 0.34375 0.53125
vt 0.34375 0.234375
vt 0.375 0.234375
vt 0.34375 0.28125
vt 0.375 0.28125
vt 0.03125 0.625
vt 0.0625 0.625
vt 0.03125 0.65625
vt 0.0625 0.65625
vt 0.03125 0.71875
vt 0.0625 0.71875
vt 0.03125 0.75
vt 0.0625 0.75
vt 0.65625 0.234375
vt 0.6875 0.234375
vt 0.65625 0.28125
vt 0.6875 0.28125
vt 0.84375 0.453125
vt 0.28125 0.015625
vt 0.4375 0.015625
vt 0.28125 0.03125
vt 0.4375 0.03125
vt 0.5 0.234375
vt 0.53125 0.234375
vt 0.5 0.28125
vt 0.53125 0.28125
vt 0.75 0.015625
vt 0.8125 0.015625
vt 0.75 0.046875
vt 0.8125 0.046875
vt 0.1875 0.34375
vt 0.21875 0.34375
vt 0.1875 0.375
vt 0.21875 0.375
vt 0.34375 0.34375
vt 0.40625 0.34375
vt 0.34375 0.359375
vt 0.40625 0.359375
vt 0.53125 0.34375
vt 0.59375 0.34375
vt 0.53125 0.359375
vt 0.59375 0.359375
vt 0.59375 0.453125
vt 0.21875 0.109375
vt 0.28125 0.109375
vt 0.21875 0.140625
vt 0.28125 0.140625
vt 0.71875 0.34375
vt 0.78125 0.34375
vt 0.71875 0.359375
vt 0.78125 0.359375
vt 0.03125 0.453125
vt 0.09375 0.453125
vt 0.03125 0.46875
vt 0.09375 0.46875
vt 0.03125 0.109375
vt 0.09375 0.109375
vt 0.03125 0.171875
vt 0.09375 0.171875
vt 0.1875 0.234375
vt 0.21875 0.234375
vt 0.1875 0.28125
vt 0.21875 0.28125
vt 0.90625 0.34375
vt 0.21875 0.453125
vt 0.28125 0.453125
vt 0.21875 0.46875
vt 0.28125 0.46875
vt 0.40625 0.453125
vt 0.46875 0.453125
vt 0.40625 0.46875
vt 0.46875 0.46875
vt 0.8125 0.234375
vt 0.90625 0.234375
vt 0.8125 0.25
vt 0.90625 0.25
vt 0.03125 0.34375
vt 0.0625 0.34375
vt 0.03125 0.390625
vt 0.0625 0.390625
vt 0.90625 0.171875
vt 0.40625 0.109375
vt 0.46875 0.109375
vt 0.40625 0.140625
vt 0.46875 0.140625
vt 0.03125 0.8125
vt 0.0625 0.8125
vt 0.03125 0.84375
vt 0.0625 0.84375
vt 0.71875 0.453125
vt 0.03125 0.90625
vt 0.0625 0.90625
vt 0.03125 0.9375
vt 0.0625 0.9375
vt 0.1875 0.53125
vt 0.21875 0.53125
vt 0.1875 0.5625
vt 0.21875 0.5625
vt 0.5625 0.015625
vt 0.625 0.015625
vt 0.5625 0.046875
vt 0.625 0.046875
usemtl voxel
f 2/1/1 1/1/1 3/1/1
f 2/1/1 3/1/1 4/1/1
f 5/2/2 6/3/2 7/4/2
f 7/4/2 6/3/2 8/5/2
f 10/7/3 9/6/3 11/8/3
f 10/7/3 11/8/3 12/9/3
f 14/11/4 13/10/4 15/12/4
f 14/11/4 15/12/4 16/13/4
f 17/1/5 18/1/5 19/1/5
f 19/1/5 18/1/5 20/1/5
f 22/14/1 21/14/1 23/14/1
f 22/14/1 23/14/1 24/14/1
f 25/15/2 26/16/2 27/17/2
f 27/17/2 26/16/2 28/18/2
f 30/20/4 29/19/4 31/21/4
f 30/20/4 31/21/4 32/22/4
f 33/23/5 34/23/5 35/23/5
f 35/23/5 34/23/5 36/23/5
f 38/23/1 37/23/1 39/23/1
f 38/23/1 39/23/1 40/23/1
f 41/24/2 42/25/2 43/26/2
f 43/26/2 42/25/2 44/27/2
f 46/29/3 45/28/3 47/30/3
f 46/29/3 47/30/3 48/31/3
f 50/33/4 49/32/4 51/34/4
f 50/33/4 51/34/4 52/35/4
f 53/23/6 54/23/6 55/23/6
f 55/23/6 54/23/6 56/23/6
f 58/37/3 57/36/3 59/38/3
f 58/37/3 59/38/3 60/39/3
f 61/40/5 62/40/5 63/40/5
f 63/40/5 62/40/5 64/40/5
f 65/40/2 66/40/2 67/40/2
f 67/40/2 66/40/2 68/40/2
f 70/40/4 69/40/4 71/40/4
f 70/40/4 71/40/4 72/40/4
f 73/23/5 74/23/5 75/23/5
f 75/23/5 74/23/5 76/23/5
f 78/23/1 77/23/1 79/23/1
f 78/23/1 79/23/1 80/23/1
f 82/42/3 81/41/3 83/43/3
f 82/42/3 83/43/3 84/44/3
f 86/23/4 85/23/4 87/23/4
f 86/23/4 87/23/4 88/23/4
f 90/46/1 89/45/1 91/47/1
f 90/46/1 91/47/1 92/48/1
f 93/49/2 94/50/2 95/51/2
f 95/51/2 94/50/2 96/52/2
f 98/54/4 97/53/4 99/55/4
f 98/54/4 99/55/4 100/56/4
f 101/57/5 102/58/5 103/59/5
f 103/59/5 102/58/5 104/60/5
f 105/61/2 106/62/2 107/63/2
f 107/63/2 106/62/2 108/64/2
f 110/65/4 109/65/4 111/65/4
f 110/65/4 111/65/4 112/65/4
f 113/66/5 114/67/5 115/68/5
f 115/68/5 114/67/5 116/69/5
f 117/70/2 118/71/2 119/72/2
f 119/72/2 118/71/2 120/73/2
f 122/75/4 121/74/4 123/76/4
f 122/75/4 123/76/4 124/77/4
f 126/14/3 125/14/3 127/14/3
f 126/14/3 127/14/3 128/14/3
f 130/14/4 129/14/4 131/14/4
f 130/14/4 131/14/4 132/14/4
f 133/14/6 134/14/6 135/14/6
f 135/14/6 134/14/6 136/14/6
f 138/79/3 137/78/3 139/80/3
f 138/79/3 139/80/3 140/81/3
f 142/83/4 141/82/4 143/84/4
f 142/83/4 143/84/4 144/85/4
f 146/1/1 145/1/1 147/1/1
f 146/1/1 147/1/1 148/1/1
f 149/1/2 150/1/2 151/1/2
f 151/1/2 150/1/2 152/1/2
f 154/1/3 153/1/3 155/1/3
f 154/1/3 155/1/3 156/1/3
f 158/1/4 157/1/4 159/1/4
f 158/1/4 159/1/4 160/1/4
f 161/1/6 162/1/6 163/1/6
f 163/1/6 162/1/6 164/1/6
f 165/86/6 166/86/6 167/86/6
f 167/86/6 166/86/6 168/86/6
f 170/88/1 169/87/1 171/89/1
f 170/88/1 171/89/1 172/90/1
f 174/92/3 173/91/3 175/93/3
f 174/92/3 175/93/3 176/94/3
f 177/23/6 178/23/6 179/23/6
f 179/23/6 178/23/6 180/23/6
f 182/96/1 181/95/1 183/97/1
f 182/96/1 183/97/1 184/98/1
f 185/65/6 186/65/6 187/65/6
f 187/65/6 186/65/6 188/65/6
f 190/65/1 189/65/1 191/65/1
f 190/65/1 191/65/1 192/65/1
f 193/65/2 194/65/2 195/65/2
f 195/65/2 194/65/2 196/65/2
f 197/99/6 198/100/6 199/101/6
f 199/101/6 198/100/6 200/102/6
f 201/103/5 202/103/5 203/103/5
f 203/103/5 202/103/5 204/103/5
f 205/14/2 206/14/2 207/14/2
f 207/14/2 206/14/2 208/14/2
f 209/14/6 210/14/6 211/14/6
f 211/14/6 210/14/6 212/14/6
f 214/40/3 213/40/3 215/40/3
f 214/40/3 215/40/3 216/40/3
f 217/104/6 218/105/6 219/106/6
f 219/106/6 218/105/6 220/107/6
f 221/108/5 222/109/5 223/110/5
f 223/110/5 222/109/5 224/111/5
f 225/65/2 226/65/2 227/65/2
f 227/65/2 226/65/2 228/65/2
f 229/112/5 230/112/5 231/112/5
f 231/112/5 230/112/5 232/112/5
f 234/23/1 233/23/1 235/23/1
f 234/23/1 235/23/1 236/23/1
f 238/114/3 237/113/3 239/115/3
f 238/114/3 239/115/3 240/116/3
f 242/14/1 241/14/1 243/14/1
f 242/14/1 243/14/1 244/14/1
f 245/117/2 246/118/2 247/119/2
f 247/119/2 246/118/2 248/120/2
f 249/121/6 250/122/6 251/123/6
f 251/123/6 250/122/6 252/124/6
f 253/112/5 254/112/5 255/112/5
f 255/112/5 254/112/5 256/112/5
f 258/112/3 257/112/3 259/112/3
f 258/112/3 259/112/3 260/112/3
f 262/112/4 261/112/4 263/112/4
f 262/112/4 263/112/4 264/112/4
