# Export of Cubik Model: Cubik Model
# Designed by MeLee with Cubik Studio - https://cubik.studio
# from Cubik OBJ Exporter v1.0
mtllib street_32_sidewalk_1b_mi.mtl
v 0 0 1.907349E-06
v -16 0 1.907349E-06
v 0 2 1.907349E-06
v -16 2 1.907349E-06
v 0 0 1.907349E-06
v -16 0 1.907349E-06
v 0 0 -16
v -16 0 -16
v 0 0 1.907349E-06
v 0 2 1.907349E-06
v 0 0 -16
v 0 2 -16
v 0 0 -16
v -16 0 -16
v 0 2 -16
v -16 2 -16
v 0 2 1.907349E-06
v -5.5 2 1.907349E-06
v 0 2 -16
v -5.5 2 -16
v -5.5 1.5 -6.499998
v -5.5 2 -6.499998
v -5.5 1.5 -9.499998
v -5.5 2 -9.499998
v -5.5 1.5 -6.499998
v -6 1.5 -6.499998
v -5.5 1.5 -9.499998
v -6 1.5 -9.499998
v -5.5 2 1.907349E-06
v -6 2 1.907349E-06
v -5.5 2 -6.499998
v -6 2 -6.499998
v -5.5 1.5 -6.499998
v -6 1.5 -6.499998
v -5.5 2 -6.499998
v -6 2 -6.499998
v -6 1.5 -5.999998
v -6 2 -5.999998
v -6 1.5 -6.499998
v -6 2 -6.499998
v -5.5 1.5 -9.499998
v -6 1.5 -9.499998
v -5.5 2 -9.499998
v -6 2 -9.499998
v -5.5 2 -9.499998
v -6 2 -9.499998
v -5.5 2 -16
v -6 2 -16
v -6 1.5 -9.499998
v -6 2 -9.499998
v -6 1.5 -10.5
v -6 2 -10.5
v -6 1.5 -5.999998
v -6.5 1.5 -5.999998
v -6 1.5 -7.999998
v -6.5 1.5 -7.999998
v -6.5 1 -6.999998
v -6.5 1.5 -6.999998
v -6.5 1 -8.499998
v -6.5 1.5 -8.499998
v -6 1.5 -8.499998
v -7 1.5 -8.499998
v -6 1.5 -8.999998
v -7 1.5 -8.999998
v -6 1.5 -9.499998
v -6.5 1.5 -9.499998
v -6 1.5 -10.5
v -6.5 1.5 -10.5
v -6 2 1.907349E-06
v -6.5 2 1.907349E-06
v -6 2 -5.999998
v -6.5 2 -5.999998
v -6 1.5 -5.999998
v -6.5 1.5 -5.999998
v -6 2 -5.999998
v -6.5 2 -5.999998
v -6.5 1.5 -5.499998
v -6.5 2 -5.499998
v -6.5 1.5 -5.999998
v -6.5 2 -5.999998
v -6 1.5 -8.499998
v -6.5 1.5 -8.499998
v -6 2 -8.499998
v -6.5 2 -8.499998
v -6 1.5 -7.999998
v -6.5 1.5 -7.999998
v -6 2 -7.999998
v -6.5 2 -7.999998
v -6 2 -7.999998
v -6.5 2 -7.999998
v -6 2 -8.499998
v -6.5 2 -8.499998
v -6 1.5 -7.999998
v -6 2 -7.999998
v -6 1.5 -8.499998
v -6 2 -8.499998
v -6.5 1.5 -7.999998
v -6.5 2 -7.999998
v -6.5 1.5 -8.499998
v -6.5 2 -8.499998
v -6 1.5 -9.499998
v -6.5 1.5 -9.499998
v -6 2 -9.499998
v -6.5 2 -9.499998
v -6 1.5 -8.999998
v -6.5 1.5 -8.999998
v -6 2 -8.999998
v -6.5 2 -8.999998
v -6 2 -8.999998
v -6.5 2 -8.999998
v -6 2 -9.499998
v -6.5 2 -9.499998
v -6 1.5 -8.999998
v -6 2 -8.999998
v -6 1.5 -9.499998
v -6 2 -9.499998
v -6.5 1.5 -8.999998
v -6.5 2 -8.999998
v -6.5 1.5 -9.499998
v -6.5 2 -9.499998
v -6 1.5 -10.5
v -6.5 1.5 -10.5
v -6 2 -10.5
v -6.5 2 -10.5
v -6 2 -10.5
v -6.5 2 -10.5
v -6 2 -16
v -6.5 2 -16
v -6.5 1.5 -10.5
v -6.5 2 -10.5
v -6.5 1.5 -11
v -6.5 2 -11
v -6.5 1 -6.999998
v -7 1 -6.999998
v -6.5 1 -8.499998
v -7 1 -8.499998
v -7 0.5 -7.499998
v -7 1 -7.499998
v -7 0.5 -8.499998
v -7 1 -8.499998
v -6.5 1.5 -5.499998
v -7.5 1.5 -5.499998
v -6.5 1.5 -5.999998
v -7.5 1.5 -5.999998
v -6.5 1 -6.999998
v -7.5 1 -6.999998
v -6.5 1.5 -6.999998
v -7.5 1.5 -6.999998
v -6.5 1.5 -6.499998
v -7.5 1.5 -6.499998
v -6.5 1.5 -6.999998
v -7.5 1.5 -6.999998
v -6.5 1 -8.499998
v -7 1 -8.499998
v -6.5 1.5 -8.499998
v -7 1.5 -8.499998
v -7 1 -8.499998
v -7 1.5 -8.499998
v -7 1 -8.999998
v -7 1.5 -8.999998
v -6.5 1.5 -8.999998
v -7.5 1.5 -8.999998
v -6.5 1.5 -9.499998
v -7.5 1.5 -9.499998
v -6.5 1.5 -10.5
v -7 1.5 -10.5
v -6.5 1.5 -11
v -7 1.5 -11
v -6.5 2 1.907349E-06
v -16 2 1.907349E-06
v -6.5 2 -5.499998
v -16 2 -5.499998
v -6.5 1.5 -5.499998
v -7.5 1.5 -5.499998
v -6.5 2 -5.499998
v -7.5 2 -5.499998
v -6.5 1.5 -6.499998
v -7 1.5 -6.499998
v -6.5 2 -6.499998
v -7 2 -6.499998
v -6.5 1.5 -5.999998
v -7 1.5 -5.999998
v -6.5 2 -5.999998
v -7 2 -5.999998
v -6.5 2 -5.999998
v -7 2 -5.999998
v -6.5 2 -6.499998
v -7 2 -6.499998
v -6.5 1.5 -5.999998
v -6.5 2 -5.999998
v -6.5 1.5 -6.499998
v -6.5 2 -6.499998
v -7 1.5 -5.999998
v -7 2 -5.999998
v -7 1.5 -6.499998
v -7 2 -6.499998
v -6.5 1.5 -9.499998
v -7.5 1.5 -9.499998
v -6.5 2 -9.499998
v -7.5 2 -9.499998
v -6.5 2 -9.499998
v -7.5 2 -9.499998
v -6.5 2 -10.5
v -7.5 2 -10.5
v -6.5 1.5 -9.499998
v -6.5 2 -9.499998
v -6.5 1.5 -10.5
v -6.5 2 -10.5
v -6.5 1.5 -10.5
v -7 1.5 -10.5
v -6.5 2 -10.5
v -7 2 -10.5
v -6.5 1.5 -11
v -7 1.5 -11
v -6.5 2 -11
v -7 2 -11
v -6.5 2 -11
v -16 2 -11
v -6.5 2 -16
v -16 2 -16
v -7 0.5 -7.499998
v -8.5 0.5 -7.499998
v -7 0.5 -8.499998
v -8.5 0.5 -8.499998
v -7.5 0.5 -6.499998
v -7.5 1 -6.499998
v -7.5 0.5 -7.499998
v -7.5 1 -7.499998
v -7 0.5 -7.499998
v -7.5 0.5 -7.499998
v -7 1 -7.499998
v -7.5 1 -7.499998
v -7 1 -6.999998
v -7.5 1 -6.999998
v -7 1 -7.499998
v -7.5 1 -7.499998
v -7 0.5 -8.499998
v -8.5 0.5 -8.499998
v -7 1 -8.499998
v -8.5 1 -8.499998
v -7 1 -8.499998
v -8 1 -8.499998
v -7 1 -8.999998
v -8 1 -8.999998
v -7 1.5 -5.999998
v -9 1.5 -5.999998
v -7 1.5 -6.499998
v -9 1.5 -6.499998
v -7.5 1 -6.499998
v -7.5 1.5 -6.499998
v -7.5 1 -6.999998
v -7.5 1.5 -6.999998
v -7 1 -8.999998
v -7.5 1 -8.999998
v -7 1.5 -8.999998
v -7.5 1.5 -8.999998
v -7.5 1 -8.999998
v -7.5 1.5 -8.999998
v -7.5 1 -9.499998
v -7.5 1.5 -9.499998
v -7.5 1.5 -9.499998
v -7.5 2 -9.499998
v -7.5 1.5 -10.5
v -7.5 2 -10.5
v -7 2 -10.5
v -16 2 -10.5
v -7 2 -11
v -16 2 -11
v -7 1.5 -10.5
v -7 2 -10.5
v -7 1.5 -11
v -7 2 -11
v -7.5 0.5 -6.499998
v -8 0.5 -6.499998
v -7.5 0.5 -7.499998
v -8 0.5 -7.499998
v -7.5 0.5 -6.499998
v -8 0.5 -6.499998
v -7.5 1.5 -6.499998
v -8 1.5 -6.499998
v -7.5 1 -8.999998
v -8.5 1 -8.999998
v -7.5 1 -9.499998
v -8.5 1 -9.499998
v -7.5 1 -9.499998
v -8.5 1 -9.499998
v -7.5 1.5 -9.499998
v -8.5 1.5 -9.499998
v -7.5 1.5 -9.499998
v -8 1.5 -9.499998
v -7.5 1.5 -10.5
v -8 1.5 -10.5
v -7.5 1.5 -5.999998
v -8 1.5 -5.999998
v -7.5 2 -5.999998
v -8 2 -5.999998
v -7.5 2 -5.499998
v -8 2 -5.499998
v -7.5 2 -5.999998
v -8 2 -5.999998
v -7.5 1.5 -5.499998
v -7.5 2 -5.499998
v -7.5 1.5 -5.999998
v -7.5 2 -5.999998
v -8 1.5 -5.499998
v -8 2 -5.499998
v -8 1.5 -5.999998
v -8 2 -5.999998
v -7.5 1.5 -10.5
v -8 1.5 -10.5
v -7.5 2 -10.5
v -8 2 -10.5
v -8 0.5 -6.999998
v -8.5 0.5 -6.999998
v -8 0.5 -7.499998
v -8.5 0.5 -7.499998
v -8 0.5 -6.999998
v -8.5 0.5 -6.999998
v -8 1 -6.999998
v -8.5 1 -6.999998
v -8 1 -6.499998
v -8.5 1 -6.499998
v -8 1 -6.999998
v -8.5 1 -6.999998
v -8 0.5 -6.499998
v -8 1 -6.499998
v -8 0.5 -6.999998
v -8 1 -6.999998
v -8 1.5 -5.499998
v -8.5 1.5 -5.499998
v -8 1.5 -5.999998
v -8.5 1.5 -5.999998
v -8 1 -6.499998
v -8.5 1 -6.499998
v -8 1.5 -6.499998
v -8.5 1.5 -6.499998
v -8 1 -8.999998
v -8.5 1 -8.999998
v -8 1.5 -8.999998
v -8.5 1.5 -8.999998
v -8 1 -8.499998
v -8.5 1 -8.499998
v -8 1.5 -8.499998
v -8.5 1.5 -8.499998
v -8 1.5 -8.499998
v -8.5 1.5 -8.499998
v -8 1.5 -8.999998
v -8.5 1.5 -8.999998
v -8 1 -8.499998
v -8 1.5 -8.499998
v -8 1 -8.999998
v -8 1.5 -8.999998
v -8.5 1 -8.499998
v -8.5 1.5 -8.499998
v -8.5 1 -8.999998
v -8.5 1.5 -8.999998
v -8 1.5 -9.499998
v -9 1.5 -9.499998
v -8 1.5 -9.999998
v -9 1.5 -9.999998
v -8 1.5 -5.499998
v -8.5 1.5 -5.499998
v -8 2 -5.499998
v -8.5 2 -5.499998
v -8 1.5 -9.999998
v -9 1.5 -9.999998
v -8 2 -9.999998
v -9 2 -9.999998
v -8 2 -9.999998
v -16 2 -9.999998
v -8 2 -10.5
v -16 2 -10.5
v -8 1.5 -9.999998
v -8 2 -9.999998
v -8 1.5 -10.5
v -8 2 -10.5
v -8.5 1 -6.999998
v -9 1 -6.999998
v -8.5 1 -8.999998
v -9 1 -8.999998
v -8.5 0.5 -6.999998
v -8.5 1 -6.999998
v -8.5 0.5 -8.499998
v -8.5 1 -8.499998
v -8.5 1 -6.999998
v -9 1 -6.999998
v -8.5 1.5 -6.999998
v -9 1.5 -6.999998
v -8.5 1.5 -6.499998
v -9.5 1.5 -6.499998
v -8.5 1.5 -6.999998
v -9.5 1.5 -6.999998
v -8.5 1 -6.499998
v -8.5 1.5 -6.499998
v -8.5 1 -6.999998
v -8.5 1.5 -6.999998
v -8.5 1 -8.999998
v -9 1 -8.999998
v -8.5 2 -8.999998
v -9 2 -8.999998
v -8.5 1 -8.999998
v -8.5 2 -8.999998
v -8.5 1 -9.499998
v -8.5 2 -9.499998
v -8.5 1.5 -5.999998
v -9 1.5 -5.999998
v -8.5 2 -5.999998
v -9 2 -5.999998
v -8.5 2 -5.499998
v -16 2 -5.499998
v -8.5 2 -5.999998
v -16 2 -5.999998
v -8.5 1.5 -5.499998
v -8.5 2 -5.499998
v -8.5 1.5 -5.999998
v -8.5 2 -5.999998
v -8.5 1.5 -9.499998
v -9 1.5 -9.499998
v -8.5 2 -9.499998
v -9 2 -9.499998
v -8.5 2 -8.999998
v -16 2 -8.999998
v -8.5 2 -9.499998
v -16 2 -9.499998
v -9 1.5 -6.999998
v -9.5 1.5 -6.999998
v -9 1.5 -8.999998
v -9.5 1.5 -8.999998
v -9 1 -6.999998
v -9 1.5 -6.999998
v -9 1 -8.999998
v -9 1.5 -8.999998
v -9 1.5 -6.499998
v -9.5 1.5 -6.499998
v -9 2 -6.499998
v -9.5 2 -6.499998
v -9 2 -5.999998
v -16 2 -5.999998
v -9 2 -6.499998
v -16 2 -6.499998
v -9 1.5 -5.999998
v -9 2 -5.999998
v -9 1.5 -6.499998
v -9 2 -6.499998
v -9 1.5 -8.999998
v -9.5 1.5 -8.999998
v -9 2 -8.999998
v -9.5 2 -8.999998
v -9 2 -9.499998
v -16 2 -9.499998
v -9 2 -9.999998
v -16 2 -9.999998
v -9 1.5 -9.499998
v -9 2 -9.499998
v -9 1.5 -9.999998
v -9 2 -9.999998
v -9.5 2 -6.499998
v -16 2 -6.499998
v -9.5 2 -8.999998
v -16 2 -8.999998
v -9.5 1.5 -6.499998
v -9.5 2 -6.499998
v -9.5 1.5 -8.999998
v -9.5 2 -8.999998
v -16 0 1.907349E-06
v -16 2 1.907349E-06
v -16 0 -16
v -16 2 -16
vn 0 -5.960464E-08 0.9999999
vn 0 -0.9999999 -5.960464E-08
vn 1 0 0
vn 0 5.960464E-08 -0.9999999
vn 0 0.9999999 5.960464E-08
vn -1 0 0
vt 0.015625 0.40625
vt 0.515625 0.40625
vt 0.015625 0.4375
vt 0.515625 0.4375
vt 0.015625 0.0078125
vt 0.515625 0.0078125
vt 0.015625 0.2578125
vt 0.515625 0.2578125
vt 0.8125 0.0078125
vt 0.875 0.0078125
vt 0.8125 0.2578125
vt 0.875 0.2578125
vt 0.015625 0.46875
vt 0.515625 0.46875
vt 0.015625 0.5
vt 0.515625 0.5
vt 0.578125 0.0078125
vt 0.75 0.0078125
vt 0.578125 0.2578125
vt 0.75 0.2578125
vt 0.140625 0.6875
vt 0.15625 0.6875
vt 0.140625 0.734375
vt 0.15625 0.734375
vt 0.140625 0.765625
vt 0.15625 0.765625
vt 0.140625 0.8125
vt 0.15625 0.8125
vt 0.9375 0.0078125
vt 0.953125 0.0078125
vt 0.9375 0.109375
vt 0.953125 0.109375
vt 0.140625 0.96875
vt 0.9375 0.140625
vt 0.953125 0.140625
vt 0.9375 0.2421875
vt 0.953125 0.2421875
vt 0.21875 0.8359375
vt 0.234375 0.8359375
vt 0.21875 0.8515625
vt 0.234375 0.8515625
vt 0.921875 0.40625
vt 0.9375 0.40625
vt 0.921875 0.4375
vt 0.9375 0.4375
vt 0.21875 0.671875
vt 0.234375 0.671875
vt 0.21875 0.6953125
vt 0.234375 0.6953125
vt 0.34375 0.5703125
vt 0.375 0.5703125
vt 0.34375 0.578125
vt 0.375 0.578125
vt 0.859375 0.609375
vt 0.015625 0.8125
vt 0.03125 0.8125
vt 0.015625 0.90625
vt 0.03125 0.90625
vt 0.140625 0.5703125
vt 0.15625 0.5703125
vt 0.140625 0.65625
vt 0.15625 0.65625
vt 0.21875 0.78125
vt 0.234375 0.78125
vt 0.21875 0.8046875
vt 0.234375 0.8046875
vt 0.71875 0.609375
vt 0.734375 0.609375
vt 0.71875 0.625
vt 0.734375 0.625
vt 0.546875 0.609375
vt 0.578125 0.609375
vt 0.546875 0.6171875
vt 0.578125 0.6171875
vt 0.90625 0.5703125
vt 0.9375 0.5703125
vt 0.90625 0.578125
vt 0.9375 0.578125
vt 0.015625 0.2890625
vt 0.3125 0.2890625
vt 0.015625 0.375
vt 0.3125 0.375
vt 0.796875 0.609375
vt 0.4375 0.5703125
vt 0.46875 0.5703125
vt 0.4375 0.578125
vt 0.46875 0.578125
vt 0.296875 0.609375
vt 0.328125 0.609375
vt 0.296875 0.625
vt 0.328125 0.625
vt 0.640625 0.609375
vt 0.65625 0.609375
vt 0.640625 0.625
vt 0.65625 0.625
vt 0.375 0.2890625
vt 0.671875 0.2890625
vt 0.375 0.3671875
vt 0.671875 0.3671875
vt 0.890625 0.46875
vt 0.9375 0.46875
vt 0.890625 0.484375
vt 0.9375 0.484375
vt 0.21875 0.8828125
vt 0.234375 0.8828125
vt 0.21875 0.8984375
vt 0.234375 0.8984375
vt 0.21875 0.5703125
vt 0.28125 0.5703125
vt 0.21875 0.578125
vt 0.28125 0.578125
vt 0.21875 0.9765625
vt 0.21875 0.9296875
vt 0.234375 0.9296875
vt 0.21875 0.9453125
vt 0.234375 0.9453125
vt 0.578125 0.40625
vt 0.859375 0.40625
vt 0.578125 0.4140625
vt 0.859375 0.4140625
vt 0.390625 0.609375
vt 0.40625 0.609375
vt 0.390625 0.625
vt 0.40625 0.625
vt 0.53125 0.5703125
vt 0.5625 0.5703125
vt 0.53125 0.578125
vt 0.5625 0.578125
vt 0.46875 0.609375
vt 0.484375 0.609375
vt 0.46875 0.625
vt 0.484375 0.625
vt 0.625 0.5703125
vt 0.65625 0.5703125
vt 0.625 0.578125
vt 0.65625 0.578125
vt 0.71875 0.5703125
vt 0.75 0.5703125
vt 0.71875 0.578125
vt 0.75 0.578125
vt 0.578125 0.46875
vt 0.828125 0.46875
vt 0.578125 0.4765625
vt 0.828125 0.4765625
vt 0.140625 0.84375
vt 0.15625 0.84375
vt 0.140625 0.875
vt 0.15625 0.875
vt 0.21875 0.7265625
vt 0.234375 0.7265625
vt 0.21875 0.75
vt 0.234375 0.75
vt 0.8125 0.5703125
vt 0.84375 0.5703125
vt 0.8125 0.578125
vt 0.84375 0.578125
vt 0.4375 0.53125
vt 0.671875 0.53125
vt 0.4375 0.5390625
vt 0.671875 0.5390625
vt 0.140625 0.53125
vt 0.375 0.53125
vt 0.140625 0.5390625
vt 0.375 0.5390625
vt 0.21875 0.609375
vt 0.234375 0.609375
vt 0.21875 0.640625
vt 0.234375 0.640625
vt 0.140625 0.90625
vt 0.15625 0.90625
vt 0.140625 0.9375
vt 0.15625 0.9375
vt 0.734375 0.53125
vt 0.953125 0.53125
vt 0.734375 0.5390625
vt 0.953125 0.5390625
vt 0.734375 0.359375
vt 0.953125 0.359375
vt 0.734375 0.3671875
vt 0.953125 0.3671875
vt 0.734375 0.2890625
vt 0.9375 0.2890625
vt 0.734375 0.328125
vt 0.9375 0.328125
vt 0.015625 0.9375
vt 0.03125 0.9375
vt 0.015625 0.9765625
vt 0.03125 0.9765625
vt 0.015625 0.53125
vt 0.078125 0.53125
vt 0.015625 0.78125
vt 0.078125 0.78125
usemtl voxel
f 2/2/1 1/1/1 3/3/1
f 2/2/1 3/3/1 4/4/1
f 5/5/2 6/6/2 7/7/2
f 7/7/2 6/6/2 8/8/2
f 10/10/3 9/9/3 11/11/3
f 10/10/3 11/11/3 12/12/3
f 13/13/4 14/14/4 15/15/4
f 15/15/4 14/14/4 16/16/4
f 18/18/5 17/17/5 19/19/5
f 18/18/5 19/19/5 20/20/5
f 21/21/6 22/22/6 23/23/6
f 23/23/6 22/22/6 24/24/6
f 26/26/5 25/25/5 27/27/5
f 26/26/5 27/27/5 28/28/5
f 30/30/5 29/29/5 31/31/5
f 30/30/5 31/31/5 32/32/5
f 33/33/4 34/33/4 35/33/4
f 35/33/4 34/33/4 36/33/4
f 37/33/6 38/33/6 39/33/6
f 39/33/6 38/33/6 40/33/6
f 42/33/1 41/33/1 43/33/1
f 42/33/1 43/33/1 44/33/1
f 46/35/5 45/34/5 47/36/5
f 46/35/5 47/36/5 48/37/5
f 49/38/6 50/39/6 51/40/6
f 51/40/6 50/39/6 52/41/6
f 54/43/5 53/42/5 55/44/5
f 54/43/5 55/44/5 56/45/5
f 57/46/6 58/47/6 59/48/6
f 59/48/6 58/47/6 60/49/6
f 62/51/5 61/50/5 63/52/5
f 62/51/5 63/52/5 64/53/5
f 66/54/5 65/54/5 67/54/5
f 66/54/5 67/54/5 68/54/5
f 70/56/5 69/55/5 71/57/5
f 70/56/5 71/57/5 72/58/5
f 73/33/4 74/33/4 75/33/4
f 75/33/4 74/33/4 76/33/4
f 77/33/6 78/33/6 79/33/6
f 79/33/6 78/33/6 80/33/6
f 81/33/4 82/33/4 83/33/4
f 83/33/4 82/33/4 84/33/4
f 86/33/1 85/33/1 87/33/1
f 86/33/1 87/33/1 88/33/1
f 90/33/5 89/33/5 91/33/5
f 90/33/5 91/33/5 92/33/5
f 94/33/3 93/33/3 95/33/3
f 94/33/3 95/33/3 96/33/3
f 97/33/6 98/33/6 99/33/6
f 99/33/6 98/33/6 100/33/6
f 101/54/4 102/54/4 103/54/4
f 103/54/4 102/54/4 104/54/4
f 106/54/1 105/54/1 107/54/1
f 106/54/1 107/54/1 108/54/1
f 110/54/5 109/54/5 111/54/5
f 110/54/5 111/54/5 112/54/5
f 114/54/3 113/54/3 115/54/3
f 114/54/3 115/54/3 116/54/3
f 117/54/6 118/54/6 119/54/6
f 119/54/6 118/54/6 120/54/6
f 122/54/1 121/54/1 123/54/1
f 122/54/1 123/54/1 124/54/1
f 126/60/5 125/59/5 127/61/5
f 126/60/5 127/61/5 128/62/5
f 129/54/6 130/54/6 131/54/6
f 131/54/6 130/54/6 132/54/6
f 134/64/5 133/63/5 135/65/5
f 134/64/5 135/65/5 136/66/5
f 137/67/6 138/68/6 139/69/6
f 139/69/6 138/68/6 140/70/6
f 142/72/5 141/71/5 143/73/5
f 142/72/5 143/73/5 144/74/5
f 145/54/4 146/54/4 147/54/4
f 147/54/4 146/54/4 148/54/4
f 150/54/5 149/54/5 151/54/5
f 150/54/5 151/54/5 152/54/5
f 154/33/1 153/33/1 155/33/1
f 154/33/1 155/33/1 156/33/1
f 157/33/6 158/33/6 159/33/6
f 159/33/6 158/33/6 160/33/6
f 162/76/5 161/75/5 163/77/5
f 162/76/5 163/77/5 164/78/5
f 166/54/5 165/54/5 167/54/5
f 166/54/5 167/54/5 168/54/5
f 170/80/5 169/79/5 171/81/5
f 170/80/5 171/81/5 172/82/5
f 173/83/4 174/83/4 175/83/4
f 175/83/4 174/83/4 176/83/4
f 177/54/4 178/54/4 179/54/4
f 179/54/4 178/54/4 180/54/4
f 182/54/1 181/54/1 183/54/1
f 182/54/1 183/54/1 184/54/1
f 186/54/5 185/54/5 187/54/5
f 186/54/5 187/54/5 188/54/5
f 190/54/3 189/54/3 191/54/3
f 190/54/3 191/54/3 192/54/3
f 193/54/6 194/54/6 195/54/6
f 195/54/6 194/54/6 196/54/6
f 198/85/1 197/84/1 199/86/1
f 198/85/1 199/86/1 200/87/1
f 202/89/5 201/88/5 203/90/5
f 202/89/5 203/90/5 204/91/5
f 206/93/3 205/92/3 207/94/3
f 206/93/3 207/94/3 208/95/3
f 209/33/4 210/33/4 211/33/4
f 211/33/4 210/33/4 212/33/4
f 214/83/1 213/83/1 215/83/1
f 214/83/1 215/83/1 216/83/1
f 218/97/5 217/96/5 219/98/5
f 218/97/5 219/98/5 220/99/5
f 222/101/5 221/100/5 223/102/5
f 222/101/5 223/102/5 224/103/5
f 225/104/6 226/105/6 227/106/6
f 227/106/6 226/105/6 228/107/6
f 229/33/4 230/33/4 231/33/4
f 231/33/4 230/33/4 232/33/4
f 234/33/5 233/33/5 235/33/5
f 234/33/5 235/33/5 236/33/5
f 238/54/1 237/54/1 239/54/1
f 238/54/1 239/54/1 240/54/1
f 242/54/5 241/54/5 243/54/5
f 242/54/5 243/54/5 244/54/5
f 246/109/5 245/108/5 247/110/5
f 246/109/5 247/110/5 248/111/5
f 249/54/6 250/54/6 251/54/6
f 251/54/6 250/54/6 252/54/6
f 254/112/1 253/112/1 255/112/1
f 254/112/1 255/112/1 256/112/1
f 257/112/6 258/112/6 259/112/6
f 259/112/6 258/112/6 260/112/6
f 261/113/6 262/114/6 263/115/6
f 263/115/6 262/114/6 264/116/6
f 266/118/5 265/117/5 267/119/5
f 266/118/5 267/119/5 268/120/5
f 270/33/3 269/33/3 271/33/3
f 270/33/3 271/33/3 272/33/3
f 274/122/5 273/121/5 275/123/5
f 274/122/5 275/123/5 276/124/5
f 277/54/4 278/54/4 279/54/4
f 279/54/4 278/54/4 280/54/4
f 282/54/5 281/54/5 283/54/5
f 282/54/5 283/54/5 284/54/5
f 286/126/1 285/125/1 287/127/1
f 286/126/1 287/127/1 288/128/1
f 290/130/5 289/129/5 291/131/5
f 290/130/5 291/131/5 292/132/5
f 293/54/4 294/54/4 295/54/4
f 295/54/4 294/54/4 296/54/4
f 298/54/5 297/54/5 299/54/5
f 298/54/5 299/54/5 300/54/5
f 302/54/3 301/54/3 303/54/3
f 302/54/3 303/54/3 304/54/3
f 305/54/6 306/54/6 307/54/6
f 307/54/6 306/54/6 308/54/6
f 310/54/1 309/54/1 311/54/1
f 310/54/1 311/54/1 312/54/1
f 314/33/5 313/33/5 315/33/5
f 314/33/5 315/33/5 316/33/5
f 317/83/4 318/83/4 319/83/4
f 319/83/4 318/83/4 320/83/4
f 322/83/5 321/83/5 323/83/5
f 322/83/5 323/83/5 324/83/5
f 326/83/3 325/83/3 327/83/3
f 326/83/3 327/83/3 328/83/3
f 330/33/5 329/33/5 331/33/5
f 330/33/5 331/33/5 332/33/5
f 333/83/4 334/83/4 335/83/4
f 335/83/4 334/83/4 336/83/4
f 337/33/4 338/33/4 339/33/4
f 339/33/4 338/33/4 340/33/4
f 342/33/1 341/33/1 343/33/1
f 342/33/1 343/33/1 344/33/1
f 346/33/5 345/33/5 347/33/5
f 346/33/5 347/33/5 348/33/5
f 350/33/3 349/33/3 351/33/3
f 350/33/3 351/33/3 352/33/3
f 353/33/6 354/33/6 355/33/6
f 355/33/6 354/33/6 356/33/6
f 358/134/5 357/133/5 359/135/5
f 358/134/5 359/135/5 360/136/5
f 361/83/4 362/83/4 363/83/4
f 363/83/4 362/83/4 364/83/4
f 366/138/1 365/137/1 367/139/1
f 366/138/1 367/139/1 368/140/1
f 370/142/5 369/141/5 371/143/5
f 370/142/5 371/143/5 372/144/5
f 374/112/3 373/112/3 375/112/3
f 374/112/3 375/112/3 376/112/3
f 378/146/5 377/145/5 379/147/5
f 378/146/5 379/147/5 380/148/5
f 382/150/3 381/149/3 383/151/3
f 382/150/3 383/151/3 384/152/3
f 385/54/4 386/54/4 387/54/4
f 387/54/4 386/54/4 388/54/4
f 390/154/5 389/153/5 391/155/5
f 390/154/5 391/155/5 392/156/5
f 394/54/3 393/54/3 395/54/3
f 394/54/3 395/54/3 396/54/3
f 398/33/1 397/33/1 399/33/1
f 398/33/1 399/33/1 400/33/1
f 402/33/3 401/33/3 403/33/3
f 402/33/3 403/33/3 404/33/3
f 405/54/4 406/54/4 407/54/4
f 407/54/4 406/54/4 408/54/4
f 410/158/5 409/157/5 411/159/5
f 410/158/5 411/159/5 412/160/5
f 414/54/3 413/54/3 415/54/3
f 414/54/3 415/54/3 416/54/3
f 417/33/4 418/33/4 419/33/4
f 419/33/4 418/33/4 420/33/4
f 422/162/5 421/161/5 423/163/5
f 422/162/5 423/163/5 424/164/5
f 426/166/5 425/165/5 427/167/5
f 426/166/5 427/167/5 428/168/5
f 430/170/3 429/169/3 431/171/3
f 430/170/3 431/171/3 432/172/3
f 433/33/4 434/33/4 435/33/4
f 435/33/4 434/33/4 436/33/4
f 438/174/5 437/173/5 439/175/5
f 438/174/5 439/175/5 440/176/5
f 442/33/3 441/33/3 443/33/3
f 442/33/3 443/33/3 444/33/3
f 446/33/1 445/33/1 447/33/1
f 446/33/1 447/33/1 448/33/1
f 450/178/5 449/177/5 451/179/5
f 450/178/5 451/179/5 452/180/5
f 454/112/3 453/112/3 455/112/3
f 454/112/3 455/112/3 456/112/3
f 458/182/5 457/181/5 459/183/5
f 458/182/5 459/183/5 460/184/5
f 462/186/3 461/185/3 463/187/3
f 462/186/3 463/187/3 464/188/3
f 465/189/6 466/190/6 467/191/6
f 467/191/6 466/190/6 468/192/6
