# Export of Cubik Model: Cubik Model
# Designed by MeLee with Cubik Studio - https://cubik.studio
# from Cubik OBJ Exporter v1.0
mtllib street_32_1a_c_mi.mtl
v 0 0 1.907349E-06
v -16 0 1.907349E-06
v 0 2 1.907349E-06
v -16 2 1.907349E-06
v 0 0 1.907349E-06
v -16 0 1.907349E-06
v 0 0 -16
v -16 0 -16
v 0 0 1.907349E-06
v 0 2 1.907349E-06
v 0 0 -16
v 0 2 -16
v 0 0 -16
v -16 0 -16
v 0 2 -16
v -16 2 -16
v 0 2 1.907349E-06
v -5.5 2 1.907349E-06
v 0 2 -16
v -5.5 2 -16
v -5.5 1.5 -5.999998
v -5.5 2 -5.999998
v -5.5 1.5 -6.499998
v -5.5 2 -6.499998
v -5.5 1.5 -5.999998
v -6 1.5 -5.999998
v -5.5 1.5 -6.499998
v -6 1.5 -6.499998
v -5.5 2 1.907349E-06
v -16 2 1.907349E-06
v -5.5 2 -5.999998
v -16 2 -5.999998
v -5.5 1.5 -5.999998
v -6 1.5 -5.999998
v -5.5 2 -5.999998
v -6 2 -5.999998
v -5.5 1.5 -6.499998
v -6 1.5 -6.499998
v -5.5 2 -6.499998
v -6 2 -6.499998
v -5.5 2 -6.499998
v -6 2 -6.499998
v -5.5 2 -16
v -6 2 -16
v -6 1.5 -6.499998
v -6 2 -6.499998
v -6 1.5 -6.999998
v -6 2 -6.999998
v -6 1.5 -10.5
v -6 2 -10.5
v -6 1.5 -11
v -6 2 -11
v -6 1.5 -6.499998
v -7 1.5 -6.499998
v -6 1.5 -6.999998
v -7 1.5 -6.999998
v -6.5 1 -9.999998
v -6.5 2 -9.999998
v -6.5 1 -10.5
v -6.5 2 -10.5
v -6 1.5 -10.5
v -6.5 1.5 -10.5
v -6 1.5 -11
v -6.5 1.5 -11
v -6 1.5 -6.499998
v -7 1.5 -6.499998
v -6 2 -6.499998
v -7 2 -6.499998
v -6 2 -5.999998
v -9.5 2 -5.999998
v -6 2 -6.499998
v -9.5 2 -6.499998
v -6 1.5 -5.999998
v -6 2 -5.999998
v -6 1.5 -6.499998
v -6 2 -6.499998
v -6 1.5 -6.999998
v -7 1.5 -6.999998
v -6 2 -6.999998
v -7 2 -6.999998
v -6 2 -6.999998
v -6.5 2 -6.999998
v -6 2 -10.5
v -6.5 2 -10.5
v -6.5 1.5 -7.499998
v -6.5 2 -7.499998
v -6.5 1.5 -8.999998
v -6.5 2 -8.999998
v -6.5 1.5 -9.499998
v -6.5 2 -9.499998
v -6.5 1.5 -9.999998
v -6.5 2 -9.999998
v -6 1.5 -10.5
v -6.5 1.5 -10.5
v -6 2 -10.5
v -6.5 2 -10.5
v -6 1.5 -11
v -6.5 1.5 -11
v -6 2 -11
v -6.5 2 -11
v -6 2 -11
v -11.5 2 -11
v -6 2 -16
v -11.5 2 -16
v -6.5 1 -9.999998
v -7 1 -9.999998
v -6.5 1 -10.5
v -7 1 -10.5
v -6.5 1.5 -7.499998
v -7.5 1.5 -7.499998
v -6.5 1.5 -8.999998
v -7.5 1.5 -8.999998
v -6.5 1 -9.999998
v -7 1 -9.999998
v -6.5 1.5 -9.999998
v -7 1.5 -9.999998
v -6.5 1.5 -9.499998
v -7 1.5 -9.499998
v -6.5 1.5 -9.999998
v -7 1.5 -9.999998
v -6.5 1 -10.5
v -7 1 -10.5
v -6.5 2 -10.5
v -7 2 -10.5
v -6.5 1.5 -7.499998
v -7 1.5 -7.499998
v -6.5 2 -7.499998
v -7 2 -7.499998
v -6.5 2 -6.999998
v -7 2 -6.999998
v -6.5 2 -7.499998
v -7 2 -7.499998
v -7 1.5 -6.999998
v -7 2 -6.999998
v -7 1.5 -7.499998
v -7 2 -7.499998
v -6.5 1.5 -9.499998
v -7 1.5 -9.499998
v -6.5 2 -9.499998
v -7 2 -9.499998
v -6.5 1.5 -8.999998
v -7 1.5 -8.999998
v -6.5 2 -8.999998
v -7 2 -8.999998
v -6.5 2 -8.999998
v -7 2 -8.999998
v -6.5 2 -9.499998
v -7 2 -9.499998
v -7 1.5 -8.999998
v -7 2 -8.999998
v -7 1.5 -9.499998
v -7 2 -9.499998
v -6.5 2 -10.5
v -10.5 2 -10.5
v -6.5 2 -11
v -10.5 2 -11
v -6.5 1.5 -10.5
v -6.5 2 -10.5
v -6.5 1.5 -11
v -6.5 2 -11
v -7 1.5 -6.999998
v -9.5 1.5 -6.999998
v -7 1.5 -7.499998
v -9.5 1.5 -7.499998
v -7.5 1 -7.999998
v -7.5 1.5 -7.999998
v -7.5 1 -8.999998
v -7.5 1.5 -8.999998
v -7 1.5 -8.999998
v -8 1.5 -8.999998
v -7 1.5 -9.499998
v -8 1.5 -9.499998
v -7 1 -9.999998
v -7 2 -9.999998
v -7 1 -10.5
v -7 2 -10.5
v -7 1.5 -6.999998
v -9.5 1.5 -6.999998
v -7 2 -6.999998
v -9.5 2 -6.999998
v -7 2 -6.499998
v -16 2 -6.499998
v -7 2 -6.999998
v -16 2 -6.999998
v -7 1.5 -6.499998
v -7 2 -6.499998
v -7 1.5 -6.999998
v -7 2 -6.999998
v -7 1.5 -9.499998
v -8.5 1.5 -9.499998
v -7 2 -9.499998
v -8.5 2 -9.499998
v -7 2 -9.499998
v -8.5 2 -9.499998
v -7 2 -10.5
v -8.5 2 -10.5
v -7 1.5 -9.499998
v -7 2 -9.499998
v -7 1.5 -9.999998
v -7 2 -9.999998
v -7.5 1 -7.999998
v -8 1 -7.999998
v -7.5 1 -8.999998
v -8 1 -8.999998
v -7.5 1 -7.999998
v -8 1 -7.999998
v -7.5 1.5 -7.999998
v -8 1.5 -7.999998
v -7.5 1.5 -7.499998
v -8 1.5 -7.499998
v -7.5 1.5 -7.999998
v -8 1.5 -7.999998
v -8 1 -7.499998
v -8 1.5 -7.499998
v -8 1 -7.999998
v -8 1.5 -7.999998
v -7.5 1 -8.999998
v -8 1 -8.999998
v -7.5 1.5 -8.999998
v -8 1.5 -8.999998
v -8 1 -8.999998
v -8 1.5 -8.999998
v -8 1 -9.499998
v -8 1.5 -9.499998
v -8 1 -7.499998
v -9 1 -7.499998
v -8 1 -7.999998
v -9 1 -7.999998
v -8 1 -8.499998
v -8.5 1 -8.499998
v -8 1 -9.499998
v -8.5 1 -9.499998
v -8 1 -7.499998
v -9 1 -7.499998
v -8 1.5 -7.499998
v -9 1.5 -7.499998
v -8 1 -8.499998
v -8.5 1 -8.499998
v -8 1.5 -8.499998
v -8.5 1.5 -8.499998
v -8 1 -7.999998
v -8.5 1 -7.999998
v -8 1.5 -7.999998
v -8.5 1.5 -7.999998
v -8 1.5 -7.999998
v -8.5 1.5 -7.999998
v -8 1.5 -8.499998
v -8.5 1.5 -8.499998
v -8 1 -7.999998
v -8 1.5 -7.999998
v -8 1 -8.499998
v -8 1.5 -8.499998
v -8.5 1 -7.999998
v -8.5 1.5 -7.999998
v -8.5 1 -8.499998
v -8.5 1.5 -8.499998
v -8 1 -9.499998
v -8.5 1 -9.499998
v -8 1.5 -9.499998
v -8.5 1.5 -9.499998
v -8.5 1.5 -9.499998
v -8.5 2 -9.499998
v -8.5 1.5 -9.999998
v -8.5 2 -9.999998
v -8.5 1 -7.999998
v -9 1 -7.999998
v -8.5 1 -8.999998
v -9 1 -8.999998
v -8.5 1 -8.999998
v -9 1 -8.999998
v -8.5 1.5 -8.999998
v -9 1.5 -8.999998
v -8.5 1.5 -8.999998
v -9.5 1.5 -8.999998
v -8.5 1.5 -9.999998
v -9.5 1.5 -9.999998
v -8.5 1 -8.999998
v -8.5 1.5 -8.999998
v -8.5 1 -9.499998
v -8.5 1.5 -9.499998
v -8.5 1.5 -9.999998
v -10 1.5 -9.999998
v -8.5 2 -9.999998
v -10 2 -9.999998
v -8.5 2 -9.999998
v -10 2 -9.999998
v -8.5 2 -10.5
v -10 2 -10.5
v -9 1.5 -7.499998
v -9.5 1.5 -7.499998
v -9 1.5 -8.999998
v -9.5 1.5 -8.999998
v -9 1 -7.499998
v -9 1.5 -7.499998
v -9 1 -8.999998
v -9 1.5 -8.999998
v -9.5 1 -8.999998
v -9.5 1.5 -8.999998
v -9.5 1 -9.499998
v -9.5 1.5 -9.499998
v -9.5 1.5 -5.999998
v -9.5 2 -5.999998
v -9.5 1.5 -6.499998
v -9.5 2 -6.499998
v -9.5 1 -8.999998
v -10 1 -8.999998
v -9.5 1 -9.499998
v -10 1 -9.499998
v -9.5 1.5 -5.999998
v -10 1.5 -5.999998
v -9.5 1.5 -6.499998
v -10 1.5 -6.499998
v -9.5 1 -8.999998
v -10 1 -8.999998
v -9.5 2 -8.999998
v -10 2 -8.999998
v -9.5 1 -9.499998
v -10 1 -9.499998
v -9.5 1.5 -9.499998
v -10 1.5 -9.499998
v -9.5 1.5 -9.499998
v -10 1.5 -9.499998
v -9.5 1.5 -9.999998
v -10 1.5 -9.999998
v -9.5 1.5 -5.999998
v -10 1.5 -5.999998
v -9.5 2 -5.999998
v -10 2 -5.999998
v -9.5 1.5 -6.499998
v -10 1.5 -6.499998
v -9.5 2 -6.499998
v -10 2 -6.499998
v -9.5 2 -6.999998
v -16 2 -6.999998
v -9.5 2 -8.999998
v -16 2 -8.999998
v -9.5 1.5 -6.999998
v -9.5 2 -6.999998
v -9.5 1.5 -8.999998
v -9.5 2 -8.999998
v -10 1.5 -9.999998
v -10 2 -9.999998
v -10 1.5 -10.5
v -10 2 -10.5
v -10 1 -8.999998
v -10 2 -8.999998
v -10 1 -9.499998
v -10 2 -9.499998
v -10 1.5 -9.999998
v -11 1.5 -9.999998
v -10 1.5 -10.5
v -11 1.5 -10.5
v -10 2 -5.999998
v -16 2 -5.999998
v -10 2 -6.499998
v -16 2 -6.499998
v -10 1.5 -5.999998
v -10 2 -5.999998
v -10 1.5 -6.499998
v -10 2 -6.499998
v -10 2 -8.999998
v -16 2 -8.999998
v -10 2 -9.999998
v -16 2 -9.999998
v -10 1.5 -9.999998
v -11 1.5 -9.999998
v -10 2 -9.999998
v -11 2 -9.999998
v -10 1.5 -9.499998
v -10 2 -9.499998
v -10 1.5 -9.999998
v -10 2 -9.999998
v -10 1.5 -10.5
v -10.5 1.5 -10.5
v -10 2 -10.5
v -10.5 2 -10.5
v -10.5 1.5 -10.5
v -10.5 2 -10.5
v -10.5 1.5 -11
v -10.5 2 -11
v -10.5 1.5 -10.5
v -11 1.5 -10.5
v -10.5 1.5 -11
v -11 1.5 -11
v -10.5 1.5 -11
v -11 1.5 -11
v -10.5 2 -11
v -11 2 -11
v -11 2 -9.999998
v -16 2 -9.999998
v -11 2 -11
v -16 2 -11
v -11 1.5 -9.999998
v -11 2 -9.999998
v -11 1.5 -11
v -11 2 -11
v -11.5 1.5 -11.5
v -11.5 2 -11.5
v -11.5 1.5 -12
v -11.5 2 -12
v -11.5 1.5 -11.5
v -12 1.5 -11.5
v -11.5 1.5 -12
v -12 1.5 -12
v -11.5 1.5 -11.5
v -12 1.5 -11.5
v -11.5 2 -11.5
v -12 2 -11.5
v -11.5 2 -11
v -16 2 -11
v -11.5 2 -11.5
v -16 2 -11.5
v -11.5 1.5 -12
v -12 1.5 -12
v -11.5 2 -12
v -12 2 -12
v -11.5 2 -12
v -16 2 -12
v -11.5 2 -16
v -16 2 -16
v -12 2 -11.5
v -16 2 -11.5
v -12 2 -12
v -16 2 -12
v -12 1.5 -11.5
v -12 2 -11.5
v -12 1.5 -12
v -12 2 -12
v -16 0 1.907349E-06
v -16 2 1.907349E-06
v -16 0 -16
v -16 2 -16
vn 0 -5.960464E-08 0.9999999
vn 0 -0.9999999 -5.960464E-08
vn 1 0 0
vn 0 5.960464E-08 -0.9999999
vn 0 0.9999999 5.960464E-08
vn -1 0 0
vt 0.40625 0.2890625
vt 0.90625 0.2890625
vt 0.40625 0.3203125
vt 0.90625 0.3203125
vt 0.015625 0.0078125
vt 0.515625 0.0078125
vt 0.015625 0.2578125
vt 0.515625 0.2578125
vt 0.8125 0.0078125
vt 0.875 0.0078125
vt 0.8125 0.2578125
vt 0.875 0.2578125
vt 0.40625 0.3515625
vt 0.90625 0.3515625
vt 0.40625 0.3828125
vt 0.90625 0.3828125
vt 0.578125 0.0078125
vt 0.75 0.0078125
vt 0.578125 0.2578125
vt 0.75 0.2578125
vt 0.296875 0.609375
vt 0.484375 0.609375
vt 0.015625 0.2890625
vt 0.34375 0.2890625
vt 0.015625 0.3828125
vt 0.34375 0.3828125
vt 0.84375 0.4921875
vt 0.359375 0.609375
vt 0.9375 0.0078125
vt 0.953125 0.0078125
vt 0.9375 0.15625
vt 0.953125 0.15625
vt 0.140625 0.734375
vt 0.171875 0.734375
vt 0.140625 0.7421875
vt 0.171875 0.7421875
vt 0.84375 0.4140625
vt 0.953125 0.4140625
vt 0.84375 0.421875
vt 0.953125 0.421875
vt 0.140625 0.7734375
vt 0.171875 0.7734375
vt 0.140625 0.78125
vt 0.171875 0.78125
vt 0.9375 0.1875
vt 0.953125 0.1875
vt 0.9375 0.2421875
vt 0.953125 0.2421875
vt 0.015625 0.859375
vt 0.03125 0.859375
vt 0.015625 0.8828125
vt 0.03125 0.8828125
vt 0.234375 0.609375
vt 0.9375 0.5234375
vt 0.140625 0.4140625
vt 0.3125 0.4140625
vt 0.140625 0.4921875
vt 0.3125 0.4921875
vt 0.015625 0.7421875
vt 0.046875 0.7421875
vt 0.015625 0.765625
vt 0.046875 0.765625
vt 0.140625 0.859375
vt 0.15625 0.859375
vt 0.140625 0.875
vt 0.15625 0.875
vt 0.359375 0.5625
vt 0.484375 0.5625
vt 0.359375 0.5703125
vt 0.484375 0.5703125
vt 0.84375 0.453125
vt 0.921875 0.453125
vt 0.84375 0.4609375
vt 0.921875 0.4609375
vt 0.140625 0.9453125
vt 0.171875 0.9453125
vt 0.140625 0.953125
vt 0.171875 0.953125
vt 0.140625 0.90625
vt 0.171875 0.90625
vt 0.140625 0.9140625
vt 0.171875 0.9140625
vt 0.734375 0.5625
vt 0.8125 0.5625
vt 0.734375 0.5703125
vt 0.8125 0.5703125
vt 0.140625 0.5234375
vt 0.421875 0.5234375
vt 0.140625 0.53125
vt 0.421875 0.53125
vt 0.421875 0.609375
vt 0.875 0.5625
vt 0.921875 0.5625
vt 0.875 0.5703125
vt 0.921875 0.5703125
vt 0.015625 0.6953125
vt 0.0625 0.6953125
vt 0.015625 0.7109375
vt 0.0625 0.7109375
vt 0.90625 0.4921875
vt 0.140625 0.609375
vt 0.171875 0.609375
vt 0.140625 0.6171875
vt 0.171875 0.6171875
vt 0.140625 0.6484375
vt 0.15625 0.6484375
vt 0.140625 0.6640625
vt 0.15625 0.6640625
vt 0.015625 0.953125
vt 0.0625 0.953125
vt 0.015625 0.9609375
vt 0.0625 0.9609375
vt 0.015625 0.9140625
vt 0.0625 0.9140625
vt 0.015625 0.921875
vt 0.0625 0.921875
vt 0.578125 0.4140625
vt 0.78125 0.4140625
vt 0.578125 0.4453125
vt 0.78125 0.4453125
vt 0.015625 0.796875
vt 0.03125 0.796875
vt 0.015625 0.828125
vt 0.03125 0.828125
vt 0.140625 0.6953125
vt 0.171875 0.6953125
vt 0.140625 0.703125
vt 0.171875 0.703125
vt 0.484375 0.5234375
vt 0.671875 0.5234375
vt 0.484375 0.53125
vt 0.671875 0.53125
vt 0.578125 0.4765625
vt 0.765625 0.4765625
vt 0.578125 0.4921875
vt 0.765625 0.4921875
vt 0.140625 0.5625
vt 0.296875 0.5625
vt 0.140625 0.578125
vt 0.296875 0.578125
vt 0.140625 0.8125
vt 0.15625 0.8125
vt 0.140625 0.828125
vt 0.15625 0.828125
vt 0.734375 0.5234375
vt 0.875 0.5234375
vt 0.734375 0.53125
vt 0.875 0.53125
vt 0.375 0.4140625
vt 0.515625 0.4140625
vt 0.375 0.4765625
vt 0.515625 0.4765625
vt 0.546875 0.5625
vt 0.671875 0.5625
vt 0.546875 0.5703125
vt 0.671875 0.5703125
vt 0.015625 0.4140625
vt 0.078125 0.4140625
vt 0.015625 0.6640625
vt 0.078125 0.6640625
usemtl voxel
f 2/2/1 1/1/1 3/3/1
f 2/2/1 3/3/1 4/4/1
f 5/5/2 6/6/2 7/7/2
f 7/7/2 6/6/2 8/8/2
f 10/10/3 9/9/3 11/11/3
f 10/10/3 11/11/3 12/12/3
f 13/13/4 14/14/4 15/15/4
f 15/15/4 14/14/4 16/16/4
f 18/18/5 17/17/5 19/19/5
f 18/18/5 19/19/5 20/20/5
f 21/21/6 22/21/6 23/21/6
f 23/21/6 22/21/6 24/21/6
f 26/22/5 25/22/5 27/22/5
f 26/22/5 27/22/5 28/22/5
f 30/24/5 29/23/5 31/25/5
f 30/24/5 31/25/5 32/26/5
f 33/27/4 34/27/4 35/27/4
f 35/27/4 34/27/4 36/27/4
f 38/28/1 37/28/1 39/28/1
f 38/28/1 39/28/1 40/28/1
f 42/30/5 41/29/5 43/31/5
f 42/30/5 43/31/5 44/32/5
f 45/28/6 46/28/6 47/28/6
f 47/28/6 46/28/6 48/28/6
f 49/22/6 50/22/6 51/22/6
f 51/22/6 50/22/6 52/22/6
f 54/22/5 53/22/5 55/22/5
f 54/22/5 55/22/5 56/22/5
f 57/33/6 58/34/6 59/35/6
f 59/35/6 58/34/6 60/36/6
f 62/22/5 61/22/5 63/22/5
f 62/22/5 63/22/5 64/22/5
f 65/22/4 66/22/4 67/22/4
f 67/22/4 66/22/4 68/22/4
f 70/38/5 69/37/5 71/39/5
f 70/38/5 71/39/5 72/40/5
f 74/22/3 73/22/3 75/22/3
f 74/22/3 75/22/3 76/22/3
f 78/42/1 77/41/1 79/43/1
f 78/42/1 79/43/1 80/44/1
f 82/46/5 81/45/5 83/47/5
f 82/46/5 83/47/5 84/48/5
f 85/49/6 86/50/6 87/51/6
f 87/51/6 86/50/6 88/52/6
f 89/53/6 90/53/6 91/53/6
f 91/53/6 90/53/6 92/53/6
f 93/54/4 94/54/4 95/54/4
f 95/54/4 94/54/4 96/54/4
f 98/22/1 97/22/1 99/22/1
f 98/22/1 99/22/1 100/22/1
f 102/56/5 101/55/5 103/57/5
f 102/56/5 103/57/5 104/58/5
f 106/22/5 105/22/5 107/22/5
f 106/22/5 107/22/5 108/22/5
f 110/60/5 109/59/5 111/61/5
f 110/60/5 111/61/5 112/62/5
f 113/22/4 114/22/4 115/22/4
f 115/22/4 114/22/4 116/22/4
f 118/22/5 117/22/5 119/22/5
f 118/22/5 119/22/5 120/22/5
f 122/64/1 121/63/1 123/65/1
f 122/64/1 123/65/1 124/66/1
f 125/22/4 126/22/4 127/22/4
f 127/22/4 126/22/4 128/22/4
f 130/22/5 129/22/5 131/22/5
f 130/22/5 131/22/5 132/22/5
f 133/22/6 134/22/6 135/22/6
f 135/22/6 134/22/6 136/22/6
f 137/22/4 138/22/4 139/22/4
f 139/22/4 138/22/4 140/22/4
f 142/22/1 141/22/1 143/22/1
f 142/22/1 143/22/1 144/22/1
f 146/22/5 145/22/5 147/22/5
f 146/22/5 147/22/5 148/22/5
f 149/22/6 150/22/6 151/22/6
f 151/22/6 150/22/6 152/22/6
f 154/68/5 153/67/5 155/69/5
f 154/68/5 155/69/5 156/70/5
f 158/22/3 157/22/3 159/22/3
f 158/22/3 159/22/3 160/22/3
f 162/72/5 161/71/5 163/73/5
f 162/72/5 163/73/5 164/74/5
f 165/22/6 166/22/6 167/22/6
f 167/22/6 166/22/6 168/22/6
f 170/76/5 169/75/5 171/77/5
f 170/76/5 171/77/5 172/78/5
f 174/80/3 173/79/3 175/81/3
f 174/80/3 175/81/3 176/82/3
f 177/83/4 178/84/4 179/85/4
f 179/85/4 178/84/4 180/86/4
f 182/88/5 181/87/5 183/89/5
f 182/88/5 183/89/5 184/90/5
f 186/91/3 185/91/3 187/91/3
f 186/91/3 187/91/3 188/91/3
f 190/93/1 189/92/1 191/94/1
f 190/93/1 191/94/1 192/95/1
f 194/97/5 193/96/5 195/98/5
f 194/97/5 195/98/5 196/99/5
f 198/21/3 197/21/3 199/21/3
f 198/21/3 199/21/3 200/21/3
f 202/100/5 201/100/5 203/100/5
f 202/100/5 203/100/5 204/100/5
f 205/22/4 206/22/4 207/22/4
f 207/22/4 206/22/4 208/22/4
f 210/22/5 209/22/5 211/22/5
f 210/22/5 211/22/5 212/22/5
f 213/22/6 214/22/6 215/22/6
f 215/22/6 214/22/6 216/22/6
f 218/22/1 217/22/1 219/22/1
f 218/22/1 219/22/1 220/22/1
f 221/22/6 222/22/6 223/22/6
f 223/22/6 222/22/6 224/22/6
f 226/102/5 225/101/5 227/103/5
f 226/102/5 227/103/5 228/104/5
f 230/106/5 229/105/5 231/107/5
f 230/106/5 231/107/5 232/108/5
f 233/100/4 234/100/4 235/100/4
f 235/100/4 234/100/4 236/100/4
f 237/22/4 238/22/4 239/22/4
f 239/22/4 238/22/4 240/22/4
f 242/22/1 241/22/1 243/22/1
f 242/22/1 243/22/1 244/22/1
f 246/22/5 245/22/5 247/22/5
f 246/22/5 247/22/5 248/22/5
f 250/22/3 249/22/3 251/22/3
f 250/22/3 251/22/3 252/22/3
f 253/22/6 254/22/6 255/22/6
f 255/22/6 254/22/6 256/22/6
f 258/28/1 257/28/1 259/28/1
f 258/28/1 259/28/1 260/28/1
f 261/22/6 262/22/6 263/22/6
f 263/22/6 262/22/6 264/22/6
f 266/100/5 265/100/5 267/100/5
f 266/100/5 267/100/5 268/100/5
f 270/22/1 269/22/1 271/22/1
f 270/22/1 271/22/1 272/22/1
f 274/22/5 273/22/5 275/22/5
f 274/22/5 275/22/5 276/22/5
f 278/22/3 277/22/3 279/22/3
f 278/22/3 279/22/3 280/22/3
f 282/110/1 281/109/1 283/111/1
f 282/110/1 283/111/1 284/112/1
f 286/114/5 285/113/5 287/115/5
f 286/114/5 287/115/5 288/116/5
f 290/22/5 289/22/5 291/22/5
f 290/22/5 291/22/5 292/22/5
f 294/22/3 293/22/3 295/22/3
f 294/22/3 295/22/3 296/22/3
f 297/22/6 298/22/6 299/22/6
f 299/22/6 298/22/6 300/22/6
f 301/22/6 302/22/6 303/22/6
f 303/22/6 302/22/6 304/22/6
f 306/22/5 305/22/5 307/22/5
f 306/22/5 307/22/5 308/22/5
f 310/22/5 309/22/5 311/22/5
f 310/22/5 311/22/5 312/22/5
f 313/22/4 314/22/4 315/22/4
f 315/22/4 314/22/4 316/22/4
f 318/22/1 317/22/1 319/22/1
f 318/22/1 319/22/1 320/22/1
f 322/22/5 321/22/5 323/22/5
f 322/22/5 323/22/5 324/22/5
f 325/22/4 326/22/4 327/22/4
f 327/22/4 326/22/4 328/22/4
f 330/22/1 329/22/1 331/22/1
f 330/22/1 331/22/1 332/22/1
f 334/118/5 333/117/5 335/119/5
f 334/118/5 335/119/5 336/120/5
f 338/122/3 337/121/3 339/123/3
f 338/122/3 339/123/3 340/124/3
f 341/22/6 342/22/6 343/22/6
f 343/22/6 342/22/6 344/22/6
f 346/126/3 345/125/3 347/127/3
f 346/126/3 347/127/3 348/128/3
f 350/22/5 349/22/5 351/22/5
f 350/22/5 351/22/5 352/22/5
f 354/130/5 353/129/5 355/131/5
f 354/130/5 355/131/5 356/132/5
f 358/21/3 357/21/3 359/21/3
f 358/21/3 359/21/3 360/21/3
f 362/134/5 361/133/5 363/135/5
f 362/134/5 363/135/5 364/136/5
f 365/22/4 366/22/4 367/22/4
f 367/22/4 366/22/4 368/22/4
f 370/22/3 369/22/3 371/22/3
f 370/22/3 371/22/3 372/22/3
f 374/21/1 373/21/1 375/21/1
f 374/21/1 375/21/1 376/21/1
f 377/21/6 378/21/6 379/21/6
f 379/21/6 378/21/6 380/21/6
f 382/22/5 381/22/5 383/22/5
f 382/22/5 383/22/5 384/22/5
f 386/27/1 385/27/1 387/27/1
f 386/27/1 387/27/1 388/27/1
f 390/138/5 389/137/5 391/139/5
f 390/138/5 391/139/5 392/140/5
f 394/142/3 393/141/3 395/143/3
f 394/142/3 395/143/3 396/144/3
f 397/53/6 398/53/6 399/53/6
f 399/53/6 398/53/6 400/53/6
f 402/22/5 401/22/5 403/22/5
f 402/22/5 403/22/5 404/22/5
f 405/22/4 406/22/4 407/22/4
f 407/22/4 406/22/4 408/22/4
f 410/146/5 409/145/5 411/147/5
f 410/146/5 411/147/5 412/148/5
f 414/54/1 413/54/1 415/54/1
f 414/54/1 415/54/1 416/54/1
f 418/150/5 417/149/5 419/151/5
f 418/150/5 419/151/5 420/152/5
f 422/154/5 421/153/5 423/155/5
f 422/154/5 423/155/5 424/156/5
f 426/53/3 425/53/3 427/53/3
f 426/53/3 427/53/3 428/53/3
f 429/157/6 430/158/6 431/159/6
f 431/159/6 430/158/6 432/160/6
