# Export of Cubik Model: Cubik Model
# Designed by MeLee with Cubik Studio - https://cubik.studio
# from Cubik OBJ Exporter v1.0
mtllib street_32_sidewalk_1b_M.mtl
v 0 0 1.907349E-06
v -16 0 1.907349E-06
v 0 2 1.907349E-06
v -16 2 1.907349E-06
v 0 0 1.907349E-06
v -16 0 1.907349E-06
v 0 0 -16
v -16 0 -16
v 0 0 1.907349E-06
v 0 2 1.907349E-06
v 0 0 -16
v 0 2 -16
v 0 0 -16
v -16 0 -16
v 0 2 -16
v -16 2 -16
v 0 2 1.907349E-06
v -3.5 2 1.907349E-06
v 0 2 -16
v -3.5 2 -16
v -3.5 1.5 -6.999998
v -3.5 2 -6.999998
v -3.5 1.5 -7.499998
v -3.5 2 -7.499998
v -3.5 1.5 -6.999998
v -4 1.5 -6.999998
v -3.5 1.5 -7.499998
v -4 1.5 -7.499998
v -4 1 -6.999998
v -4 1.5 -6.999998
v -4 1 -7.499998
v -4 1.5 -7.499998
v -3.5 2 1.907349E-06
v -4 2 1.907349E-06
v -3.5 2 -6.999998
v -4 2 -6.999998
v -4 1.5 -5.999998
v -4 2 -5.999998
v -4 1.5 -6.999998
v -4 2 -6.999998
v -3.5 1.5 -6.999998
v -4 1.5 -6.999998
v -3.5 2 -6.999998
v -4 2 -6.999998
v -3.5 1.5 -7.499998
v -4.5 1.5 -7.499998
v -3.5 2 -7.499998
v -4.5 2 -7.499998
v -3.5 2 -7.499998
v -4 2 -7.499998
v -3.5 2 -16
v -4 2 -16
v -4 1.5 -7.999998
v -4 2 -7.999998
v -4 1.5 -8.499998
v -4 2 -8.499998
v -4 1.5 -8.999998
v -4 2 -8.999998
v -4 1.5 -9.499998
v -4 2 -9.499998
v -4 1.5 -9.999998
v -4 2 -9.999998
v -4 1.5 -10.5
v -4 2 -10.5
v -4 1 -6.999998
v -5.5 1 -6.999998
v -4 1 -7.499998
v -5.5 1 -7.499998
v -4 1.5 -5.999998
v -4.5 1.5 -5.999998
v -4 1.5 -6.999998
v -4.5 1.5 -6.999998
v -4 1 -6.999998
v -4.5 1 -6.999998
v -4 1.5 -6.999998
v -4.5 1.5 -6.999998
v -4.5 1 -6.499998
v -4.5 1.5 -6.499998
v -4.5 1 -6.999998
v -4.5 1.5 -6.999998
v -4 1 -7.499998
v -4.5 1 -7.499998
v -4 1.5 -7.499998
v -4.5 1.5 -7.499998
v -4.5 1 -7.499998
v -4.5 1.5 -7.499998
v -4.5 1 -8.499998
v -4.5 1.5 -8.499998
v -4 1.5 -7.999998
v -4.5 1.5 -7.999998
v -4 1.5 -8.499998
v -4.5 1.5 -8.499998
v -4 1.5 -8.999998
v -5 1.5 -8.999998
v -4 1.5 -9.499998
v -5 1.5 -9.499998
v -4 1.5 -9.999998
v -5.5 1.5 -9.999998
v -4 1.5 -10.5
v -5.5 1.5 -10.5
v -4 2 1.907349E-06
v -4.5 2 1.907349E-06
v -4 2 -5.999998
v -4.5 2 -5.999998
v -4 1.5 -5.999998
v -4.5 1.5 -5.999998
v -4 2 -5.999998
v -4.5 2 -5.999998
v -4.5 1.5 -5.499998
v -4.5 2 -5.499998
v -4.5 1.5 -5.999998
v -4.5 2 -5.999998
v -4 1.5 -7.999998
v -4.5 1.5 -7.999998
v -4 2 -7.999998
v -4.5 2 -7.999998
v -4 2 -7.499998
v -4.5 2 -7.499998
v -4 2 -7.999998
v -4.5 2 -7.999998
v -4.5 1.5 -7.499998
v -4.5 2 -7.499998
v -4.5 1.5 -7.999998
v -4.5 2 -7.999998
v -4 1.5 -8.999998
v -5 1.5 -8.999998
v -4 2 -8.999998
v -5 2 -8.999998
v -4 1.5 -8.499998
v -5 1.5 -8.499998
v -4 2 -8.499998
v -5 2 -8.499998
v -4 2 -8.499998
v -5 2 -8.499998
v -4 2 -8.999998
v -5 2 -8.999998
v -4 1.5 -9.999998
v -5 1.5 -9.999998
v -4 2 -9.999998
v -5 2 -9.999998
v -4 1.5 -9.499998
v -5 1.5 -9.499998
v -4 2 -9.499998
v -5 2 -9.499998
v -4 2 -9.499998
v -5 2 -9.499998
v -4 2 -9.999998
v -5 2 -9.999998
v -4 1.5 -10.5
v -5 1.5 -10.5
v -4 2 -10.5
v -5 2 -10.5
v -4 2 -10.5
v -4.5 2 -10.5
v -4 2 -16
v -4.5 2 -16
v -4.5 1.5 -12
v -4.5 2 -12
v -4.5 1.5 -12.5
v -4.5 2 -12.5
v -4.5 1 -6.499998
v -5.5 1 -6.499998
v -4.5 1 -6.999998
v -5.5 1 -6.999998
v -4.5 1 -7.499998
v -5.5 1 -7.499998
v -4.5 1 -8.499998
v -5.5 1 -8.499998
v -4.5 1.5 -5.499998
v -5 1.5 -5.499998
v -4.5 1.5 -5.999998
v -5 1.5 -5.999998
v -4.5 1 -6.499998
v -5 1 -6.499998
v -4.5 2 -6.499998
v -5 2 -6.499998
v -4.5 1 -8.499998
v -5 1 -8.499998
v -4.5 1.5 -8.499998
v -5 1.5 -8.499998
v -5 1 -8.499998
v -5 2 -8.499998
v -5 1 -8.999998
v -5 2 -8.999998
v -4.5 1.5 -12
v -5 1.5 -12
v -4.5 1.5 -12.5
v -5 1.5 -12.5
v -4.5 2 1.907349E-06
v -5 2 1.907349E-06
v -4.5 2 -5.499998
v -5 2 -5.499998
v -4.5 1.5 -5.499998
v -5 1.5 -5.499998
v -4.5 2 -5.499998
v -5 2 -5.499998
v -5 1.5 -4.999998
v -5 2 -4.999998
v -5 1.5 -5.499998
v -5 2 -5.499998
v -4.5 1.5 -5.999998
v -5 1.5 -5.999998
v -4.5 2 -5.999998
v -5 2 -5.999998
v -4.5 2 -5.999998
v -5 2 -5.999998
v -4.5 2 -6.499998
v -5 2 -6.499998
v -4.5 1.5 -5.999998
v -4.5 2 -5.999998
v -4.5 1.5 -6.499998
v -4.5 2 -6.499998
v -5 1.5 -5.999998
v -5 2 -5.999998
v -5 1.5 -6.499998
v -5 2 -6.499998
v -5 1.5 -9.499998
v -5 2 -9.499998
v -5 1.5 -9.999998
v -5 2 -9.999998
v -4.5 2 -10.5
v -5 2 -10.5
v -4.5 2 -12
v -5 2 -12
v -5 1.5 -10.5
v -5 2 -10.5
v -5 1.5 -11.5
v -5 2 -11.5
v -4.5 1.5 -12
v -5 1.5 -12
v -4.5 2 -12
v -5 2 -12
v -4.5 1.5 -12.5
v -5 1.5 -12.5
v -4.5 2 -12.5
v -5 2 -12.5
v -4.5 2 -12.5
v -16 2 -12.5
v -4.5 2 -16
v -16 2 -16
v -5.5 0.5 -6.499998
v -5.5 1 -6.499998
v -5.5 0.5 -7.999998
v -5.5 1 -7.999998
v -5 1 -8.499998
v -5.5 1 -8.499998
v -5 1 -8.999998
v -5.5 1 -8.999998
v -5.5 0.5 -8.499998
v -5.5 1 -8.499998
v -5.5 0.5 -8.999998
v -5.5 1 -8.999998
v -5 1.5 -4.999998
v -6.5 1.5 -4.999998
v -5 1.5 -5.499998
v -6.5 1.5 -5.499998
v -5 1 -6.499998
v -5.5 1 -6.499998
v -5 1.5 -6.499998
v -5.5 1.5 -6.499998
v -5 1.5 -5.999998
v -5.5 1.5 -5.999998
v -5 1.5 -6.499998
v -5.5 1.5 -6.499998
v -5.5 1 -5.999998
v -5.5 1.5 -5.999998
v -5.5 1 -6.499998
v -5.5 1.5 -6.499998
v -5 1 -8.999998
v -5.5 1 -8.999998
v -5 2 -8.999998
v -5.5 2 -8.999998
v -5.5 1 -8.999998
v -5.5 2 -8.999998
v -5.5 1 -9.499998
v -5.5 2 -9.499998
v -5 1.5 -9.499998
v -6 1.5 -9.499998
v -5 1.5 -9.999998
v -6 1.5 -9.999998
v -5 1.5 -10.5
v -5.5 1.5 -10.5
v -5 1.5 -11.5
v -5.5 1.5 -11.5
v -5 2 1.907349E-06
v -7 2 1.907349E-06
v -5 2 -4.999998
v -7 2 -4.999998
v -5 1.5 -4.999998
v -7 1.5 -4.999998
v -5 2 -4.999998
v -7 2 -4.999998
v -5 1.5 -5.999998
v -5.5 1.5 -5.999998
v -5 2 -5.999998
v -5.5 2 -5.999998
v -5 1.5 -5.499998
v -5.5 1.5 -5.499998
v -5 2 -5.499998
v -5.5 2 -5.499998
v -5 2 -5.499998
v -5.5 2 -5.499998
v -5 2 -5.999998
v -5.5 2 -5.999998
v -5 1.5 -5.499998
v -5 2 -5.499998
v -5 1.5 -5.999998
v -5 2 -5.999998
v -5.5 1.5 -5.499998
v -5.5 2 -5.499998
v -5.5 1.5 -5.999998
v -5.5 2 -5.999998
v -5 1.5 -9.499998
v -5.5 1.5 -9.499998
v -5 2 -9.499998
v -5.5 2 -9.499998
v -5 2 -8.999998
v -5.5 2 -8.999998
v -5 2 -9.499998
v -5.5 2 -9.499998
v -5 1.5 -8.999998
v -5 2 -8.999998
v -5 1.5 -9.499998
v -5 2 -9.499998
v -5 1.5 -11.5
v -5.5 1.5 -11.5
v -5 2 -11.5
v -5.5 2 -11.5
v -5 2 -11.5
v -5.5 2 -11.5
v -5 2 -12.5
v -5.5 2 -12.5
v -5.5 1.5 -11.5
v -5.5 2 -11.5
v -5.5 1.5 -12
v -5.5 2 -12
v -5 1.5 -12
v -5 2 -12
v -5 1.5 -12.5
v -5 2 -12.5
v -5.5 0.5 -6.499998
v -6 0.5 -6.499998
v -5.5 0.5 -7.999998
v -6 0.5 -7.999998
v -5.5 0.5 -8.499998
v -6 0.5 -8.499998
v -5.5 0.5 -8.999998
v -6 0.5 -8.999998
v -5.5 0.5 -6.499998
v -6 0.5 -6.499998
v -5.5 1 -6.499998
v -6 1 -6.499998
v -5.5 1 -5.999998
v -6 1 -5.999998
v -5.5 1 -6.499998
v -6 1 -6.499998
v -6 0.5 -5.999998
v -6 1 -5.999998
v -6 0.5 -6.499998
v -6 1 -6.499998
v -5.5 0.5 -8.499998
v -6 0.5 -8.499998
v -5.5 1 -8.499998
v -6 1 -8.499998
v -5.5 0.5 -7.999998
v -6.5 0.5 -7.999998
v -5.5 1 -7.999998
v -6.5 1 -7.999998
v -5.5 1 -7.999998
v -7 1 -7.999998
v -5.5 1 -8.499998
v -7 1 -8.499998
v -5.5 0.5 -8.999998
v -6 0.5 -8.999998
v -5.5 1 -8.999998
v -6 1 -8.999998
v -5.5 1 -8.999998
v -6 1 -8.999998
v -5.5 1 -9.499998
v -6 1 -9.499998
v -5.5 1 -5.999998
v -6 1 -5.999998
v -5.5 1.5 -5.999998
v -6 1.5 -5.999998
v -5.5 1.5 -5.499998
v -6 1.5 -5.499998
v -5.5 1.5 -5.999998
v -6 1.5 -5.999998
v -6 1 -5.499998
v -6 1.5 -5.499998
v -6 1 -5.999998
v -6 1.5 -5.999998
v -5.5 1 -9.499998
v -6 1 -9.499998
v -5.5 1.5 -9.499998
v -6 1.5 -9.499998
v -6 1 -9.499998
v -6 1.5 -9.499998
v -6 1 -9.999998
v -6 1.5 -9.999998
v -6 1 -10.5
v -6 2 -10.5
v -6 1 -11.5
v -6 2 -11.5
v -5.5 1.5 -11.5
v -6 1.5 -11.5
v -5.5 1.5 -12
v -6 1.5 -12
v -5.5 1.5 -9.999998
v -6 1.5 -9.999998
v -5.5 2 -9.999998
v -6 2 -9.999998
v -5.5 2 -9.999998
v -6 2 -9.999998
v -5.5 2 -11.5
v -6 2 -11.5
v -5.5 1.5 -9.999998
v -5.5 2 -9.999998
v -5.5 1.5 -11.5
v -5.5 2 -11.5
v -6 1.5 -9.999998
v -6 2 -9.999998
v -6 1.5 -10.5
v -6 2 -10.5
v -5.5 1.5 -11.5
v -6 1.5 -11.5
v -5.5 2 -11.5
v -6 2 -11.5
v -5.5 1.5 -12
v -6 1.5 -12
v -5.5 2 -12
v -6 2 -12
v -5.5 2 -12
v -6 2 -12
v -5.5 2 -12.5
v -6 2 -12.5
v -6 1.5 -12
v -6 2 -12
v -6 1.5 -12.5
v -6 2 -12.5
v -6 0.5 -5.999998
v -7 0.5 -5.999998
v -6 0.5 -6.499998
v -7 0.5 -6.499998
v -6 0.5 -6.999998
v -6.5 0.5 -6.999998
v -6 0.5 -7.999998
v -6.5 0.5 -7.999998
v -6.5 0.5 -4.999998
v -6.5 1.5 -4.999998
v -6.5 0.5 -5.499998
v -6.5 1.5 -5.499998
v -6 0.5 -5.999998
v -7 0.5 -5.999998
v -6 1 -5.999998
v -7 1 -5.999998
v -6 1 -5.499998
v -9 1 -5.499998
v -6 1 -5.999998
v -9 1 -5.999998
v -6 0.5 -6.999998
v -7 0.5 -6.999998
v -6 1 -6.999998
v -7 1 -6.999998
v -6 0.5 -6.499998
v -7 0.5 -6.499998
v -6 1 -6.499998
v -7 1 -6.499998
v -6 1 -6.499998
v -7 1 -6.499998
v -6 1 -6.999998
v -7 1 -6.999998
v -6 0.5 -6.499998
v -6 1 -6.499998
v -6 0.5 -6.999998
v -6 1 -6.999998
v -6 1 -8.499998
v -8 1 -8.499998
v -6 1 -8.999998
v -8 1 -8.999998
v -6 0.5 -8.499998
v -6 1 -8.499998
v -6 0.5 -8.999998
v -6 1 -8.999998
v -6 1 -9.499998
v -9 1 -9.499998
v -6 1 -9.999998
v -9 1 -9.999998
v -6 1 -10.5
v -6.5 1 -10.5
v -6 1 -11.5
v -6.5 1 -11.5
v -6 1 -5.499998
v -6.5 1 -5.499998
v -6 1.5 -5.499998
v -6.5 1.5 -5.499998
v -6 1 -9.499998
v -6.5 1 -9.499998
v -6 1.5 -9.499998
v -6.5 1.5 -9.499998
v -6 1 -8.999998
v -6.5 1 -8.999998
v -6 1.5 -8.999998
v -6.5 1.5 -8.999998
v -6 1.5 -8.999998
v -6.5 1.5 -8.999998
v -6 1.5 -9.499998
v -6.5 1.5 -9.499998
v -6 1 -8.999998
v -6 1.5 -8.999998
v -6 1 -9.499998
v -6 1.5 -9.499998
v -6.5 1 -8.999998
v -6.5 1.5 -8.999998
v -6.5 1 -9.499998
v -6.5 1.5 -9.499998
v -6 1 -10.5
v -6.5 1 -10.5
v -6 1.5 -10.5
v -6.5 1.5 -10.5
v -6 1 -9.999998
v -6.5 1 -9.999998
v -6 1.5 -9.999998
v -6.5 1.5 -9.999998
v -6 1.5 -9.999998
v -6.5 1.5 -9.999998
v -6 1.5 -10.5
v -6.5 1.5 -10.5
v -6.5 1 -9.999998
v -6.5 1.5 -9.999998
v -6.5 1 -10.5
v -6.5 1.5 -10.5
v -6 1 -11.5
v -6.5 1 -11.5
v -6 2 -11.5
v -6.5 2 -11.5
v -6 1.5 -12
v -6.5 1.5 -12
v -6 1.5 -12.5
v -6.5 1.5 -12.5
v -6 1.5 -12
v -6.5 1.5 -12
v -6 2 -12
v -6.5 2 -12
v -6 2 -11.5
v -6.5 2 -11.5
v -6 2 -12
v -6.5 2 -12
v -6 1.5 -11.5
v -6 2 -11.5
v -6 1.5 -12
v -6 2 -12
v -6.5 1.5 -11.5
v -6.5 2 -11.5
v -6.5 1.5 -12
v -6.5 2 -12
v -6 1.5 -12.5
v -6.5 1.5 -12.5
v -6 2 -12.5
v -6.5 2 -12.5
v -6.5 0.5 -4.999998
v -7 0.5 -4.999998
v -6.5 0.5 -5.499998
v -7 0.5 -5.499998
v -6.5 0.5 -6.999998
v -7 0.5 -6.999998
v -6.5 0.5 -7.499998
v -7 0.5 -7.499998
v -6.5 0.5 -4.999998
v -7 0.5 -4.999998
v -6.5 1.5 -4.999998
v -7 1.5 -4.999998
v -7 0.5 -4.499998
v -7 2 -4.499998
v -7 0.5 -4.999998
v -7 2 -4.999998
v -6.5 0.5 -5.499998
v -7 0.5 -5.499998
v -6.5 1 -5.499998
v -7 1 -5.499998
v -6.5 0.5 -7.499998
v -7 0.5 -7.499998
v -6.5 1 -7.499998
v -7 1 -7.499998
v -6.5 1 -7.499998
v -7 1 -7.499998
v -6.5 1 -7.999998
v -7 1 -7.999998
v -6.5 0.5 -7.499998
v -6.5 1 -7.499998
v -6.5 0.5 -7.999998
v -6.5 1 -7.999998
v -7 0.5 -7.499998
v -7 1 -7.499998
v -7 0.5 -8.499998
v -7 1 -8.499998
v -6.5 1 -8.999998
v -7.5 1 -8.999998
v -6.5 1 -9.499998
v -7.5 1 -9.499998
v -6.5 1 -9.999998
v -7.5 1 -9.999998
v -6.5 1 -11
v -7.5 1 -11
v -6.5 1 -11
v -7.5 1 -11
v -6.5 2 -11
v -7.5 2 -11
v -6.5 1 -11
v -6.5 2 -11
v -6.5 1 -11.5
v -6.5 2 -11.5
v -6.5 1.5 -11.5
v -7 1.5 -11.5
v -6.5 1.5 -12
v -7 1.5 -12
v -6.5 1.5 -11.5
v -7 1.5 -11.5
v -6.5 2 -11.5
v -7 2 -11.5
v -6.5 2 -11
v -16 2 -11
v -6.5 2 -11.5
v -16 2 -11.5
v -6.5 1.5 -12
v -7 1.5 -12
v -6.5 2 -12
v -7 2 -12
v -6.5 2 -12
v -16 2 -12
v -6.5 2 -12.5
v -16 2 -12.5
v -6.5 1.5 -12
v -6.5 2 -12
v -6.5 1.5 -12.5
v -6.5 2 -12.5
v -7 0.5 -4.499998
v -7.5 0.5 -4.499998
v -7 0.5 -4.999998
v -7.5 0.5 -4.999998
v -7 0.5 -7.499998
v -8.5 0.5 -7.499998
v -7 0.5 -8.499998
v -8.5 0.5 -8.499998
v -7 0.5 -4.499998
v -7.5 0.5 -4.499998
v -7 2 -4.499998
v -7.5 2 -4.499998
v -7.5 0.5 -3.999998
v -7.5 2 -3.999998
v -7.5 0.5 -4.499998
v -7.5 2 -4.499998
v -7 0.5 -4.999998
v -7.5 0.5 -4.999998
v -7 1.5 -4.999998
v -7.5 1.5 -4.999998
v -7 0.5 -4.999998
v -7 1.5 -4.999998
v -7 0.5 -5.499998
v -7 1.5 -5.499998
v -7 1 -5.999998
v -7.5 1 -5.999998
v -7 1 -6.499998
v -7.5 1 -6.499998
v -7 0.5 -5.999998
v -7 1 -5.999998
v -7 0.5 -6.499998
v -7 1 -6.499998
v -7.5 0.5 -5.999998
v -7.5 1 -5.999998
v -7.5 0.5 -7.499998
v -7.5 1 -7.499998
v -7 0.5 -7.499998
v -7.5 0.5 -7.499998
v -7 1 -7.499998
v -7.5 1 -7.499998
v -7 1 -6.999998
v -7.5 1 -6.999998
v -7 1 -7.499998
v -7.5 1 -7.499998
v -7 0.5 -6.999998
v -7 1 -6.999998
v -7 0.5 -7.499998
v -7 1 -7.499998
v -7 0.5 -8.499998
v -8.5 0.5 -8.499998
v -7 1 -8.499998
v -8.5 1 -8.499998
v -7.5 0.5 -8.999998
v -7.5 1 -8.999998
v -7.5 0.5 -9.499998
v -7.5 1 -9.499998
v -7.5 1 -3.499998
v -7.5 2 -3.499998
v -7.5 1 -3.999998
v -7.5 2 -3.999998
v -7 1 -5.499998
v -7.5 1 -5.499998
v -7 1.5 -5.499998
v -7.5 1.5 -5.499998
v -7 1.5 -4.999998
v -7.5 1.5 -4.999998
v -7 1.5 -5.499998
v -7.5 1.5 -5.499998
v -7.5 1 -4.999998
v -7.5 1.5 -4.999998
v -7.5 1 -5.499998
v -7.5 1.5 -5.499998
v -7 1 -6.999998
v -7.5 1 -6.999998
v -7 1.5 -6.999998
v -7.5 1.5 -6.999998
v -7 1 -6.499998
v -7.5 1 -6.499998
v -7 1.5 -6.499998
v -7.5 1.5 -6.499998
v -7 1.5 -6.499998
v -7.5 1.5 -6.499998
v -7 1.5 -6.999998
v -7.5 1.5 -6.999998
v -7 1 -6.499998
v -7 1.5 -6.499998
v -7 1 -6.999998
v -7 1.5 -6.999998
v -7.5 1 -6.499998
v -7.5 1.5 -6.499998
v -7.5 1 -6.999998
v -7.5 1.5 -6.999998
v -7 2 1.907349E-06
v -7.5 2 1.907349E-06
v -7 2 -4.499998
v -7.5 2 -4.499998
v -7 2 -11.5
v -16 2 -11.5
v -7 2 -12
v -16 2 -12
v -7 1.5 -11.5
v -7 2 -11.5
v -7 1.5 -12
v -7 2 -12
v -7.5 0.5 -3.999998
v -8 0.5 -3.999998
v -7.5 0.5 -4.499998
v -8 0.5 -4.499998
v -7.5 0.5 -5.999998
v -8 0.5 -5.999998
v -7.5 0.5 -7.499998
v -8 0.5 -7.499998
v -7.5 0.5 -8.999998
v -8.5 0.5 -8.999998
v -7.5 0.5 -9.499998
v -8.5 0.5 -9.499998
v -7.5 0.5 -3.999998
v -8 0.5 -3.999998
v -7.5 1 -3.999998
v -8 1 -3.999998
v -7.5 1 -3.499998
v -8.5 1 -3.499998
v -7.5 1 -3.999998
v -8.5 1 -3.999998
v -7.5 0.5 -4.499998
v -8 0.5 -4.499998
v -7.5 1.5 -4.499998
v -8 1.5 -4.499998
v -7.5 0.5 -4.499998
v -7.5 1.5 -4.499998
v -7.5 0.5 -4.999998
v -7.5 1.5 -4.999998
v -7.5 1 -4.999998
v -8 1 -4.999998
v -7.5 1 -5.499998
v -8 1 -5.499998
v -8 0.5 -4.999998
v -8 1 -4.999998
v -8 0.5 -5.499998
v -8 1 -5.499998
v -7.5 0.5 -5.999998
v -8 0.5 -5.999998
v -7.5 1 -5.999998
v -8 1 -5.999998
v -7.5 0.5 -8.999998
v -8.5 0.5 -8.999998
v -7.5 1 -8.999998
v -8.5 1 -8.999998
v -7.5 0.5 -9.499998
v -8.5 0.5 -9.499998
v -7.5 1 -9.499998
v -8.5 1 -9.499998
v -7.5 1 -3.499998
v -8 1 -3.499998
v -7.5 2 -3.499998
v -8 2 -3.499998
v -7.5 1 -4.999998
v -8 1 -4.999998
v -7.5 1.5 -4.999998
v -8 1.5 -4.999998
v -7.5 1.5 -4.499998
v -8 1.5 -4.499998
v -7.5 1.5 -4.999998
v -8 1.5 -4.999998
v -8 1 -4.499998
v -8 1.5 -4.499998
v -8 1 -4.999998
v -8 1.5 -4.999998
v -7.5 1 -9.999998
v -9 1 -9.999998
v -7.5 1.5 -9.999998
v -9 1.5 -9.999998
v -7.5 1.5 -9.999998
v -8.5 1.5 -9.999998
v -7.5 1.5 -10.5
v -8.5 1.5 -10.5
v -7.5 1 -9.999998
v -7.5 1.5 -9.999998
v -7.5 1 -11
v -7.5 1.5 -11
v -7.5 2 1.907349E-06
v -8 2 1.907349E-06
v -7.5 2 -3.499998
v -8 2 -3.499998
v -8 1.5 -2.499998
v -8 2 -2.499998
v -8 1.5 -3.499998
v -8 2 -3.499998
v -7.5 1.5 -10.5
v -8.5 1.5 -10.5
v -7.5 2 -10.5
v -8.5 2 -10.5
v -7.5 2 -10.5
v -16 2 -10.5
v -7.5 2 -11
v -16 2 -11
v -7.5 1.5 -10.5
v -7.5 2 -10.5
v -7.5 1.5 -11
v -7.5 2 -11
v -8 0.5 -4.999998
v -8.5 0.5 -4.999998
v -8 0.5 -5.499998
v -8.5 0.5 -5.499998
v -8 0.5 -6.999998
v -8.5 0.5 -6.999998
v -8 0.5 -7.499998
v -8.5 0.5 -7.499998
v -8 0.5 -3.999998
v -8 1.5 -3.999998
v -8 0.5 -4.499998
v -8 1.5 -4.499998
v -8 0.5 -4.999998
v -8.5 0.5 -4.999998
v -8 1 -4.999998
v -8.5 1 -4.999998
v -8 1 -4.499998
v -8.5 1 -4.499998
v -8 1 -4.999998
v -8.5 1 -4.999998
v -8 0.5 -5.499998
v -8.5 0.5 -5.499998
v -8 1 -5.499998
v -8.5 1 -5.499998
v -8 1 -5.999998
v -8.5 1 -5.999998
v -8 1 -6.999998
v -8.5 1 -6.999998
v -8 0.5 -5.999998
v -8 1 -5.999998
v -8 0.5 -6.999998
v -8 1 -6.999998
v -8 0.5 -6.999998
v -8.5 0.5 -6.999998
v -8 1 -6.999998
v -8.5 1 -6.999998
v -8 1.5 -2.499998
v -9.5 1.5 -2.499998
v -8 1.5 -3.499998
v -9.5 1.5 -3.499998
v -8 1 -3.499998
v -8.5 1 -3.499998
v -8 1.5 -3.499998
v -8.5 1.5 -3.499998
v -8 1 -4.499998
v -8.5 1 -4.499998
v -8 1.5 -4.499998
v -8.5 1.5 -4.499998
v -8 1 -3.999998
v -8.5 1 -3.999998
v -8 1.5 -3.999998
v -8.5 1.5 -3.999998
v -8 1.5 -3.999998
v -9 1.5 -3.999998
v -8 1.5 -4.499998
v -9 1.5 -4.499998
v -8 1 -8.999998
v -8.5 1 -8.999998
v -8 1.5 -8.999998
v -8.5 1.5 -8.999998
v -8 1 -8.499998
v -8.5 1 -8.499998
v -8 1.5 -8.499998
v -8.5 1.5 -8.499998
v -8 1.5 -8.499998
v -8.5 1.5 -8.499998
v -8 1.5 -8.999998
v -8.5 1.5 -8.999998
v -8 1 -8.499998
v -8 1.5 -8.499998
v -8 1 -8.999998
v -8 1.5 -8.999998
v -8.5 1 -8.499998
v -8.5 1.5 -8.499998
v -8.5 1 -8.999998
v -8.5 1.5 -8.999998
v -8 2 1.907349E-06
v -9 2 1.907349E-06
v -8 2 -2.499998
v -9 2 -2.499998
v -8 1.5 -2.499998
v -9.5 1.5 -2.499998
v -8 2 -2.499998
v -9.5 2 -2.499998
v -8.5 1 -4.999998
v -9.5 1 -4.999998
v -8.5 1 -5.499998
v -9.5 1 -5.499998
v -8.5 0.5 -4.999998
v -8.5 1 -4.999998
v -8.5 0.5 -5.499998
v -8.5 1 -5.499998
v -8.5 1 -6.999998
v -9 1 -6.999998
v -8.5 1 -8.999998
v -9 1 -8.999998
v -8.5 0.5 -6.999998
v -8.5 1 -6.999998
v -8.5 0.5 -8.499998
v -8.5 1 -8.499998
v -8.5 0.5 -8.999998
v -8.5 2 -8.999998
v -8.5 0.5 -9.499998
v -8.5 2 -9.499998
v -8.5 1.5 -3.499998
v -9 1.5 -3.499998
v -8.5 1.5 -3.999998
v -9 1.5 -3.999998
v -8.5 1 -3.499998
v -8.5 1.5 -3.499998
v -8.5 1 -3.999998
v -8.5 1.5 -3.999998
v -8.5 1 -4.999998
v -9.5 1 -4.999998
v -8.5 1.5 -4.999998
v -9.5 1.5 -4.999998
v -8.5 1.5 -4.499998
v -9 1.5 -4.499998
v -8.5 1.5 -4.999998
v -9 1.5 -4.999998
v -8.5 1 -4.499998
v -8.5 1.5 -4.499998
v -8.5 1 -4.999998
v -8.5 1.5 -4.999998
v -8.5 1 -5.999998
v -9 1 -5.999998
v -8.5 1.5 -5.999998
v -9 1.5 -5.999998
v -8.5 1.5 -5.999998
v -9 1.5 -5.999998
v -8.5 1.5 -6.999998
v -9 1.5 -6.999998
v -8.5 1 -5.999998
v -8.5 1.5 -5.999998
v -8.5 1 -6.999998
v -8.5 1.5 -6.999998
v -8.5 1 -6.999998
v -9 1 -6.999998
v -8.5 1.5 -6.999998
v -9 1.5 -6.999998
v -8.5 1 -9.499998
v -9 1 -9.499998
v -8.5 2 -9.499998
v -9 2 -9.499998
v -8.5 1 -8.999998
v -9 1 -8.999998
v -8.5 2 -8.999998
v -9 2 -8.999998
v -9 1.5 -1.499998
v -9 2 -1.499998
v -9 1.5 -1.999998
v -9 2 -1.999998
v -8.5 2 -8.999998
v -16 2 -8.999998
v -8.5 2 -9.499998
v -16 2 -9.499998
v -8.5 1.5 -9.999998
v -9 1.5 -9.999998
v -8.5 2 -9.999998
v -9 2 -9.999998
v -8.5 2 -9.999998
v -16 2 -9.999998
v -8.5 2 -10.5
v -16 2 -10.5
v -8.5 1.5 -9.999998
v -8.5 2 -9.999998
v -8.5 1.5 -10.5
v -8.5 2 -10.5
v -9 1.5 -1.499998
v -9.5 1.5 -1.499998
v -9 1.5 -1.999998
v -9.5 1.5 -1.999998
v -9 1 -5.499998
v -9.5 1 -5.499998
v -9 1.5 -5.499998
v -9.5 1.5 -5.499998
v -9 1 -5.499998
v -9 2 -5.499998
v -9 1 -5.999998
v -9 2 -5.999998
v -9 1.5 -6.499998
v -9.5 1.5 -6.499998
v -9 1.5 -8.999998
v -9.5 1.5 -8.999998
v -9 1 -6.999998
v -9 1.5 -6.999998
v -9 1 -8.999998
v -9 1.5 -8.999998
v -9 1 -9.499998
v -9 2 -9.499998
v -9 1 -9.999998
v -9 2 -9.999998
v -9 2 1.907349E-06
v -10 2 1.907349E-06
v -9 2 -1.499998
v -10 2 -1.499998
v -9 1.5 -1.499998
v -9.5 1.5 -1.499998
v -9 2 -1.499998
v -9.5 2 -1.499998
v -9 1.5 -1.999998
v -9.5 1.5 -1.999998
v -9 2 -1.999998
v -9.5 2 -1.999998
v -9 2 -1.999998
v -9.5 2 -1.999998
v -9 2 -2.499998
v -9.5 2 -2.499998
v -9.5 1.5 -1.999998
v -9.5 2 -1.999998
v -9.5 1.5 -2.499998
v -9.5 2 -2.499998
v -9 1.5 -3.499998
v -9.5 1.5 -3.499998
v -9 2 -3.499998
v -9.5 2 -3.499998
v -9 2 -3.499998
v -16 2 -3.499998
v -9 2 -6.499998
v -16 2 -6.499998
v -9 1.5 -3.499998
v -9 2 -3.499998
v -9 1.5 -5.499998
v -9 2 -5.499998
v -9 1.5 -4.999998
v -9.5 1.5 -4.999998
v -9 1.5 -5.499998
v -9.5 1.5 -5.499998
v -9 1.5 -6.499998
v -9.5 1.5 -6.499998
v -9 2 -6.499998
v -9.5 2 -6.499998
v -9 1.5 -5.999998
v -9 2 -5.999998
v -9 1.5 -6.499998
v -9 2 -6.499998
v -9 1.5 -8.999998
v -9.5 1.5 -8.999998
v -9 2 -8.999998
v -9.5 2 -8.999998
v -9 2 -9.499998
v -16 2 -9.499998
v -9 2 -9.999998
v -16 2 -9.999998
v -9.5 1.5 -1.999998
v -10 1.5 -1.999998
v -9.5 1.5 -2.499998
v -10 1.5 -2.499998
v -9.5 1 -4.999998
v -9.5 1.5 -4.999998
v -9.5 1 -5.499998
v -9.5 1.5 -5.499998
v -10 1.5 -0.4999981
v -10 2 -0.4999981
v -10 1.5 -0.9999981
v -10 2 -0.9999981
v -9.5 1.5 -1.999998
v -10 1.5 -1.999998
v -9.5 2 -1.999998
v -10 2 -1.999998
v -9.5 2 -1.499998
v -16 2 -1.499998
v -9.5 2 -1.999998
v -16 2 -1.999998
v -9.5 1.5 -1.499998
v -9.5 2 -1.499998
v -9.5 1.5 -1.999998
v -9.5 2 -1.999998
v -9.5 1.5 -2.499998
v -10 1.5 -2.499998
v -9.5 2 -2.499998
v -10 2 -2.499998
v -9.5 2 -2.499998
v -16 2 -2.499998
v -9.5 2 -3.499998
v -16 2 -3.499998
v -9.5 1.5 -2.499998
v -9.5 2 -2.499998
v -9.5 1.5 -3.499998
v -9.5 2 -3.499998
v -9.5 2 -6.499998
v -16 2 -6.499998
v -9.5 2 -8.999998
v -16 2 -8.999998
v -9.5 1.5 -6.499998
v -9.5 2 -6.499998
v -9.5 1.5 -8.999998
v -9.5 2 -8.999998
v -10 1.5 -0.4999981
v -10.5 1.5 -0.4999981
v -10 1.5 -0.9999981
v -10.5 1.5 -0.9999981
v -10 1.5 -0.4999981
v -10.5 1.5 -0.4999981
v -10 2 -0.4999981
v -10.5 2 -0.4999981
v -10 2 1.907349E-06
v -16 2 1.907349E-06
v -10 2 -0.4999981
v -16 2 -0.4999981
v -10 1.5 -0.9999981
v -10.5 1.5 -0.9999981
v -10 2 -0.9999981
v -10.5 2 -0.9999981
v -10 2 -0.9999981
v -16 2 -0.9999981
v -10 2 -1.499998
v -16 2 -1.499998
v -10 2 -1.999998
v -16 2 -1.999998
v -10 2 -2.499998
v -16 2 -2.499998
v -10 1.5 -1.999998
v -10 2 -1.999998
v -10 1.5 -2.499998
v -10 2 -2.499998
v -10.5 2 -0.4999981
v -16 2 -0.4999981
v -10.5 2 -0.9999981
v -16 2 -0.9999981
v -10.5 1.5 -0.4999981
v -10.5 2 -0.4999981
v -10.5 1.5 -0.9999981
v -10.5 2 -0.9999981
v -16 0 1.907349E-06
v -16 2 1.907349E-06
v -16 0 -16
v -16 2 -16
vn 0 -5.960464E-08 0.9999999
vn 0 -0.9999999 -5.960464E-08
vn 1 0 0
vn 0 5.960464E-08 -0.9999999
vn 0 0.9999999 5.960464E-08
vn -1 0 0
vt 0.4375 0.2890625
vt 0.9375 0.2890625
vt 0.4375 0.3203125
vt 0.9375 0.3203125
vt 0.015625 0.0078125
vt 0.515625 0.0078125
vt 0.015625 0.2578125
vt 0.515625 0.2578125
vt 0.75 0.0078125
vt 0.8125 0.0078125
vt 0.75 0.2578125
vt 0.8125 0.2578125
vt 0.015625 0.375
vt 0.515625 0.375
vt 0.015625 0.40625
vt 0.515625 0.40625
vt 0.578125 0.0078125
vt 0.6875 0.0078125
vt 0.578125 0.2578125
vt 0.6875 0.2578125
vt 0.78125 0.6796875
vt 0.46875 0.6796875
vt 0.015625 0.7890625
vt 0.03125 0.7890625
vt 0.015625 0.8984375
vt 0.03125 0.8984375
vt 0.015625 0.625
vt 0.03125 0.625
vt 0.015625 0.7578125
vt 0.03125 0.7578125
vt 0.59375 0.6796875
vt 0.140625 0.6015625
vt 0.15625 0.6015625
vt 0.140625 0.6953125
vt 0.15625 0.6953125
vt 0.140625 0.7265625
vt 0.15625 0.7265625
vt 0.140625 0.8125
vt 0.15625 0.8125
vt 0.140625 0.84375
vt 0.15625 0.84375
vt 0.140625 0.9296875
vt 0.15625 0.9296875
vt 0.015625 0.2890625
vt 0.375 0.2890625
vt 0.015625 0.34375
vt 0.375 0.34375
vt 0.015625 0.515625
vt 0.078125 0.515625
vt 0.015625 0.59375
vt 0.078125 0.59375
vt 0.453125 0.640625
vt 0.515625 0.640625
vt 0.453125 0.6484375
vt 0.515625 0.6484375
vt 0.71875 0.6796875
vt 0.296875 0.765625
vt 0.328125 0.765625
vt 0.296875 0.7734375
vt 0.328125 0.7734375
vt 0.53125 0.6796875
vt 0.796875 0.640625
vt 0.84375 0.640625
vt 0.796875 0.6484375
vt 0.84375 0.6484375
vt 0.296875 0.6796875
vt 0.328125 0.6796875
vt 0.296875 0.6953125
vt 0.328125 0.6953125
vt 0.578125 0.375
vt 0.875 0.375
vt 0.578125 0.3828125
vt 0.875 0.3828125
vt 0.5625 0.4375
vt 0.859375 0.4375
vt 0.5625 0.4453125
vt 0.859375 0.4453125
vt 0.9375 0.375
vt 0.953125 0.375
vt 0.9375 0.3984375
vt 0.953125 0.3984375
vt 0.90625 0.640625
vt 0.953125 0.640625
vt 0.90625 0.6484375
vt 0.953125 0.6484375
vt 0.21875 0.8671875
vt 0.234375 0.8671875
vt 0.21875 0.8828125
vt 0.234375 0.8828125
vt 0.296875 0.921875
vt 0.328125 0.921875
vt 0.296875 0.9296875
vt 0.328125 0.9296875
vt 0.6875 0.640625
vt 0.734375 0.640625
vt 0.6875 0.6484375
vt 0.734375 0.6484375
vt 0.296875 0.8828125
vt 0.328125 0.8828125
vt 0.296875 0.890625
vt 0.328125 0.890625
vt 0.21875 0.6796875
vt 0.234375 0.6796875
vt 0.21875 0.75
vt 0.234375 0.75
vt 0.5625 0.4765625
vt 0.84375 0.4765625
vt 0.5625 0.484375
vt 0.84375 0.484375
vt 0.21875 0.9140625
vt 0.234375 0.9140625
vt 0.21875 0.9296875
vt 0.234375 0.9296875
vt 0.296875 0.8046875
vt 0.328125 0.8046875
vt 0.296875 0.8125
vt 0.328125 0.8125
vt 0.296875 0.84375
vt 0.328125 0.84375
vt 0.296875 0.8515625
vt 0.328125 0.8515625
vt 0.21875 0.9609375
vt 0.234375 0.9609375
vt 0.21875 0.9765625
vt 0.234375 0.9765625
vt 0.21875 0.78125
vt 0.234375 0.78125
vt 0.21875 0.8359375
vt 0.234375 0.8359375
vt 0.40625 0.515625
vt 0.671875 0.515625
vt 0.40625 0.5234375
vt 0.671875 0.5234375
vt 0.296875 0.9609375
vt 0.328125 0.9609375
vt 0.296875 0.96875
vt 0.328125 0.96875
vt 0.921875 0.4375
vt 0.953125 0.4375
vt 0.921875 0.4765625
vt 0.953125 0.4765625
vt 0.578125 0.640625
vt 0.625 0.640625
vt 0.578125 0.6484375
vt 0.625 0.6484375
vt 0.390625 0.6796875
vt 0.40625 0.6796875
vt 0.390625 0.6953125
vt 0.40625 0.6953125
vt 0.140625 0.9609375
vt 0.15625 0.9609375
vt 0.140625 0.9765625
vt 0.15625 0.9765625
vt 0.140625 0.5625
vt 0.375 0.5625
vt 0.140625 0.5703125
vt 0.375 0.5703125
vt 0.4375 0.5625
vt 0.671875 0.5625
vt 0.4375 0.5703125
vt 0.671875 0.5703125
vt 0.65625 0.6796875
vt 0.296875 0.7265625
vt 0.328125 0.7265625
vt 0.296875 0.734375
vt 0.328125 0.734375
vt 0.015625 0.9296875
vt 0.046875 0.9296875
vt 0.015625 0.953125
vt 0.046875 0.953125
vt 0.015625 0.4375
vt 0.234375 0.4375
vt 0.015625 0.484375
vt 0.234375 0.484375
vt 0.734375 0.515625
vt 0.953125 0.515625
vt 0.734375 0.5234375
vt 0.953125 0.5234375
vt 0.734375 0.5625
vt 0.9375 0.5625
vt 0.734375 0.5703125
vt 0.9375 0.5703125
vt 0.140625 0.515625
vt 0.34375 0.515625
vt 0.140625 0.53125
vt 0.34375 0.53125
vt 0.296875 0.4375
vt 0.5 0.4375
vt 0.296875 0.4765625
vt 0.5 0.4765625
vt 0.21875 0.6015625
vt 0.40625 0.6015625
vt 0.21875 0.609375
vt 0.40625 0.609375
vt 0.46875 0.6015625
vt 0.65625 0.6015625
vt 0.46875 0.609375
vt 0.65625 0.609375
vt 0.71875 0.6015625
vt 0.90625 0.6015625
vt 0.71875 0.609375
vt 0.90625 0.609375
vt 0.21875 0.640625
vt 0.390625 0.640625
vt 0.21875 0.6484375
vt 0.390625 0.6484375
vt 0.875 0.0078125
vt 0.9375 0.0078125
vt 0.875 0.2578125
vt 0.9375 0.2578125
usemtl voxel
f 2/2/1 1/1/1 3/3/1
f 2/2/1 3/3/1 4/4/1
f 5/5/2 6/6/2 7/7/2
f 7/7/2 6/6/2 8/8/2
f 10/10/3 9/9/3 11/11/3
f 10/10/3 11/11/3 12/12/3
f 13/13/4 14/14/4 15/15/4
f 15/15/4 14/14/4 16/16/4
f 18/18/5 17/17/5 19/19/5
f 18/18/5 19/19/5 20/20/5
f 21/21/6 22/21/6 23/21/6
f 23/21/6 22/21/6 24/21/6
f 26/22/5 25/22/5 27/22/5
f 26/22/5 27/22/5 28/22/5
f 29/22/6 30/22/6 31/22/6
f 31/22/6 30/22/6 32/22/6
f 34/24/5 33/23/5 35/25/5
f 34/24/5 35/25/5 36/26/5
f 37/22/6 38/22/6 39/22/6
f 39/22/6 38/22/6 40/22/6
f 41/22/4 42/22/4 43/22/4
f 43/22/4 42/22/4 44/22/4
f 46/22/1 45/22/1 47/22/1
f 46/22/1 47/22/1 48/22/1
f 50/28/5 49/27/5 51/29/5
f 50/28/5 51/29/5 52/30/5
f 53/22/6 54/22/6 55/22/6
f 55/22/6 54/22/6 56/22/6
f 57/22/6 58/22/6 59/22/6
f 59/22/6 58/22/6 60/22/6
f 61/22/6 62/22/6 63/22/6
f 63/22/6 62/22/6 64/22/6
f 66/31/5 65/31/5 67/31/5
f 66/31/5 67/31/5 68/31/5
f 70/22/5 69/22/5 71/22/5
f 70/22/5 71/22/5 72/22/5
f 73/22/4 74/22/4 75/22/4
f 75/22/4 74/22/4 76/22/4
f 77/22/6 78/22/6 79/22/6
f 79/22/6 78/22/6 80/22/6
f 82/22/1 81/22/1 83/22/1
f 82/22/1 83/22/1 84/22/1
f 85/22/6 86/22/6 87/22/6
f 87/22/6 86/22/6 88/22/6
f 90/22/5 89/22/5 91/22/5
f 90/22/5 91/22/5 92/22/5
f 94/22/5 93/22/5 95/22/5
f 94/22/5 95/22/5 96/22/5
f 98/22/5 97/22/5 99/22/5
f 98/22/5 99/22/5 100/22/5
f 102/33/5 101/32/5 103/34/5
f 102/33/5 103/34/5 104/35/5
f 105/22/4 106/22/4 107/22/4
f 107/22/4 106/22/4 108/22/4
f 109/22/6 110/22/6 111/22/6
f 111/22/6 110/22/6 112/22/6
f 113/22/4 114/22/4 115/22/4
f 115/22/4 114/22/4 116/22/4
f 118/22/5 117/22/5 119/22/5
f 118/22/5 119/22/5 120/22/5
f 121/22/6 122/22/6 123/22/6
f 123/22/6 122/22/6 124/22/6
f 125/22/4 126/22/4 127/22/4
f 127/22/4 126/22/4 128/22/4
f 130/22/1 129/22/1 131/22/1
f 130/22/1 131/22/1 132/22/1
f 134/22/5 133/22/5 135/22/5
f 134/22/5 135/22/5 136/22/5
f 137/22/4 138/22/4 139/22/4
f 139/22/4 138/22/4 140/22/4
f 142/22/1 141/22/1 143/22/1
f 142/22/1 143/22/1 144/22/1
f 146/22/5 145/22/5 147/22/5
f 146/22/5 147/22/5 148/22/5
f 150/22/1 149/22/1 151/22/1
f 150/22/1 151/22/1 152/22/1
f 154/37/5 153/36/5 155/38/5
f 154/37/5 155/38/5 156/39/5
f 157/22/6 158/22/6 159/22/6
f 159/22/6 158/22/6 160/22/6
f 162/31/5 161/31/5 163/31/5
f 162/31/5 163/31/5 164/31/5
f 166/31/5 165/31/5 167/31/5
f 166/31/5 167/31/5 168/31/5
f 170/22/5 169/22/5 171/22/5
f 170/22/5 171/22/5 172/22/5
f 173/22/4 174/22/4 175/22/4
f 175/22/4 174/22/4 176/22/4
f 178/22/1 177/22/1 179/22/1
f 178/22/1 179/22/1 180/22/1
f 181/22/6 182/22/6 183/22/6
f 183/22/6 182/22/6 184/22/6
f 186/22/5 185/22/5 187/22/5
f 186/22/5 187/22/5 188/22/5
f 190/41/5 189/40/5 191/42/5
f 190/41/5 191/42/5 192/43/5
f 193/22/4 194/22/4 195/22/4
f 195/22/4 194/22/4 196/22/4
f 197/22/6 198/22/6 199/22/6
f 199/22/6 198/22/6 200/22/6
f 202/22/1 201/22/1 203/22/1
f 202/22/1 203/22/1 204/22/1
f 206/22/5 205/22/5 207/22/5
f 206/22/5 207/22/5 208/22/5
f 210/22/3 209/22/3 211/22/3
f 210/22/3 211/22/3 212/22/3
f 213/22/6 214/22/6 215/22/6
f 215/22/6 214/22/6 216/22/6
f 217/22/6 218/22/6 219/22/6
f 219/22/6 218/22/6 220/22/6
f 222/22/5 221/22/5 223/22/5
f 222/22/5 223/22/5 224/22/5
f 225/22/6 226/22/6 227/22/6
f 227/22/6 226/22/6 228/22/6
f 229/22/4 230/22/4 231/22/4
f 231/22/4 230/22/4 232/22/4
f 234/22/1 233/22/1 235/22/1
f 234/22/1 235/22/1 236/22/1
f 238/45/5 237/44/5 239/46/5
f 238/45/5 239/46/5 240/47/5
f 241/31/6 242/31/6 243/31/6
f 243/31/6 242/31/6 244/31/6
f 246/31/5 245/31/5 247/31/5
f 246/31/5 247/31/5 248/31/5
f 249/31/6 250/31/6 251/31/6
f 251/31/6 250/31/6 252/31/6
f 254/22/5 253/22/5 255/22/5
f 254/22/5 255/22/5 256/22/5
f 257/22/4 258/22/4 259/22/4
f 259/22/4 258/22/4 260/22/4
f 262/22/5 261/22/5 263/22/5
f 262/22/5 263/22/5 264/22/5
f 265/22/6 266/22/6 267/22/6
f 267/22/6 266/22/6 268/22/6
f 270/22/1 269/22/1 271/22/1
f 270/22/1 271/22/1 272/22/1
f 273/22/6 274/22/6 275/22/6
f 275/22/6 274/22/6 276/22/6
f 278/22/5 277/22/5 279/22/5
f 278/22/5 279/22/5 280/22/5
f 282/22/5 281/22/5 283/22/5
f 282/22/5 283/22/5 284/22/5
f 286/49/5 285/48/5 287/50/5
f 286/49/5 287/50/5 288/51/5
f 289/52/4 290/53/4 291/54/4
f 291/54/4 290/53/4 292/55/4
f 293/22/4 294/22/4 295/22/4
f 295/22/4 294/22/4 296/22/4
f 298/22/1 297/22/1 299/22/1
f 298/22/1 299/22/1 300/22/1
f 302/22/5 301/22/5 303/22/5
f 302/22/5 303/22/5 304/22/5
f 306/22/3 305/22/3 307/22/3
f 306/22/3 307/22/3 308/22/3
f 309/22/6 310/22/6 311/22/6
f 311/22/6 310/22/6 312/22/6
f 313/22/4 314/22/4 315/22/4
f 315/22/4 314/22/4 316/22/4
f 318/22/5 317/22/5 319/22/5
f 318/22/5 319/22/5 320/22/5
f 322/22/3 321/22/3 323/22/3
f 322/22/3 323/22/3 324/22/3
f 326/22/1 325/22/1 327/22/1
f 326/22/1 327/22/1 328/22/1
f 330/22/5 329/22/5 331/22/5
f 330/22/5 331/22/5 332/22/5
f 333/22/6 334/22/6 335/22/6
f 335/22/6 334/22/6 336/22/6
f 338/22/3 337/22/3 339/22/3
f 338/22/3 339/22/3 340/22/3
f 342/56/5 341/56/5 343/56/5
f 342/56/5 343/56/5 344/56/5
f 346/56/5 345/56/5 347/56/5
f 346/56/5 347/56/5 348/56/5
f 349/31/4 350/31/4 351/31/4
f 351/31/4 350/31/4 352/31/4
f 354/31/5 353/31/5 355/31/5
f 354/31/5 355/31/5 356/31/5
f 357/31/6 358/31/6 359/31/6
f 359/31/6 358/31/6 360/31/6
f 361/31/4 362/31/4 363/31/4
f 363/31/4 362/31/4 364/31/4
f 366/31/1 365/31/1 367/31/1
f 366/31/1 367/31/1 368/31/1
f 370/31/5 369/31/5 371/31/5
f 370/31/5 371/31/5 372/31/5
f 374/31/1 373/31/1 375/31/1
f 374/31/1 375/31/1 376/31/1
f 378/31/5 377/31/5 379/31/5
f 378/31/5 379/31/5 380/31/5
f 381/22/4 382/22/4 383/22/4
f 383/22/4 382/22/4 384/22/4
f 386/22/5 385/22/5 387/22/5
f 386/22/5 387/22/5 388/22/5
f 389/22/6 390/22/6 391/22/6
f 391/22/6 390/22/6 392/22/6
f 394/22/1 393/22/1 395/22/1
f 394/22/1 395/22/1 396/22/1
f 397/22/6 398/22/6 399/22/6
f 399/22/6 398/22/6 400/22/6
f 401/22/6 402/22/6 403/22/6
f 403/22/6 402/22/6 404/22/6
f 406/22/5 405/22/5 407/22/5
f 406/22/5 407/22/5 408/22/5
f 410/22/1 409/22/1 411/22/1
f 410/22/1 411/22/1 412/22/1
f 414/22/5 413/22/5 415/22/5
f 414/22/5 415/22/5 416/22/5
f 418/22/3 417/22/3 419/22/3
f 418/22/3 419/22/3 420/22/3
f 421/22/6 422/22/6 423/22/6
f 423/22/6 422/22/6 424/22/6
f 425/22/4 426/22/4 427/22/4
f 427/22/4 426/22/4 428/22/4
f 430/22/1 429/22/1 431/22/1
f 430/22/1 431/22/1 432/22/1
f 434/22/5 433/22/5 435/22/5
f 434/22/5 435/22/5 436/22/5
f 437/22/6 438/22/6 439/22/6
f 439/22/6 438/22/6 440/22/6
f 442/56/5 441/56/5 443/56/5
f 442/56/5 443/56/5 444/56/5
f 446/56/5 445/56/5 447/56/5
f 446/56/5 447/56/5 448/56/5
f 449/57/6 450/58/6 451/59/6
f 451/59/6 450/58/6 452/60/6
f 453/31/4 454/31/4 455/31/4
f 455/31/4 454/31/4 456/31/4
f 458/31/5 457/31/5 459/31/5
f 458/31/5 459/31/5 460/31/5
f 461/22/4 462/22/4 463/22/4
f 463/22/4 462/22/4 464/22/4
f 466/22/1 465/22/1 467/22/1
f 466/22/1 467/22/1 468/22/1
f 470/22/5 469/22/5 471/22/5
f 470/22/5 471/22/5 472/22/5
f 474/22/3 473/22/3 475/22/3
f 474/22/3 475/22/3 476/22/3
f 478/31/5 477/31/5 479/31/5
f 478/31/5 479/31/5 480/31/5
f 482/31/3 481/31/3 483/31/3
f 482/31/3 483/31/3 484/31/3
f 486/31/5 485/31/5 487/31/5
f 486/31/5 487/31/5 488/31/5
f 490/31/5 489/31/5 491/31/5
f 490/31/5 491/31/5 492/31/5
f 493/22/4 494/22/4 495/22/4
f 495/22/4 494/22/4 496/22/4
f 497/22/4 498/22/4 499/22/4
f 499/22/4 498/22/4 500/22/4
f 502/22/1 501/22/1 503/22/1
f 502/22/1 503/22/1 504/22/1
f 506/22/5 505/22/5 507/22/5
f 506/22/5 507/22/5 508/22/5
f 510/22/3 509/22/3 511/22/3
f 510/22/3 511/22/3 512/22/3
f 513/22/6 514/22/6 515/22/6
f 515/22/6 514/22/6 516/22/6
f 517/22/4 518/22/4 519/22/4
f 519/22/4 518/22/4 520/22/4
f 522/22/1 521/22/1 523/22/1
f 522/22/1 523/22/1 524/22/1
f 526/22/5 525/22/5 527/22/5
f 526/22/5 527/22/5 528/22/5
f 529/22/6 530/22/6 531/22/6
f 531/22/6 530/22/6 532/22/6
f 534/22/1 533/22/1 535/22/1
f 534/22/1 535/22/1 536/22/1
f 538/22/5 537/22/5 539/22/5
f 538/22/5 539/22/5 540/22/5
f 541/22/4 542/22/4 543/22/4
f 543/22/4 542/22/4 544/22/4
f 546/22/5 545/22/5 547/22/5
f 546/22/5 547/22/5 548/22/5
f 550/22/3 549/22/3 551/22/3
f 550/22/3 551/22/3 552/22/3
f 553/22/6 554/22/6 555/22/6
f 555/22/6 554/22/6 556/22/6
f 558/22/1 557/22/1 559/22/1
f 558/22/1 559/22/1 560/22/1
f 562/56/5 561/56/5 563/56/5
f 562/56/5 563/56/5 564/56/5
f 566/56/5 565/56/5 567/56/5
f 566/56/5 567/56/5 568/56/5
f 569/61/4 570/61/4 571/61/4
f 571/61/4 570/61/4 572/61/4
f 573/62/6 574/63/6 575/64/6
f 575/64/6 574/63/6 576/65/6
f 578/31/1 577/31/1 579/31/1
f 578/31/1 579/31/1 580/31/1
f 582/31/1 581/31/1 583/31/1
f 582/31/1 583/31/1 584/31/1
f 586/31/5 585/31/5 587/31/5
f 586/31/5 587/31/5 588/31/5
f 590/31/3 589/31/3 591/31/3
f 590/31/3 591/31/3 592/31/3
f 593/31/6 594/31/6 595/31/6
f 595/31/6 594/31/6 596/31/6
f 598/31/5 597/31/5 599/31/5
f 598/31/5 599/31/5 600/31/5
f 602/67/5 601/66/5 603/68/5
f 602/67/5 603/68/5 604/69/5
f 606/22/1 605/22/1 607/22/1
f 606/22/1 607/22/1 608/22/1
f 610/22/3 609/22/3 611/22/3
f 610/22/3 611/22/3 612/22/3
f 614/22/5 613/22/5 615/22/5
f 614/22/5 615/22/5 616/22/5
f 617/22/4 618/22/4 619/22/4
f 619/22/4 618/22/4 620/22/4
f 622/71/5 621/70/5 623/72/5
f 622/71/5 623/72/5 624/73/5
f 626/22/1 625/22/1 627/22/1
f 626/22/1 627/22/1 628/22/1
f 630/75/5 629/74/5 631/76/5
f 630/75/5 631/76/5 632/77/5
f 634/22/3 633/22/3 635/22/3
f 634/22/3 635/22/3 636/22/3
f 638/56/5 637/56/5 639/56/5
f 638/56/5 639/56/5 640/56/5
f 642/56/5 641/56/5 643/56/5
f 642/56/5 643/56/5 644/56/5
f 645/78/4 646/79/4 647/80/4
f 647/80/4 646/79/4 648/81/4
f 649/82/6 650/83/6 651/84/6
f 651/84/6 650/83/6 652/85/6
f 654/87/1 653/86/1 655/88/1
f 654/87/1 655/88/1 656/89/1
f 658/91/3 657/90/3 659/92/3
f 658/91/3 659/92/3 660/93/3
f 662/31/5 661/31/5 663/31/5
f 662/31/5 663/31/5 664/31/5
f 666/31/3 665/31/3 667/31/3
f 666/31/3 667/31/3 668/31/3
f 669/31/6 670/31/6 671/31/6
f 671/31/6 670/31/6 672/31/6
f 673/31/4 674/31/4 675/31/4
f 675/31/4 674/31/4 676/31/4
f 678/31/5 677/31/5 679/31/5
f 678/31/5 679/31/5 680/31/5
f 682/31/3 681/31/3 683/31/3
f 682/31/3 683/31/3 684/31/3
f 686/95/1 685/94/1 687/96/1
f 686/95/1 687/96/1 688/97/1
f 689/31/6 690/31/6 691/31/6
f 691/31/6 690/31/6 692/31/6
f 693/98/6 694/99/6 695/100/6
f 695/100/6 694/99/6 696/101/6
f 697/22/4 698/22/4 699/22/4
f 699/22/4 698/22/4 700/22/4
f 702/22/5 701/22/5 703/22/5
f 702/22/5 703/22/5 704/22/5
f 705/22/6 706/22/6 707/22/6
f 707/22/6 706/22/6 708/22/6
f 709/22/4 710/22/4 711/22/4
f 711/22/4 710/22/4 712/22/4
f 714/22/1 713/22/1 715/22/1
f 714/22/1 715/22/1 716/22/1
f 718/22/5 717/22/5 719/22/5
f 718/22/5 719/22/5 720/22/5
f 722/22/3 721/22/3 723/22/3
f 722/22/3 723/22/3 724/22/3
f 725/22/6 726/22/6 727/22/6
f 727/22/6 726/22/6 728/22/6
f 730/103/5 729/102/5 731/104/5
f 730/103/5 731/104/5 732/105/5
f 734/107/5 733/106/5 735/108/5
f 734/107/5 735/108/5 736/109/5
f 738/22/3 737/22/3 739/22/3
f 738/22/3 739/22/3 740/22/3
f 742/31/5 741/31/5 743/31/5
f 742/31/5 743/31/5 744/31/5
f 746/56/5 745/56/5 747/56/5
f 746/56/5 747/56/5 748/56/5
f 750/56/5 749/56/5 751/56/5
f 750/56/5 751/56/5 752/56/5
f 753/31/4 754/31/4 755/31/4
f 755/31/4 754/31/4 756/31/4
f 758/31/5 757/31/5 759/31/5
f 758/31/5 759/31/5 760/31/5
f 762/111/1 761/110/1 763/112/1
f 762/111/1 763/112/1 764/113/1
f 766/115/3 765/114/3 767/116/3
f 766/115/3 767/116/3 768/117/3
f 770/31/5 769/31/5 771/31/5
f 770/31/5 771/31/5 772/31/5
f 773/31/6 774/31/6 775/31/6
f 775/31/6 774/31/6 776/31/6
f 777/31/4 778/31/4 779/31/4
f 779/31/4 778/31/4 780/31/4
f 781/118/4 782/119/4 783/120/4
f 783/120/4 782/119/4 784/121/4
f 786/31/1 785/31/1 787/31/1
f 786/31/1 787/31/1 788/31/1
f 789/122/4 790/123/4 791/124/4
f 791/124/4 790/123/4 792/125/4
f 793/22/4 794/22/4 795/22/4
f 795/22/4 794/22/4 796/22/4
f 798/22/5 797/22/5 799/22/5
f 798/22/5 799/22/5 800/22/5
f 801/22/6 802/22/6 803/22/6
f 803/22/6 802/22/6 804/22/6
f 806/22/1 805/22/1 807/22/1
f 806/22/1 807/22/1 808/22/1
f 810/22/5 809/22/5 811/22/5
f 810/22/5 811/22/5 812/22/5
f 814/22/3 813/22/3 815/22/3
f 814/22/3 815/22/3 816/22/3
f 818/127/5 817/126/5 819/128/5
f 818/127/5 819/128/5 820/129/5
f 821/22/6 822/22/6 823/22/6
f 823/22/6 822/22/6 824/22/6
f 826/22/1 825/22/1 827/22/1
f 826/22/1 827/22/1 828/22/1
f 830/131/5 829/130/5 831/132/5
f 830/131/5 831/132/5 832/133/5
f 834/22/3 833/22/3 835/22/3
f 834/22/3 835/22/3 836/22/3
f 838/31/5 837/31/5 839/31/5
f 838/31/5 839/31/5 840/31/5
f 842/56/5 841/56/5 843/56/5
f 842/56/5 843/56/5 844/56/5
f 846/135/3 845/134/3 847/136/3
f 846/135/3 847/136/3 848/137/3
f 849/31/4 850/31/4 851/31/4
f 851/31/4 850/31/4 852/31/4
f 854/31/5 853/31/5 855/31/5
f 854/31/5 855/31/5 856/31/5
f 858/31/1 857/31/1 859/31/1
f 858/31/1 859/31/1 860/31/1
f 862/31/5 861/31/5 863/31/5
f 862/31/5 863/31/5 864/31/5
f 866/31/3 865/31/3 867/31/3
f 866/31/3 867/31/3 868/31/3
f 869/31/4 870/31/4 871/31/4
f 871/31/4 870/31/4 872/31/4
f 874/22/5 873/22/5 875/22/5
f 874/22/5 875/22/5 876/22/5
f 877/22/4 878/22/4 879/22/4
f 879/22/4 878/22/4 880/22/4
f 881/22/4 882/22/4 883/22/4
f 883/22/4 882/22/4 884/22/4
f 886/22/1 885/22/1 887/22/1
f 886/22/1 887/22/1 888/22/1
f 890/22/5 889/22/5 891/22/5
f 890/22/5 891/22/5 892/22/5
f 893/22/4 894/22/4 895/22/4
f 895/22/4 894/22/4 896/22/4
f 898/22/1 897/22/1 899/22/1
f 898/22/1 899/22/1 900/22/1
f 902/22/5 901/22/5 903/22/5
f 902/22/5 903/22/5 904/22/5
f 906/22/3 905/22/3 907/22/3
f 906/22/3 907/22/3 908/22/3
f 909/22/6 910/22/6 911/22/6
f 911/22/6 910/22/6 912/22/6
f 914/139/5 913/138/5 915/140/5
f 914/139/5 915/140/5 916/141/5
f 917/22/4 918/22/4 919/22/4
f 919/22/4 918/22/4 920/22/4
f 922/31/5 921/31/5 923/31/5
f 922/31/5 923/31/5 924/31/5
f 926/31/3 925/31/3 927/31/3
f 926/31/3 927/31/3 928/31/3
f 930/31/5 929/31/5 931/31/5
f 930/31/5 931/31/5 932/31/5
f 934/31/3 933/31/3 935/31/3
f 934/31/3 935/31/3 936/31/3
f 938/143/3 937/142/3 939/144/3
f 938/143/3 939/144/3 940/145/3
f 942/22/5 941/22/5 943/22/5
f 942/22/5 943/22/5 944/22/5
f 946/22/3 945/22/3 947/22/3
f 946/22/3 947/22/3 948/22/3
f 949/22/4 950/22/4 951/22/4
f 951/22/4 950/22/4 952/22/4
f 954/22/5 953/22/5 955/22/5
f 954/22/5 955/22/5 956/22/5
f 958/22/3 957/22/3 959/22/3
f 958/22/3 959/22/3 960/22/3
f 962/22/1 961/22/1 963/22/1
f 962/22/1 963/22/1 964/22/1
f 966/22/5 965/22/5 967/22/5
f 966/22/5 967/22/5 968/22/5
f 970/22/3 969/22/3 971/22/3
f 970/22/3 971/22/3 972/22/3
f 973/22/4 974/22/4 975/22/4
f 975/22/4 974/22/4 976/22/4
f 977/146/4 978/147/4 979/148/4
f 979/148/4 978/147/4 980/149/4
f 982/151/1 981/150/1 983/152/1
f 982/151/1 983/152/1 984/153/1
f 985/22/6 986/22/6 987/22/6
f 987/22/6 986/22/6 988/22/6
f 990/155/5 989/154/5 991/156/5
f 990/155/5 991/156/5 992/157/5
f 994/22/1 993/22/1 995/22/1
f 994/22/1 995/22/1 996/22/1
f 998/159/5 997/158/5 999/160/5
f 998/159/5 999/160/5 1000/161/5
f 1002/22/3 1001/22/3 1003/22/3
f 1002/22/3 1003/22/3 1004/22/3
f 1006/162/5 1005/162/5 1007/162/5
f 1006/162/5 1007/162/5 1008/162/5
f 1010/22/1 1009/22/1 1011/22/1
f 1010/22/1 1011/22/1 1012/22/1
f 1014/22/3 1013/22/3 1015/22/3
f 1014/22/3 1015/22/3 1016/22/3
f 1018/22/5 1017/22/5 1019/22/5
f 1018/22/5 1019/22/5 1020/22/5
f 1022/22/3 1021/22/3 1023/22/3
f 1022/22/3 1023/22/3 1024/22/3
f 1026/164/3 1025/163/3 1027/165/3
f 1026/164/3 1027/165/3 1028/166/3
f 1030/168/5 1029/167/5 1031/169/5
f 1030/168/5 1031/169/5 1032/170/5
f 1033/21/4 1034/21/4 1035/21/4
f 1035/21/4 1034/21/4 1036/21/4
f 1038/22/1 1037/22/1 1039/22/1
f 1038/22/1 1039/22/1 1040/22/1
f 1042/22/5 1041/22/5 1043/22/5
f 1042/22/5 1043/22/5 1044/22/5
f 1045/22/6 1046/22/6 1047/22/6
f 1047/22/6 1046/22/6 1048/22/6
f 1050/22/1 1049/22/1 1051/22/1
f 1050/22/1 1051/22/1 1052/22/1
f 1054/172/5 1053/171/5 1055/173/5
f 1054/172/5 1055/173/5 1056/174/5
f 1058/22/3 1057/22/3 1059/22/3
f 1058/22/3 1059/22/3 1060/22/3
f 1061/22/2 1062/22/2 1063/22/2
f 1063/22/2 1062/22/2 1064/22/2
f 1065/22/4 1066/22/4 1067/22/4
f 1067/22/4 1066/22/4 1068/22/4
f 1070/22/3 1069/22/3 1071/22/3
f 1070/22/3 1071/22/3 1072/22/3
f 1074/22/1 1073/22/1 1075/22/1
f 1074/22/1 1075/22/1 1076/22/1
f 1078/176/5 1077/175/5 1079/177/5
f 1078/176/5 1079/177/5 1080/178/5
f 1082/61/5 1081/61/5 1083/61/5
f 1082/61/5 1083/61/5 1084/61/5
f 1086/21/3 1085/21/3 1087/21/3
f 1086/21/3 1087/21/3 1088/21/3
f 1089/22/6 1090/22/6 1091/22/6
f 1091/22/6 1090/22/6 1092/22/6
f 1093/22/4 1094/22/4 1095/22/4
f 1095/22/4 1094/22/4 1096/22/4
f 1098/180/5 1097/179/5 1099/181/5
f 1098/180/5 1099/181/5 1100/182/5
f 1102/22/3 1101/22/3 1103/22/3
f 1102/22/3 1103/22/3 1104/22/3
f 1106/22/1 1105/22/1 1107/22/1
f 1106/22/1 1107/22/1 1108/22/1
f 1110/184/5 1109/183/5 1111/185/5
f 1110/184/5 1111/185/5 1112/186/5
f 1114/22/3 1113/22/3 1115/22/3
f 1114/22/3 1115/22/3 1116/22/3
f 1118/188/5 1117/187/5 1119/189/5
f 1118/188/5 1119/189/5 1120/190/5
f 1122/22/3 1121/22/3 1123/22/3
f 1122/22/3 1123/22/3 1124/22/3
f 1126/21/5 1125/21/5 1127/21/5
f 1126/21/5 1127/21/5 1128/21/5
f 1129/22/4 1130/22/4 1131/22/4
f 1131/22/4 1130/22/4 1132/22/4
f 1134/192/5 1133/191/5 1135/193/5
f 1134/192/5 1135/193/5 1136/194/5
f 1138/21/1 1137/21/1 1139/21/1
f 1138/21/1 1139/21/1 1140/21/1
f 1142/196/5 1141/195/5 1143/197/5
f 1142/196/5 1143/197/5 1144/198/5
f 1146/200/5 1145/199/5 1147/201/5
f 1146/200/5 1147/201/5 1148/202/5
f 1150/22/3 1149/22/3 1151/22/3
f 1150/22/3 1151/22/3 1152/22/3
f 1154/204/5 1153/203/5 1155/205/5
f 1154/204/5 1155/205/5 1156/206/5
f 1158/22/3 1157/22/3 1159/22/3
f 1158/22/3 1159/22/3 1160/22/3
f 1161/207/6 1162/208/6 1163/209/6
f 1163/209/6 1162/208/6 1164/210/6
