# Export of Cubik Model: Cubik Model
# Designed by MeLee with Cubik Studio - https://cubik.studio
# from Cubik OBJ Exporter v1.0
mtllib street_32_sidewalk_1a_M.mtl
v 0 0 1.907349E-06
v -16 0 1.907349E-06
v 0 2 1.907349E-06
v -16 2 1.907349E-06
v 0 0 1.907349E-06
v -16 0 1.907349E-06
v 0 0 -16
v -16 0 -16
v 0 0 1.907349E-06
v 0 2 1.907349E-06
v 0 0 -16
v 0 2 -16
v 0 0 -16
v -16 0 -16
v 0 2 -16
v -16 2 -16
v 0 2 1.907349E-06
v -1 2 1.907349E-06
v 0 2 -16
v -1 2 -16
v -1 1.5 -1.999998
v -1 2 -1.999998
v -1 1.5 -2.499998
v -1 2 -2.499998
v -1 1.5 -1.999998
v -1.5 1.5 -1.999998
v -1 1.5 -2.499998
v -1.5 1.5 -2.499998
v -1 2 1.907349E-06
v -16 2 1.907349E-06
v -1 2 -1.999998
v -16 2 -1.999998
v -1 1.5 -1.999998
v -1.5 1.5 -1.999998
v -1 2 -1.999998
v -1.5 2 -1.999998
v -1 1.5 -2.499998
v -1.5 1.5 -2.499998
v -1 2 -2.499998
v -1.5 2 -2.499998
v -1 2 -2.499998
v -2 2 -2.499998
v -1 2 -16
v -2 2 -16
v -1.5 2 -1.999998
v -2 2 -1.999998
v -1.5 2 -2.499998
v -2 2 -2.499998
v -1.5 1.5 -1.999998
v -1.5 2 -1.999998
v -1.5 1.5 -2.499998
v -1.5 2 -2.499998
v -2 1.5 -1.999998
v -2 2 -1.999998
v -2 1.5 -2.499998
v -2 2 -2.499998
v -2 1.5 -3.499998
v -2 2 -3.499998
v -2 1.5 -3.999998
v -2 2 -3.999998
v -2 1.5 -1.999998
v -2.5 1.5 -1.999998
v -2 1.5 -2.499998
v -2.5 1.5 -2.499998
v -2 1.5 -3.499998
v -2.5 1.5 -3.499998
v -2 1.5 -3.999998
v -2.5 1.5 -3.999998
v -2 1.5 -1.999998
v -2.5 1.5 -1.999998
v -2 2 -1.999998
v -2.5 2 -1.999998
v -2 1.5 -2.499998
v -2.5 1.5 -2.499998
v -2 2 -2.499998
v -2.5 2 -2.499998
v -2 2 -2.499998
v -2.5 2 -2.499998
v -2 2 -3.499998
v -2.5 2 -3.499998
v -2.5 1.5 -2.499998
v -2.5 2 -2.499998
v -2.5 1.5 -2.999998
v -2.5 2 -2.999998
v -2 1.5 -3.499998
v -2.5 1.5 -3.499998
v -2 2 -3.499998
v -2.5 2 -3.499998
v -2 1.5 -3.999998
v -2.5 1.5 -3.999998
v -2 2 -3.999998
v -2.5 2 -3.999998
v -2 2 -3.999998
v -3 2 -3.999998
v -2 2 -16
v -3 2 -16
v -2.5 1.5 -2.499998
v -3 1.5 -2.499998
v -2.5 1.5 -2.999998
v -3 1.5 -2.999998
v -2.5 1.5 -2.499998
v -3 1.5 -2.499998
v -2.5 2 -2.499998
v -3 2 -2.499998
v -2.5 2 -1.999998
v -16 2 -1.999998
v -2.5 2 -2.499998
v -16 2 -2.499998
v -2.5 1.5 -1.999998
v -2.5 2 -1.999998
v -2.5 1.5 -2.499998
v -2.5 2 -2.499998
v -2.5 1.5 -2.999998
v -3 1.5 -2.999998
v -2.5 2 -2.999998
v -3 2 -2.999998
v -2.5 2 -2.999998
v -3 2 -2.999998
v -2.5 2 -3.999998
v -3 2 -3.999998
v -2.5 1.5 -3.499998
v -2.5 2 -3.499998
v -2.5 1.5 -3.999998
v -2.5 2 -3.999998
v -3 1.5 -3.499998
v -3 2 -3.499998
v -3 1.5 -4.499998
v -3 2 -4.499998
v -3 1.5 -3.499998
v -4 1.5 -3.499998
v -3 1.5 -4.499998
v -4 1.5 -4.499998
v -3 2 -2.499998
v -16 2 -2.499998
v -3 2 -3.499998
v -16 2 -3.499998
v -3 1.5 -2.499998
v -3 2 -2.499998
v -3 1.5 -2.999998
v -3 2 -2.999998
v -3 1.5 -3.499998
v -4 1.5 -3.499998
v -3 2 -3.499998
v -4 2 -3.499998
v -3 1.5 -4.499998
v -3.5 1.5 -4.499998
v -3 2 -4.499998
v -3.5 2 -4.499998
v -3 2 -4.499998
v -3.5 2 -4.499998
v -3 2 -16
v -3.5 2 -16
v -3.5 1.5 -4.499998
v -3.5 2 -4.499998
v -3.5 1.5 -4.999998
v -3.5 2 -4.999998
v -3.5 1.5 -4.499998
v -5.5 1.5 -4.499998
v -3.5 1.5 -4.999998
v -5.5 1.5 -4.999998
v -3.5 1.5 -4.999998
v -4 1.5 -4.999998
v -3.5 2 -4.999998
v -4 2 -4.999998
v -3.5 2 -4.999998
v -4 2 -4.999998
v -3.5 2 -16
v -4 2 -16
v -4 1.5 -4.999998
v -4 2 -4.999998
v -4 1.5 -5.499998
v -4 2 -5.499998
v -4 1.5 -3.999998
v -4.5 1.5 -3.999998
v -4 1.5 -4.499998
v -4.5 1.5 -4.499998
v -4 1.5 -4.999998
v -6 1.5 -4.999998
v -4 1.5 -5.499998
v -6 1.5 -5.499998
v -4.5 1 -5.999998
v -4.5 2 -5.999998
v -4.5 1 -6.499998
v -4.5 2 -6.499998
v -4 1.5 -3.999998
v -4.5 1.5 -3.999998
v -4 2 -3.999998
v -4.5 2 -3.999998
v -4 2 -3.499998
v -16 2 -3.499998
v -4 2 -3.999998
v -16 2 -3.999998
v -4 1.5 -3.499998
v -4 2 -3.499998
v -4 1.5 -3.999998
v -4 2 -3.999998
v -4 1.5 -5.499998
v -4.5 1.5 -5.499998
v -4 2 -5.499998
v -4.5 2 -5.499998
v -4 2 -5.499998
v -4.5 2 -5.499998
v -4 2 -16
v -4.5 2 -16
v -4.5 1.5 -5.499998
v -4.5 2 -5.499998
v -4.5 1.5 -5.999998
v -4.5 2 -5.999998
v -4.5 1.5 -6.499998
v -4.5 2 -6.499998
v -4.5 1.5 -8.499998
v -4.5 2 -8.499998
v -4.5 1 -5.999998
v -5 1 -5.999998
v -4.5 1 -6.499998
v -5 1 -6.499998
v -4.5 1 -5.999998
v -5 1 -5.999998
v -4.5 1.5 -5.999998
v -5 1.5 -5.999998
v -4.5 1.5 -5.499998
v -6.5 1.5 -5.499998
v -4.5 1.5 -5.999998
v -6.5 1.5 -5.999998
v -4.5 1 -6.499998
v -5 1 -6.499998
v -4.5 1.5 -6.499998
v -5 1.5 -6.499998
v -4.5 1.5 -6.499998
v -5 1.5 -6.499998
v -4.5 1.5 -8.499998
v -5 1.5 -8.499998
v -4.5 1.5 -4.499998
v -5.5 1.5 -4.499998
v -4.5 2 -4.499998
v -5.5 2 -4.499998
v -4.5 2 -3.999998
v -16 2 -3.999998
v -4.5 2 -4.499998
v -16 2 -4.499998
v -4.5 1.5 -3.999998
v -4.5 2 -3.999998
v -4.5 1.5 -4.499998
v -4.5 2 -4.499998
v -4.5 1.5 -8.499998
v -5 1.5 -8.499998
v -4.5 2 -8.499998
v -5 2 -8.499998
v -4.5 2 -8.499998
v -5 2 -8.499998
v -4.5 2 -16
v -5 2 -16
v -5 1.5 -8.499998
v -5 2 -8.499998
v -5 1.5 -8.999998
v -5 2 -8.999998
v -5 1.5 -9.999998
v -5 2 -9.999998
v -5 1.5 -10.5
v -5 2 -10.5
v -5.5 0.5 -5.999998
v -5.5 1 -5.999998
v -5.5 0.5 -7.499998
v -5.5 1 -7.499998
v -5 1.5 -5.999998
v -5.5 1.5 -5.999998
v -5 1.5 -7.499998
v -5.5 1.5 -7.499998
v -5 1 -5.999998
v -5 1.5 -5.999998
v -5 1 -6.499998
v -5 1.5 -6.499998
v -5.5 1 -6.499998
v -5.5 1.5 -6.499998
v -5.5 1 -7.999998
v -5.5 1.5 -7.999998
v -5 1.5 -7.999998
v -5.5 1.5 -7.999998
v -5 1.5 -8.999998
v -5.5 1.5 -8.999998
v -5 1.5 -9.999998
v -5.5 1.5 -9.999998
v -5 1.5 -10.5
v -5.5 1.5 -10.5
v -5 1.5 -7.999998
v -5.5 1.5 -7.999998
v -5 2 -7.999998
v -5.5 2 -7.999998
v -5 1.5 -7.499998
v -5.5 1.5 -7.499998
v -5 2 -7.499998
v -5.5 2 -7.499998
v -5 2 -7.499998
v -5.5 2 -7.499998
v -5 2 -7.999998
v -5.5 2 -7.999998
v -5 1.5 -7.499998
v -5 2 -7.499998
v -5 1.5 -7.999998
v -5 2 -7.999998
v -5.5 1.5 -7.499998
v -5.5 2 -7.499998
v -5.5 1.5 -7.999998
v -5.5 2 -7.999998
v -5 1.5 -8.999998
v -5.5 1.5 -8.999998
v -5 2 -8.999998
v -5.5 2 -8.999998
v -5 2 -8.999998
v -5.5 2 -8.999998
v -5 2 -9.999998
v -5.5 2 -9.999998
v -5.5 1.5 -8.999998
v -5.5 2 -8.999998
v -5.5 1.5 -9.999998
v -5.5 2 -9.999998
v -5 1.5 -9.999998
v -5.5 1.5 -9.999998
v -5 2 -9.999998
v -5.5 2 -9.999998
v -5 1.5 -10.5
v -5.5 1.5 -10.5
v -5 2 -10.5
v -5.5 2 -10.5
v -5 2 -10.5
v -5.5 2 -10.5
v -5 2 -16
v -5.5 2 -16
v -5.5 1.5 -11
v -5.5 2 -11
v -5.5 1.5 -12
v -5.5 2 -12
v -5.5 0.5 -5.999998
v -6 0.5 -5.999998
v -5.5 0.5 -7.499998
v -6 0.5 -7.499998
v -5.5 0.5 -5.999998
v -6 0.5 -5.999998
v -5.5 1 -5.999998
v -6 1 -5.999998
v -5.5 0.5 -7.499998
v -6 0.5 -7.499998
v -5.5 1 -7.499998
v -6 1 -7.499998
v -5.5 1 -7.499998
v -6 1 -7.499998
v -5.5 1 -7.999998
v -6 1 -7.999998
v -6 0.5 -7.499998
v -6 1 -7.499998
v -6 0.5 -8.499998
v -6 1 -8.499998
v -5.5 1 -6.499998
v -6.5 1 -6.499998
v -5.5 1.5 -6.499998
v -6.5 1.5 -6.499998
v -5.5 1 -5.999998
v -6 1 -5.999998
v -5.5 1 -6.499998
v -6 1 -6.499998
v -5.5 1.5 -5.999998
v -7 1.5 -5.999998
v -5.5 1.5 -6.499998
v -7 1.5 -6.499998
v -5.5 1 -7.999998
v -6 1 -7.999998
v -5.5 2 -7.999998
v -6 2 -7.999998
v -6 1 -7.999998
v -6 1.5 -7.999998
v -6 1 -9.499998
v -6 1.5 -9.499998
v -5.5 1.5 -8.499998
v -6 1.5 -8.499998
v -5.5 1.5 -9.999998
v -6 1.5 -9.999998
v -5.5 1.5 -11
v -6 1.5 -11
v -5.5 1.5 -12
v -6 1.5 -12
v -5.5 1.5 -4.999998
v -6 1.5 -4.999998
v -5.5 2 -4.999998
v -6 2 -4.999998
v -5.5 2 -4.499998
v -16 2 -4.499998
v -5.5 2 -4.999998
v -16 2 -4.999998
v -5.5 1.5 -4.499998
v -5.5 2 -4.499998
v -5.5 1.5 -4.999998
v -5.5 2 -4.999998
v -5.5 1.5 -8.499998
v -6 1.5 -8.499998
v -5.5 2 -8.499998
v -6 2 -8.499998
v -5.5 2 -7.999998
v -6 2 -7.999998
v -5.5 2 -8.499998
v -6 2 -8.499998
v -5.5 1.5 -7.999998
v -5.5 2 -7.999998
v -5.5 1.5 -8.499998
v -5.5 2 -8.499998
v -6 1.5 -7.999998
v -6 2 -7.999998
v -6 1.5 -8.499998
v -6 2 -8.499998
v -5.5 1.5 -9.999998
v -6 1.5 -9.999998
v -5.5 2 -9.999998
v -6 2 -9.999998
v -5.5 2 -9.999998
v -6 2 -9.999998
v -5.5 2 -11
v -6 2 -11
v -5.5 1.5 -9.999998
v -5.5 2 -9.999998
v -5.5 1.5 -10.5
v -5.5 2 -10.5
v -6 1.5 -9.999998
v -6 2 -9.999998
v -6 1.5 -11
v -6 2 -11
v -5.5 1.5 -11
v -6 1.5 -11
v -5.5 2 -11
v -6 2 -11
v -5.5 1.5 -12
v -6 1.5 -12
v -5.5 2 -12
v -6 2 -12
v -5.5 2 -12
v -6 2 -12
v -5.5 2 -16
v -6 2 -16
v -6 1.5 -12
v -6 2 -12
v -6 1.5 -12.5
v -6 2 -12.5
v -6 0.5 -6.499998
v -6.5 0.5 -6.499998
v -6 0.5 -8.499998
v -6.5 0.5 -8.499998
v -6 0.5 -6.499998
v -6.5 0.5 -6.499998
v -6 1 -6.499998
v -6.5 1 -6.499998
v -6 0.5 -5.999998
v -6 1 -5.999998
v -6 0.5 -6.499998
v -6 1 -6.499998
v -6 0.5 -8.499998
v -6.5 0.5 -8.499998
v -6 1 -8.499998
v -6.5 1 -8.499998
v -6 1 -8.499998
v -6.5 1 -8.499998
v -6 1 -9.499998
v -6.5 1 -9.499998
v -6.5 0.5 -8.499998
v -6.5 1 -8.499998
v -6.5 0.5 -8.999998
v -6.5 1 -8.999998
v -6 1 -9.499998
v -7 1 -9.499998
v -6 1.5 -9.499998
v -7 1.5 -9.499998
v -6 1.5 -9.499998
v -6.5 1.5 -9.499998
v -6 1.5 -11.5
v -6.5 1.5 -11.5
v -6.5 1 -10.5
v -6.5 1.5 -10.5
v -6.5 1 -11
v -6.5 1.5 -11
v -6 1.5 -12
v -7.5 1.5 -12
v -6 1.5 -12.5
v -7.5 1.5 -12.5
v -6 1.5 -5.499998
v -6.5 1.5 -5.499998
v -6 2 -5.499998
v -6.5 2 -5.499998
v -6 2 -4.999998
v -16 2 -4.999998
v -6 2 -5.499998
v -16 2 -5.499998
v -6 1.5 -4.999998
v -6 2 -4.999998
v -6 1.5 -5.499998
v -6 2 -5.499998
v -6 1.5 -12
v -6.5 1.5 -12
v -6 2 -12
v -6.5 2 -12
v -6 1.5 -11.5
v -6.5 1.5 -11.5
v -6 2 -11.5
v -6.5 2 -11.5
v -6 2 -11.5
v -6.5 2 -11.5
v -6 2 -12
v -6.5 2 -12
v -6 1.5 -11.5
v -6 2 -11.5
v -6 1.5 -12
v -6 2 -12
v -6.5 1.5 -11.5
v -6.5 2 -11.5
v -6.5 1.5 -12
v -6.5 2 -12
v -6 1.5 -12.5
v -6.5 1.5 -12.5
v -6 2 -12.5
v -6.5 2 -12.5
v -6 2 -12.5
v -6.5 2 -12.5
v -6 2 -16
v -6.5 2 -16
v -6.5 1.5 -12.5
v -6.5 2 -12.5
v -6.5 1.5 -13
v -6.5 2 -13
v -6.5 0.5 -7.999998
v -7.5 0.5 -7.999998
v -6.5 0.5 -8.999998
v -7.5 0.5 -8.999998
v -6.5 0.5 -6.499998
v -6.5 1 -6.499998
v -6.5 0.5 -7.999998
v -6.5 1 -7.999998
v -6.5 1 -6.999998
v -7 1 -6.999998
v -6.5 1 -7.999998
v -7 1 -7.999998
v -6.5 0.5 -7.999998
v -7.5 0.5 -7.999998
v -6.5 1 -7.999998
v -7.5 1 -7.999998
v -6.5 0.5 -8.999998
v -7 0.5 -8.999998
v -6.5 1 -8.999998
v -7 1 -8.999998
v -6.5 1 -8.999998
v -7 1 -8.999998
v -6.5 1 -9.499998
v -7 1 -9.499998
v -7 0.5 -8.999998
v -7 1 -8.999998
v -7 0.5 -10.5
v -7 1 -10.5
v -6.5 1 -10.5
v -9 1 -10.5
v -6.5 1 -11
v -9 1 -11
v -6.5 1 -6.999998
v -7 1 -6.999998
v -6.5 1.5 -6.999998
v -7 1.5 -6.999998
v -6.5 1.5 -6.499998
v -7.5 1.5 -6.499998
v -6.5 1.5 -6.999998
v -7.5 1.5 -6.999998
v -6.5 1 -6.499998
v -6.5 1.5 -6.499998
v -6.5 1 -6.999998
v -6.5 1.5 -6.999998
v -6.5 1.5 -9.499998
v -7 1.5 -9.499998
v -6.5 1.5 -10.5
v -7 1.5 -10.5
v -7 1 -9.499998
v -7 1.5 -9.499998
v -7 1 -10.5
v -7 1.5 -10.5
v -6.5 1 -10.5
v -7 1 -10.5
v -6.5 1.5 -10.5
v -7 1.5 -10.5
v -6.5 1 -11
v -7.5 1 -11
v -6.5 1.5 -11
v -7.5 1.5 -11
v -6.5 1.5 -11
v -7 1.5 -11
v -6.5 1.5 -12
v -7 1.5 -12
v -7 1 -11.5
v -7 1.5 -11.5
v -7 1 -12
v -7 1.5 -12
v -6.5 1.5 -12.5
v -11 1.5 -12.5
v -6.5 1.5 -13
v -11 1.5 -13
v -6.5 1.5 -5.999998
v -7 1.5 -5.999998
v -6.5 2 -5.999998
v -7 2 -5.999998
v -6.5 2 -5.499998
v -16 2 -5.499998
v -6.5 2 -5.999998
v -16 2 -5.999998
v -6.5 1.5 -5.499998
v -6.5 2 -5.499998
v -6.5 1.5 -5.999998
v -6.5 2 -5.999998
v -6.5 1.5 -13
v -7 1.5 -13
v -6.5 2 -13
v -7 2 -13
v -6.5 2 -13
v -7 2 -13
v -6.5 2 -16
v -7 2 -16
v -7 1.5 -13
v -7 2 -13
v -7 1.5 -13.5
v -7 2 -13.5
v -7 1.5 -14.5
v -7 2 -14.5
v -7 1.5 -15
v -7 2 -15
v -7 0.5 -8.999998
v -7.5 0.5 -8.999998
v -7 0.5 -10.5
v -7.5 0.5 -10.5
v -7 0.5 -10.5
v -7.5 0.5 -10.5
v -7 1 -10.5
v -7.5 1 -10.5
v -7 1 -11.5
v -7.5 1 -11.5
v -7 1 -12
v -7.5 1 -12
v -7 1.5 -6.999998
v -8 1.5 -6.999998
v -7 1.5 -7.999998
v -8 1.5 -7.999998
v -7 1 -6.999998
v -7 1.5 -6.999998
v -7 1 -7.999998
v -7 1.5 -7.999998
v -7 1 -7.999998
v -7.5 1 -7.999998
v -7 1.5 -7.999998
v -7.5 1.5 -7.999998
v -7 1 -11.5
v -7.5 1 -11.5
v -7 1.5 -11.5
v -7.5 1.5 -11.5
v -7 1.5 -11
v -7.5 1.5 -11
v -7 1.5 -11.5
v -7.5 1.5 -11.5
v -7.5 1 -11
v -7.5 1.5 -11
v -7.5 1 -11.5
v -7.5 1.5 -11.5
v -7 1 -12
v -7.5 1 -12
v -7 1.5 -12
v -7.5 1.5 -12
v -7.5 1 -12
v -7.5 1.5 -12
v -7.5 1 -12.5
v -7.5 1.5 -12.5
v -7 1.5 -13
v -7.5 1.5 -13
v -7 1.5 -13.5
v -7.5 1.5 -13.5
v -7.5 1 -13
v -7.5 1.5 -13
v -7.5 1 -13.5
v -7.5 1.5 -13.5
v -7 1.5 -14.5
v -7.5 1.5 -14.5
v -7 1.5 -15
v -7.5 1.5 -15
v -7 1.5 -6.499998
v -7.5 1.5 -6.499998
v -7 2 -6.499998
v -7.5 2 -6.499998
v -7 2 -5.999998
v -16 2 -5.999998
v -7 2 -6.499998
v -16 2 -6.499998
v -7 1.5 -5.999998
v -7 2 -5.999998
v -7 1.5 -6.499998
v -7 2 -6.499998
v -7 1.5 -13.5
v -7.5 1.5 -13.5
v -7 2 -13.5
v -7.5 2 -13.5
v -7 2 -13.5
v -7.5 2 -13.5
v -7 2 -14.5
v -7.5 2 -14.5
v -7.5 1.5 -13.5
v -7.5 2 -13.5
v -7.5 1.5 -14
v -7.5 2 -14
v -7 1.5 -14.5
v -7.5 1.5 -14.5
v -7 2 -14.5
v -7.5 2 -14.5
v -7 1.5 -15
v -7.5 1.5 -15
v -7 2 -15
v -7.5 2 -15
v -7 2 -15
v -16 2 -15
v -7 2 -16
v -16 2 -16
v -7.5 0.5 -8.999998
v -8.5 0.5 -8.999998
v -7.5 0.5 -9.999998
v -8.5 0.5 -9.999998
v -7.5 0.5 -7.999998
v -7.5 1 -7.999998
v -7.5 0.5 -8.999998
v -7.5 1 -8.999998
v -7.5 0.5 -8.999998
v -8.5 0.5 -8.999998
v -7.5 1 -8.999998
v -8.5 1 -8.999998
v -7.5 1 -8.499998
v -8 1 -8.499998
v -7.5 1 -8.999998
v -8 1 -8.999998
v -7.5 0.5 -9.999998
v -8 0.5 -9.999998
v -7.5 1 -9.999998
v -8 1 -9.999998
v -7.5 1 -9.999998
v -8 1 -9.999998
v -7.5 1 -10.5
v -8 1 -10.5
v -7.5 0.5 -9.999998
v -7.5 1 -9.999998
v -7.5 0.5 -10.5
v -7.5 1 -10.5
v -8 0.5 -9.999998
v -8 1 -9.999998
v -8 0.5 -10.5
v -8 1 -10.5
v -7.5 1 -11
v -8 1 -11
v -7.5 1 -11.5
v -8 1 -11.5
v -7.5 1 -12
v -8 1 -12
v -7.5 1 -12.5
v -8 1 -12.5
v -7.5 1 -13
v -8 1 -13
v -7.5 1 -13.5
v -8 1 -13.5
v -7.5 1 -8.499998
v -8 1 -8.499998
v -7.5 1.5 -8.499998
v -8 1.5 -8.499998
v -7.5 1.5 -7.999998
v -8 1.5 -7.999998
v -7.5 1.5 -8.499998
v -8 1.5 -8.499998
v -7.5 1 -7.999998
v -7.5 1.5 -7.999998
v -7.5 1 -8.499998
v -7.5 1.5 -8.499998
v -8 1 -7.999998
v -8 1.5 -7.999998
v -8 1 -8.499998
v -8 1.5 -8.499998
v -7.5 1 -12
v -8 1 -12
v -7.5 1.5 -12
v -8 1.5 -12
v -7.5 1 -11.5
v -8 1 -11.5
v -7.5 1.5 -11.5
v -8 1.5 -11.5
v -7.5 1.5 -11.5
v -8.5 1.5 -11.5
v -7.5 1.5 -12
v -8.5 1.5 -12
v -7.5 1 -11.5
v -7.5 1.5 -11.5
v -7.5 1 -12
v -7.5 1.5 -12
v -7.5 1 -13
v -8 1 -13
v -7.5 1.5 -13
v -8 1.5 -13
v -7.5 1 -12.5
v -8 1 -12.5
v -7.5 1.5 -12.5
v -8 1.5 -12.5
v -7.5 1 -13.5
v -8 1 -13.5
v -7.5 1.5 -13.5
v -8 1.5 -13.5
v -7.5 1.5 -13.5
v -9.5 1.5 -13.5
v -7.5 1.5 -14
v -9.5 1.5 -14
v -7.5 1.5 -6.999998
v -8 1.5 -6.999998
v -7.5 2 -6.999998
v -8 2 -6.999998
v -7.5 2 -6.499998
v -16 2 -6.499998
v -7.5 2 -6.999998
v -16 2 -6.999998
v -7.5 1.5 -6.499998
v -7.5 2 -6.499998
v -7.5 1.5 -6.999998
v -7.5 2 -6.999998
v -7.5 1.5 -14
v -8 1.5 -14
v -7.5 2 -14
v -8 2 -14
v -7.5 2 -14
v -8 2 -14
v -7.5 2 -15
v -8 2 -15
v -8 1.5 -14
v -8 2 -14
v -8 1.5 -14.5
v -8 2 -14.5
v -7.5 1.5 -14.5
v -7.5 2 -14.5
v -7.5 1.5 -15
v -7.5 2 -15
v -8 0.5 -9.999998
v -9 0.5 -9.999998
v -8 0.5 -10.5
v -9 0.5 -10.5
v -8 1 -7.999998
v -8.5 1 -7.999998
v -8 1 -8.499998
v -8.5 1 -8.499998
v -8 0.5 -10.5
v -9 0.5 -10.5
v -8 1 -10.5
v -9 1 -10.5
v -8 1 -7.999998
v -8.5 1 -7.999998
v -8 2 -7.999998
v -8.5 2 -7.999998
v -8 1 -8.999998
v -9 1 -8.999998
v -8 1.5 -8.999998
v -9 1.5 -8.999998
v -8 1 -8.499998
v -8.5 1 -8.499998
v -8 1.5 -8.499998
v -8.5 1.5 -8.499998
v -8 1.5 -8.499998
v -11 1.5 -8.499998
v -8 1.5 -8.999998
v -11 1.5 -8.999998
v -8 1 -8.499998
v -8 1.5 -8.499998
v -8 1 -8.999998
v -8 1.5 -8.999998
v -8 1 -11
v -8.5 1 -11
v -8 1.5 -11
v -8.5 1.5 -11
v -8 1.5 -11
v -8.5 1.5 -11
v -8 1.5 -11.5
v -8.5 1.5 -11.5
v -8 1 -11
v -8 1.5 -11
v -8 1 -11.5
v -8 1.5 -11.5
v -8.5 1 -11
v -8.5 1.5 -11
v -8.5 1 -12
v -8.5 1.5 -12
v -8 1.5 -12
v -10 1.5 -12
v -8 1.5 -12.5
v -10 1.5 -12.5
v -8 1 -12
v -8 1.5 -12
v -8 1 -12.5
v -8 1.5 -12.5
v -8 1.5 -13
v -10.5 1.5 -13
v -8 1.5 -13.5
v -10.5 1.5 -13.5
v -8 1 -13
v -8 1.5 -13
v -8 1 -13.5
v -8 1.5 -13.5
v -8 1.5 -14
v -8.5 1.5 -14
v -8 1.5 -14.5
v -8.5 1.5 -14.5
v -8 2 -6.999998
v -10 2 -6.999998
v -8 2 -7.999998
v -10 2 -7.999998
v -8 1.5 -6.999998
v -8 2 -6.999998
v -8 1.5 -7.999998
v -8 2 -7.999998
v -8 1.5 -14.5
v -8.5 1.5 -14.5
v -8 2 -14.5
v -8.5 2 -14.5
v -8 2 -14.5
v -16 2 -14.5
v -8 2 -15
v -16 2 -15
v -8.5 0.5 -9.499998
v -9 0.5 -9.499998
v -8.5 0.5 -9.999998
v -9 0.5 -9.999998
v -8.5 0.5 -9.499998
v -9 0.5 -9.499998
v -8.5 1 -9.499998
v -9 1 -9.499998
v -8.5 1 -8.999998
v -9 1 -8.999998
v -8.5 1 -9.499998
v -9 1 -9.499998
v -8.5 0.5 -8.999998
v -8.5 1 -8.999998
v -8.5 0.5 -9.499998
v -8.5 1 -9.499998
v -9 0.5 -10.5
v -9 1 -10.5
v -9 0.5 -11.5
v -9 1 -11.5
v -8.5 1 -11
v -9 1 -11
v -8.5 1 -12
v -9 1 -12
v -8.5 1.5 -7.999998
v -11 1.5 -7.999998
v -8.5 1.5 -8.499998
v -11 1.5 -8.499998
v -8.5 1 -7.999998
v -8.5 1.5 -7.999998
v -8.5 1 -8.499998
v -8.5 1.5 -8.499998
v -8.5 1 -12
v -10 1 -12
v -8.5 1.5 -12
v -10 1.5 -12
v -8.5 1.5 -7.999998
v -11 1.5 -7.999998
v -8.5 2 -7.999998
v -11 2 -7.999998
v -8.5 1.5 -9.499998
v -9 1.5 -9.499998
v -8.5 2 -9.499998
v -9 2 -9.499998
v -8.5 1.5 -8.999998
v -9 1.5 -8.999998
v -8.5 2 -8.999998
v -9 2 -8.999998
v -8.5 1.5 -8.999998
v -9 1.5 -8.999998
v -8.5 1.5 -9.499998
v -9 1.5 -9.499998
v -8.5 2 -8.999998
v -9 2 -8.999998
v -8.5 2 -9.499998
v -9 2 -9.499998
v -8.5 1.5 -8.999998
v -8.5 2 -8.999998
v -8.5 1.5 -9.499998
v -8.5 2 -9.499998
v -9 1.5 -8.999998
v -9 2 -8.999998
v -9 1.5 -9.499998
v -9 2 -9.499998
v -8.5 1.5 -14
v -9.5 1.5 -14
v -8.5 2 -14
v -9.5 2 -14
v -8.5 2 -14
v -16 2 -14
v -8.5 2 -14.5
v -16 2 -14.5
v -8.5 1.5 -14
v -8.5 2 -14
v -8.5 1.5 -14.5
v -8.5 2 -14.5
v -9 0.5 -10.5
v -9.5 0.5 -10.5
v -9 0.5 -11.5
v -9.5 0.5 -11.5
v -9 1 -9.499998
v -9.5 1 -9.499998
v -9 1 -10.5
v -9.5 1 -10.5
v -9 0.5 -9.499998
v -9 1 -9.499998
v -9 0.5 -10.5
v -9 1 -10.5
v -9 0.5 -10.5
v -9.5 0.5 -10.5
v -9 1 -10.5
v -9.5 1 -10.5
v -9 0.5 -11.5
v -9.5 0.5 -11.5
v -9 1 -11.5
v -9.5 1 -11.5
v -9 1 -11.5
v -9.5 1 -11.5
v -9 1 -12
v -9.5 1 -12
v -9.5 0.5 -11.5
v -9.5 1 -11.5
v -9.5 0.5 -12
v -9.5 1 -12
v -9 1 -9.499998
v -9.5 1 -9.499998
v -9 1.5 -9.499998
v -9.5 1.5 -9.499998
v -9 1.5 -8.999998
v -9.5 1.5 -8.999998
v -9 1.5 -9.499998
v -9.5 1.5 -9.499998
v -9 1 -8.999998
v -9 1.5 -8.999998
v -9 1 -9.499998
v -9 1.5 -9.499998
v -9.5 1 -8.999998
v -9.5 1.5 -8.999998
v -9.5 1 -9.499998
v -9.5 1.5 -9.499998
v -9 1.5 -9.999998
v -9.5 1.5 -9.999998
v -9 2 -9.999998
v -9.5 2 -9.999998
v -9 1.5 -9.499998
v -9.5 1.5 -9.499998
v -9 2 -9.499998
v -9.5 2 -9.499998
v -9 1.5 -9.499998
v -9.5 1.5 -9.499998
v -9 1.5 -9.999998
v -9.5 1.5 -9.999998
v -9 2 -9.499998
v -9.5 2 -9.499998
v -9 2 -9.999998
v -9.5 2 -9.999998
v -9 1.5 -9.499998
v -9 2 -9.499998
v -9 1.5 -9.999998
v -9 2 -9.999998
v -9.5 1.5 -9.499998
v -9.5 2 -9.499998
v -9.5 1.5 -9.999998
v -9.5 2 -9.999998
v -9.5 0.5 -11.5
v -10 0.5 -11.5
v -9.5 0.5 -12
v -10 0.5 -12
v -9.5 1 -8.999998
v -10 1 -8.999998
v -9.5 1 -9.999998
v -10 1 -9.999998
v -9.5 0.5 -10.5
v -9.5 1 -10.5
v -9.5 0.5 -11.5
v -9.5 1 -11.5
v -9.5 0.5 -11.5
v -10 0.5 -11.5
v -9.5 1 -11.5
v -10 1 -11.5
v -9.5 1 -11
v -11 1 -11
v -9.5 1 -11.5
v -11 1 -11.5
v -9.5 0.5 -12
v -10 0.5 -12
v -9.5 1 -12
v -10 1 -12
v -9.5 1 -8.999998
v -10 1 -8.999998
v -9.5 1.5 -8.999998
v -10 1.5 -8.999998
v -9.5 1 -9.999998
v -10 1 -9.999998
v -9.5 1.5 -9.999998
v -10 1.5 -9.999998
v -9.5 1.5 -9.999998
v -10 1.5 -9.999998
v -9.5 1.5 -11
v -10 1.5 -11
v -9.5 1 -9.999998
v -9.5 1.5 -9.999998
v -9.5 1 -11
v -9.5 1.5 -11
v -9.5 1 -11
v -11 1 -11
v -9.5 1.5 -11
v -11 1.5 -11
v -10 1 -12
v -10 1.5 -12
v -10 1 -12.5
v -10 1.5 -12.5
v -10 1.5 -6.999998
v -10 2 -6.999998
v -10 1.5 -7.499998
v -10 2 -7.499998
v -9.5 1.5 -13.5
v -10.5 1.5 -13.5
v -9.5 2 -13.5
v -10.5 2 -13.5
v -9.5 2 -13.5
v -16 2 -13.5
v -9.5 2 -14
v -16 2 -14
v -9.5 1.5 -13.5
v -9.5 2 -13.5
v -9.5 1.5 -14
v -9.5 2 -14
v -10 1 -11.5
v -10.5 1 -11.5
v -10 1 -12.5
v -10.5 1 -12.5
v -10 0.5 -11.5
v -10 1 -11.5
v -10 0.5 -12
v -10 1 -12
v -10.5 0.5 -11.5
v -10.5 1 -11.5
v -10.5 0.5 -12
v -10.5 1 -12
v -10 1.5 -6.999998
v -10.5 1.5 -6.999998
v -10 1.5 -7.499998
v -10.5 1.5 -7.499998
v -10 1.5 -8.999998
v -10.5 1.5 -8.999998
v -10 1.5 -9.999998
v -10.5 1.5 -9.999998
v -10 1 -8.999998
v -10 1.5 -8.999998
v -10 1 -9.999998
v -10 1.5 -9.999998
v -10 1.5 -10.5
v -11 1.5 -10.5
v -10 1.5 -11
v -11 1.5 -11
v -10 1 -12.5
v -10.5 1 -12.5
v -10 1.5 -12.5
v -10.5 1.5 -12.5
v -10 1.5 -6.999998
v -10.5 1.5 -6.999998
v -10 2 -6.999998
v -10.5 2 -6.999998
v -10 1.5 -7.499998
v -10.5 1.5 -7.499998
v -10 2 -7.499998
v -10.5 2 -7.499998
v -10 2 -7.499998
v -12.5 2 -7.499998
v -10 2 -7.999998
v -12.5 2 -7.999998
v -10 1.5 -10.5
v -11 1.5 -10.5
v -10 2 -10.5
v -11 2 -10.5
v -10 1.5 -9.999998
v -10.5 1.5 -9.999998
v -10 2 -9.999998
v -10.5 2 -9.999998
v -10 2 -9.999998
v -16 2 -9.999998
v -10 2 -10.5
v -16 2 -10.5
v -10 1.5 -9.999998
v -10 2 -9.999998
v -10 1.5 -10.5
v -10 2 -10.5
v -10.5 0.5 -11.5
v -11 0.5 -11.5
v -10.5 0.5 -12
v -11 0.5 -12
v -10.5 0.5 -11.5
v -11 0.5 -11.5
v -10.5 1 -11.5
v -11 1 -11.5
v -10.5 0.5 -12
v -11 0.5 -12
v -10.5 1.5 -12
v -11 1.5 -12
v -10.5 1.5 -8.999998
v -12 1.5 -8.999998
v -10.5 1.5 -9.499998
v -12 1.5 -9.499998
v -10.5 1.5 -12
v -13 1.5 -12
v -10.5 1.5 -12.5
v -13 1.5 -12.5
v -10.5 1 -12
v -10.5 1.5 -12
v -10.5 1 -12.5
v -10.5 1.5 -12.5
v -10.5 2 -6.999998
v -16 2 -6.999998
v -10.5 2 -7.499998
v -16 2 -7.499998
v -10.5 1.5 -6.999998
v -10.5 2 -6.999998
v -10.5 1.5 -7.499998
v -10.5 2 -7.499998
v -10.5 1.5 -9.499998
v -12 1.5 -9.499998
v -10.5 2 -9.499998
v -12 2 -9.499998
v -10.5 2 -9.499998
v -16 2 -9.499998
v -10.5 2 -9.999998
v -16 2 -9.999998
v -10.5 1.5 -9.499998
v -10.5 2 -9.499998
v -10.5 1.5 -9.999998
v -10.5 2 -9.999998
v -10.5 1.5 -13
v -11 1.5 -13
v -10.5 2 -13
v -11 2 -13
v -10.5 2 -13
v -12 2 -13
v -10.5 2 -13.5
v -12 2 -13.5
v -10.5 1.5 -13
v -10.5 2 -13
v -10.5 1.5 -13.5
v -10.5 2 -13.5
v -11 1 -11.5
v -11.5 1 -11.5
v -11 1 -12
v -11.5 1 -12
v -11 0.5 -11.5
v -11 1 -11.5
v -11 0.5 -12
v -11 1 -12
v -11 1 -11.5
v -11.5 1 -11.5
v -11 1.5 -11.5
v -11.5 1.5 -11.5
v -11 1.5 -11
v -11.5 1.5 -11
v -11 1.5 -11.5
v -11.5 1.5 -11.5
v -11 1 -11
v -11 1.5 -11
v -11 1 -11.5
v -11 1.5 -11.5
v -11 1 -12
v -11.5 1 -12
v -11 1.5 -12
v -11.5 1.5 -12
v -11 2 -7.999998
v -11.5 2 -7.999998
v -11 2 -8.999998
v -11.5 2 -8.999998
v -11 1.5 -7.999998
v -11 2 -7.999998
v -11 1.5 -8.999998
v -11 2 -8.999998
v -11.5 1.5 -7.999998
v -11.5 2 -7.999998
v -11.5 1.5 -8.999998
v -11.5 2 -8.999998
v -11 1.5 -8.999998
v -11.5 1.5 -8.999998
v -11 2 -8.999998
v -11.5 2 -8.999998
v -11 1.5 -11
v -11.5 1.5 -11
v -11 2 -11
v -11.5 2 -11
v -11 2 -10.5
v -16 2 -10.5
v -11 2 -11
v -16 2 -11
v -11 1.5 -10.5
v -11 2 -10.5
v -11 1.5 -11
v -11 2 -11
v -11 1.5 -12.5
v -13 1.5 -12.5
v -11 2 -12.5
v -13 2 -12.5
v -11 2 -12.5
v -16 2 -12.5
v -11 2 -13
v -16 2 -13
v -11 1.5 -12.5
v -11 2 -12.5
v -11 1.5 -13
v -11 2 -13
v -11.5 1.5 -7.999998
v -12 1.5 -7.999998
v -11.5 1.5 -8.999998
v -12 1.5 -8.999998
v -11.5 1.5 -11.5
v -12.5 1.5 -11.5
v -11.5 1.5 -12
v -12.5 1.5 -12
v -11.5 1 -11.5
v -11.5 1.5 -11.5
v -11.5 1 -12
v -11.5 1.5 -12
v -11.5 1.5 -7.999998
v -12 1.5 -7.999998
v -11.5 2 -7.999998
v -12 2 -7.999998
v -11.5 1.5 -11.5
v -12.5 1.5 -11.5
v -11.5 2 -11.5
v -12.5 2 -11.5
v -11.5 2 -11
v -13.5 2 -11
v -11.5 2 -11.5
v -13.5 2 -11.5
v -11.5 1.5 -11
v -11.5 2 -11
v -11.5 1.5 -11.5
v -11.5 2 -11.5
v -12 1.5 -13
v -12 2 -13
v -12 1.5 -13.5
v -12 2 -13.5
v -12 1.5 -13
v -13 1.5 -13
v -12 1.5 -13.5
v -13 1.5 -13.5
v -12.5 1.5 -7.499998
v -12.5 2 -7.499998
v -12.5 1.5 -7.999998
v -12.5 2 -7.999998
v -12 2 -7.999998
v -12.5 2 -7.999998
v -12 2 -9.499998
v -12.5 2 -9.499998
v -12 1.5 -7.999998
v -12 2 -7.999998
v -12 1.5 -9.499998
v -12 2 -9.499998
v -12.5 1.5 -8.999998
v -12.5 2 -8.999998
v -12.5 1.5 -9.499998
v -12.5 2 -9.499998
v -12 1.5 -13
v -13 1.5 -13
v -12 2 -13
v -13 2 -13
v -12 1.5 -13.5
v -13 1.5 -13.5
v -12 2 -13.5
v -13 2 -13.5
v -12.5 1.5 -7.499998
v -13.5 1.5 -7.499998
v -12.5 1.5 -7.999998
v -13.5 1.5 -7.999998
v -12.5 1.5 -8.999998
v -13 1.5 -8.999998
v -12.5 1.5 -9.499998
v -13 1.5 -9.499998
v -12.5 1.5 -7.499998
v -13.5 1.5 -7.499998
v -12.5 2 -7.499998
v -13.5 2 -7.499998
v -12.5 1.5 -7.999998
v -13.5 1.5 -7.999998
v -12.5 2 -7.999998
v -13.5 2 -7.999998
v -12.5 2 -7.999998
v -16 2 -7.999998
v -12.5 2 -8.999998
v -16 2 -8.999998
v -12.5 1.5 -8.999998
v -13 1.5 -8.999998
v -12.5 2 -8.999998
v -13 2 -8.999998
v -12.5 1.5 -9.499998
v -13 1.5 -9.499998
v -12.5 2 -9.499998
v -13 2 -9.499998
v -12.5 1.5 -12
v -13 1.5 -12
v -12.5 2 -12
v -13 2 -12
v -12.5 2 -11.5
v -16 2 -11.5
v -12.5 2 -12
v -16 2 -12
v -12.5 1.5 -11.5
v -12.5 2 -11.5
v -12.5 1.5 -12
v -12.5 2 -12
v -13 2 -8.999998
v -16 2 -8.999998
v -13 2 -9.499998
v -16 2 -9.499998
v -13 1.5 -8.999998
v -13 2 -8.999998
v -13 1.5 -9.499998
v -13 2 -9.499998
v -13.5 1.5 -11
v -13.5 2 -11
v -13.5 1.5 -11.5
v -13.5 2 -11.5
v -13 2 -12
v -14 2 -12
v -13 2 -12.5
v -14 2 -12.5
v -13 1.5 -12
v -13 2 -12
v -13 1.5 -12.5
v -13 2 -12.5
v -13 2 -13
v -16 2 -13
v -13 2 -13.5
v -16 2 -13.5
v -13 1.5 -13
v -13 2 -13
v -13 1.5 -13.5
v -13 2 -13.5
v -13.5 1.5 -11
v -14 1.5 -11
v -13.5 1.5 -11.5
v -14 1.5 -11.5
v -13.5 2 -7.499998
v -16 2 -7.499998
v -13.5 2 -7.999998
v -16 2 -7.999998
v -13.5 1.5 -7.499998
v -13.5 2 -7.499998
v -13.5 1.5 -7.999998
v -13.5 2 -7.999998
v -13.5 1.5 -11
v -14 1.5 -11
v -13.5 2 -11
v -14 2 -11
v -13.5 1.5 -11.5
v -14 1.5 -11.5
v -13.5 2 -11.5
v -14 2 -11.5
v -14 1.5 -12
v -14 2 -12
v -14 1.5 -12.5
v -14 2 -12.5
v -14 1.5 -12
v -15 1.5 -12
v -14 1.5 -12.5
v -15 1.5 -12.5
v -14 2 -11
v -16 2 -11
v -14 2 -11.5
v -16 2 -11.5
v -14 1.5 -11
v -14 2 -11
v -14 1.5 -11.5
v -14 2 -11.5
v -14 1.5 -12
v -15 1.5 -12
v -14 2 -12
v -15 2 -12
v -14 1.5 -12.5
v -15 1.5 -12.5
v -14 2 -12.5
v -15 2 -12.5
v -15 2 -12
v -16 2 -12
v -15 2 -12.5
v -16 2 -12.5
v -15 1.5 -12
v -15 2 -12
v -15 1.5 -12.5
v -15 2 -12.5
v -16 0 1.907349E-06
v -16 2 1.907349E-06
v -16 0 -16
v -16 2 -16
vn 0 -5.960464E-08 0.9999999
vn 0 -0.9999999 -5.960464E-08
vn 1 0 0
vn 0 5.960464E-08 -0.9999999
vn 0 0.9999999 5.960464E-08
vn -1 0 0
vt 0.0078125 0.578125
vt 0.2578125 0.578125
vt 0.0078125 0.640625
vt 0.2578125 0.640625
vt 0.0078125 0.015625
vt 0.2578125 0.015625
vt 0.0078125 0.515625
vt 0.2578125 0.515625
vt 0.2890625 0.015625
vt 0.3203125 0.015625
vt 0.2890625 0.515625
vt 0.3203125 0.515625
vt 0.0078125 0.703125
vt 0.2578125 0.703125
vt 0.0078125 0.765625
vt 0.2578125 0.765625
vt 0.4140625 0.015625
vt 0.4296875 0.015625
vt 0.4140625 0.515625
vt 0.4296875 0.515625
vt 0.1328125 0.953125
vt 0.0078125 0.953125
vt 0.0078125 0.828125
vt 0.2421875 0.828125
vt 0.0078125 0.890625
vt 0.2421875 0.890625
vt 0.0390625 0.953125
vt 0.4609375 0.015625
vt 0.4765625 0.015625
vt 0.4609375 0.4375
vt 0.4765625 0.4375
vt 0.1640625 0.953125
vt 0.2890625 0.578125
vt 0.3046875 0.578125
vt 0.2890625 0.953125
vt 0.3046875 0.953125
vt 0.7421875 0.015625
vt 0.953125 0.015625
vt 0.7421875 0.03125
vt 0.953125 0.03125
vt 0.5078125 0.015625
vt 0.7109375 0.015625
vt 0.5078125 0.046875
vt 0.7109375 0.046875
vt 0.3515625 0.578125
vt 0.359375 0.578125
vt 0.3515625 0.9375
vt 0.359375 0.9375
vt 0.4140625 0.578125
vt 0.421875 0.578125
vt 0.4140625 0.921875
vt 0.421875 0.921875
vt 0.9609375 0.609375
vt 0.9765625 0.609375
vt 0.9609375 0.625
vt 0.9765625 0.625
vt 0.6796875 0.109375
vt 0.8671875 0.109375
vt 0.6796875 0.125
vt 0.8671875 0.125
vt 0.4609375 0.5
vt 0.46875 0.5
vt 0.4609375 0.828125
vt 0.46875 0.828125
vt 0.4609375 0.890625
vt 0.46875 0.890625
vt 0.4609375 0.953125
vt 0.46875 0.953125
vt 0.9140625 0.609375
vt 0.9296875 0.609375
vt 0.9140625 0.625
vt 0.9296875 0.625
vt 0.5078125 0.203125
vt 0.6875 0.203125
vt 0.5078125 0.21875
vt 0.6875 0.21875
vt 0.5078125 0.671875
vt 0.515625 0.671875
vt 0.5078125 0.90625
vt 0.515625 0.90625
vt 0.71875 0.8125
vt 0.7265625 0.8125
vt 0.71875 0.859375
vt 0.7265625 0.859375
vt 0.7578125 0.6875
vt 0.765625 0.6875
vt 0.7578125 0.734375
vt 0.765625 0.734375
vt 0.8984375 0.6875
vt 0.90625 0.6875
vt 0.8984375 0.71875
vt 0.90625 0.71875
vt 0.71875 0.921875
vt 0.7265625 0.921875
vt 0.71875 0.953125
vt 0.7265625 0.953125
vt 0.6796875 0.359375
vt 0.6875 0.359375
vt 0.6796875 0.53125
vt 0.6875 0.53125
vt 0.9375 0.6875
vt 0.9453125 0.6875
vt 0.9375 0.71875
vt 0.9453125 0.71875
vt 0.0703125 0.953125
vt 0.8203125 0.78125
vt 0.828125 0.78125
vt 0.8203125 0.8125
vt 0.828125 0.8125
vt 0.9609375 0.4375
vt 0.96875 0.4375
vt 0.9609375 0.46875
vt 0.96875 0.46875
vt 0.7578125 0.796875
vt 0.765625 0.796875
vt 0.7578125 0.84375
vt 0.765625 0.84375
vt 0.71875 0.203125
vt 0.8828125 0.203125
vt 0.71875 0.21875
vt 0.8828125 0.21875
vt 0.8203125 0.6875
vt 0.828125 0.6875
vt 0.8203125 0.71875
vt 0.828125 0.71875
vt 0.8203125 0.875
vt 0.828125 0.875
vt 0.8203125 0.90625
vt 0.828125 0.90625
vt 0.6796875 0.59375
vt 0.6875 0.59375
vt 0.6796875 0.71875
vt 0.6875 0.71875
vt 0.5078125 0.28125
vt 0.6640625 0.28125
vt 0.5078125 0.296875
vt 0.6640625 0.296875
vt 0.6796875 0.78125
vt 0.6875 0.78125
vt 0.6796875 0.890625
vt 0.6875 0.890625
vt 0.6328125 0.90625
vt 0.6484375 0.90625
vt 0.6328125 0.9375
vt 0.6484375 0.9375
vt 0.6953125 0.28125
vt 0.84375 0.28125
vt 0.6953125 0.296875
vt 0.84375 0.296875
vt 0.71875 0.4375
vt 0.7265625 0.4375
vt 0.71875 0.53125
vt 0.7265625 0.53125
vt 0.5078125 0.359375
vt 0.6484375 0.359375
vt 0.5078125 0.375
vt 0.6484375 0.375
vt 0.5078125 0.109375
vt 0.6484375 0.109375
vt 0.5078125 0.140625
vt 0.6484375 0.140625
vt 0.1015625 0.953125
vt 0.5078125 0.4375
vt 0.640625 0.4375
vt 0.5078125 0.453125
vt 0.640625 0.453125
vt 0.7578125 0.4375
vt 0.7890625 0.4375
vt 0.7578125 0.46875
vt 0.7890625 0.46875
vt 0.859375 0.6875
vt 0.8671875 0.6875
vt 0.859375 0.71875
vt 0.8671875 0.71875
vt 0.5078125 0.515625
vt 0.6328125 0.515625
vt 0.5078125 0.53125
vt 0.6328125 0.53125
vt 0.890625 0.4375
vt 0.9296875 0.4375
vt 0.890625 0.453125
vt 0.9296875 0.453125
vt 0.8203125 0.609375
vt 0.8359375 0.609375
vt 0.8203125 0.625
vt 0.8359375 0.625
vt 0.5078125 0.59375
vt 0.625 0.59375
vt 0.5078125 0.609375
vt 0.625 0.609375
vt 0.875 0.28125
vt 0.9765625 0.28125
vt 0.875 0.296875
vt 0.9765625 0.296875
vt 0.8203125 0.4375
vt 0.859375 0.4375
vt 0.8203125 0.453125
vt 0.859375 0.453125
vt 0.546875 0.671875
vt 0.640625 0.671875
vt 0.546875 0.6875
vt 0.640625 0.6875
vt 0.546875 0.75
vt 0.6328125 0.75
vt 0.546875 0.765625
vt 0.6328125 0.765625
vt 0.7578125 0.90625
vt 0.78125 0.90625
vt 0.7578125 0.921875
vt 0.78125 0.921875
vt 0.546875 0.828125
vt 0.6328125 0.828125
vt 0.546875 0.84375
vt 0.6328125 0.84375
vt 0.953125 0.53125
vt 0.9765625 0.53125
vt 0.953125 0.546875
vt 0.9765625 0.546875
vt 0.8984375 0.109375
vt 0.9765625 0.109375
vt 0.8984375 0.125
vt 0.9765625 0.125
vt 0.7578125 0.609375
vt 0.7890625 0.609375
vt 0.7578125 0.625
vt 0.7890625 0.625
vt 0.71875 0.359375
vt 0.796875 0.359375
vt 0.71875 0.375
vt 0.796875 0.375
vt 0.890625 0.53125
vt 0.921875 0.53125
vt 0.890625 0.546875
vt 0.921875 0.546875
vt 0.8671875 0.609375
vt 0.8828125 0.609375
vt 0.8671875 0.625
vt 0.8828125 0.625
vt 0.71875 0.59375
vt 0.7265625 0.59375
vt 0.71875 0.640625
vt 0.7265625 0.640625
vt 0.71875 0.703125
vt 0.7265625 0.703125
vt 0.71875 0.75
vt 0.7265625 0.75
vt 0.859375 0.9375
vt 0.875 0.9375
vt 0.859375 0.953125
vt 0.875 0.953125
vt 0.546875 0.90625
vt 0.6015625 0.90625
vt 0.546875 0.9375
vt 0.6015625 0.9375
vt 0.9140625 0.203125
vt 0.96875 0.203125
vt 0.9140625 0.21875
vt 0.96875 0.21875
vt 0.828125 0.359375
vt 0.875 0.359375
vt 0.828125 0.375
vt 0.875 0.375
vt 0.90625 0.359375
vt 0.953125 0.359375
vt 0.90625 0.375
vt 0.953125 0.375
vt 0.7578125 0.53125
vt 0.796875 0.53125
vt 0.7578125 0.546875
vt 0.796875 0.546875
vt 0.828125 0.53125
vt 0.859375 0.53125
vt 0.828125 0.546875
vt 0.859375 0.546875
vt 0.859375 0.78125
vt 0.875 0.78125
vt 0.859375 0.796875
vt 0.875 0.796875
vt 0.859375 0.859375
vt 0.875 0.859375
vt 0.859375 0.875
vt 0.875 0.875
vt 0.3515625 0.015625
vt 0.3828125 0.015625
vt 0.3515625 0.515625
vt 0.3828125 0.515625
usemtl voxel
f 2/2/1 1/1/1 3/3/1
f 2/2/1 3/3/1 4/4/1
f 5/5/2 6/6/2 7/7/2
f 7/7/2 6/6/2 8/8/2
f 10/10/3 9/9/3 11/11/3
f 10/10/3 11/11/3 12/12/3
f 13/13/4 14/14/4 15/15/4
f 15/15/4 14/14/4 16/16/4
f 18/18/5 17/17/5 19/19/5
f 18/18/5 19/19/5 20/20/5
f 21/21/6 22/21/6 23/21/6
f 23/21/6 22/21/6 24/21/6
f 26/22/5 25/22/5 27/22/5
f 26/22/5 27/22/5 28/22/5
f 30/24/5 29/23/5 31/25/5
f 30/24/5 31/25/5 32/26/5
f 33/22/4 34/22/4 35/22/4
f 35/22/4 34/22/4 36/22/4
f 38/27/1 37/27/1 39/27/1
f 38/27/1 39/27/1 40/27/1
f 42/29/5 41/28/5 43/30/5
f 42/29/5 43/30/5 44/31/5
f 46/22/5 45/22/5 47/22/5
f 46/22/5 47/22/5 48/22/5
f 50/22/3 49/22/3 51/22/3
f 50/22/3 51/22/3 52/22/3
f 53/22/6 54/22/6 55/22/6
f 55/22/6 54/22/6 56/22/6
f 57/22/6 58/22/6 59/22/6
f 59/22/6 58/22/6 60/22/6
f 62/22/5 61/22/5 63/22/5
f 62/22/5 63/22/5 64/22/5
f 66/22/5 65/22/5 67/22/5
f 66/22/5 67/22/5 68/22/5
f 69/22/4 70/22/4 71/22/4
f 71/22/4 70/22/4 72/22/4
f 74/22/1 73/22/1 75/22/1
f 74/22/1 75/22/1 76/22/1
f 78/22/5 77/22/5 79/22/5
f 78/22/5 79/22/5 80/22/5
f 81/22/6 82/22/6 83/22/6
f 83/22/6 82/22/6 84/22/6
f 85/22/4 86/22/4 87/22/4
f 87/22/4 86/22/4 88/22/4
f 90/32/1 89/32/1 91/32/1
f 90/32/1 91/32/1 92/32/1
f 94/34/5 93/33/5 95/35/5
f 94/34/5 95/35/5 96/36/5
f 98/22/5 97/22/5 99/22/5
f 98/22/5 99/22/5 100/22/5
f 101/22/4 102/22/4 103/22/4
f 103/22/4 102/22/4 104/22/4
f 106/38/5 105/37/5 107/39/5
f 106/38/5 107/39/5 108/40/5
f 110/22/3 109/22/3 111/22/3
f 110/22/3 111/22/3 112/22/3
f 114/22/1 113/22/1 115/22/1
f 114/22/1 115/22/1 116/22/1
f 118/22/5 117/22/5 119/22/5
f 118/22/5 119/22/5 120/22/5
f 122/22/3 121/22/3 123/22/3
f 122/22/3 123/22/3 124/22/3
f 125/22/6 126/22/6 127/22/6
f 127/22/6 126/22/6 128/22/6
f 130/22/5 129/22/5 131/22/5
f 130/22/5 131/22/5 132/22/5
f 134/42/5 133/41/5 135/43/5
f 134/42/5 135/43/5 136/44/5
f 138/27/3 137/27/3 139/27/3
f 138/27/3 139/27/3 140/27/3
f 141/22/4 142/22/4 143/22/4
f 143/22/4 142/22/4 144/22/4
f 146/27/1 145/27/1 147/27/1
f 146/27/1 147/27/1 148/27/1
f 150/46/5 149/45/5 151/47/5
f 150/46/5 151/47/5 152/48/5
f 153/27/6 154/27/6 155/27/6
f 155/27/6 154/27/6 156/27/6
f 158/22/5 157/22/5 159/22/5
f 158/22/5 159/22/5 160/22/5
f 162/32/1 161/32/1 163/32/1
f 162/32/1 163/32/1 164/32/1
f 166/50/5 165/49/5 167/51/5
f 166/50/5 167/51/5 168/52/5
f 169/32/6 170/32/6 171/32/6
f 171/32/6 170/32/6 172/32/6
f 174/22/5 173/22/5 175/22/5
f 174/22/5 175/22/5 176/22/5
f 178/22/5 177/22/5 179/22/5
f 178/22/5 179/22/5 180/22/5
f 181/53/6 182/54/6 183/55/6
f 183/55/6 182/54/6 184/56/6
f 185/22/4 186/22/4 187/22/4
f 187/22/4 186/22/4 188/22/4
f 190/58/5 189/57/5 191/59/5
f 190/58/5 191/59/5 192/60/5
f 194/22/3 193/22/3 195/22/3
f 194/22/3 195/22/3 196/22/3
f 198/27/1 197/27/1 199/27/1
f 198/27/1 199/27/1 200/27/1
f 202/62/5 201/61/5 203/63/5
f 202/62/5 203/63/5 204/64/5
f 205/27/6 206/27/6 207/27/6
f 207/27/6 206/27/6 208/27/6
f 209/65/6 210/66/6 211/67/6
f 211/67/6 210/66/6 212/68/6
f 214/22/5 213/22/5 215/22/5
f 214/22/5 215/22/5 216/22/5
f 217/22/4 218/22/4 219/22/4
f 219/22/4 218/22/4 220/22/4
f 222/22/5 221/22/5 223/22/5
f 222/22/5 223/22/5 224/22/5
f 226/22/1 225/22/1 227/22/1
f 226/22/1 227/22/1 228/22/1
f 230/22/5 229/22/5 231/22/5
f 230/22/5 231/22/5 232/22/5
f 233/69/4 234/70/4 235/71/4
f 235/71/4 234/70/4 236/72/4
f 238/74/5 237/73/5 239/75/5
f 238/74/5 239/75/5 240/76/5
f 242/22/3 241/22/3 243/22/3
f 242/22/3 243/22/3 244/22/3
f 246/22/1 245/22/1 247/22/1
f 246/22/1 247/22/1 248/22/1
f 250/78/5 249/77/5 251/79/5
f 250/78/5 251/79/5 252/80/5
f 253/22/6 254/22/6 255/22/6
f 255/22/6 254/22/6 256/22/6
f 257/32/6 258/32/6 259/32/6
f 259/32/6 258/32/6 260/32/6
f 261/81/6 262/82/6 263/83/6
f 263/83/6 262/82/6 264/84/6
f 266/22/5 265/22/5 267/22/5
f 266/22/5 267/22/5 268/22/5
f 270/22/3 269/22/3 271/22/3
f 270/22/3 271/22/3 272/22/3
f 273/85/6 274/86/6 275/87/6
f 275/87/6 274/86/6 276/88/6
f 278/22/5 277/22/5 279/22/5
f 278/22/5 279/22/5 280/22/5
f 282/22/5 281/22/5 283/22/5
f 282/22/5 283/22/5 284/22/5
f 285/22/4 286/22/4 287/22/4
f 287/22/4 286/22/4 288/22/4
f 290/22/1 289/22/1 291/22/1
f 290/22/1 291/22/1 292/22/1
f 294/22/5 293/22/5 295/22/5
f 294/22/5 295/22/5 296/22/5
f 298/22/3 297/22/3 299/22/3
f 298/22/3 299/22/3 300/22/3
f 301/22/6 302/22/6 303/22/6
f 303/22/6 302/22/6 304/22/6
f 306/22/1 305/22/1 307/22/1
f 306/22/1 307/22/1 308/22/1
f 310/90/5 309/89/5 311/91/5
f 310/90/5 311/91/5 312/92/5
f 313/93/6 314/94/6 315/95/6
f 315/95/6 314/94/6 316/96/6
f 317/27/4 318/27/4 319/27/4
f 319/27/4 318/27/4 320/27/4
f 322/32/1 321/32/1 323/32/1
f 322/32/1 323/32/1 324/32/1
f 326/98/5 325/97/5 327/99/5
f 326/98/5 327/99/5 328/100/5
f 329/101/6 330/102/6 331/103/6
f 331/103/6 330/102/6 332/104/6
f 334/22/5 333/22/5 335/22/5
f 334/22/5 335/22/5 336/22/5
f 337/105/4 338/105/4 339/105/4
f 339/105/4 338/105/4 340/105/4
f 342/22/1 341/22/1 343/22/1
f 342/22/1 343/22/1 344/22/1
f 346/22/5 345/22/5 347/22/5
f 346/22/5 347/22/5 348/22/5
f 349/106/6 350/107/6 351/108/6
f 351/108/6 350/107/6 352/109/6
f 353/22/4 354/22/4 355/22/4
f 355/22/4 354/22/4 356/22/4
f 357/22/2 358/22/2 359/22/2
f 359/22/2 358/22/2 360/22/2
f 362/22/5 361/22/5 363/22/5
f 362/22/5 363/22/5 364/22/5
f 366/111/1 365/110/1 367/112/1
f 366/111/1 367/112/1 368/113/1
f 369/114/6 370/115/6 371/116/6
f 371/116/6 370/115/6 372/117/6
f 374/22/5 373/22/5 375/22/5
f 374/22/5 375/22/5 376/22/5
f 378/22/5 377/22/5 379/22/5
f 378/22/5 379/22/5 380/22/5
f 381/22/4 382/22/4 383/22/4
f 383/22/4 382/22/4 384/22/4
f 386/119/5 385/118/5 387/120/5
f 386/119/5 387/120/5 388/121/5
f 390/22/3 389/22/3 391/22/3
f 390/22/3 391/22/3 392/22/3
f 393/22/4 394/22/4 395/22/4
f 395/22/4 394/22/4 396/22/4
f 398/22/5 397/22/5 399/22/5
f 398/22/5 399/22/5 400/22/5
f 402/22/3 401/22/3 403/22/3
f 402/22/3 403/22/3 404/22/3
f 405/22/6 406/22/6 407/22/6
f 407/22/6 406/22/6 408/22/6
f 410/22/1 409/22/1 411/22/1
f 410/22/1 411/22/1 412/22/1
f 414/123/5 413/122/5 415/124/5
f 414/123/5 415/124/5 416/125/5
f 418/22/3 417/22/3 419/22/3
f 418/22/3 419/22/3 420/22/3
f 421/126/6 422/127/6 423/128/6
f 423/128/6 422/127/6 424/129/6
f 425/27/4 426/27/4 427/27/4
f 427/27/4 426/27/4 428/27/4
f 430/22/1 429/22/1 431/22/1
f 430/22/1 431/22/1 432/22/1
f 434/131/5 433/130/5 435/132/5
f 434/131/5 435/132/5 436/133/5
f 437/22/6 438/22/6 439/22/6
f 439/22/6 438/22/6 440/22/6
f 442/22/5 441/22/5 443/22/5
f 442/22/5 443/22/5 444/22/5
f 445/22/4 446/22/4 447/22/4
f 447/22/4 446/22/4 448/22/4
f 450/22/3 449/22/3 451/22/3
f 450/22/3 451/22/3 452/22/3
f 454/22/1 453/22/1 455/22/1
f 454/22/1 455/22/1 456/22/1
f 458/22/5 457/22/5 459/22/5
f 458/22/5 459/22/5 460/22/5
f 461/22/6 462/22/6 463/22/6
f 463/22/6 462/22/6 464/22/6
f 466/22/1 465/22/1 467/22/1
f 466/22/1 467/22/1 468/22/1
f 470/22/5 469/22/5 471/22/5
f 470/22/5 471/22/5 472/22/5
f 473/22/6 474/22/6 475/22/6
f 475/22/6 474/22/6 476/22/6
f 478/22/5 477/22/5 479/22/5
f 478/22/5 479/22/5 480/22/5
f 481/22/4 482/22/4 483/22/4
f 483/22/4 482/22/4 484/22/4
f 486/135/5 485/134/5 487/136/5
f 486/135/5 487/136/5 488/137/5
f 490/22/3 489/22/3 491/22/3
f 490/22/3 491/22/3 492/22/3
f 493/22/4 494/22/4 495/22/4
f 495/22/4 494/22/4 496/22/4
f 498/22/1 497/22/1 499/22/1
f 498/22/1 499/22/1 500/22/1
f 502/22/5 501/22/5 503/22/5
f 502/22/5 503/22/5 504/22/5
f 506/22/3 505/22/3 507/22/3
f 506/22/3 507/22/3 508/22/3
f 509/22/6 510/22/6 511/22/6
f 511/22/6 510/22/6 512/22/6
f 514/22/1 513/22/1 515/22/1
f 514/22/1 515/22/1 516/22/1
f 518/139/5 517/138/5 519/140/5
f 518/139/5 519/140/5 520/141/5
f 521/22/6 522/22/6 523/22/6
f 523/22/6 522/22/6 524/22/6
f 526/143/5 525/142/5 527/144/5
f 526/143/5 527/144/5 528/145/5
f 530/22/3 529/22/3 531/22/3
f 530/22/3 531/22/3 532/22/3
f 534/22/5 533/22/5 535/22/5
f 534/22/5 535/22/5 536/22/5
f 537/22/4 538/22/4 539/22/4
f 539/22/4 538/22/4 540/22/4
f 542/22/1 541/22/1 543/22/1
f 542/22/1 543/22/1 544/22/1
f 546/22/5 545/22/5 547/22/5
f 546/22/5 547/22/5 548/22/5
f 549/22/6 550/22/6 551/22/6
f 551/22/6 550/22/6 552/22/6
f 554/22/5 553/22/5 555/22/5
f 554/22/5 555/22/5 556/22/5
f 557/22/4 558/22/4 559/22/4
f 559/22/4 558/22/4 560/22/4
f 562/22/5 561/22/5 563/22/5
f 562/22/5 563/22/5 564/22/5
f 566/22/3 565/22/3 567/22/3
f 566/22/3 567/22/3 568/22/3
f 570/22/5 569/22/5 571/22/5
f 570/22/5 571/22/5 572/22/5
f 573/22/6 574/22/6 575/22/6
f 575/22/6 574/22/6 576/22/6
f 577/22/4 578/22/4 579/22/4
f 579/22/4 578/22/4 580/22/4
f 582/22/1 581/22/1 583/22/1
f 582/22/1 583/22/1 584/22/1
f 586/22/5 585/22/5 587/22/5
f 586/22/5 587/22/5 588/22/5
f 589/22/6 590/22/6 591/22/6
f 591/22/6 590/22/6 592/22/6
f 594/22/5 593/22/5 595/22/5
f 594/22/5 595/22/5 596/22/5
f 597/22/4 598/22/4 599/22/4
f 599/22/4 598/22/4 600/22/4
f 602/147/5 601/146/5 603/148/5
f 602/147/5 603/148/5 604/149/5
f 606/22/3 605/22/3 607/22/3
f 606/22/3 607/22/3 608/22/3
f 610/22/1 609/22/1 611/22/1
f 610/22/1 611/22/1 612/22/1
f 614/151/5 613/150/5 615/152/5
f 614/151/5 615/152/5 616/153/5
f 617/22/6 618/22/6 619/22/6
f 619/22/6 618/22/6 620/22/6
f 621/105/6 622/105/6 623/105/6
f 623/105/6 622/105/6 624/105/6
f 626/22/5 625/22/5 627/22/5
f 626/22/5 627/22/5 628/22/5
f 630/22/1 629/22/1 631/22/1
f 630/22/1 631/22/1 632/22/1
f 634/22/5 633/22/5 635/22/5
f 634/22/5 635/22/5 636/22/5
f 638/22/5 637/22/5 639/22/5
f 638/22/5 639/22/5 640/22/5
f 642/22/3 641/22/3 643/22/3
f 642/22/3 643/22/3 644/22/3
f 645/22/4 646/22/4 647/22/4
f 647/22/4 646/22/4 648/22/4
f 649/22/4 650/22/4 651/22/4
f 651/22/4 650/22/4 652/22/4
f 654/22/5 653/22/5 655/22/5
f 654/22/5 655/22/5 656/22/5
f 657/22/6 658/22/6 659/22/6
f 659/22/6 658/22/6 660/22/6
f 662/22/1 661/22/1 663/22/1
f 662/22/1 663/22/1 664/22/1
f 665/22/6 666/22/6 667/22/6
f 667/22/6 666/22/6 668/22/6
f 670/22/5 669/22/5 671/22/5
f 670/22/5 671/22/5 672/22/5
f 673/22/6 674/22/6 675/22/6
f 675/22/6 674/22/6 676/22/6
f 678/32/5 677/32/5 679/32/5
f 678/32/5 679/32/5 680/32/5
f 681/22/4 682/22/4 683/22/4
f 683/22/4 682/22/4 684/22/4
f 686/155/5 685/154/5 687/156/5
f 686/155/5 687/156/5 688/157/5
f 690/22/3 689/22/3 691/22/3
f 690/22/3 691/22/3 692/22/3
f 694/22/1 693/22/1 695/22/1
f 694/22/1 695/22/1 696/22/1
f 698/22/5 697/22/5 699/22/5
f 698/22/5 699/22/5 700/22/5
f 701/22/6 702/22/6 703/22/6
f 703/22/6 702/22/6 704/22/6
f 705/22/4 706/22/4 707/22/4
f 707/22/4 706/22/4 708/22/4
f 710/22/1 709/22/1 711/22/1
f 710/22/1 711/22/1 712/22/1
f 714/159/5 713/158/5 715/160/5
f 714/159/5 715/160/5 716/161/5
f 718/22/5 717/22/5 719/22/5
f 718/22/5 719/22/5 720/22/5
f 722/22/3 721/22/3 723/22/3
f 722/22/3 723/22/3 724/22/3
f 725/22/4 726/22/4 727/22/4
f 727/22/4 726/22/4 728/22/4
f 730/22/5 729/22/5 731/22/5
f 730/22/5 731/22/5 732/22/5
f 734/22/1 733/22/1 735/22/1
f 734/22/1 735/22/1 736/22/1
f 738/22/5 737/22/5 739/22/5
f 738/22/5 739/22/5 740/22/5
f 742/22/3 741/22/3 743/22/3
f 742/22/3 743/22/3 744/22/3
f 745/22/6 746/22/6 747/22/6
f 747/22/6 746/22/6 748/22/6
f 750/162/5 749/162/5 751/162/5
f 750/162/5 751/162/5 752/162/5
f 754/22/5 753/22/5 755/22/5
f 754/22/5 755/22/5 756/22/5
f 758/22/5 757/22/5 759/22/5
f 758/22/5 759/22/5 760/22/5
f 761/22/4 762/22/4 763/22/4
f 763/22/4 762/22/4 764/22/4
f 766/22/5 765/22/5 767/22/5
f 766/22/5 767/22/5 768/22/5
f 770/22/3 769/22/3 771/22/3
f 770/22/3 771/22/3 772/22/3
f 773/22/6 774/22/6 775/22/6
f 775/22/6 774/22/6 776/22/6
f 777/22/4 778/22/4 779/22/4
f 779/22/4 778/22/4 780/22/4
f 782/22/1 781/22/1 783/22/1
f 782/22/1 783/22/1 784/22/1
f 786/22/5 785/22/5 787/22/5
f 786/22/5 787/22/5 788/22/5
f 790/22/3 789/22/3 791/22/3
f 790/22/3 791/22/3 792/22/3
f 793/22/4 794/22/4 795/22/4
f 795/22/4 794/22/4 796/22/4
f 798/22/1 797/22/1 799/22/1
f 798/22/1 799/22/1 800/22/1
f 802/22/1 801/22/1 803/22/1
f 802/22/1 803/22/1 804/22/1
f 806/22/5 805/22/5 807/22/5
f 806/22/5 807/22/5 808/22/5
f 809/22/4 810/22/4 811/22/4
f 811/22/4 810/22/4 812/22/4
f 814/164/5 813/163/5 815/165/5
f 814/164/5 815/165/5 816/166/5
f 818/22/3 817/22/3 819/22/3
f 818/22/3 819/22/3 820/22/3
f 822/22/1 821/22/1 823/22/1
f 822/22/1 823/22/1 824/22/1
f 826/22/5 825/22/5 827/22/5
f 826/22/5 827/22/5 828/22/5
f 829/22/6 830/22/6 831/22/6
f 831/22/6 830/22/6 832/22/6
f 834/22/3 833/22/3 835/22/3
f 834/22/3 835/22/3 836/22/3
f 838/22/5 837/22/5 839/22/5
f 838/22/5 839/22/5 840/22/5
f 842/22/5 841/22/5 843/22/5
f 842/22/5 843/22/5 844/22/5
f 846/22/1 845/22/1 847/22/1
f 846/22/1 847/22/1 848/22/1
f 849/22/4 850/22/4 851/22/4
f 851/22/4 850/22/4 852/22/4
f 853/22/4 854/22/4 855/22/4
f 855/22/4 854/22/4 856/22/4
f 858/22/1 857/22/1 859/22/1
f 858/22/1 859/22/1 860/22/1
f 862/22/5 861/22/5 863/22/5
f 862/22/5 863/22/5 864/22/5
f 866/22/3 865/22/3 867/22/3
f 866/22/3 867/22/3 868/22/3
f 870/22/1 869/22/1 871/22/1
f 870/22/1 871/22/1 872/22/1
f 874/22/5 873/22/5 875/22/5
f 874/22/5 875/22/5 876/22/5
f 878/22/3 877/22/3 879/22/3
f 878/22/3 879/22/3 880/22/3
f 881/22/6 882/22/6 883/22/6
f 883/22/6 882/22/6 884/22/6
f 886/22/5 885/22/5 887/22/5
f 886/22/5 887/22/5 888/22/5
f 890/22/3 889/22/3 891/22/3
f 890/22/3 891/22/3 892/22/3
f 894/22/5 893/22/5 895/22/5
f 894/22/5 895/22/5 896/22/5
f 898/22/3 897/22/3 899/22/3
f 898/22/3 899/22/3 900/22/3
f 902/22/5 901/22/5 903/22/5
f 902/22/5 903/22/5 904/22/5
f 906/168/5 905/167/5 907/169/5
f 906/168/5 907/169/5 908/170/5
f 910/172/3 909/171/3 911/173/3
f 910/172/3 911/173/3 912/174/3
f 914/32/1 913/32/1 915/32/1
f 914/32/1 915/32/1 916/32/1
f 918/176/5 917/175/5 919/177/5
f 918/176/5 919/177/5 920/178/5
f 922/22/5 921/22/5 923/22/5
f 922/22/5 923/22/5 924/22/5
f 925/22/4 926/22/4 927/22/4
f 927/22/4 926/22/4 928/22/4
f 930/22/5 929/22/5 931/22/5
f 930/22/5 931/22/5 932/22/5
f 934/22/3 933/22/3 935/22/3
f 934/22/3 935/22/3 936/22/3
f 937/22/6 938/22/6 939/22/6
f 939/22/6 938/22/6 940/22/6
f 942/22/5 941/22/5 943/22/5
f 942/22/5 943/22/5 944/22/5
f 946/22/5 945/22/5 947/22/5
f 946/22/5 947/22/5 948/22/5
f 950/22/3 949/22/3 951/22/3
f 950/22/3 951/22/3 952/22/3
f 954/22/1 953/22/1 955/22/1
f 954/22/1 955/22/1 956/22/1
f 957/179/4 958/180/4 959/181/4
f 959/181/4 958/180/4 960/182/4
f 961/22/4 962/22/4 963/22/4
f 963/22/4 962/22/4 964/22/4
f 966/22/1 965/22/1 967/22/1
f 966/22/1 967/22/1 968/22/1
f 969/22/2 970/22/2 971/22/2
f 971/22/2 970/22/2 972/22/2
f 974/22/5 973/22/5 975/22/5
f 974/22/5 975/22/5 976/22/5
f 978/22/3 977/22/3 979/22/3
f 978/22/3 979/22/3 980/22/3
f 981/22/6 982/22/6 983/22/6
f 983/22/6 982/22/6 984/22/6
f 986/184/1 985/183/1 987/185/1
f 986/184/1 987/185/1 988/186/1
f 990/188/5 989/187/5 991/189/5
f 990/188/5 991/189/5 992/190/5
f 994/22/3 993/22/3 995/22/3
f 994/22/3 995/22/3 996/22/3
f 998/22/5 997/22/5 999/22/5
f 998/22/5 999/22/5 1000/22/5
f 1002/22/5 1001/22/5 1003/22/5
f 1002/22/5 1003/22/5 1004/22/5
f 1006/22/3 1005/22/3 1007/22/3
f 1006/22/3 1007/22/3 1008/22/3
f 1009/22/4 1010/22/4 1011/22/4
f 1011/22/4 1010/22/4 1012/22/4
f 1014/22/1 1013/22/1 1015/22/1
f 1014/22/1 1015/22/1 1016/22/1
f 1018/22/5 1017/22/5 1019/22/5
f 1018/22/5 1019/22/5 1020/22/5
f 1021/22/6 1022/22/6 1023/22/6
f 1023/22/6 1022/22/6 1024/22/6
f 1025/22/4 1026/22/4 1027/22/4
f 1027/22/4 1026/22/4 1028/22/4
f 1030/22/5 1029/22/5 1031/22/5
f 1030/22/5 1031/22/5 1032/22/5
f 1034/22/3 1033/22/3 1035/22/3
f 1034/22/3 1035/22/3 1036/22/3
f 1037/22/6 1038/22/6 1039/22/6
f 1039/22/6 1038/22/6 1040/22/6
f 1041/22/4 1042/22/4 1043/22/4
f 1043/22/4 1042/22/4 1044/22/4
f 1046/22/1 1045/22/1 1047/22/1
f 1046/22/1 1047/22/1 1048/22/1
f 1049/22/2 1050/22/2 1051/22/2
f 1051/22/2 1050/22/2 1052/22/2
f 1054/22/5 1053/22/5 1055/22/5
f 1054/22/5 1055/22/5 1056/22/5
f 1058/22/3 1057/22/3 1059/22/3
f 1058/22/3 1059/22/3 1060/22/3
f 1061/22/6 1062/22/6 1063/22/6
f 1063/22/6 1062/22/6 1064/22/6
f 1066/22/5 1065/22/5 1067/22/5
f 1066/22/5 1067/22/5 1068/22/5
f 1070/22/5 1069/22/5 1071/22/5
f 1070/22/5 1071/22/5 1072/22/5
f 1074/22/3 1073/22/3 1075/22/3
f 1074/22/3 1075/22/3 1076/22/3
f 1077/22/4 1078/22/4 1079/22/4
f 1079/22/4 1078/22/4 1080/22/4
f 1082/22/5 1081/22/5 1083/22/5
f 1082/22/5 1083/22/5 1084/22/5
f 1086/22/1 1085/22/1 1087/22/1
f 1086/22/1 1087/22/1 1088/22/1
f 1089/22/4 1090/22/4 1091/22/4
f 1091/22/4 1090/22/4 1092/22/4
f 1094/22/1 1093/22/1 1095/22/1
f 1094/22/1 1095/22/1 1096/22/1
f 1098/22/5 1097/22/5 1099/22/5
f 1098/22/5 1099/22/5 1100/22/5
f 1102/22/3 1101/22/3 1103/22/3
f 1102/22/3 1103/22/3 1104/22/3
f 1105/22/4 1106/22/4 1107/22/4
f 1107/22/4 1106/22/4 1108/22/4
f 1109/22/6 1110/22/6 1111/22/6
f 1111/22/6 1110/22/6 1112/22/6
f 1113/27/6 1114/27/6 1115/27/6
f 1115/27/6 1114/27/6 1116/27/6
f 1118/22/1 1117/22/1 1119/22/1
f 1118/22/1 1119/22/1 1120/22/1
f 1122/192/5 1121/191/5 1123/193/5
f 1122/192/5 1123/193/5 1124/194/5
f 1126/22/3 1125/22/3 1127/22/3
f 1126/22/3 1127/22/3 1128/22/3
f 1130/22/5 1129/22/5 1131/22/5
f 1130/22/5 1131/22/5 1132/22/5
f 1134/22/3 1133/22/3 1135/22/3
f 1134/22/3 1135/22/3 1136/22/3
f 1137/22/6 1138/22/6 1139/22/6
f 1139/22/6 1138/22/6 1140/22/6
f 1142/22/5 1141/22/5 1143/22/5
f 1142/22/5 1143/22/5 1144/22/5
f 1146/22/5 1145/22/5 1147/22/5
f 1146/22/5 1147/22/5 1148/22/5
f 1150/22/3 1149/22/3 1151/22/3
f 1150/22/3 1151/22/3 1152/22/3
f 1154/22/5 1153/22/5 1155/22/5
f 1154/22/5 1155/22/5 1156/22/5
f 1158/22/1 1157/22/1 1159/22/1
f 1158/22/1 1159/22/1 1160/22/1
f 1161/22/4 1162/22/4 1163/22/4
f 1163/22/4 1162/22/4 1164/22/4
f 1166/27/1 1165/27/1 1167/27/1
f 1166/27/1 1167/27/1 1168/27/1
f 1170/196/5 1169/195/5 1171/197/5
f 1170/196/5 1171/197/5 1172/198/5
f 1173/22/4 1174/22/4 1175/22/4
f 1175/22/4 1174/22/4 1176/22/4
f 1178/22/1 1177/22/1 1179/22/1
f 1178/22/1 1179/22/1 1180/22/1
f 1182/200/5 1181/199/5 1183/201/5
f 1182/200/5 1183/201/5 1184/202/5
f 1186/22/3 1185/22/3 1187/22/3
f 1186/22/3 1187/22/3 1188/22/3
f 1190/22/5 1189/22/5 1191/22/5
f 1190/22/5 1191/22/5 1192/22/5
f 1193/22/4 1194/22/4 1195/22/4
f 1195/22/4 1194/22/4 1196/22/4
f 1198/22/1 1197/22/1 1199/22/1
f 1198/22/1 1199/22/1 1200/22/1
f 1202/22/5 1201/22/5 1203/22/5
f 1202/22/5 1203/22/5 1204/22/5
f 1206/22/5 1205/22/5 1207/22/5
f 1206/22/5 1207/22/5 1208/22/5
f 1210/22/3 1209/22/3 1211/22/3
f 1210/22/3 1211/22/3 1212/22/3
f 1214/204/5 1213/203/5 1215/205/5
f 1214/204/5 1215/205/5 1216/206/5
f 1218/22/3 1217/22/3 1219/22/3
f 1218/22/3 1219/22/3 1220/22/3
f 1222/208/1 1221/207/1 1223/209/1
f 1222/208/1 1223/209/1 1224/210/1
f 1226/212/5 1225/211/5 1227/213/5
f 1226/212/5 1227/213/5 1228/214/5
f 1230/22/3 1229/22/3 1231/22/3
f 1230/22/3 1231/22/3 1232/22/3
f 1234/22/1 1233/22/1 1235/22/1
f 1234/22/1 1235/22/1 1236/22/1
f 1238/216/5 1237/215/5 1239/217/5
f 1238/216/5 1239/217/5 1240/218/5
f 1242/22/3 1241/22/3 1243/22/3
f 1242/22/3 1243/22/3 1244/22/3
f 1246/22/5 1245/22/5 1247/22/5
f 1246/22/5 1247/22/5 1248/22/5
f 1250/22/3 1249/22/3 1251/22/3
f 1250/22/3 1251/22/3 1252/22/3
f 1253/22/4 1254/22/4 1255/22/4
f 1255/22/4 1254/22/4 1256/22/4
f 1258/22/5 1257/22/5 1259/22/5
f 1258/22/5 1259/22/5 1260/22/5
f 1262/22/3 1261/22/3 1263/22/3
f 1262/22/3 1263/22/3 1264/22/3
f 1266/22/1 1265/22/1 1267/22/1
f 1266/22/1 1267/22/1 1268/22/1
f 1270/22/5 1269/22/5 1271/22/5
f 1270/22/5 1271/22/5 1272/22/5
f 1274/22/3 1273/22/3 1275/22/3
f 1274/22/3 1275/22/3 1276/22/3
f 1277/22/6 1278/22/6 1279/22/6
f 1279/22/6 1278/22/6 1280/22/6
f 1281/22/4 1282/22/4 1283/22/4
f 1283/22/4 1282/22/4 1284/22/4
f 1285/22/4 1286/22/4 1287/22/4
f 1287/22/4 1286/22/4 1288/22/4
f 1290/220/5 1289/219/5 1291/221/5
f 1290/220/5 1291/221/5 1292/222/5
f 1294/22/3 1293/22/3 1295/22/3
f 1294/22/3 1295/22/3 1296/22/3
f 1298/224/1 1297/223/1 1299/225/1
f 1298/224/1 1299/225/1 1300/226/1
f 1302/228/5 1301/227/5 1303/229/5
f 1302/228/5 1303/229/5 1304/230/5
f 1306/22/3 1305/22/3 1307/22/3
f 1306/22/3 1307/22/3 1308/22/3
f 1310/22/5 1309/22/5 1311/22/5
f 1310/22/5 1311/22/5 1312/22/5
f 1314/22/5 1313/22/5 1315/22/5
f 1314/22/5 1315/22/5 1316/22/5
f 1318/22/3 1317/22/3 1319/22/3
f 1318/22/3 1319/22/3 1320/22/3
f 1321/22/4 1322/22/4 1323/22/4
f 1323/22/4 1322/22/4 1324/22/4
f 1325/22/4 1326/22/4 1327/22/4
f 1327/22/4 1326/22/4 1328/22/4
f 1330/232/5 1329/231/5 1331/233/5
f 1330/232/5 1331/233/5 1332/234/5
f 1334/22/3 1333/22/3 1335/22/3
f 1334/22/3 1335/22/3 1336/22/3
f 1337/105/6 1338/105/6 1339/105/6
f 1339/105/6 1338/105/6 1340/105/6
f 1342/236/5 1341/235/5 1343/237/5
f 1342/236/5 1343/237/5 1344/238/5
f 1345/22/6 1346/22/6 1347/22/6
f 1347/22/6 1346/22/6 1348/22/6
f 1350/240/5 1349/239/5 1351/241/5
f 1350/240/5 1351/241/5 1352/242/5
f 1354/244/3 1353/243/3 1355/245/3
f 1354/244/3 1355/245/3 1356/246/3
f 1357/22/6 1358/22/6 1359/22/6
f 1359/22/6 1358/22/6 1360/22/6
f 1361/22/4 1362/22/4 1363/22/4
f 1363/22/4 1362/22/4 1364/22/4
f 1366/248/1 1365/247/1 1367/249/1
f 1366/248/1 1367/249/1 1368/250/1
f 1370/22/5 1369/22/5 1371/22/5
f 1370/22/5 1371/22/5 1372/22/5
f 1374/22/5 1373/22/5 1375/22/5
f 1374/22/5 1375/22/5 1376/22/5
f 1377/22/4 1378/22/4 1379/22/4
f 1379/22/4 1378/22/4 1380/22/4
f 1382/27/1 1381/27/1 1383/27/1
f 1382/27/1 1383/27/1 1384/27/1
f 1386/252/5 1385/251/5 1387/253/5
f 1386/252/5 1387/253/5 1388/254/5
f 1389/22/4 1390/22/4 1391/22/4
f 1391/22/4 1390/22/4 1392/22/4
f 1394/27/1 1393/27/1 1395/27/1
f 1394/27/1 1395/27/1 1396/27/1
f 1397/22/4 1398/22/4 1399/22/4
f 1399/22/4 1398/22/4 1400/22/4
f 1402/256/5 1401/255/5 1403/257/5
f 1402/256/5 1403/257/5 1404/258/5
f 1406/22/3 1405/22/3 1407/22/3
f 1406/22/3 1407/22/3 1408/22/3
f 1410/260/5 1409/259/5 1411/261/5
f 1410/260/5 1411/261/5 1412/262/5
f 1414/22/3 1413/22/3 1415/22/3
f 1414/22/3 1415/22/3 1416/22/3
f 1417/21/6 1418/21/6 1419/21/6
f 1419/21/6 1418/21/6 1420/21/6
f 1422/21/5 1421/21/5 1423/21/5
f 1422/21/5 1423/21/5 1424/21/5
f 1426/21/3 1425/21/3 1427/21/3
f 1426/21/3 1427/21/3 1428/21/3
f 1430/264/5 1429/263/5 1431/265/5
f 1430/264/5 1431/265/5 1432/266/5
f 1434/22/3 1433/22/3 1435/22/3
f 1434/22/3 1435/22/3 1436/22/3
f 1438/22/5 1437/22/5 1439/22/5
f 1438/22/5 1439/22/5 1440/22/5
f 1442/268/5 1441/267/5 1443/269/5
f 1442/268/5 1443/269/5 1444/270/5
f 1446/27/3 1445/27/3 1447/27/3
f 1446/27/3 1447/27/3 1448/27/3
f 1449/22/4 1450/22/4 1451/22/4
f 1451/22/4 1450/22/4 1452/22/4
f 1454/105/1 1453/105/1 1455/105/1
f 1454/105/1 1455/105/1 1456/105/1
f 1457/21/6 1458/21/6 1459/21/6
f 1459/21/6 1458/21/6 1460/21/6
f 1462/22/5 1461/22/5 1463/22/5
f 1462/22/5 1463/22/5 1464/22/5
f 1466/272/5 1465/271/5 1467/273/5
f 1466/272/5 1467/273/5 1468/274/5
f 1470/22/3 1469/22/3 1471/22/3
f 1470/22/3 1471/22/3 1472/22/3
f 1473/22/4 1474/22/4 1475/22/4
f 1475/22/4 1474/22/4 1476/22/4
f 1478/276/1 1477/275/1 1479/277/1
f 1478/276/1 1479/277/1 1480/278/1
f 1482/280/5 1481/279/5 1483/281/5
f 1482/280/5 1483/281/5 1484/282/5
f 1486/22/3 1485/22/3 1487/22/3
f 1486/22/3 1487/22/3 1488/22/3
f 1489/283/6 1490/284/6 1491/285/6
f 1491/285/6 1490/284/6 1492/286/6
