# Export of Cubik Model: Cubik Model
# Designed by MeLee with Cubik Studio - https://cubik.studio
# from Cubik OBJ Exporter v1.0
mtllib street_32_2c_mi.mtl
v 0 0 1.907349E-06
v -16 0 1.907349E-06
v 0 2 1.907349E-06
v -16 2 1.907349E-06
v 0 0 1.907349E-06
v -16 0 1.907349E-06
v 0 1.907349E-06 -32
v -16 1.907349E-06 -32
v 0 0 1.907349E-06
v 0 2 1.907349E-06
v 0 1.907349E-06 -32
v 0 2.000002 -32
v 0 1.907349E-06 -32
v -16 1.907349E-06 -32
v 0 2.000002 -32
v -16 2.000002 -32
v 0 2 1.907349E-06
v -2.5 2 1.907349E-06
v 0 2.000002 -32
v -2.5 2.000002 -32
v -2.5 1.5 -12
v -2.5 2 -12
v -2.5 1.5 -13
v -2.5 2 -13
v -2.5 1.5 -12
v -3 1.5 -12
v -2.5 1.5 -13
v -3 1.5 -13
v -2.5 2 1.907349E-06
v -3 2 1.907349E-06
v -2.5 2 -12
v -3 2 -12
v -3 1.5 -11
v -3 2 -11
v -3 1.5 -11.5
v -3 2 -11.5
v -2.5 1.5 -12
v -3 1.5 -12
v -2.5 2 -12
v -3 2 -12
v -2.5 1.5 -13
v -4.5 1.5 -13
v -2.5 2 -13
v -4.5 2 -13
v -2.5 2 -13
v -4.5 2 -13
v -2.5 2.000002 -32
v -4.5 2.000002 -32
v -3 1.5 -11
v -4 1.5 -11
v -3 1.5 -11.5
v -4 1.5 -11.5
v -3 1.5 -12.5
v -5 1.5 -12.5
v -3 1.5 -13
v -5 1.5 -13
v -3 2 1.907349E-06
v -3.5 2 1.907349E-06
v -3 2 -11
v -3.5 2 -11
v -3.5 1.5 -9.999998
v -3.5 2 -9.999998
v -3.5 1.5 -10.5
v -3.5 2 -10.5
v -3 1.5 -11
v -4 1.5 -11
v -3 2 -11
v -4 2 -11
v -3 1.5 -11.5
v -3.5 1.5 -11.5
v -3 2 -11.5
v -3.5 2 -11.5
v -3 2 -11.5
v -3.5 2 -11.5
v -3 2 -12.5
v -3.5 2 -12.5
v -3.5 1.5 -11.5
v -3.5 2 -11.5
v -3.5 1.5 -12
v -3.5 2 -12
v -3 1.5 -12.5
v -4 1.5 -12.5
v -3 2 -12.5
v -4 2 -12.5
v -3 1.5 -12
v -3 2 -12
v -3 1.5 -12.5
v -3 2 -12.5
v -3.5 1.5 -9.999998
v -5.5 1.5 -9.999998
v -3.5 1.5 -10.5
v -5.5 1.5 -10.5
v -4 1 -11
v -4 1.5 -11
v -4 1 -12
v -4 1.5 -12
v -3.5 1.5 -11.5
v -4 1.5 -11.5
v -3.5 1.5 -12
v -4 1.5 -12
v -3.5 2 1.907349E-06
v -4 2 1.907349E-06
v -3.5 2 -9.999998
v -4 2 -9.999998
v -3.5 1.5 -9.999998
v -4 1.5 -9.999998
v -3.5 2 -9.999998
v -4 2 -9.999998
v -4 1.5 -9.499998
v -4 2 -9.499998
v -4 1.5 -9.999998
v -4 2 -9.999998
v -3.5 1.5 -10.5
v -4 1.5 -10.5
v -3.5 2 -10.5
v -4 2 -10.5
v -3.5 2 -10.5
v -4 2 -10.5
v -3.5 2 -11
v -4 2 -11
v -4 1.5 -10.5
v -4 2 -10.5
v -4 1.5 -11
v -4 2 -11
v -3.5 1.5 -12
v -4 1.5 -12
v -3.5 2 -12
v -4 2 -12
v -3.5 2 -12
v -4 2 -12
v -3.5 2 -12.5
v -4 2 -12.5
v -4 1.5 -12
v -4 2 -12
v -4 1.5 -12.5
v -4 2 -12.5
v -4 1 -11
v -5 1 -11
v -4 1 -12
v -5 1 -12
v -4 1.5 -9.499998
v -5 1.5 -9.499998
v -4 1.5 -9.999998
v -5 1.5 -9.999998
v -4 1 -11
v -4.5 1 -11
v -4 1.5 -11
v -4.5 1.5 -11
v -4 1.5 -10.5
v -4.5 1.5 -10.5
v -4 1.5 -11
v -4.5 1.5 -11
v -4.5 1 -10.5
v -4.5 1.5 -10.5
v -4.5 1 -11
v -4.5 1.5 -11
v -4 1 -12
v -5.5 1 -12
v -4 1.5 -12
v -5.5 1.5 -12
v -4 1.5 -12
v -6 1.5 -12
v -4 1.5 -12.5
v -6 1.5 -12.5
v -4 2 1.907349E-06
v -16 2 1.907349E-06
v -4 2 -9.499998
v -16 2 -9.499998
v -4 1.5 -9.499998
v -5 1.5 -9.499998
v -4 2 -9.499998
v -5 2 -9.499998
v -4.5 1.5 -13
v -4.5 2 -13
v -4.5 1.5 -13.5
v -4.5 2 -13.5
v -4.5 1 -10.5
v -5 1 -10.5
v -4.5 1 -11
v -5 1 -11
v -4.5 1 -10.5
v -5 1 -10.5
v -4.5 1.5 -10.5
v -5 1.5 -10.5
v -4.5 1.5 -13
v -5.5 1.5 -13
v -4.5 1.5 -13.5
v -5.5 1.5 -13.5
v -4.5 1.5 -13.5
v -5 1.5 -13.5
v -4.5 2 -13.5
v -5 2 -13.5
v -4.5 2 -13.5
v -5 2 -13.5
v -4.5 2.000002 -32
v -5 2.000002 -32
v -5 1.5 -13.5
v -5 2 -13.5
v -5 1.5 -14
v -5 2 -14
v -5 1 -11.5
v -5.5 1 -11.5
v -5 1 -12
v -5.5 1 -12
v -5 1.5 -10.5
v -5.5 1.5 -10.5
v -5 1.5 -11.5
v -5.5 1.5 -11.5
v -5 1 -10.5
v -5 1.5 -10.5
v -5 1 -11.5
v -5 1.5 -11.5
v -5 1 -11.5
v -5.5 1 -11.5
v -5 1.5 -11.5
v -5.5 1.5 -11.5
v -5 1.5 -13.5
v -5.5 1.5 -13.5
v -5 1.5 -14
v -5.5 1.5 -14
v -5 1.5 -9.999998
v -5.5 1.5 -9.999998
v -5 2 -9.999998
v -5.5 2 -9.999998
v -5 2 -9.499998
v -16 2 -9.499998
v -5 2 -9.999998
v -16 2 -9.999998
v -5 1.5 -9.499998
v -5 2 -9.499998
v -5 1.5 -9.999998
v -5 2 -9.999998
v -5 1.5 -13
v -5.5 1.5 -13
v -5 2 -13
v -5.5 2 -13
v -5 1.5 -12.5
v -5.5 1.5 -12.5
v -5 2 -12.5
v -5.5 2 -12.5
v -5 2 -12.5
v -5.5 2 -12.5
v -5 2 -13
v -5.5 2 -13
v -5 1.5 -12.5
v -5 2 -12.5
v -5 1.5 -13
v -5 2 -13
v -5.5 1.5 -12.5
v -5.5 2 -12.5
v -5.5 1.5 -13
v -5.5 2 -13
v -5 1.5 -14
v -5.5 1.5 -14
v -5 2 -14
v -5.5 2 -14
v -5 2 -14
v -5.5 2 -14
v -5 2.000002 -32
v -5.5 2.000002 -32
v -5.5 1.5 -14
v -5.5 2 -14
v -5.5 1.5 -15
v -5.5 2 -15
v -5.5 1.5 -16
v -5.5 2 -16
v -5.5 1.5 -16.5
v -5.5 2 -16.5
v -5.5 1 -11.5
v -5.5 2 -11.5
v -5.5 1 -12
v -5.5 2 -12
v -5.5 1.5 -12.5
v -6 1.5 -12.5
v -5.5 1.5 -13
v -6 1.5 -13
v -5.5 1.5 -14
v -6 1.5 -14
v -5.5 1.5 -15
v -6 1.5 -15
v -5.5 1.5 -16
v -6 1.5 -16
v -5.5 1.5 -16.5
v -6 1.5 -16.5
v -5.5 2 -9.999998
v -16 2 -9.999998
v -5.5 2 -12
v -16 2 -12
v -5.5 1.5 -9.999998
v -5.5 2 -9.999998
v -5.5 1.5 -11.5
v -5.5 2 -11.5
v -5.5 1.5 -12
v -6 1.5 -12
v -5.5 2 -12
v -6 2 -12
v -5.5 1.5 -13
v -6 1.5 -13
v -5.5 2 -13
v -6 2 -13
v -5.5 2 -13
v -6 2 -13
v -5.5 2 -14
v -6 2 -14
v -5.5 1.5 -13
v -5.5 2 -13
v -5.5 1.5 -14
v -5.5 2 -14
v -6 1.5 -13
v -6 2 -13
v -6 1.5 -13.5
v -6 2 -13.5
v -5.5 1.5 -14
v -6.5 1.5 -14
v -5.5 2 -14
v -6.5 2 -14
v -5.5 1.5 -15
v -6 1.5 -15
v -5.5 2 -15
v -6 2 -15
v -5.5 2 -15
v -6 2 -15
v -5.5 2 -16
v -6 2 -16
v -6 1.5 -15
v -6 2 -15
v -6 1.5 -15.5
v -6 2 -15.5
v -5.5 1.5 -16
v -6 1.5 -16
v -5.5 2 -16
v -6 2 -16
v -5.5 1.5 -16.5
v -6 1.5 -16.5
v -5.5 2 -16.5
v -6 2 -16.5
v -5.5 2 -16.5
v -7 2 -16.5
v -5.5 2.000002 -32
v -7 2.000002 -32
v -6 1.5 -13
v -6.5 1.5 -13
v -6 1.5 -13.5
v -6.5 1.5 -13.5
v -6 1.5 -14
v -6.5 1.5 -14
v -6 1.5 -14.5
v -6.5 1.5 -14.5
v -6 1.5 -15
v -6.5 1.5 -15
v -6 1.5 -15.5
v -6.5 1.5 -15.5
v -6 2 -12
v -16 2 -12
v -6 2 -13
v -16 2 -13
v -6 1.5 -12
v -6 2 -12
v -6 1.5 -13
v -6 2 -13
v -6 1.5 -13
v -6.5 1.5 -13
v -6 2 -13
v -6.5 2 -13
v -6 1.5 -13.5
v -6.5 1.5 -13.5
v -6 2 -13.5
v -6.5 2 -13.5
v -6 2 -13.5
v -8.5 2 -13.5
v -6 2 -14
v -8.5 2 -14
v -6 1.5 -15
v -6.5 1.5 -15
v -6 2 -15
v -6.5 2 -15
v -6 1.5 -14.5
v -6.5 1.5 -14.5
v -6 2 -14.5
v -6.5 2 -14.5
v -6 2 -14.5
v -16 2 -14.5
v -6 2 -15
v -16 2 -15
v -6 1.5 -14.5
v -6 2 -14.5
v -6 1.5 -15
v -6 2 -15
v -6 1.5 -15.5
v -6.5 1.5 -15.5
v -6 2 -15.5
v -6.5 2 -15.5
v -6 2 -15.5
v -7 2 -15.5
v -6 2 -16.5
v -7 2 -16.5
v -6 1.5 -16
v -6 2 -16
v -6 1.5 -16.5
v -6 2 -16.5
v -6.5 2 -13
v -16 2 -13
v -6.5 2 -13.5
v -16 2 -13.5
v -6.5 1.5 -13
v -6.5 2 -13
v -6.5 1.5 -13.5
v -6.5 2 -13.5
v -6.5 2 -14
v -16 2 -14
v -6.5 2 -14.5
v -16 2 -14.5
v -6.5 1.5 -14
v -6.5 2 -14
v -6.5 1.5 -14.5
v -6.5 2 -14.5
v -6.5 2 -15
v -9 2 -15
v -6.5 2 -15.5
v -9 2 -15.5
v -6.5 1.5 -15
v -6.5 2 -15
v -6.5 1.5 -15.5
v -6.5 2 -15.5
v -7 1.5 -16
v -7 2 -16
v -7 1.5 -17
v -7 2 -17
v -7 1.5 -16
v -7.5 1.5 -16
v -7 1.5 -17
v -7.5 1.5 -17
v -7 1.5 -16
v -7.5 1.5 -16
v -7 2 -16
v -7.5 2 -16
v -7 2 -15.5
v -8.5 2 -15.5
v -7 2 -16
v -8.5 2 -16
v -7 1.5 -17
v -7.5 1.5 -17
v -7 2 -17
v -7.5 2 -17
v -7 2 -17
v -8 2 -17
v -7 2.000002 -32
v -8 2.000002 -32
v -7.5 2 -16
v -9 2 -16
v -7.5 2 -17
v -9 2 -17
v -7.5 1.5 -16
v -7.5 2 -16
v -7.5 1.5 -17
v -7.5 2 -17
v -8 1.500002 -18
v -8 2 -18
v -8 1.500002 -18.5
v -8 2.000002 -18.5
v -8 1.500002 -18
v -8.5 1.500002 -18
v -8 1.500002 -18.5
v -8.5 1.500002 -18.5
v -8.5 1.5 -13.5
v -8.5 2 -13.5
v -8.5 1.5 -14
v -8.5 2 -14
v -8.5 1.5 -15.5
v -8.5 2 -15.5
v -8.5 1.5 -16
v -8.5 2 -16
v -8 2 -17
v -9 2 -17
v -8 2 -18
v -9 2 -18
v -8 1.500002 -18
v -8.5 1.500002 -18
v -8 2 -18
v -8.5 2 -18
v -8 1.500002 -18.5
v -8.5 1.500002 -18.5
v -8 2.000002 -18.5
v -8.5 2.000002 -18.5
v -8 2.000002 -18.5
v -9.5 2.000002 -18.5
v -8 2.000002 -32
v -9.5 2.000002 -32
v -8.5 1.5 -13.5
v -9 1.5 -13.5
v -8.5 1.5 -14
v -9 1.5 -14
v -8.5 1.5 -15.5
v -9 1.5 -15.5
v -8.5 1.5 -16
v -9 1.5 -16
v -9 1 -15.5
v -9 1.5 -15.5
v -9 1 -16
v -9 1.5 -16
v -8.5 1.5 -13.5
v -9 1.5 -13.5
v -8.5 2 -13.5
v -9 2 -13.5
v -8.5 1.5 -14
v -9 1.5 -14
v -8.5 2 -14
v -9 2 -14
v -8.5 1.5 -15.5
v -9 1.5 -15.5
v -8.5 2 -15.5
v -9 2 -15.5
v -9 1.5 -15
v -9 2 -15
v -9 1.5 -15.5
v -9 2 -15.5
v -8.5 1.5 -16
v -9 1.5 -16
v -8.5 2 -16
v -9 2 -16
v -9 1.5 -16
v -9 2 -16
v -9 1.5 -17
v -9 2 -17
v -9 1.5 -17.5
v -9 2 -17.5
v -9 1.500002 -18.5
v -9 2.000002 -18.5
v -8.5 2 -18
v -9 2 -18
v -8.5 2.000002 -18.5
v -9 2.000002 -18.5
v -8.5 1.500002 -18
v -8.5 2 -18
v -8.5 1.500002 -18.5
v -8.5 2.000002 -18.5
v -9 1 -15.5
v -9.5 1 -15.5
v -9 1 -16
v -9.5 1 -16
v -9 1 -15.5
v -9.5 1 -15.5
v -9 1.5 -15.5
v -9.5 1.5 -15.5
v -9 1.5 -15
v -9.5 1.5 -15
v -9 1.5 -15.5
v -9.5 1.5 -15.5
v -9 1 -16
v -9.5 1 -16
v -9 1.5 -16
v -9.5 1.5 -16
v -9 1.5 -16
v -10 1.5 -16
v -9 1.5 -17
v -10 1.5 -17
v -9.5 1 -17
v -9.5 1.5 -17
v -9.5 1.000002 -18.5
v -9.5 1.500002 -18.5
v -9 1.5 -17.5
v -9.5 1.5 -17.5
v -9 1.500002 -18.5
v -9.5 1.500002 -18.5
v -9 2 -13.5
v -16 2 -13.5
v -9 2 -14
v -16 2 -14
v -9 1.5 -13.5
v -9 2 -13.5
v -9 1.5 -14
v -9 2 -14
v -9 1.5 -15
v -9.5 1.5 -15
v -9 2 -15
v -9.5 2 -15
v -9 1.5 -17.5
v -9.5 1.5 -17.5
v -9 2 -17.5
v -9.5 2 -17.5
v -9 1.5 -17
v -9.5 1.5 -17
v -9 2 -17
v -9.5 2 -17
v -9 2 -17
v -9.5 2 -17
v -9 2 -17.5
v -9.5 2 -17.5
v -9.5 1.5 -17
v -9.5 2 -17
v -9.5 1.5 -17.5
v -9.5 2 -17.5
v -9 1.500002 -18.5
v -9.5 1.500002 -18.5
v -9 2.000002 -18.5
v -9.5 2.000002 -18.5
v -9.5 1.500002 -18.5
v -9.5 2.000002 -18.5
v -9.5 1.500002 -19
v -9.5 2.000002 -19
v -9.5 1.500002 -20
v -9.5 2.000002 -20
v -9.5 1.500002 -20.5
v -9.5 2.000002 -20.5
v -9.5 1.500002 -21
v -9.5 2.000002 -21
v -9.5 1.500002 -21.5
v -9.5 2.000002 -21.5
v -9.5 1 -17
v -10 1 -17
v -9.5 1.000002 -18.5
v -10 1.000002 -18.5
v -9.5 1 -15.5
v -9.5 2 -15.5
v -9.5 1 -16
v -9.5 2 -16
v -9.5 1 -17
v -10 1 -17
v -9.5 1.5 -17
v -10 1.5 -17
v -9.5 1.000002 -18.5
v -10 1.000002 -18.5
v -9.5 1.500002 -18.5
v -10 1.500002 -18.5
v -9.5 1.500002 -18.5
v -10 1.500002 -18.5
v -9.5 1.500002 -19
v -10 1.500002 -19
v -10 1.000002 -18.5
v -10 1.500002 -18.5
v -10 1.000002 -19
v -10 1.500002 -19
v -10 1.000002 -19.5
v -10 2.000002 -19.5
v -10 1.000002 -20
v -10 2.000002 -20
v -9.5 1.500002 -20
v -10.5 1.500002 -20
v -9.5 1.500002 -20.5
v -10.5 1.500002 -20.5
v -9.5 1.500002 -21
v -10 1.500002 -21
v -9.5 1.500002 -21.5
v -10 1.500002 -21.5
v -9.5 2 -15
v -16 2 -15
v -9.5 2 -16
v -16 2 -16
v -9.5 1.5 -15
v -9.5 2 -15
v -9.5 1.5 -15.5
v -9.5 2 -15.5
v -9.5 1.5 -16
v -10 1.5 -16
v -9.5 2 -16
v -10 2 -16
v -9.5 1.500002 -19
v -10 1.500002 -19
v -9.5 2.000002 -19
v -10 2.000002 -19
v -9.5 2.000002 -19
v -10 2.000002 -19
v -9.5 2.000002 -20
v -10 2.000002 -20
v -10 1.500002 -19
v -10 2.000002 -19
v -10 1.500002 -19.5
v -10 2.000002 -19.5
v -9.5 1.500002 -20
v -10 1.500002 -20
v -9.5 2.000002 -20
v -10 2.000002 -20
v -9.5 1.500002 -21
v -10 1.500002 -21
v -9.5 2.000002 -21
v -10 2.000002 -21
v -9.5 1.500002 -20.5
v -10 1.500002 -20.5
v -9.5 2.000002 -20.5
v -10 2.000002 -20.5
v -9.5 2.000002 -20.5
v -10 2.000002 -20.5
v -9.5 2.000002 -21
v -10 2.000002 -21
v -10 1.500002 -20.5
v -10 2.000002 -20.5
v -10 1.500002 -21
v -10 2.000002 -21
v -9.5 1.500002 -21.5
v -10 1.500002 -21.5
v -9.5 2.000002 -21.5
v -10 2.000002 -21.5
v -9.5 2.000002 -21.5
v -10 2.000002 -21.5
v -9.5 2.000002 -32
v -10 2.000002 -32
v -10 1.500002 -21.5
v -10 2.000002 -21.5
v -10 1.500002 -22
v -10 2.000002 -22
v -10 1.000002 -17.5
v -10.5 1.000002 -17.5
v -10 1.000002 -19
v -10.5 1.000002 -19
v -10.5 0.5000019 -18.5
v -10.5 1.000002 -18.5
v -10.5 0.5000019 -19
v -10.5 1.000002 -19
v -10 1.000002 -19.5
v -11.5 1.000002 -19.5
v -10 1.000002 -20
v -11.5 1.000002 -20
v -10 1.000002 -17.5
v -10.5 1.000002 -17.5
v -10 1.5 -17.5
v -10.5 1.5 -17.5
v -10 1.5 -17
v -10.5 1.5 -17
v -10 1.5 -17.5
v -10.5 1.5 -17.5
v -10 1 -17
v -10 1.5 -17
v -10 1.000002 -17.5
v -10 1.5 -17.5
v -10 1.000002 -19.5
v -10.5 1.000002 -19.5
v -10 1.500002 -19.5
v -10.5 1.500002 -19.5
v -10 1.000002 -19
v -10.5 1.000002 -19
v -10 1.500002 -19
v -10.5 1.500002 -19
v -10 1.500002 -19
v -10.5 1.500002 -19
v -10 1.500002 -19.5
v -10.5 1.500002 -19.5
v -10.5 1.000002 -19
v -10.5 1.500002 -19
v -10.5 1.000002 -19.5
v -10.5 1.500002 -19.5
v -10 1.000002 -20
v -10.5 1.000002 -20
v -10 1.500002 -20
v -10.5 1.500002 -20
v -10.5 1.000002 -20
v -10.5 1.500002 -20
v -10.5 1.000002 -20.5
v -10.5 1.500002 -20.5
v -10 1.500002 -20.5
v -12.5 1.500002 -20.5
v -10 1.500002 -21
v -12.5 1.500002 -21
v -10 1.500002 -21.5
v -10.5 1.500002 -21.5
v -10 1.500002 -22
v -10.5 1.500002 -22
v -10 2 -16
v -16 2 -16
v -10 2 -17
v -16 2 -17
v -10 1.5 -16
v -10 2 -16
v -10 1.5 -17
v -10 2 -17
v -10 1.5 -17
v -10.5 1.5 -17
v -10 2 -17
v -10.5 2 -17
v -10 1.500002 -21.5
v -10.5 1.500002 -21.5
v -10 2.000002 -21.5
v -10.5 2.000002 -21.5
v -10 1.500002 -21
v -10.5 1.500002 -21
v -10 2.000002 -21
v -10.5 2.000002 -21
v -10 2.000002 -21
v -10.5 2.000002 -21
v -10 2.000002 -21.5
v -10.5 2.000002 -21.5
v -10 1.500002 -21
v -10 2.000002 -21
v -10 1.500002 -21.5
v -10 2.000002 -21.5
v -10.5 1.500002 -21
v -10.5 2.000002 -21
v -10.5 1.500002 -21.5
v -10.5 2.000002 -21.5
v -10 1.500002 -22
v -10.5 1.500002 -22
v -10 2.000002 -22
v -10.5 2.000002 -22
v -10 2.000002 -22
v -16 2.000002 -22
v -10 2.000002 -32
v -16 2.000002 -32
v -10.5 0.5000019 -18.5
v -11 0.5000019 -18.5
v -10.5 0.5000019 -19
v -11 0.5000019 -19
v -10.5 0.5000019 -18.5
v -11 0.5000019 -18.5
v -10.5 1.000002 -18.5
v -11 1.000002 -18.5
v -10.5 1.000002 -18
v -11 1.000002 -18
v -10.5 1.000002 -18.5
v -11 1.000002 -18.5
v -10.5 0.5000019 -19
v -11 0.5000019 -19
v -10.5 1.000002 -19
v -11 1.000002 -19
v -10.5 1.000002 -19
v -11.5 1.000002 -19
v -10.5 1.000002 -19.5
v -11.5 1.000002 -19.5
v -10.5 1.000002 -20
v -11.5 1.000002 -20
v -10.5 1.000002 -20.5
v -11.5 1.000002 -20.5
v -10.5 1.000002 -18
v -11 1.000002 -18
v -10.5 1.500002 -18
v -11 1.500002 -18
v -10.5 1.5 -17.5
v -11.5 1.5 -17.5
v -10.5 1.500002 -18
v -11.5 1.500002 -18
v -10.5 1.000002 -17.5
v -10.5 1.5 -17.5
v -10.5 1.000002 -18
v -10.5 1.500002 -18
v -10.5 1.000002 -20.5
v -11.5 1.000002 -20.5
v -10.5 1.500002 -20.5
v -11.5 1.500002 -20.5
v -10.5 1.500002 -21
v -11 1.500002 -21
v -10.5 1.500002 -21.5
v -11 1.500002 -21.5
v -10.5 1.5 -17.5
v -11.5 1.5 -17.5
v -10.5 2 -17.5
v -11.5 2 -17.5
v -10.5 2 -17
v -16 2 -17
v -10.5 2 -17.5
v -16 2 -17.5
v -10.5 1.5 -17
v -10.5 2 -17
v -10.5 1.5 -17.5
v -10.5 2 -17.5
v -10.5 1.500002 -21.5
v -11 1.500002 -21.5
v -10.5 2.000002 -21.5
v -11 2.000002 -21.5
v -10.5 2.000002 -21.5
v -16 2.000002 -21.5
v -10.5 2.000002 -22
v -16 2.000002 -22
v -10.5 1.500002 -21.5
v -10.5 2.000002 -21.5
v -10.5 1.500002 -22
v -10.5 2.000002 -22
v -11 1.000002 -18.5
v -11.5 1.000002 -18.5
v -11 1.000002 -19
v -11.5 1.000002 -19
v -11 0.5000019 -18.5
v -11 1.000002 -18.5
v -11 0.5000019 -19
v -11 1.000002 -19
v -11 1.000002 -18.5
v -11.5 1.000002 -18.5
v -11 1.500002 -18.5
v -11.5 1.500002 -18.5
v -11 1.500002 -18
v -12 1.500002 -18
v -11 1.500002 -18.5
v -12 1.500002 -18.5
v -11 1.000002 -18
v -11 1.500002 -18
v -11 1.000002 -18.5
v -11 1.500002 -18.5
v -11 1.500002 -21
v -11.5 1.500002 -21
v -11 2.000002 -21
v -11.5 2.000002 -21
v -11 2.000002 -21
v -11.5 2.000002 -21
v -11 2.000002 -21.5
v -11.5 2.000002 -21.5
v -11 1.500002 -21
v -11 2.000002 -21
v -11 1.500002 -21.5
v -11 2.000002 -21.5
v -11.5 1.500002 -21
v -11.5 2.000002 -21
v -11.5 1.500002 -21.5
v -11.5 2.000002 -21.5
v -11.5 1.500002 -18.5
v -12 1.500002 -18.5
v -11.5 1.500002 -20.5
v -12 1.500002 -20.5
v -11.5 1.000002 -18.5
v -11.5 1.500002 -18.5
v -11.5 1.000002 -20.5
v -11.5 1.500002 -20.5
v -11.5 1.500002 -21
v -12 1.500002 -21
v -11.5 1.500002 -21.5
v -12 1.500002 -21.5
v -11.5 1.500002 -18
v -12 1.500002 -18
v -11.5 2 -18
v -12 2 -18
v -11.5 2 -17.5
v -16 2 -17.5
v -11.5 2 -18
v -16 2 -18
v -11.5 1.5 -17.5
v -11.5 2 -17.5
v -11.5 1.500002 -18
v -11.5 2 -18
v -11.5 1.500002 -21.5
v -12 1.500002 -21.5
v -11.5 2.000002 -21.5
v -12 2.000002 -21.5
v -12 1.500002 -19
v -12.5 1.500002 -19
v -12 1.500002 -20.5
v -12.5 1.500002 -20.5
v -12 2 -18
v -16 2 -18
v -12 2.000002 -19
v -16 2.000002 -19
v -12 1.500002 -18
v -12 2 -18
v -12 1.500002 -19
v -12 2.000002 -19
v -12 1.500002 -19
v -12.5 1.500002 -19
v -12 2.000002 -19
v -12.5 2.000002 -19
v -12 1.500002 -21
v -12.5 1.500002 -21
v -12 2.000002 -21
v -12.5 2.000002 -21
v -12 2.000002 -21
v -16 2.000002 -21
v -12 2.000002 -21.5
v -16 2.000002 -21.5
v -12 1.500002 -21
v -12 2.000002 -21
v -12 1.500002 -21.5
v -12 2.000002 -21.5
v -12.5 2.000002 -19
v -16 2.000002 -19
v -12.5 2.000002 -21
v -16 2.000002 -21
v -12.5 1.500002 -19
v -12.5 2.000002 -19
v -12.5 1.500002 -21
v -12.5 2.000002 -21
v -16 0 1.907349E-06
v -16 2 1.907349E-06
v -16 1.907349E-06 -32
v -16 2.000002 -32
vn 0 -5.960464E-08 0.9999999
vn 0 -0.9999999 -5.960464E-08
vn 1 0 0
vn 0 5.960464E-08 -0.9999999
vn 0 0.9999999 5.960464E-08
vn -1 0 0
vt 0.484375 0.0078125
vt 0.734375 0.0078125
vt 0.484375 0.0390625
vt 0.734375 0.0390625
vt 0.0078125 0.0078125
vt 0.2578125 0.0078125
vt 0.0078125 0.5078125
vt 0.2578125 0.5078125
vt 0.359375 0.0078125
vt 0.390625 0.0078125
vt 0.359375 0.5078125
vt 0.390625 0.5078125
vt 0.484375 0.0703125
vt 0.734375 0.0703125
vt 0.484375 0.1015625
vt 0.734375 0.1015625
vt 0.2890625 0.0078125
vt 0.328125 0.0078125
vt 0.2890625 0.5078125
vt 0.328125 0.5078125
vt 0.6953125 0.3125
vt 0.2421875 0.71875
vt 0.25 0.71875
vt 0.2421875 0.90625
vt 0.25 0.90625
vt 0.5625 0.40625
vt 0.2265625 0.5859375
vt 0.2578125 0.5859375
vt 0.2265625 0.59375
vt 0.2578125 0.59375
vt 0.2890625 0.5390625
vt 0.3203125 0.5390625
vt 0.2890625 0.8359375
vt 0.3203125 0.8359375
vt 0.359375 0.8046875
vt 0.3671875 0.8046875
vt 0.359375 0.9765625
vt 0.3671875 0.9765625
vt 0.328125 0.9765625
vt 0.6875 0.171875
vt 0.6953125 0.171875
vt 0.6875 0.1875
vt 0.6953125 0.1875
vt 0.328125 0.9453125
vt 0.5625 0.171875
vt 0.5703125 0.171875
vt 0.5625 0.328125
vt 0.5703125 0.328125
vt 0.6015625 0.3515625
vt 0.625 0.3515625
vt 0.6015625 0.359375
vt 0.625 0.359375
vt 0.2265625 0.625
vt 0.2578125 0.625
vt 0.2265625 0.6328125
vt 0.2578125 0.6328125
vt 0.0078125 0.5390625
vt 0.1953125 0.5390625
vt 0.0078125 0.6875
vt 0.1953125 0.6875
vt 0.421875 0.5390625
vt 0.4296875 0.5390625
vt 0.421875 0.828125
vt 0.4296875 0.828125
vt 0.5625 0.359375
vt 0.5703125 0.359375
vt 0.5625 0.375
vt 0.5703125 0.375
vt 0.765625 0.296875
vt 0.7734375 0.296875
vt 0.765625 0.3125
vt 0.7734375 0.3125
vt 0.5234375 0.1328125
vt 0.6953125 0.1328125
vt 0.5234375 0.140625
vt 0.6953125 0.140625
vt 0.484375 0.1328125
vt 0.4921875 0.1328125
vt 0.484375 0.4140625
vt 0.4921875 0.4140625
vt 0.765625 0.0078125
vt 0.9296875 0.0078125
vt 0.765625 0.0390625
vt 0.9296875 0.0390625
vt 0.5234375 0.3671875
vt 0.53125 0.3671875
vt 0.5234375 0.390625
vt 0.53125 0.390625
vt 0.9375 0.171875
vt 0.7265625 0.34375
vt 0.734375 0.34375
vt 0.7265625 0.359375
vt 0.734375 0.359375
vt 0.90625 0.171875
vt 0.1328125 0.71875
vt 0.15625 0.71875
vt 0.1328125 0.9609375
vt 0.15625 0.9609375
vt 0.765625 0.0703125
vt 0.921875 0.0703125
vt 0.765625 0.0859375
vt 0.921875 0.0859375
vt 0.2890625 0.90625
vt 0.328125 0.90625
vt 0.2890625 0.9140625
vt 0.328125 0.9140625
vt 0.7265625 0.1328125
vt 0.8828125 0.1328125
vt 0.7265625 0.140625
vt 0.8828125 0.140625
vt 0.9609375 0.0078125
vt 0.9765625 0.0078125
vt 0.9609375 0.0234375
vt 0.9765625 0.0234375
vt 0.7265625 0.2109375
vt 0.875 0.2109375
vt 0.7265625 0.21875
vt 0.875 0.21875
vt 0.7265625 0.171875
vt 0.875 0.171875
vt 0.7265625 0.1796875
vt 0.875 0.1796875
vt 0.2890625 0.8671875
vt 0.328125 0.8671875
vt 0.2890625 0.875
vt 0.328125 0.875
vt 0.7265625 0.390625
vt 0.734375 0.390625
vt 0.7265625 0.40625
vt 0.734375 0.40625
vt 0.6015625 0.390625
vt 0.625 0.390625
vt 0.6015625 0.3984375
vt 0.625 0.3984375
vt 0.359375 0.5390625
vt 0.375 0.5390625
vt 0.359375 0.7734375
vt 0.375 0.7734375
vt 0.2265625 0.5390625
vt 0.25 0.5390625
vt 0.2265625 0.5546875
vt 0.25 0.5546875
vt 0.2265625 0.6640625
vt 0.2421875 0.6640625
vt 0.2265625 0.6796875
vt 0.2421875 0.6796875
vt 0.1015625 0.953125
vt 0.1875 0.71875
vt 0.2109375 0.71875
vt 0.1875 0.9296875
vt 0.2109375 0.9296875
vt 0.953125 0.0703125
vt 0.9609375 0.0703125
vt 0.953125 0.09375
vt 0.9609375 0.09375
vt 0.859375 0.25
vt 0.96875 0.25
vt 0.859375 0.2578125
vt 0.96875 0.2578125
vt 0.65625 0.3515625
vt 0.671875 0.3515625
vt 0.65625 0.359375
vt 0.671875 0.359375
vt 0.65625 0.390625
vt 0.671875 0.390625
vt 0.65625 0.3984375
vt 0.671875 0.3984375
vt 0.7265625 0.25
vt 0.828125 0.25
vt 0.7265625 0.265625
vt 0.828125 0.265625
vt 0.5234375 0.171875
vt 0.53125 0.171875
vt 0.5234375 0.3359375
vt 0.53125 0.3359375
vt 0.0078125 0.90625
vt 0.1015625 0.90625
vt 0.0078125 0.921875
vt 0.1015625 0.921875
vt 0.7265625 0.296875
vt 0.734375 0.296875
vt 0.7265625 0.3125
vt 0.734375 0.3125
vt 0.0078125 0.71875
vt 0.1015625 0.71875
vt 0.0078125 0.875
vt 0.1015625 0.875
vt 0.9140625 0.1328125
vt 0.9296875 0.1328125
vt 0.9140625 0.140625
vt 0.9296875 0.140625
vt 0.6015625 0.234375
vt 0.6875 0.234375
vt 0.6015625 0.2421875
vt 0.6875 0.2421875
vt 0.6015625 0.2734375
vt 0.6875 0.2734375
vt 0.6015625 0.28125
vt 0.6875 0.28125
vt 0.9609375 0.1328125
vt 0.9765625 0.1328125
vt 0.9609375 0.140625
vt 0.9765625 0.140625
vt 0.2890625 0.9453125
vt 0.296875 0.9453125
vt 0.2890625 0.9765625
vt 0.296875 0.9765625
vt 0.421875 0.859375
vt 0.4296875 0.859375
vt 0.421875 0.890625
vt 0.4296875 0.890625
vt 0.1875 0.9609375
vt 0.2578125 0.9609375
vt 0.1875 0.96875
vt 0.2578125 0.96875
vt 0.0078125 0.953125
vt 0.0703125 0.953125
vt 0.0078125 0.96875
vt 0.0703125 0.96875
vt 0.6015625 0.3125
vt 0.6640625 0.3125
vt 0.6015625 0.3203125
vt 0.6640625 0.3203125
vt 0.6015625 0.171875
vt 0.65625 0.171875
vt 0.6015625 0.203125
vt 0.65625 0.203125
vt 0.421875 0.921875
vt 0.4296875 0.921875
vt 0.421875 0.953125
vt 0.4296875 0.953125
vt 0.421875 0.0078125
vt 0.453125 0.0078125
vt 0.421875 0.5078125
vt 0.453125 0.5078125
usemtl voxel
f 2/2/1 1/1/1 3/3/1
f 2/2/1 3/3/1 4/4/1
f 5/5/2 6/6/2 7/7/2
f 7/7/2 6/6/2 8/8/2
f 10/10/3 9/9/3 11/11/3
f 10/10/3 11/11/3 12/12/3
f 13/13/4 14/14/4 15/15/4
f 15/15/4 14/14/4 16/16/4
f 18/18/5 17/17/5 19/19/5
f 18/18/5 19/19/5 20/20/5
f 21/21/6 22/21/6 23/21/6
f 23/21/6 22/21/6 24/21/6
f 26/21/5 25/21/5 27/21/5
f 26/21/5 27/21/5 28/21/5
f 30/23/5 29/22/5 31/24/5
f 30/23/5 31/24/5 32/25/5
f 33/26/6 34/26/6 35/26/6
f 35/26/6 34/26/6 36/26/6
f 37/21/4 38/21/4 39/21/4
f 39/21/4 38/21/4 40/21/4
f 42/28/1 41/27/1 43/29/1
f 42/28/1 43/29/1 44/30/1
f 46/32/5 45/31/5 47/33/5
f 46/32/5 47/33/5 48/34/5
f 50/21/5 49/21/5 51/21/5
f 50/21/5 51/21/5 52/21/5
f 54/21/5 53/21/5 55/21/5
f 54/21/5 55/21/5 56/21/5
f 58/36/5 57/35/5 59/37/5
f 58/36/5 59/37/5 60/38/5
f 61/39/6 62/39/6 63/39/6
f 63/39/6 62/39/6 64/39/6
f 65/21/4 66/21/4 67/21/4
f 67/21/4 66/21/4 68/21/4
f 70/21/1 69/21/1 71/21/1
f 70/21/1 71/21/1 72/21/1
f 74/21/5 73/21/5 75/21/5
f 74/21/5 75/21/5 76/21/5
f 77/21/6 78/21/6 79/21/6
f 79/21/6 78/21/6 80/21/6
f 81/21/4 82/21/4 83/21/4
f 83/21/4 82/21/4 84/21/4
f 86/21/3 85/21/3 87/21/3
f 86/21/3 87/21/3 88/21/3
f 90/21/5 89/21/5 91/21/5
f 90/21/5 91/21/5 92/21/5
f 93/40/6 94/41/6 95/42/6
f 95/42/6 94/41/6 96/43/6
f 98/44/5 97/44/5 99/44/5
f 98/44/5 99/44/5 100/44/5
f 102/46/5 101/45/5 103/47/5
f 102/46/5 103/47/5 104/48/5
f 105/21/4 106/21/4 107/21/4
f 107/21/4 106/21/4 108/21/4
f 109/21/6 110/21/6 111/21/6
f 111/21/6 110/21/6 112/21/6
f 114/21/1 113/21/1 115/21/1
f 114/21/1 115/21/1 116/21/1
f 118/21/5 117/21/5 119/21/5
f 118/21/5 119/21/5 120/21/5
f 121/21/6 122/21/6 123/21/6
f 123/21/6 122/21/6 124/21/6
f 126/21/1 125/21/1 127/21/1
f 126/21/1 127/21/1 128/21/1
f 130/21/5 129/21/5 131/21/5
f 130/21/5 131/21/5 132/21/5
f 133/21/6 134/21/6 135/21/6
f 135/21/6 134/21/6 136/21/6
f 138/44/5 137/44/5 139/44/5
f 138/44/5 139/44/5 140/44/5
f 142/21/5 141/21/5 143/21/5
f 142/21/5 143/21/5 144/21/5
f 145/44/4 146/44/4 147/44/4
f 147/44/4 146/44/4 148/44/4
f 150/44/5 149/44/5 151/44/5
f 150/44/5 151/44/5 152/44/5
f 153/44/6 154/44/6 155/44/6
f 155/44/6 154/44/6 156/44/6
f 158/50/1 157/49/1 159/51/1
f 158/50/1 159/51/1 160/52/1
f 162/54/5 161/53/5 163/55/5
f 162/54/5 163/55/5 164/56/5
f 166/58/5 165/57/5 167/59/5
f 166/58/5 167/59/5 168/60/5
f 169/21/4 170/21/4 171/21/4
f 171/21/4 170/21/4 172/21/4
f 173/21/6 174/21/6 175/21/6
f 175/21/6 174/21/6 176/21/6
f 178/44/5 177/44/5 179/44/5
f 178/44/5 179/44/5 180/44/5
f 181/21/4 182/21/4 183/21/4
f 183/21/4 182/21/4 184/21/4
f 186/21/5 185/21/5 187/21/5
f 186/21/5 187/21/5 188/21/5
f 190/21/1 189/21/1 191/21/1
f 190/21/1 191/21/1 192/21/1
f 194/62/5 193/61/5 195/63/5
f 194/62/5 195/63/5 196/64/5
f 197/21/6 198/21/6 199/21/6
f 199/21/6 198/21/6 200/21/6
f 202/44/5 201/44/5 203/44/5
f 202/44/5 203/44/5 204/44/5
f 206/66/5 205/65/5 207/67/5
f 206/66/5 207/67/5 208/68/5
f 210/70/3 209/69/3 211/71/3
f 210/70/3 211/71/3 212/72/3
f 213/44/4 214/44/4 215/44/4
f 215/44/4 214/44/4 216/44/4
f 218/21/5 217/21/5 219/21/5
f 218/21/5 219/21/5 220/21/5
f 221/21/4 222/21/4 223/21/4
f 223/21/4 222/21/4 224/21/4
f 226/74/5 225/73/5 227/75/5
f 226/74/5 227/75/5 228/76/5
f 230/21/3 229/21/3 231/21/3
f 230/21/3 231/21/3 232/21/3
f 233/21/4 234/21/4 235/21/4
f 235/21/4 234/21/4 236/21/4
f 238/21/1 237/21/1 239/21/1
f 238/21/1 239/21/1 240/21/1
f 242/21/5 241/21/5 243/21/5
f 242/21/5 243/21/5 244/21/5
f 246/21/3 245/21/3 247/21/3
f 246/21/3 247/21/3 248/21/3
f 249/21/6 250/21/6 251/21/6
f 251/21/6 250/21/6 252/21/6
f 254/21/1 253/21/1 255/21/1
f 254/21/1 255/21/1 256/21/1
f 258/78/5 257/77/5 259/79/5
f 258/78/5 259/79/5 260/80/5
f 261/21/6 262/21/6 263/21/6
f 263/21/6 262/21/6 264/21/6
f 265/21/6 266/21/6 267/21/6
f 267/21/6 266/21/6 268/21/6
f 270/21/3 269/21/3 271/21/3
f 270/21/3 271/21/3 272/21/3
f 274/21/5 273/21/5 275/21/5
f 274/21/5 275/21/5 276/21/5
f 278/21/5 277/21/5 279/21/5
f 278/21/5 279/21/5 280/21/5
f 282/21/5 281/21/5 283/21/5
f 282/21/5 283/21/5 284/21/5
f 286/82/5 285/81/5 287/83/5
f 286/82/5 287/83/5 288/84/5
f 290/86/3 289/85/3 291/87/3
f 290/86/3 291/87/3 292/88/3
f 293/21/4 294/21/4 295/21/4
f 295/21/4 294/21/4 296/21/4
f 298/21/1 297/21/1 299/21/1
f 298/21/1 299/21/1 300/21/1
f 302/21/5 301/21/5 303/21/5
f 302/21/5 303/21/5 304/21/5
f 306/21/3 305/21/3 307/21/3
f 306/21/3 307/21/3 308/21/3
f 309/21/6 310/21/6 311/21/6
f 311/21/6 310/21/6 312/21/6
f 313/21/4 314/21/4 315/21/4
f 315/21/4 314/21/4 316/21/4
f 318/89/1 317/89/1 319/89/1
f 318/89/1 319/89/1 320/89/1
f 322/91/5 321/90/5 323/92/5
f 322/91/5 323/92/5 324/93/5
f 325/89/6 326/89/6 327/89/6
f 327/89/6 326/89/6 328/89/6
f 329/94/4 330/94/4 331/94/4
f 331/94/4 330/94/4 332/94/4
f 334/21/1 333/21/1 335/21/1
f 334/21/1 335/21/1 336/21/1
f 338/96/5 337/95/5 339/97/5
f 338/96/5 339/97/5 340/98/5
f 342/21/5 341/21/5 343/21/5
f 342/21/5 343/21/5 344/21/5
f 346/21/5 345/21/5 347/21/5
f 346/21/5 347/21/5 348/21/5
f 350/21/5 349/21/5 351/21/5
f 350/21/5 351/21/5 352/21/5
f 354/100/5 353/99/5 355/101/5
f 354/100/5 355/101/5 356/102/5
f 358/21/3 357/21/3 359/21/3
f 358/21/3 359/21/3 360/21/3
f 361/21/4 362/21/4 363/21/4
f 363/21/4 362/21/4 364/21/4
f 366/21/1 365/21/1 367/21/1
f 366/21/1 367/21/1 368/21/1
f 370/104/5 369/103/5 371/105/5
f 370/104/5 371/105/5 372/106/5
f 373/21/4 374/21/4 375/21/4
f 375/21/4 374/21/4 376/21/4
f 378/21/1 377/21/1 379/21/1
f 378/21/1 379/21/1 380/21/1
f 382/108/5 381/107/5 383/109/5
f 382/108/5 383/109/5 384/110/5
f 386/21/3 385/21/3 387/21/3
f 386/21/3 387/21/3 388/21/3
f 390/21/1 389/21/1 391/21/1
f 390/21/1 391/21/1 392/21/1
f 394/112/5 393/111/5 395/113/5
f 394/112/5 395/113/5 396/114/5
f 398/89/3 397/89/3 399/89/3
f 398/89/3 399/89/3 400/89/3
f 402/116/5 401/115/5 403/117/5
f 402/116/5 403/117/5 404/118/5
f 406/21/3 405/21/3 407/21/3
f 406/21/3 407/21/3 408/21/3
f 410/120/5 409/119/5 411/121/5
f 410/120/5 411/121/5 412/122/5
f 414/21/3 413/21/3 415/21/3
f 414/21/3 415/21/3 416/21/3
f 418/124/5 417/123/5 419/125/5
f 418/124/5 419/125/5 420/126/5
f 422/21/3 421/21/3 423/21/3
f 422/21/3 423/21/3 424/21/3
f 425/127/6 426/128/6 427/129/6
f 427/129/6 426/128/6 428/130/6
f 430/21/5 429/21/5 431/21/5
f 430/21/5 431/21/5 432/21/5
f 433/21/4 434/21/4 435/21/4
f 435/21/4 434/21/4 436/21/4
f 438/132/5 437/131/5 439/133/5
f 438/132/5 439/133/5 440/134/5
f 442/21/1 441/21/1 443/21/1
f 442/21/1 443/21/1 444/21/1
f 446/136/5 445/135/5 447/137/5
f 446/136/5 447/137/5 448/138/5
f 450/140/5 449/139/5 451/141/5
f 450/140/5 451/141/5 452/142/5
f 454/21/3 453/21/3 455/21/3
f 454/21/3 455/21/3 456/21/3
f 457/26/6 458/26/6 459/26/6
f 459/26/6 458/26/6 460/26/6
f 462/21/5 461/21/5 463/21/5
f 462/21/5 463/21/5 464/21/5
f 465/39/6 466/39/6 467/39/6
f 467/39/6 466/39/6 468/39/6
f 469/21/6 470/21/6 471/21/6
f 471/21/6 470/21/6 472/21/6
f 474/144/5 473/143/5 475/145/5
f 474/144/5 475/145/5 476/146/5
f 477/147/4 478/147/4 479/147/4
f 479/147/4 478/147/4 480/147/4
f 482/89/1 481/89/1 483/89/1
f 482/89/1 483/89/1 484/89/1
f 486/149/5 485/148/5 487/150/5
f 486/149/5 487/150/5 488/151/5
f 490/21/5 489/21/5 491/21/5
f 490/21/5 491/21/5 492/21/5
f 494/21/5 493/21/5 495/21/5
f 494/21/5 495/21/5 496/21/5
f 497/21/6 498/21/6 499/21/6
f 499/21/6 498/21/6 500/21/6
f 501/21/4 502/21/4 503/21/4
f 503/21/4 502/21/4 504/21/4
f 506/21/1 505/21/1 507/21/1
f 506/21/1 507/21/1 508/21/1
f 509/21/4 510/21/4 511/21/4
f 511/21/4 510/21/4 512/21/4
f 513/21/6 514/21/6 515/21/6
f 515/21/6 514/21/6 516/21/6
f 518/21/1 517/21/1 519/21/1
f 518/21/1 519/21/1 520/21/1
f 521/21/6 522/21/6 523/21/6
f 523/21/6 522/21/6 524/21/6
f 525/21/6 526/21/6 527/21/6
f 527/21/6 526/21/6 528/21/6
f 530/21/5 529/21/5 531/21/5
f 530/21/5 531/21/5 532/21/5
f 534/21/3 533/21/3 535/21/3
f 534/21/3 535/21/3 536/21/3
f 538/44/5 537/44/5 539/44/5
f 538/44/5 539/44/5 540/44/5
f 541/21/4 542/21/4 543/21/4
f 543/21/4 542/21/4 544/21/4
f 546/21/5 545/21/5 547/21/5
f 546/21/5 547/21/5 548/21/5
f 550/21/1 549/21/1 551/21/1
f 550/21/1 551/21/1 552/21/1
f 554/21/5 553/21/5 555/21/5
f 554/21/5 555/21/5 556/21/5
f 557/152/6 558/153/6 559/154/6
f 559/154/6 558/153/6 560/155/6
f 562/21/5 561/21/5 563/21/5
f 562/21/5 563/21/5 564/21/5
f 566/157/5 565/156/5 567/158/5
f 566/157/5 567/158/5 568/159/5
f 570/21/3 569/21/3 571/21/3
f 570/21/3 571/21/3 572/21/3
f 573/21/4 574/21/4 575/21/4
f 575/21/4 574/21/4 576/21/4
f 577/21/4 578/21/4 579/21/4
f 579/21/4 578/21/4 580/21/4
f 582/21/1 581/21/1 583/21/1
f 582/21/1 583/21/1 584/21/1
f 586/21/5 585/21/5 587/21/5
f 586/21/5 587/21/5 588/21/5
f 589/21/6 590/21/6 591/21/6
f 591/21/6 590/21/6 592/21/6
f 594/21/1 593/21/1 595/21/1
f 594/21/1 595/21/1 596/21/1
f 597/21/6 598/21/6 599/21/6
f 599/21/6 598/21/6 600/21/6
f 601/21/6 602/21/6 603/21/6
f 603/21/6 602/21/6 604/21/6
f 605/94/6 606/94/6 607/94/6
f 607/94/6 606/94/6 608/94/6
f 610/44/5 609/44/5 611/44/5
f 610/44/5 611/44/5 612/44/5
f 614/161/3 613/160/3 615/162/3
f 614/161/3 615/162/3 616/163/3
f 617/21/4 618/21/4 619/21/4
f 619/21/4 618/21/4 620/21/4
f 622/21/1 621/21/1 623/21/1
f 622/21/1 623/21/1 624/21/1
f 626/21/5 625/21/5 627/21/5
f 626/21/5 627/21/5 628/21/5
f 629/21/6 630/21/6 631/21/6
f 631/21/6 630/21/6 632/21/6
f 633/164/6 634/165/6 635/166/6
f 635/166/6 634/165/6 636/167/6
f 638/21/5 637/21/5 639/21/5
f 638/21/5 639/21/5 640/21/5
f 642/21/5 641/21/5 643/21/5
f 642/21/5 643/21/5 644/21/5
f 646/169/5 645/168/5 647/170/5
f 646/169/5 647/170/5 648/171/5
f 650/21/3 649/21/3 651/21/3
f 650/21/3 651/21/3 652/21/3
f 653/21/4 654/21/4 655/21/4
f 655/21/4 654/21/4 656/21/4
f 658/21/1 657/21/1 659/21/1
f 658/21/1 659/21/1 660/21/1
f 662/21/5 661/21/5 663/21/5
f 662/21/5 663/21/5 664/21/5
f 665/21/6 666/21/6 667/21/6
f 667/21/6 666/21/6 668/21/6
f 669/21/4 670/21/4 671/21/4
f 671/21/4 670/21/4 672/21/4
f 673/21/4 674/21/4 675/21/4
f 675/21/4 674/21/4 676/21/4
f 678/21/1 677/21/1 679/21/1
f 678/21/1 679/21/1 680/21/1
f 682/21/5 681/21/5 683/21/5
f 682/21/5 683/21/5 684/21/5
f 685/21/6 686/21/6 687/21/6
f 687/21/6 686/21/6 688/21/6
f 690/21/1 689/21/1 691/21/1
f 690/21/1 691/21/1 692/21/1
f 694/173/5 693/172/5 695/174/5
f 694/173/5 695/174/5 696/175/5
f 697/21/6 698/21/6 699/21/6
f 699/21/6 698/21/6 700/21/6
f 702/44/5 701/44/5 703/44/5
f 702/44/5 703/44/5 704/44/5
f 705/44/6 706/44/6 707/44/6
f 707/44/6 706/44/6 708/44/6
f 710/44/5 709/44/5 711/44/5
f 710/44/5 711/44/5 712/44/5
f 713/21/4 714/21/4 715/21/4
f 715/21/4 714/21/4 716/21/4
f 718/21/5 717/21/5 719/21/5
f 718/21/5 719/21/5 720/21/5
f 722/21/3 721/21/3 723/21/3
f 722/21/3 723/21/3 724/21/3
f 725/21/4 726/21/4 727/21/4
f 727/21/4 726/21/4 728/21/4
f 730/21/1 729/21/1 731/21/1
f 730/21/1 731/21/1 732/21/1
f 734/21/5 733/21/5 735/21/5
f 734/21/5 735/21/5 736/21/5
f 737/21/6 738/21/6 739/21/6
f 739/21/6 738/21/6 740/21/6
f 742/21/1 741/21/1 743/21/1
f 742/21/1 743/21/1 744/21/1
f 745/21/6 746/21/6 747/21/6
f 747/21/6 746/21/6 748/21/6
f 750/21/5 749/21/5 751/21/5
f 750/21/5 751/21/5 752/21/5
f 754/21/5 753/21/5 755/21/5
f 754/21/5 755/21/5 756/21/5
f 758/177/5 757/176/5 759/178/5
f 758/177/5 759/178/5 760/179/5
f 762/181/3 761/180/3 763/182/3
f 762/181/3 763/182/3 764/183/3
f 765/21/4 766/21/4 767/21/4
f 767/21/4 766/21/4 768/21/4
f 769/21/4 770/21/4 771/21/4
f 771/21/4 770/21/4 772/21/4
f 774/21/1 773/21/1 775/21/1
f 774/21/1 775/21/1 776/21/1
f 778/21/5 777/21/5 779/21/5
f 778/21/5 779/21/5 780/21/5
f 782/21/3 781/21/3 783/21/3
f 782/21/3 783/21/3 784/21/3
f 785/21/6 786/21/6 787/21/6
f 787/21/6 786/21/6 788/21/6
f 790/21/1 789/21/1 791/21/1
f 790/21/1 791/21/1 792/21/1
f 794/185/5 793/184/5 795/186/5
f 794/185/5 795/186/5 796/187/5
f 798/44/5 797/44/5 799/44/5
f 798/44/5 799/44/5 800/44/5
f 801/44/4 802/44/4 803/44/4
f 803/44/4 802/44/4 804/44/4
f 806/44/5 805/44/5 807/44/5
f 806/44/5 807/44/5 808/44/5
f 810/44/1 809/44/1 811/44/1
f 810/44/1 811/44/1 812/44/1
f 814/44/5 813/44/5 815/44/5
f 814/44/5 815/44/5 816/44/5
f 818/44/5 817/44/5 819/44/5
f 818/44/5 819/44/5 820/44/5
f 821/21/4 822/21/4 823/21/4
f 823/21/4 822/21/4 824/21/4
f 826/21/5 825/21/5 827/21/5
f 826/21/5 827/21/5 828/21/5
f 830/21/3 829/21/3 831/21/3
f 830/21/3 831/21/3 832/21/3
f 834/21/1 833/21/1 835/21/1
f 834/21/1 835/21/1 836/21/1
f 838/21/5 837/21/5 839/21/5
f 838/21/5 839/21/5 840/21/5
f 841/188/4 842/189/4 843/190/4
f 843/190/4 842/189/4 844/191/4
f 846/193/5 845/192/5 847/194/5
f 846/193/5 847/194/5 848/195/5
f 850/21/3 849/21/3 851/21/3
f 850/21/3 851/21/3 852/21/3
f 854/21/1 853/21/1 855/21/1
f 854/21/1 855/21/1 856/21/1
f 858/197/5 857/196/5 859/198/5
f 858/197/5 859/198/5 860/199/5
f 862/21/3 861/21/3 863/21/3
f 862/21/3 863/21/3 864/21/3
f 866/44/5 865/44/5 867/44/5
f 866/44/5 867/44/5 868/44/5
f 870/44/3 869/44/3 871/44/3
f 870/44/3 871/44/3 872/44/3
f 873/44/4 874/44/4 875/44/4
f 875/44/4 874/44/4 876/44/4
f 878/201/5 877/200/5 879/202/5
f 878/201/5 879/202/5 880/203/5
f 882/44/3 881/44/3 883/44/3
f 882/44/3 883/44/3 884/44/3
f 886/21/1 885/21/1 887/21/1
f 886/21/1 887/21/1 888/21/1
f 890/21/5 889/21/5 891/21/5
f 890/21/5 891/21/5 892/21/5
f 894/21/3 893/21/3 895/21/3
f 894/21/3 895/21/3 896/21/3
f 897/21/6 898/21/6 899/21/6
f 899/21/6 898/21/6 900/21/6
f 902/205/5 901/204/5 903/206/5
f 902/205/5 903/206/5 904/207/5
f 906/209/3 905/208/3 907/210/3
f 906/209/3 907/210/3 908/211/3
f 910/21/5 909/21/5 911/21/5
f 910/21/5 911/21/5 912/21/5
f 913/21/4 914/21/4 915/21/4
f 915/21/4 914/21/4 916/21/4
f 918/213/5 917/212/5 919/214/5
f 918/213/5 919/214/5 920/215/5
f 922/21/3 921/21/3 923/21/3
f 922/21/3 923/21/3 924/21/3
f 926/21/1 925/21/1 927/21/1
f 926/21/1 927/21/1 928/21/1
f 930/21/5 929/21/5 931/21/5
f 930/21/5 931/21/5 932/21/5
f 934/217/5 933/216/5 935/218/5
f 934/217/5 935/218/5 936/219/5
f 938/21/3 937/21/3 939/21/3
f 938/21/3 939/21/3 940/21/3
f 941/21/4 942/21/4 943/21/4
f 943/21/4 942/21/4 944/21/4
f 946/21/1 945/21/1 947/21/1
f 946/21/1 947/21/1 948/21/1
f 950/221/5 949/220/5 951/222/5
f 950/221/5 951/222/5 952/223/5
f 954/21/3 953/21/3 955/21/3
f 954/21/3 955/21/3 956/21/3
f 958/225/5 957/224/5 959/226/5
f 958/225/5 959/226/5 960/227/5
f 962/229/3 961/228/3 963/230/3
f 962/229/3 963/230/3 964/231/3
f 965/232/6 966/233/6 967/234/6
f 967/234/6 966/233/6 968/235/6
