# Export of Cubik Model: Cubik Model
# Designed by MeLee with Cubik Studio - https://cubik.studio
# from Cubik OBJ Exporter v1.0
mtllib street_32_2b_M.mtl
v 0 0 1.907349E-06
v -16 0 1.907349E-06
v 0 2 1.907349E-06
v -16 2 1.907349E-06
v 0 0 1.907349E-06
v -16 0 1.907349E-06
v 0 1.907349E-06 -32
v -16 1.907349E-06 -32
v 0 0 1.907349E-06
v 0 2 1.907349E-06
v 0 1.907349E-06 -32
v 0 2.000002 -32
v 0 1.907349E-06 -32
v -16 1.907349E-06 -32
v 0 2.000002 -32
v -16 2.000002 -32
v 0 2 1.907349E-06
v -1 2 1.907349E-06
v 0 2.000002 -32
v -1 2.000002 -32
v -1 1.5 -8.499998
v -1 2 -8.499998
v -1 1.5 -9.999998
v -1 2 -9.999998
v -1 1.5 -10.5
v -1 2 -10.5
v -1 1.5 -11
v -1 2 -11
v -1 1.5 -11.5
v -1 2 -11.5
v -1 1.5 -13.5
v -1 2 -13.5
v -1 1.5 -14
v -1 2 -14
v -1 1.5 -15.5
v -1 2 -15.5
v -1 1.5 -8.499998
v -1.5 1.5 -8.499998
v -1 1.5 -9.999998
v -1.5 1.5 -9.999998
v -1.5 1 -9.499998
v -1.5 1.5 -9.499998
v -1.5 1 -9.999998
v -1.5 1.5 -9.999998
v -1 1.5 -10.5
v -2 1.5 -10.5
v -1 1.5 -11
v -2 1.5 -11
v -1.5 1 -11
v -1.5 2 -11
v -1.5 1 -11.5
v -1.5 2 -11.5
v -1 1.5 -11.5
v -1.5 1.5 -11.5
v -1 1.5 -13.5
v -1.5 1.5 -13.5
v -1.5 1 -13
v -1.5 1.5 -13
v -1.5 1 -14
v -1.5 1.5 -14
v -1 1.5 -14
v -2 1.5 -14
v -1 1.5 -15.5
v -2 1.5 -15.5
v -1 2 1.907349E-06
v -1.5 2 1.907349E-06
v -1 2 -8.499998
v -1.5 2 -8.499998
v -1.5 1.5 -6.999998
v -1.5 2 -6.999998
v -1.5 1.5 -8.499998
v -1.5 2 -8.499998
v -1 1.5 -8.499998
v -1.5 1.5 -8.499998
v -1 2 -8.499998
v -1.5 2 -8.499998
v -1 1.5 -10.5
v -1.5 1.5 -10.5
v -1 2 -10.5
v -1.5 2 -10.5
v -1 1.5 -9.999998
v -1.5 1.5 -9.999998
v -1 2 -9.999998
v -1.5 2 -9.999998
v -1 2 -9.999998
v -1.5 2 -9.999998
v -1 2 -10.5
v -1.5 2 -10.5
v -1.5 1.5 -9.999998
v -1.5 2 -9.999998
v -1.5 1.5 -10.5
v -1.5 2 -10.5
v -1 1.5 -11.5
v -1.5 1.5 -11.5
v -1 2 -11.5
v -1.5 2 -11.5
v -1 1.5 -11
v -1.5 1.5 -11
v -1 2 -11
v -1.5 2 -11
v -1 2 -11
v -1.5 2 -11
v -1 2 -11.5
v -1.5 2 -11.5
v -1 1.5 -14
v -1.5 1.5 -14
v -1 2 -14
v -1.5 2 -14
v -1 1.5 -13.5
v -1.5 1.5 -13.5
v -1 2 -13.5
v -1.5 2 -13.5
v -1 2 -13.5
v -1.5 2 -13.5
v -1 2 -14
v -1.5 2 -14
v -1.5 1.5 -13.5
v -1.5 2 -13.5
v -1.5 1.5 -14
v -1.5 2 -14
v -1 1.5 -15.5
v -1.5 1.5 -15.5
v -1 2 -15.5
v -1.5 2 -15.5
v -1 2 -15.5
v -1.5 2 -15.5
v -1 2.000002 -32
v -1.5 2.000002 -32
v -1.5 1.5 -15.5
v -1.5 2 -15.5
v -1.5 1.5 -17.5
v -1.5 2 -17.5
v -1.5 1.500002 -18
v -1.5 2 -18
v -1.5 1.500002 -18.5
v -1.5 2.000002 -18.5
v -1.5 1.500002 -19
v -1.5 2.000002 -19
v -1.5 1.500002 -22.5
v -1.5 2.000002 -22.5
v -1.5 1.500002 -23
v -1.5 2.000002 -23
v -1.5 1.500002 -24.5
v -1.5 2.000002 -24.5
v -1.5 1 -9.499998
v -2 1 -9.499998
v -1.5 1 -9.999998
v -2 1 -9.999998
v -1.5 1 -11
v -2.5 1 -11
v -1.5 1 -11.5
v -2.5 1 -11.5
v -1.5 1 -13
v -2.5 1 -13
v -1.5 1 -14
v -2.5 1 -14
v -1.5 1.5 -6.999998
v -2 1.5 -6.999998
v -1.5 1.5 -9.499998
v -2 1.5 -9.499998
v -1.5 1 -9.499998
v -2 1 -9.499998
v -1.5 1.5 -9.499998
v -2 1.5 -9.499998
v -1.5 1 -9.999998
v -2 1 -9.999998
v -1.5 1.5 -9.999998
v -2 1.5 -9.999998
v -1.5 1.5 -9.999998
v -2 1.5 -9.999998
v -1.5 1.5 -10.5
v -2 1.5 -10.5
v -2 1 -9.999998
v -2 1.5 -9.999998
v -2 1 -11
v -2 1.5 -11
v -1.5 1 -11
v -2 1 -11
v -1.5 1.5 -11
v -2 1.5 -11
v -1.5 1 -11.5
v -2.5 1 -11.5
v -1.5 1.5 -11.5
v -2.5 1.5 -11.5
v -1.5 1.5 -11.5
v -3 1.5 -11.5
v -1.5 1.5 -13
v -3 1.5 -13
v -1.5 1 -13
v -2.5 1 -13
v -1.5 1.5 -13
v -2.5 1.5 -13
v -1.5 1 -14
v -2.5 1 -14
v -1.5 1.5 -14
v -2.5 1.5 -14
v -2 1 -14.5
v -2 1.5 -14.5
v -2 1 -16.5
v -2 1.5 -16.5
v -1.5 1.5 -15.5
v -2 1.5 -15.5
v -1.5 1.5 -17.5
v -2 1.5 -17.5
v -2 1 -17
v -2 1.5 -17
v -2 1.000002 -17.5
v -2 1.5 -17.5
v -1.5 1.500002 -18
v -3 1.500002 -18
v -1.5 1.500002 -18.5
v -3 1.500002 -18.5
v -1.5 1.500002 -19
v -2 1.500002 -19
v -1.5 1.500002 -22.5
v -2 1.500002 -22.5
v -1.5 1.500002 -23
v -2 1.500002 -23
v -1.5 1.500002 -24.5
v -2 1.500002 -24.5
v -1.5 2 1.907349E-06
v -2 2 1.907349E-06
v -1.5 2 -6.999998
v -2 2 -6.999998
v -1.5 1.5 -6.999998
v -2 1.5 -6.999998
v -1.5 2 -6.999998
v -2 2 -6.999998
v -2 1.5 -6.499998
v -2 2 -6.499998
v -2 1.5 -6.999998
v -2 2 -6.999998
v -1.5 1.500002 -18
v -2 1.500002 -18
v -1.5 2 -18
v -2 2 -18
v -1.5 1.5 -17.5
v -2 1.5 -17.5
v -1.5 2 -17.5
v -2 2 -17.5
v -1.5 2 -17.5
v -2 2 -17.5
v -1.5 2 -18
v -2 2 -18
v -2 1.5 -17.5
v -2 2 -17.5
v -2 1.500002 -18
v -2 2 -18
v -1.5 1.500002 -19
v -2 1.500002 -19
v -1.5 2.000002 -19
v -2 2.000002 -19
v -1.5 1.500002 -18.5
v -3 1.500002 -18.5
v -1.5 2.000002 -18.5
v -3 2.000002 -18.5
v -1.5 2.000002 -18.5
v -3 2.000002 -18.5
v -1.5 2.000002 -19
v -3 2.000002 -19
v -1.5 1.500002 -23
v -2 1.500002 -23
v -1.5 2.000002 -23
v -2 2.000002 -23
v -1.5 1.500002 -22.5
v -2.5 1.500002 -22.5
v -1.5 2.000002 -22.5
v -2.5 2.000002 -22.5
v -1.5 2.000002 -22.5
v -16 2.000002 -22.5
v -1.5 2.000002 -23
v -16 2.000002 -23
v -1.5 1.500002 -24.5
v -2.5 1.500002 -24.5
v -1.5 2.000002 -24.5
v -2.5 2.000002 -24.5
v -1.5 2.000002 -24.5
v -2 2.000002 -24.5
v -1.5 2.000002 -32
v -2 2.000002 -32
v -2 1.500002 -25.5
v -2 2.000002 -25.5
v -2 1.500002 -26
v -2 2.000002 -26
v -2 1 -9.999998
v -2.5 1 -9.999998
v -2 1 -11
v -2.5 1 -11
v -2 1 -14.5
v -2.5 1 -14.5
v -2 1 -16.5
v -2.5 1 -16.5
v -2 1 -17
v -2.5 1 -17
v -2 1.000002 -17.5
v -2.5 1.000002 -17.5
v -2 1.5 -6.499998
v -2.5 1.5 -6.499998
v -2 1.5 -8.499998
v -2.5 1.5 -8.499998
v -2 1.5 -8.999998
v -3 1.5 -8.999998
v -2 1.5 -9.499998
v -3 1.5 -9.499998
v -2 1 -9.999998
v -2.5 1 -9.999998
v -2 2 -9.999998
v -2.5 2 -9.999998
v -2 1 -9.499998
v -2 2 -9.499998
v -2 1 -9.999998
v -2 2 -9.999998
v -2 1 -14.5
v -2.5 1 -14.5
v -2 1.5 -14.5
v -2.5 1.5 -14.5
v -2 1.5 -14
v -2.5 1.5 -14
v -2 1.5 -14.5
v -2.5 1.5 -14.5
v -2 1 -17
v -2.5 1 -17
v -2 1.5 -17
v -2.5 1.5 -17
v -2 1 -16.5
v -2.5 1 -16.5
v -2 1.5 -16.5
v -2.5 1.5 -16.5
v -2 1.5 -16.5
v -2.5 1.5 -16.5
v -2 1.5 -17
v -2.5 1.5 -17
v -2 1.000002 -17.5
v -2.5 1.000002 -17.5
v -2 1.5 -17.5
v -2.5 1.5 -17.5
v -2 1.5 -17.5
v -3 1.5 -17.5
v -2 1.500002 -18
v -3 1.500002 -18
v -2 1.500002 -22
v -2.5 1.500002 -22
v -2 1.500002 -22.5
v -2.5 1.500002 -22.5
v -2 1.500002 -24
v -2.5 1.500002 -24
v -2 1.500002 -24.5
v -2.5 1.500002 -24.5
v -2 1.500002 -25.5
v -2.5 1.500002 -25.5
v -2 1.500002 -26
v -2.5 1.500002 -26
v -2 2 1.907349E-06
v -16 2 1.907349E-06
v -2 2 -6.499998
v -16 2 -6.499998
v -2 1.5 -6.499998
v -2.5 1.5 -6.499998
v -2 2 -6.499998
v -2.5 2 -6.499998
v -2 1.5 -8.999998
v -2.5 1.5 -8.999998
v -2 2 -8.999998
v -2.5 2 -8.999998
v -2 1.5 -8.499998
v -2.5 1.5 -8.499998
v -2 2 -8.499998
v -2.5 2 -8.499998
v -2 2 -8.499998
v -2.5 2 -8.499998
v -2 2 -8.999998
v -2.5 2 -8.999998
v -2 1.5 -8.499998
v -2 2 -8.499998
v -2 1.5 -8.999998
v -2 2 -8.999998
v -2.5 1.5 -8.499998
v -2.5 2 -8.499998
v -2.5 1.5 -8.999998
v -2.5 2 -8.999998
v -2 1.5 -9.499998
v -2.5 1.5 -9.499998
v -2 2 -9.499998
v -2.5 2 -9.499998
v -2 2 -9.499998
v -2.5 2 -9.499998
v -2 2 -9.999998
v -2.5 2 -9.999998
v -2.5 1.5 -9.499998
v -2.5 2 -9.499998
v -2.5 1.5 -9.999998
v -2.5 2 -9.999998
v -2 2.000002 -19
v -2.5 2.000002 -19
v -2 2.000002 -22
v -2.5 2.000002 -22
v -2 1.500002 -19
v -2 2.000002 -19
v -2 1.500002 -22
v -2 2.000002 -22
v -2.5 1.500002 -20.5
v -2.5 2.000002 -20.5
v -2.5 1.500002 -21
v -2.5 2.000002 -21
v -2 1.500002 -22
v -2.5 1.500002 -22
v -2 2.000002 -22
v -2.5 2.000002 -22
v -2.5 1.500002 -21.5
v -2.5 2.000002 -21.5
v -2.5 1.500002 -22
v -2.5 2.000002 -22
v -2 2.000002 -23
v -16 2.000002 -23
v -2 2.000002 -24
v -16 2.000002 -24
v -2 1.500002 -23
v -2 2.000002 -23
v -2 1.500002 -24
v -2 2.000002 -24
v -2 1.500002 -24
v -2.5 1.500002 -24
v -2 2.000002 -24
v -2.5 2.000002 -24
v -2 2.000002 -24.5
v -16 2.000002 -24.5
v -2 2.000002 -25.5
v -16 2.000002 -25.5
v -2 1.500002 -25.5
v -2.5 1.500002 -25.5
v -2 2.000002 -25.5
v -2.5 2.000002 -25.5
v -2 1.500002 -26
v -2.5 1.500002 -26
v -2 2.000002 -26
v -2.5 2.000002 -26
v -2 2.000002 -26
v -16 2.000002 -26
v -2 2.000002 -32
v -16 2.000002 -32
v -2.5 1 -15
v -3 1 -15
v -2.5 1 -16
v -3 1 -16
v -2.5 1.5 -7.999998
v -3 1.5 -7.999998
v -2.5 1.5 -8.999998
v -3 1.5 -8.999998
v -2.5 1.5 -9.499998
v -3 1.5 -9.499998
v -2.5 1.5 -11.5
v -3 1.5 -11.5
v -2.5 1 -9.999998
v -2.5 1.5 -9.999998
v -2.5 1 -11.5
v -2.5 1.5 -11.5
v -3 1 -12
v -3 1.5 -12
v -3 1 -12.5
v -3 1.5 -12.5
v -2.5 1.5 -13
v -3 1.5 -13
v -2.5 1.5 -14
v -3 1.5 -14
v -2.5 1 -13
v -2.5 1.5 -13
v -2.5 1 -14
v -2.5 1.5 -14
v -2.5 1 -15
v -3 1 -15
v -2.5 1.5 -15
v -3 1.5 -15
v -2.5 1.5 -14.5
v -3 1.5 -14.5
v -2.5 1.5 -15
v -3 1.5 -15
v -2.5 1 -14.5
v -2.5 1.5 -14.5
v -2.5 1 -15
v -2.5 1.5 -15
v -2.5 1 -16
v -3 1 -16
v -2.5 1.5 -16
v -3 1.5 -16
v -2.5 1.5 -16
v -3 1.5 -16
v -2.5 1.5 -16.5
v -3 1.5 -16.5
v -2.5 1 -16
v -2.5 1.5 -16
v -2.5 1 -16.5
v -2.5 1.5 -16.5
v -3 1 -16
v -3 1.5 -16
v -3 1 -16.5
v -3 1.5 -16.5
v -2.5 1.5 -17
v -3 1.5 -17
v -2.5 1.5 -17.5
v -3 1.5 -17.5
v -2.5 1 -17
v -2.5 1.5 -17
v -2.5 1.000002 -17.5
v -2.5 1.5 -17.5
v -2.5 1.500002 -20.5
v -3 1.500002 -20.5
v -2.5 1.500002 -21
v -3 1.500002 -21
v -2.5 1.500002 -21.5
v -3 1.500002 -21.5
v -2.5 1.500002 -22
v -3 1.500002 -22
v -2.5 2 -6.499998
v -16 2 -6.499998
v -2.5 2 -7.999998
v -16 2 -7.999998
v -2.5 1.5 -6.499998
v -2.5 2 -6.499998
v -2.5 1.5 -7.999998
v -2.5 2 -7.999998
v -2.5 1.5 -7.999998
v -3 1.5 -7.999998
v -2.5 2 -7.999998
v -3 2 -7.999998
v -2.5 1.5 -14.5
v -3 1.5 -14.5
v -2.5 2 -14.5
v -3 2 -14.5
v -2.5 1.5 -14
v -3 1.5 -14
v -2.5 2 -14
v -3 2 -14
v -2.5 2 -14
v -4 2 -14
v -2.5 2 -14.5
v -4 2 -14.5
v -2.5 1.5 -14
v -2.5 2 -14
v -2.5 1.5 -14.5
v -2.5 2 -14.5
v -2.5 1.5 -17
v -3 1.5 -17
v -2.5 2 -17
v -3 2 -17
v -2.5 1.5 -16.5
v -3 1.5 -16.5
v -2.5 2 -16.5
v -3 2 -16.5
v -2.5 2 -16.5
v -3 2 -16.5
v -2.5 2 -17
v -3 2 -17
v -2.5 1.5 -16.5
v -2.5 2 -16.5
v -2.5 1.5 -17
v -2.5 2 -17
v -3 1.5 -16.5
v -3 2 -16.5
v -3 1.5 -17
v -3 2 -17
v -3 1.500002 -18.5
v -3 2.000002 -18.5
v -3 1.500002 -20.5
v -3 2.000002 -20.5
v -2.5 2.000002 -19
v -3 2.000002 -19
v -2.5 2.000002 -20.5
v -3 2.000002 -20.5
v -2.5 1.500002 -20.5
v -3 1.500002 -20.5
v -2.5 2.000002 -20.5
v -3 2.000002 -20.5
v -2.5 1.500002 -21.5
v -3 1.500002 -21.5
v -2.5 2.000002 -21.5
v -3 2.000002 -21.5
v -2.5 1.500002 -21
v -3 1.500002 -21
v -2.5 2.000002 -21
v -3 2.000002 -21
v -2.5 2.000002 -21
v -4 2.000002 -21
v -2.5 2.000002 -21.5
v -4 2.000002 -21.5
v -2.5 1.500002 -22
v -3 1.500002 -22
v -2.5 2.000002 -22
v -3 2.000002 -22
v -2.5 2.000002 -22
v -16 2.000002 -22
v -2.5 2.000002 -22.5
v -16 2.000002 -22.5
v -2.5 1.500002 -22
v -2.5 2.000002 -22
v -2.5 1.500002 -22.5
v -2.5 2.000002 -22.5
v -2.5 2.000002 -24
v -16 2.000002 -24
v -2.5 2.000002 -24.5
v -16 2.000002 -24.5
v -2.5 1.500002 -24
v -2.5 2.000002 -24
v -2.5 1.500002 -24.5
v -2.5 2.000002 -24.5
v -2.5 2.000002 -25.5
v -16 2.000002 -25.5
v -2.5 2.000002 -26
v -16 2.000002 -26
v -2.5 1.500002 -25.5
v -2.5 2.000002 -25.5
v -2.5 1.500002 -26
v -2.5 2.000002 -26
v -3 1 -12
v -3.5 1 -12
v -3 1 -12.5
v -3.5 1 -12.5
v -3 1 -15.5
v -3.5 1 -15.5
v -3 1 -16.5
v -3.5 1 -16.5
v -3 1 -12
v -3.5 1 -12
v -3 2 -12
v -3.5 2 -12
v -3 1 -12.5
v -3.5 1 -12.5
v -3 1.5 -12.5
v -3.5 1.5 -12.5
v -3 1.5 -12.5
v -4 1.5 -12.5
v -3 1.5 -13.5
v -4 1.5 -13.5
v -3 1 -15.5
v -3.5 1 -15.5
v -3 1.5 -15.5
v -3.5 1.5 -15.5
v -3 1.5 -15
v -3.5 1.5 -15
v -3 1.5 -15.5
v -3.5 1.5 -15.5
v -3 1 -15
v -3 1.5 -15
v -3 1 -15.5
v -3 1.5 -15.5
v -3 1 -16.5
v -4 1 -16.5
v -3 1.5 -16.5
v -4 1.5 -16.5
v -3 1.5 -16.5
v -4 1.5 -16.5
v -3 1.5 -17
v -4 1.5 -17
v -3 1.500002 -18.5
v -3.5 1.500002 -18.5
v -3 1.500002 -20.5
v -3.5 1.500002 -20.5
v -3 2 -7.999998
v -3.5 2 -7.999998
v -3 2 -12
v -3.5 2 -12
v -3 1.5 -7.999998
v -3 2 -7.999998
v -3 1.5 -12
v -3 2 -12
v -3.5 1.5 -8.999998
v -3.5 2 -8.999998
v -3.5 1.5 -9.999998
v -3.5 2 -9.999998
v -3.5 1.5 -11.5
v -3.5 2 -11.5
v -3.5 1.5 -12
v -3.5 2 -12
v -3 1.5 -13.5
v -3.5 1.5 -13.5
v -3 2 -13.5
v -3.5 2 -13.5
v -3 2 -13.5
v -3.5 2 -13.5
v -3 2 -14
v -3.5 2 -14
v -3 1.5 -13.5
v -3 2 -13.5
v -3 1.5 -14
v -3 2 -14
v -3.5 1.5 -13.5
v -3.5 2 -13.5
v -3.5 1.5 -14
v -3.5 2 -14
v -3 1.5 -15
v -3.5 1.5 -15
v -3 2 -15
v -3.5 2 -15
v -3 2 -14.5
v -4.5 2 -14.5
v -3 2 -15
v -4.5 2 -15
v -3 1.5 -14.5
v -3 2 -14.5
v -3 1.5 -15
v -3 2 -15
v -3 1.5 -17
v -3.5 1.5 -17
v -3 2 -17
v -3.5 2 -17
v -3 2 -17
v -3.5 2 -17
v -3 2.000002 -18.5
v -3.5 2.000002 -18.5
v -3 1.5 -17
v -3 2 -17
v -3 1.500002 -18.5
v -3 2.000002 -18.5
v -3.5 1.5 -17
v -3.5 2 -17
v -3.5 1.5 -17.5
v -3.5 2 -17.5
v -3 1.500002 -18.5
v -3.5 1.500002 -18.5
v -3 2.000002 -18.5
v -3.5 2.000002 -18.5
v -3 1.500002 -20.5
v -3.5 1.500002 -20.5
v -3 2.000002 -20.5
v -3.5 2.000002 -20.5
v -3 2.000002 -20.5
v -16 2.000002 -20.5
v -3 2.000002 -21
v -16 2.000002 -21
v -3 1.500002 -20.5
v -3 2.000002 -20.5
v -3 1.500002 -21
v -3 2.000002 -21
v -3 2.000002 -21.5
v -16 2.000002 -21.5
v -3 2.000002 -22
v -16 2.000002 -22
v -3 1.500002 -21.5
v -3 2.000002 -21.5
v -3 1.500002 -22
v -3 2.000002 -22
v -3.5 1 -16
v -4 1 -16
v -3.5 1 -16.5
v -4 1 -16.5
v -3.5 1.5 -8.999998
v -4 1.5 -8.999998
v -3.5 1.5 -9.999998
v -4 1.5 -9.999998
v -3.5 1.5 -11.5
v -4 1.5 -11.5
v -3.5 1.5 -12.5
v -4 1.5 -12.5
v -3.5 1 -12
v -3.5 1.5 -12
v -3.5 1 -12.5
v -3.5 1.5 -12.5
v -4 1 -13
v -4 1.5 -13
v -4 1 -13.5
v -4 1.5 -13.5
v -3.5 1.5 -13.5
v -5 1.5 -13.5
v -3.5 1.5 -14
v -5 1.5 -14
v -4 1 -14
v -4 2 -14
v -4 1 -14.5
v -4 2 -14.5
v -3.5 1 -16
v -4 1 -16
v -3.5 1.5 -16
v -4 1.5 -16
v -3.5 1.5 -15.5
v -4 1.5 -15.5
v -3.5 1.5 -16
v -4 1.5 -16
v -3.5 1 -15.5
v -3.5 1.5 -15.5
v -3.5 1 -16
v -3.5 1.5 -16
v -4 1 -16.5
v -4 1.5 -16.5
v -4 1 -17
v -4 1.5 -17
v -3.5 1.5 -17
v -4.5 1.5 -17
v -3.5 1.5 -17.5
v -4.5 1.5 -17.5
v -3.5 2 -7.999998
v -16 2 -7.999998
v -3.5 2 -8.999998
v -16 2 -8.999998
v -3.5 1.5 -8.999998
v -4 1.5 -8.999998
v -3.5 2 -8.999998
v -4 2 -8.999998
v -3.5 1.5 -9.999998
v -4 1.5 -9.999998
v -3.5 2 -9.999998
v -4 2 -9.999998
v -3.5 2 -9.999998
v -5 2 -9.999998
v -3.5 2 -11.5
v -5 2 -11.5
v -3.5 1.5 -11.5
v -4 1.5 -11.5
v -3.5 2 -11.5
v -4 2 -11.5
v -3.5 1.5 -14
v -4 1.5 -14
v -3.5 2 -14
v -4 2 -14
v -3.5 1.5 -15.5
v -4 1.5 -15.5
v -3.5 2 -15.5
v -4 2 -15.5
v -3.5 2 -15
v -4.5 2 -15
v -3.5 2 -15.5
v -4.5 2 -15.5
v -3.5 1.5 -15
v -3.5 2 -15
v -3.5 1.5 -15.5
v -3.5 2 -15.5
v -3.5 1.5 -17.5
v -4.5 1.5 -17.5
v -3.5 2 -17.5
v -4.5 2 -17.5
v -3.5 2 -17.5
v -4.5 2 -17.5
v -3.5 2.000002 -20.5
v -4.5 2.000002 -20.5
v -3.5 1.500002 -18.5
v -3.5 2.000002 -18.5
v -3.5 1.500002 -20.5
v -3.5 2.000002 -20.5
v -4 1.500002 -21
v -4 2.000002 -21
v -4 1.500002 -21.5
v -4 2.000002 -21.5
v -4 1 -13
v -5 1 -13
v -4 1 -13.5
v -5 1 -13.5
v -4 1 -14
v -4.5 1 -14
v -4 1 -14.5
v -4.5 1 -14.5
v -4 1 -16.5
v -5.5 1 -16.5
v -4 1 -17
v -5.5 1 -17
v -4 1 -13
v -5 1 -13
v -4 1.5 -13
v -5 1.5 -13
v -4 1.5 -12.5
v -4.5 1.5 -12.5
v -4 1.5 -13
v -4.5 1.5 -13
v -4 1 -14
v -4.5 1 -14
v -4 1.5 -14
v -4.5 1.5 -14
v -4 1 -13.5
v -5 1 -13.5
v -4 1.5 -13.5
v -5 1.5 -13.5
v -4 1 -14.5
v -4.5 1 -14.5
v -4 2 -14.5
v -4.5 2 -14.5
v -4.5 1 -14.5
v -4.5 2 -14.5
v -4.5 1 -15
v -4.5 2 -15
v -4 1 -16.5
v -5.5 1 -16.5
v -4 1.5 -16.5
v -5.5 1.5 -16.5
v -4 1.5 -16
v -4.5 1.5 -16
v -4 1.5 -16.5
v -4.5 1.5 -16.5
v -4 1 -16
v -4 1.5 -16
v -4 1 -16.5
v -4 1.5 -16.5
v -4 1 -17
v -4.5 1 -17
v -4 1.5 -17
v -4.5 1.5 -17
v -4.5 1 -17
v -4.5 1.5 -17
v -4.5 1.000002 -17.5
v -4.5 1.5 -17.5
v -4 1.500002 -21
v -4.5 1.500002 -21
v -4 1.500002 -21.5
v -4.5 1.500002 -21.5
v -4 2 -8.999998
v -16 2 -8.999998
v -4 2 -9.999998
v -16 2 -9.999998
v -4 1.5 -8.999998
v -4 2 -8.999998
v -4 1.5 -9.999998
v -4 2 -9.999998
v -4 2 -11.5
v -5 2 -11.5
v -4 2 -12.5
v -5 2 -12.5
v -4 1.5 -11.5
v -4 2 -11.5
v -4 1.5 -12.5
v -4 2 -12.5
v -4 1.5 -12.5
v -4.5 1.5 -12.5
v -4 2 -12.5
v -4.5 2 -12.5
v -4.5 1.5 -15
v -4.5 2 -15
v -4.5 1.5 -15.5
v -4.5 2 -15.5
v -4 1.5 -16
v -4.5 1.5 -16
v -4 2 -16
v -4.5 2 -16
v -4 2 -15.5
v -5 2 -15.5
v -4 2 -16
v -5 2 -16
v -4 1.5 -15.5
v -4 2 -15.5
v -4 1.5 -16
v -4 2 -16
v -4.5 1.5 -17.5
v -4.5 2 -17.5
v -4.5 1.500002 -18
v -4.5 2 -18
v -4 1.500002 -21
v -4.5 1.500002 -21
v -4 2.000002 -21
v -4.5 2.000002 -21
v -4 1.500002 -21.5
v -4.5 1.500002 -21.5
v -4 2.000002 -21.5
v -4.5 2.000002 -21.5
v -4.5 1 -14.5
v -5 1 -14.5
v -4.5 1 -15
v -5 1 -15
v -4.5 1 -17
v -6.5 1 -17
v -4.5 1.000002 -17.5
v -6.5 1.000002 -17.5
v -4.5 1 -14.5
v -5 1 -14.5
v -4.5 1.5 -14.5
v -5 1.5 -14.5
v -4.5 1.5 -14
v -5.5 1.5 -14
v -4.5 1.5 -14.5
v -5.5 1.5 -14.5
v -4.5 1 -14
v -4.5 1.5 -14
v -4.5 1 -14.5
v -4.5 1.5 -14.5
v -4.5 1 -15
v -5 1 -15
v -4.5 1.5 -15
v -5 1.5 -15
v -4.5 1.5 -15
v -5 1.5 -15
v -4.5 1.5 -15.5
v -5 1.5 -15.5
v -5 1 -15
v -5 1.5 -15
v -5 1 -15.5
v -5 1.5 -15.5
v -4.5 1.000002 -17.5
v -6 1.000002 -17.5
v -4.5 1.5 -17.5
v -6 1.5 -17.5
v -4.5 1.5 -17.5
v -6 1.5 -17.5
v -4.5 1.500002 -18
v -6 1.500002 -18
v -5 1.5 -11
v -5 2 -11
v -5 1.5 -11.5
v -5 2 -11.5
v -5 1.5 -12
v -5 2 -12
v -5 1.5 -13
v -5 2 -13
v -4.5 2 -12.5
v -5 2 -12.5
v -4.5 2 -13.5
v -5 2 -13.5
v -4.5 1.5 -12.5
v -4.5 2 -12.5
v -4.5 1.5 -13.5
v -4.5 2 -13.5
v -4.5 1.5 -13.5
v -5 1.5 -13.5
v -4.5 2 -13.5
v -5 2 -13.5
v -4.5 1.5 -13
v -5 1.5 -13
v -4.5 1.5 -13.5
v -5 1.5 -13.5
v -4.5 1.5 -15.5
v -5 1.5 -15.5
v -4.5 2 -15.5
v -5 2 -15.5
v -5 1.5 -15.5
v -5 2 -15.5
v -5 1.5 -16.5
v -5 2 -16.5
v -4.5 1.5 -16.5
v -5 1.5 -16.5
v -4.5 2 -16.5
v -5 2 -16.5
v -4.5 2 -16
v -5 2 -16
v -4.5 2 -16.5
v -5 2 -16.5
v -4.5 1.5 -16
v -4.5 2 -16
v -4.5 1.5 -16.5
v -4.5 2 -16.5
v -4.5 1.500002 -18
v -5.5 1.500002 -18
v -4.5 2 -18
v -5.5 2 -18
v -4.5 2 -18
v -5 2 -18
v -4.5 2.000002 -20.5
v -5 2.000002 -20.5
v -5 1.500002 -19
v -5 2.000002 -19
v -5 1.500002 -19.5
v -5 2.000002 -19.5
v -4.5 2.000002 -21
v -16 2.000002 -21
v -4.5 2.000002 -21.5
v -16 2.000002 -21.5
v -4.5 1.500002 -21
v -4.5 2.000002 -21
v -4.5 1.500002 -21.5
v -4.5 2.000002 -21.5
v -5 1 -15
v -5.5 1 -15
v -5 1 -15.5
v -5.5 1 -15.5
v -5 1.5 -11
v -5.5 1.5 -11
v -5 1.5 -11.5
v -5.5 1.5 -11.5
v -5 1.5 -12
v -5.5 1.5 -12
v -5 1.5 -13
v -5.5 1.5 -13
v -5 1 -13
v -5 1.5 -13
v -5 1 -13.5
v -5 1.5 -13.5
v -5 1 -15
v -5.5 1 -15
v -5 1.5 -15
v -5.5 1.5 -15
v -5 1.5 -14.5
v -5.5 1.5 -14.5
v -5 1.5 -15
v -5.5 1.5 -15
v -5 1 -14.5
v -5 1.5 -14.5
v -5 1 -15
v -5 1.5 -15
v -5 1 -15.5
v -5.5 1 -15.5
v -5 1.5 -15.5
v -5.5 1.5 -15.5
v -5 1.5 -15.5
v -5.5 1.5 -15.5
v -5 1.5 -16.5
v -5.5 1.5 -16.5
v -5 1.500002 -19
v -5.5 1.500002 -19
v -5 1.500002 -19.5
v -5.5 1.500002 -19.5
v -5 2 -9.999998
v -5.5 2 -9.999998
v -5 2 -11
v -5.5 2 -11
v -5.5 1.5 -9.999998
v -5.5 2 -9.999998
v -5.5 1.5 -10.5
v -5.5 2 -10.5
v -5 1.5 -11
v -5.5 1.5 -11
v -5 2 -11
v -5.5 2 -11
v -5 1.5 -12
v -5.5 1.5 -12
v -5 2 -12
v -5.5 2 -12
v -5 1.5 -11.5
v -5.5 1.5 -11.5
v -5 2 -11.5
v -5.5 2 -11.5
v -5 2 -11.5
v -16 2 -11.5
v -5 2 -12
v -16 2 -12
v -5 1.5 -13
v -5.5 1.5 -13
v -5 2 -13
v -5.5 2 -13
v -5 2 -13
v -16 2 -13
v -5 2 -14
v -16 2 -14
v -5 1.5 -14
v -5.5 1.5 -14
v -5 2 -14
v -5.5 2 -14
v -5 1.5 -13.5
v -5 2 -13.5
v -5 1.5 -14
v -5 2 -14
v -5 2 -18
v -5.5 2 -18
v -5 2.000002 -19
v -5.5 2.000002 -19
v -5.5 1.500002 -18
v -5.5 2 -18
v -5.5 1.500002 -18.5
v -5.5 2.000002 -18.5
v -5 1.500002 -19
v -5.5 1.500002 -19
v -5 2.000002 -19
v -5.5 2.000002 -19
v -5 1.500002 -19.5
v -5.5 1.500002 -19.5
v -5 2.000002 -19.5
v -5.5 2.000002 -19.5
v -5 2.000002 -19.5
v -16 2.000002 -19.5
v -5 2.000002 -20.5
v -16 2.000002 -20.5
v -5.5 1.5 -9.999998
v -6 1.5 -9.999998
v -5.5 1.5 -10.5
v -6 1.5 -10.5
v -5.5 1 -15
v -5.5 2 -15
v -5.5 1 -15.5
v -5.5 2 -15.5
v -5.5 1 -17
v -6.5 1 -17
v -5.5 1.5 -17
v -6.5 1.5 -17
v -5.5 1.5 -16.5
v -6.5 1.5 -16.5
v -5.5 1.5 -17
v -6.5 1.5 -17
v -5.5 1 -16.5
v -5.5 1.5 -16.5
v -5.5 1 -17
v -5.5 1.5 -17
v -6 1.000002 -17.5
v -6 1.5 -17.5
v -6 1.000002 -18
v -6 1.500002 -18
v -5.5 1.500002 -18
v -7.5 1.500002 -18
v -5.5 1.500002 -18.5
v -7.5 1.500002 -18.5
v -5.5 1.5 -9.999998
v -6 1.5 -9.999998
v -5.5 2 -9.999998
v -6 2 -9.999998
v -5.5 1.5 -10.5
v -6 1.5 -10.5
v -5.5 2 -10.5
v -6 2 -10.5
v -5.5 2 -10.5
v -16 2 -10.5
v -5.5 2 -11.5
v -16 2 -11.5
v -5.5 1.5 -11
v -5.5 2 -11
v -5.5 1.5 -11.5
v -5.5 2 -11.5
v -5.5 2 -12
v -16 2 -12
v -5.5 2 -13
v -16 2 -13
v -5.5 1.5 -12
v -5.5 2 -12
v -5.5 1.5 -13
v -5.5 2 -13
v -5.5 2 -14
v -6 2 -14
v -5.5 2 -16.5
v -6 2 -16.5
v -5.5 1.5 -14
v -5.5 2 -14
v -5.5 1.5 -15
v -5.5 2 -15
v -5.5 1.5 -15.5
v -5.5 2 -15.5
v -5.5 1.5 -16.5
v -5.5 2 -16.5
v -5.5 1.5 -16.5
v -6 1.5 -16.5
v -5.5 2 -16.5
v -6 2 -16.5
v -6 1.5 -16
v -6 2 -16
v -6 1.5 -16.5
v -6 2 -16.5
v -5.5 1.500002 -18.5
v -6.5 1.500002 -18.5
v -5.5 2.000002 -18.5
v -6.5 2.000002 -18.5
v -5.5 2.000002 -18.5
v -6.5 2.000002 -18.5
v -5.5 2.000002 -19.5
v -6.5 2.000002 -19.5
v -5.5 1.500002 -19
v -5.5 2.000002 -19
v -5.5 1.500002 -19.5
v -5.5 2.000002 -19.5
v -6 1.000002 -17.5
v -7 1.000002 -17.5
v -6 1.000002 -18
v -7 1.000002 -18
v -6 1.5 -16
v -6.5 1.5 -16
v -6 1.5 -16.5
v -6.5 1.5 -16.5
v -6 1.000002 -18
v -7 1.000002 -18
v -6 1.500002 -18
v -7 1.500002 -18
v -6 2 -9.999998
v -16 2 -9.999998
v -6 2 -10.5
v -16 2 -10.5
v -6 1.5 -9.999998
v -6 2 -9.999998
v -6 1.5 -10.5
v -6 2 -10.5
v -6 2 -14
v -16 2 -14
v -6 2 -16
v -16 2 -16
v -6 1.5 -16
v -6.5 1.5 -16
v -6 2 -16
v -6.5 2 -16
v -6.5 1.500002 -18.5
v -6.5 2.000002 -18.5
v -6.5 1.500002 -19
v -6.5 2.000002 -19
v -6.5 1.000002 -17.5
v -7 1.000002 -17.5
v -6.5 1.5 -17.5
v -7 1.5 -17.5
v -6.5 1.5 -17
v -7 1.5 -17
v -6.5 1.5 -17.5
v -7 1.5 -17.5
v -6.5 1 -17
v -6.5 1.5 -17
v -6.5 1.000002 -17.5
v -6.5 1.5 -17.5
v -6.5 1.500002 -18.5
v -7.5 1.500002 -18.5
v -6.5 1.500002 -19
v -7.5 1.500002 -19
v -6.5 2 -16
v -7.5 2 -16
v -6.5 2 -17
v -7.5 2 -17
v -6.5 1.5 -16
v -6.5 2 -16
v -6.5 1.5 -17
v -6.5 2 -17
v -6.5 1.5 -17
v -7 1.5 -17
v -6.5 2 -17
v -7 2 -17
v -6.5 1.500002 -19
v -7.5 1.500002 -19
v -6.5 2.000002 -19
v -7.5 2.000002 -19
v -6.5 2.000002 -19
v -9.5 2.000002 -19
v -6.5 2.000002 -19.5
v -9.5 2.000002 -19.5
v -7 1.5 -17.5
v -7.5 1.5 -17.5
v -7 1.500002 -18
v -7.5 1.500002 -18
v -7 1.000002 -17.5
v -7 1.5 -17.5
v -7 1.000002 -18
v -7 1.500002 -18
v -7.5 1.000002 -18
v -7.5 1.500002 -18
v -7.5 1.000002 -18.5
v -7.5 1.500002 -18.5
v -7.5 1.5 -16.5
v -7.5 2 -16.5
v -7.5 1.5 -17
v -7.5 2 -17
v -7 1.5 -17.5
v -7.5 1.5 -17.5
v -7 2 -17.5
v -7.5 2 -17.5
v -7 2 -17
v -16 2 -17
v -7 2 -17.5
v -16 2 -17.5
v -7 1.5 -17
v -7 2 -17
v -7 1.5 -17.5
v -7 2 -17.5
v -7.5 1.000002 -18
v -8 1.000002 -18
v -7.5 1.000002 -18.5
v -8 1.000002 -18.5
v -7.5 1.5 -16.5
v -8 1.5 -16.5
v -7.5 1.5 -17
v -8 1.5 -17
v -7.5 1.000002 -18
v -8 1.000002 -18
v -7.5 2 -18
v -8 2 -18
v -7.5 1.000002 -18.5
v -8 1.000002 -18.5
v -7.5 2.000002 -18.5
v -8 2.000002 -18.5
v -7.5 1.5 -16.5
v -8 1.5 -16.5
v -7.5 2 -16.5
v -8 2 -16.5
v -7.5 2 -16
v -16 2 -16
v -7.5 2 -16.5
v -16 2 -16.5
v -7.5 1.5 -17
v -8 1.5 -17
v -7.5 2 -17
v -8 2 -17
v -7.5 2 -17.5
v -16 2 -17.5
v -7.5 2 -18
v -16 2 -18
v -7.5 1.5 -17.5
v -7.5 2 -17.5
v -7.5 1.500002 -18
v -7.5 2 -18
v -7.5 2.000002 -18.5
v -9 2.000002 -18.5
v -7.5 2.000002 -19
v -9 2.000002 -19
v -7.5 1.500002 -18.5
v -7.5 2.000002 -18.5
v -7.5 1.500002 -19
v -7.5 2.000002 -19
v -8 1.000002 -18
v -8 2 -18
v -8 1.000002 -18.5
v -8 2.000002 -18.5
v -8 2 -16.5
v -16 2 -16.5
v -8 2 -17
v -16 2 -17
v -8 1.5 -16.5
v -8 2 -16.5
v -8 1.5 -17
v -8 2 -17
v -8 2 -18
v -16 2 -18
v -8 2.000002 -18.5
v -16 2.000002 -18.5
v -9 1.500002 -18.5
v -9 2.000002 -18.5
v -9 1.500002 -19
v -9 2.000002 -19
v -9 1.500002 -18.5
v -10 1.500002 -18.5
v -9 1.500002 -19
v -10 1.500002 -19
v -9 1.500002 -18.5
v -10 1.500002 -18.5
v -9 2.000002 -18.5
v -10 2.000002 -18.5
v -9 1.500002 -19
v -9.5 1.500002 -19
v -9 2.000002 -19
v -9.5 2.000002 -19
v -9.5 1.500002 -19
v -9.5 2.000002 -19
v -9.5 1.500002 -19.5
v -9.5 2.000002 -19.5
v -9.5 1.500002 -19
v -10 1.500002 -19
v -9.5 1.500002 -19.5
v -10 1.500002 -19.5
v -9.5 1.500002 -19.5
v -10 1.500002 -19.5
v -9.5 2.000002 -19.5
v -10 2.000002 -19.5
v -10 2.000002 -18.5
v -16 2.000002 -18.5
v -10 2.000002 -19.5
v -16 2.000002 -19.5
v -10 1.500002 -18.5
v -10 2.000002 -18.5
v -10 1.500002 -19.5
v -10 2.000002 -19.5
v -16 0 1.907349E-06
v -16 2 1.907349E-06
v -16 1.907349E-06 -32
v -16 2.000002 -32
vn 0 -5.960464E-08 0.9999999
vn 0 -0.9999999 -5.960464E-08
vn 1 0 0
vn 0 5.960464E-08 -0.9999999
vn 0 0.9999999 5.960464E-08
vn -1 0 0
vt 0.0078125 0.796875
vt 0.2578125 0.796875
vt 0.0078125 0.828125
vt 0.2578125 0.828125
vt 0.0078125 0.0078125
vt 0.2578125 0.0078125
vt 0.0078125 0.5078125
vt 0.2578125 0.5078125
vt 0.2890625 0.0078125
vt 0.3203125 0.0078125
vt 0.2890625 0.5078125
vt 0.3203125 0.5078125
vt 0.0078125 0.859375
vt 0.2578125 0.859375
vt 0.0078125 0.890625
vt 0.2578125 0.890625
vt 0.4140625 0.0078125
vt 0.4296875 0.0078125
vt 0.4140625 0.5078125
vt 0.4296875 0.5078125
vt 0.4609375 0.578125
vt 0.46875 0.578125
vt 0.4609375 0.6015625
vt 0.46875 0.6015625
vt 0.2578125 0.703125
vt 0.4609375 0.515625
vt 0.46875 0.515625
vt 0.4609375 0.546875
vt 0.46875 0.546875
vt 0.4609375 0.6328125
vt 0.46875 0.6328125
vt 0.4609375 0.65625
vt 0.46875 0.65625
vt 0.2578125 0.671875
vt 0.546875 0.5
vt 0.5625 0.5
vt 0.546875 0.5078125
vt 0.5625 0.5078125
vt 0.5 0.5859375
vt 0.5078125 0.5859375
vt 0.5 0.6015625
vt 0.5078125 0.6015625
vt 0.2890625 0.828125
vt 0.296875 0.828125
vt 0.2890625 0.9609375
vt 0.296875 0.9609375
vt 0.4609375 0.90625
vt 0.46875 0.90625
vt 0.4609375 0.9296875
vt 0.46875 0.9296875
vt 0.2578125 0.6328125
vt 0.2578125 0.6015625
vt 0.2890625 0.5390625
vt 0.296875 0.5390625
vt 0.2890625 0.796875
vt 0.296875 0.796875
vt 0.4609375 0.453125
vt 0.46875 0.453125
vt 0.4609375 0.484375
vt 0.46875 0.484375
vt 0.25 0.921875
vt 0.2578125 0.921875
vt 0.25 0.9765625
vt 0.2578125 0.9765625
vt 0.2578125 0.5390625
vt 0.3515625 0.6875
vt 0.359375 0.6875
vt 0.3515625 0.796875
vt 0.359375 0.796875
vt 0.9453125 0.2578125
vt 0.96875 0.2578125
vt 0.9453125 0.265625
vt 0.96875 0.265625
vt 0.9375 0.296875
vt 0.9609375 0.296875
vt 0.9375 0.3046875
vt 0.9609375 0.3046875
vt 0.9609375 0.4140625
vt 0.9765625 0.4140625
vt 0.9609375 0.421875
vt 0.9765625 0.421875
vt 0.6640625 0.1640625
vt 0.890625 0.1640625
vt 0.6640625 0.171875
vt 0.890625 0.171875
vt 0.3515625 0.5390625
vt 0.359375 0.5390625
vt 0.3515625 0.65625
vt 0.359375 0.65625
vt 0.96875 0.453125
vt 0.9765625 0.453125
vt 0.96875 0.46875
vt 0.9765625 0.46875
vt 0.875 0.5
vt 0.890625 0.5
vt 0.875 0.5078125
vt 0.890625 0.5078125
vt 0.0078125 0.5390625
vt 0.2265625 0.5390625
vt 0.0078125 0.640625
vt 0.2265625 0.640625
vt 0.0078125 0.9765625
vt 0.4140625 0.6328125
vt 0.421875 0.6328125
vt 0.4140625 0.6796875
vt 0.421875 0.6796875
vt 0.4140625 0.7109375
vt 0.421875 0.7109375
vt 0.4140625 0.7578125
vt 0.421875 0.7578125
vt 0.2578125 0.734375
vt 0.6484375 0.0078125
vt 0.8671875 0.0078125
vt 0.6484375 0.0234375
vt 0.8671875 0.0234375
vt 0.4609375 0.0703125
vt 0.6796875 0.0703125
vt 0.4609375 0.0859375
vt 0.6796875 0.0859375
vt 0.0078125 0.671875
vt 0.2265625 0.671875
vt 0.0078125 0.765625
vt 0.2265625 0.765625
vt 0.0078125 0.921875
vt 0.21875 0.921875
vt 0.0078125 0.9453125
vt 0.21875 0.9453125
vt 0.4609375 0.6875
vt 0.46875 0.6875
vt 0.4609375 0.7109375
vt 0.46875 0.7109375
vt 0.953125 0.0078125
vt 0.9609375 0.0078125
vt 0.953125 0.0390625
vt 0.9609375 0.0390625
vt 0.4609375 0.7421875
vt 0.46875 0.7421875
vt 0.4609375 0.765625
vt 0.46875 0.765625
vt 0.2578125 0.765625
vt 0.640625 0.453125
vt 0.6640625 0.453125
vt 0.640625 0.4609375
vt 0.6640625 0.4609375
vt 0.4609375 0.296875
vt 0.671875 0.296875
vt 0.4609375 0.3046875
vt 0.671875 0.3046875
vt 0.703125 0.2578125
vt 0.9140625 0.2578125
vt 0.703125 0.265625
vt 0.9140625 0.265625
vt 0.4609375 0.2578125
vt 0.671875 0.2578125
vt 0.4609375 0.265625
vt 0.671875 0.265625
vt 0.5 0.7265625
vt 0.5078125 0.7265625
vt 0.5 0.7421875
vt 0.5078125 0.7421875
vt 0.4140625 0.5390625
vt 0.421875 0.5390625
vt 0.4140625 0.6015625
vt 0.421875 0.6015625
vt 0.3515625 0.90625
vt 0.359375 0.90625
vt 0.3515625 0.96875
vt 0.359375 0.96875
vt 0.4609375 0.796875
vt 0.46875 0.796875
vt 0.4609375 0.8203125
vt 0.46875 0.8203125
vt 0.4609375 0.8515625
vt 0.46875 0.8515625
vt 0.4609375 0.875
vt 0.46875 0.875
vt 0.703125 0.296875
vt 0.90625 0.296875
vt 0.703125 0.3046875
vt 0.90625 0.3046875
vt 0.4609375 0.3359375
vt 0.6640625 0.3359375
vt 0.4609375 0.34375
vt 0.6640625 0.34375
vt 0.5 0.5
vt 0.515625 0.5
vt 0.5 0.5078125
vt 0.515625 0.5078125
vt 0.7109375 0.0703125
vt 0.90625 0.0703125
vt 0.7109375 0.0859375
vt 0.90625 0.0859375
vt 0.8984375 0.0078125
vt 0.921875 0.0078125
vt 0.8984375 0.03125
vt 0.921875 0.03125
vt 0.3515625 0.828125
vt 0.3671875 0.828125
vt 0.3515625 0.875
vt 0.3671875 0.875
vt 0.4140625 0.9296875
vt 0.421875 0.9296875
vt 0.4140625 0.9609375
vt 0.421875 0.9609375
vt 0.0390625 0.9765625
vt 0.734375 0.5
vt 0.75 0.5
vt 0.734375 0.5078125
vt 0.75 0.5078125
vt 0.5 0.9140625
vt 0.5078125 0.9140625
vt 0.5 0.9296875
vt 0.5078125 0.9296875
vt 0.828125 0.5
vt 0.84375 0.5
vt 0.828125 0.5078125
vt 0.84375 0.5078125
vt 0.4609375 0.1171875
vt 0.6484375 0.1171875
vt 0.4609375 0.1328125
vt 0.6484375 0.1328125
vt 0.5 0.453125
vt 0.515625 0.453125
vt 0.5 0.46875
vt 0.515625 0.46875
vt 0.84375 0.453125
vt 0.8515625 0.453125
vt 0.84375 0.46875
vt 0.8515625 0.46875
vt 0.9375 0.0703125
vt 0.96875 0.0703125
vt 0.9375 0.078125
vt 0.96875 0.078125
vt 0.75 0.453125
vt 0.7734375 0.453125
vt 0.75 0.4609375
vt 0.7734375 0.4609375
vt 0.90625 0.3359375
vt 0.9296875 0.3359375
vt 0.90625 0.34375
vt 0.9296875 0.34375
vt 0.5 0.8203125
vt 0.5078125 0.8203125
vt 0.5 0.8359375
vt 0.5078125 0.8359375
vt 0.4609375 0.9609375
vt 0.46875 0.9609375
vt 0.4609375 0.9765625
vt 0.46875 0.9765625
vt 0.8046875 0.453125
vt 0.8125 0.453125
vt 0.8046875 0.46875
vt 0.8125 0.46875
vt 0.9609375 0.3359375
vt 0.9765625 0.3359375
vt 0.9609375 0.34375
vt 0.9765625 0.34375
vt 0.4140625 0.7890625
vt 0.421875 0.7890625
vt 0.4140625 0.828125
vt 0.421875 0.828125
vt 0.6953125 0.3359375
vt 0.875 0.3359375
vt 0.6953125 0.34375
vt 0.875 0.34375
vt 0.8828125 0.453125
vt 0.890625 0.453125
vt 0.8828125 0.46875
vt 0.890625 0.46875
vt 0.2578125 0.5703125
vt 0.4609375 0.375
vt 0.6328125 0.375
vt 0.4609375 0.3828125
vt 0.6328125 0.3828125
vt 0.4609375 0.1640625
vt 0.6328125 0.1640625
vt 0.4609375 0.1796875
vt 0.6328125 0.1796875
vt 0.5 0.5390625
vt 0.5078125 0.5390625
vt 0.5 0.5546875
vt 0.5078125 0.5546875
vt 0.6796875 0.1171875
vt 0.8515625 0.1171875
vt 0.6796875 0.1328125
vt 0.8515625 0.1328125
vt 0.65625 0.2109375
vt 0.8203125 0.2109375
vt 0.65625 0.2265625
vt 0.8203125 0.2265625
vt 0.4609375 0.2109375
vt 0.625 0.2109375
vt 0.4609375 0.2265625
vt 0.625 0.2265625
vt 0.5 0.6328125
vt 0.5078125 0.6328125
vt 0.5 0.6484375
vt 0.5078125 0.6484375
vt 0.4140625 0.859375
vt 0.421875 0.859375
vt 0.4140625 0.8984375
vt 0.421875 0.8984375
vt 0.5 0.6796875
vt 0.5078125 0.6796875
vt 0.5 0.6953125
vt 0.5078125 0.6953125
vt 0.6875 0.5
vt 0.703125 0.5
vt 0.6875 0.5078125
vt 0.703125 0.5078125
vt 0.546875 0.453125
vt 0.5625 0.453125
vt 0.546875 0.46875
vt 0.5625 0.46875
vt 0.6640625 0.375
vt 0.8203125 0.375
vt 0.6640625 0.3828125
vt 0.8203125 0.3828125
vt 0.4609375 0.0078125
vt 0.6171875 0.0078125
vt 0.4609375 0.0390625
vt 0.6171875 0.0390625
vt 0.59375 0.453125
vt 0.609375 0.453125
vt 0.59375 0.46875
vt 0.609375 0.46875
vt 0.5 0.8671875
vt 0.5078125 0.8671875
vt 0.5 0.8828125
vt 0.5078125 0.8828125
vt 0.78125 0.5
vt 0.796875 0.5
vt 0.78125 0.5078125
vt 0.796875 0.5078125
vt 0.921875 0.1640625
vt 0.96875 0.1640625
vt 0.921875 0.171875
vt 0.96875 0.171875
vt 0.4609375 0.4140625
vt 0.6015625 0.4140625
vt 0.4609375 0.421875
vt 0.6015625 0.421875
vt 0.5 0.9609375
vt 0.5078125 0.9609375
vt 0.5 0.9765625
vt 0.5078125 0.9765625
vt 0.5390625 0.5390625
vt 0.546875 0.5390625
vt 0.5390625 0.5546875
vt 0.546875 0.5546875
vt 0.6328125 0.4140625
vt 0.765625 0.4140625
vt 0.6328125 0.421875
vt 0.765625 0.421875
vt 0.796875 0.4140625
vt 0.9296875 0.4140625
vt 0.796875 0.421875
vt 0.9296875 0.421875
vt 0.6953125 0.453125
vt 0.71875 0.453125
vt 0.6953125 0.4609375
vt 0.71875 0.4609375
vt 0.921875 0.453125
vt 0.9375 0.453125
vt 0.921875 0.4609375
vt 0.9375 0.4609375
vt 0.8515625 0.2109375
vt 0.9765625 0.2109375
vt 0.8515625 0.21875
vt 0.9765625 0.21875
vt 0.8515625 0.375
vt 0.9765625 0.375
vt 0.8515625 0.3828125
vt 0.9765625 0.3828125
vt 0.59375 0.5
vt 0.609375 0.5
vt 0.59375 0.5078125
vt 0.609375 0.5078125
vt 0.640625 0.5
vt 0.65625 0.5
vt 0.640625 0.5078125
vt 0.65625 0.5078125
vt 0.8828125 0.1171875
vt 0.9765625 0.1171875
vt 0.8828125 0.1328125
vt 0.9765625 0.1328125
vt 0.5 0.7734375
vt 0.5078125 0.7734375
vt 0.5 0.7890625
vt 0.5078125 0.7890625
vt 0.3515625 0.0078125
vt 0.3828125 0.0078125
vt 0.3515625 0.5078125
vt 0.3828125 0.5078125
usemtl voxel
f 2/2/1 1/1/1 3/3/1
f 2/2/1 3/3/1 4/4/1
f 5/5/2 6/6/2 7/7/2
f 7/7/2 6/6/2 8/8/2
f 10/10/3 9/9/3 11/11/3
f 10/10/3 11/11/3 12/12/3
f 13/13/4 14/14/4 15/15/4
f 15/15/4 14/14/4 16/16/4
f 18/18/5 17/17/5 19/19/5
f 18/18/5 19/19/5 20/20/5
f 21/21/6 22/22/6 23/23/6
f 23/23/6 22/22/6 24/24/6
f 25/25/6 26/25/6 27/25/6
f 27/25/6 26/25/6 28/25/6
f 29/26/6 30/27/6 31/28/6
f 31/28/6 30/27/6 32/29/6
f 33/30/6 34/31/6 35/32/6
f 35/32/6 34/31/6 36/33/6
f 38/34/5 37/34/5 39/34/5
f 38/34/5 39/34/5 40/34/5
f 41/34/6 42/34/6 43/34/6
f 43/34/6 42/34/6 44/34/6
f 46/34/5 45/34/5 47/34/5
f 46/34/5 47/34/5 48/34/5
f 49/35/6 50/36/6 51/37/6
f 51/37/6 50/36/6 52/38/6
f 54/34/5 53/34/5 55/34/5
f 54/34/5 55/34/5 56/34/5
f 57/39/6 58/40/6 59/41/6
f 59/41/6 58/40/6 60/42/6
f 62/34/5 61/34/5 63/34/5
f 62/34/5 63/34/5 64/34/5
f 66/44/5 65/43/5 67/45/5
f 66/44/5 67/45/5 68/46/5
f 69/47/6 70/48/6 71/49/6
f 71/49/6 70/48/6 72/50/6
f 73/34/4 74/34/4 75/34/4
f 75/34/4 74/34/4 76/34/4
f 77/51/4 78/51/4 79/51/4
f 79/51/4 78/51/4 80/51/4
f 82/51/1 81/51/1 83/51/1
f 82/51/1 83/51/1 84/51/1
f 86/51/5 85/51/5 87/51/5
f 86/51/5 87/51/5 88/51/5
f 89/51/6 90/51/6 91/51/6
f 91/51/6 90/51/6 92/51/6
f 93/34/4 94/34/4 95/34/4
f 95/34/4 94/34/4 96/34/4
f 98/34/1 97/34/1 99/34/1
f 98/34/1 99/34/1 100/34/1
f 102/34/5 101/34/5 103/34/5
f 102/34/5 103/34/5 104/34/5
f 105/34/4 106/34/4 107/34/4
f 107/34/4 106/34/4 108/34/4
f 110/34/1 109/34/1 111/34/1
f 110/34/1 111/34/1 112/34/1
f 114/34/5 113/34/5 115/34/5
f 114/34/5 115/34/5 116/34/5
f 117/34/6 118/34/6 119/34/6
f 119/34/6 118/34/6 120/34/6
f 122/52/1 121/52/1 123/52/1
f 122/52/1 123/52/1 124/52/1
f 126/54/5 125/53/5 127/55/5
f 126/54/5 127/55/5 128/56/5
f 129/57/6 130/58/6 131/59/6
f 131/59/6 130/58/6 132/60/6
f 133/34/6 134/34/6 135/34/6
f 135/34/6 134/34/6 136/34/6
f 137/61/6 138/62/6 139/63/6
f 139/63/6 138/62/6 140/64/6
f 141/34/6 142/34/6 143/34/6
f 143/34/6 142/34/6 144/34/6
f 146/65/5 145/65/5 147/65/5
f 146/65/5 147/65/5 148/65/5
f 150/65/5 149/65/5 151/65/5
f 150/65/5 151/65/5 152/65/5
f 154/65/5 153/65/5 155/65/5
f 154/65/5 155/65/5 156/65/5
f 158/34/5 157/34/5 159/34/5
f 158/34/5 159/34/5 160/34/5
f 161/34/4 162/34/4 163/34/4
f 163/34/4 162/34/4 164/34/4
f 166/34/1 165/34/1 167/34/1
f 166/34/1 167/34/1 168/34/1
f 170/34/5 169/34/5 171/34/5
f 170/34/5 171/34/5 172/34/5
f 173/34/6 174/34/6 175/34/6
f 175/34/6 174/34/6 176/34/6
f 177/34/4 178/34/4 179/34/4
f 179/34/4 178/34/4 180/34/4
f 182/34/1 181/34/1 183/34/1
f 182/34/1 183/34/1 184/34/1
f 186/34/5 185/34/5 187/34/5
f 186/34/5 187/34/5 188/34/5
f 189/34/4 190/34/4 191/34/4
f 191/34/4 190/34/4 192/34/4
f 194/34/1 193/34/1 195/34/1
f 194/34/1 195/34/1 196/34/1
f 197/34/6 198/34/6 199/34/6
f 199/34/6 198/34/6 200/34/6
f 202/34/5 201/34/5 203/34/5
f 202/34/5 203/34/5 204/34/5
f 205/34/6 206/34/6 207/34/6
f 207/34/6 206/34/6 208/34/6
f 210/34/5 209/34/5 211/34/5
f 210/34/5 211/34/5 212/34/5
f 214/34/5 213/34/5 215/34/5
f 214/34/5 215/34/5 216/34/5
f 218/34/5 217/34/5 219/34/5
f 218/34/5 219/34/5 220/34/5
f 222/67/5 221/66/5 223/68/5
f 222/67/5 223/68/5 224/69/5
f 225/34/4 226/34/4 227/34/4
f 227/34/4 226/34/4 228/34/4
f 229/34/6 230/34/6 231/34/6
f 231/34/6 230/34/6 232/34/6
f 233/34/4 234/34/4 235/34/4
f 235/34/4 234/34/4 236/34/4
f 238/34/1 237/34/1 239/34/1
f 238/34/1 239/34/1 240/34/1
f 242/34/5 241/34/5 243/34/5
f 242/34/5 243/34/5 244/34/5
f 245/34/6 246/34/6 247/34/6
f 247/34/6 246/34/6 248/34/6
f 249/34/4 250/34/4 251/34/4
f 251/34/4 250/34/4 252/34/4
f 254/71/1 253/70/1 255/72/1
f 254/71/1 255/72/1 256/73/1
f 258/75/5 257/74/5 259/76/5
f 258/75/5 259/76/5 260/77/5
f 261/34/4 262/34/4 263/34/4
f 263/34/4 262/34/4 264/34/4
f 266/79/1 265/78/1 267/80/1
f 266/79/1 267/80/1 268/81/1
f 270/83/5 269/82/5 271/84/5
f 270/83/5 271/84/5 272/85/5
f 274/34/1 273/34/1 275/34/1
f 274/34/1 275/34/1 276/34/1
f 278/87/5 277/86/5 279/88/5
f 278/87/5 279/88/5 280/89/5
f 281/52/6 282/52/6 283/52/6
f 283/52/6 282/52/6 284/52/6
f 286/65/5 285/65/5 287/65/5
f 286/65/5 287/65/5 288/65/5
f 290/65/5 289/65/5 291/65/5
f 290/65/5 291/65/5 292/65/5
f 294/65/5 293/65/5 295/65/5
f 294/65/5 295/65/5 296/65/5
f 298/34/5 297/34/5 299/34/5
f 298/34/5 299/34/5 300/34/5
f 302/34/5 301/34/5 303/34/5
f 302/34/5 303/34/5 304/34/5
f 305/90/4 306/91/4 307/92/4
f 307/92/4 306/91/4 308/93/4
f 310/95/3 309/94/3 311/96/3
f 310/95/3 311/96/3 312/97/3
f 313/34/4 314/34/4 315/34/4
f 315/34/4 314/34/4 316/34/4
f 318/34/5 317/34/5 319/34/5
f 318/34/5 319/34/5 320/34/5
f 321/34/4 322/34/4 323/34/4
f 323/34/4 322/34/4 324/34/4
f 326/34/1 325/34/1 327/34/1
f 326/34/1 327/34/1 328/34/1
f 330/34/5 329/34/5 331/34/5
f 330/34/5 331/34/5 332/34/5
f 334/34/1 333/34/1 335/34/1
f 334/34/1 335/34/1 336/34/1
f 338/34/5 337/34/5 339/34/5
f 338/34/5 339/34/5 340/34/5
f 342/34/5 341/34/5 343/34/5
f 342/34/5 343/34/5 344/34/5
f 346/34/5 345/34/5 347/34/5
f 346/34/5 347/34/5 348/34/5
f 350/34/5 349/34/5 351/34/5
f 350/34/5 351/34/5 352/34/5
f 354/99/5 353/98/5 355/100/5
f 354/99/5 355/100/5 356/101/5
f 357/34/4 358/34/4 359/34/4
f 359/34/4 358/34/4 360/34/4
f 361/102/4 362/102/4 363/102/4
f 363/102/4 362/102/4 364/102/4
f 366/102/1 365/102/1 367/102/1
f 366/102/1 367/102/1 368/102/1
f 370/102/5 369/102/5 371/102/5
f 370/102/5 371/102/5 372/102/5
f 374/102/3 373/102/3 375/102/3
f 374/102/3 375/102/3 376/102/3
f 377/102/6 378/102/6 379/102/6
f 379/102/6 378/102/6 380/102/6
f 382/102/1 381/102/1 383/102/1
f 382/102/1 383/102/1 384/102/1
f 386/102/5 385/102/5 387/102/5
f 386/102/5 387/102/5 388/102/5
f 389/102/6 390/102/6 391/102/6
f 391/102/6 390/102/6 392/102/6
f 394/104/5 393/103/5 395/105/5
f 394/104/5 395/105/5 396/106/5
f 398/108/3 397/107/3 399/109/3
f 398/108/3 399/109/3 400/110/3
f 401/111/6 402/111/6 403/111/6
f 403/111/6 402/111/6 404/111/6
f 405/34/4 406/34/4 407/34/4
f 407/34/4 406/34/4 408/34/4
f 409/34/6 410/34/6 411/34/6
f 411/34/6 410/34/6 412/34/6
f 414/113/5 413/112/5 415/114/5
f 414/113/5 415/114/5 416/115/5
f 418/34/3 417/34/3 419/34/3
f 418/34/3 419/34/3 420/34/3
f 421/34/4 422/34/4 423/34/4
f 423/34/4 422/34/4 424/34/4
f 426/117/5 425/116/5 427/118/5
f 426/117/5 427/118/5 428/119/5
f 429/25/4 430/25/4 431/25/4
f 431/25/4 430/25/4 432/25/4
f 434/34/1 433/34/1 435/34/1
f 434/34/1 435/34/1 436/34/1
f 438/121/5 437/120/5 439/122/5
f 438/121/5 439/122/5 440/123/5
f 442/65/5 441/65/5 443/65/5
f 442/65/5 443/65/5 444/65/5
f 446/34/5 445/34/5 447/34/5
f 446/34/5 447/34/5 448/34/5
f 450/34/5 449/34/5 451/34/5
f 450/34/5 451/34/5 452/34/5
f 454/34/3 453/34/3 455/34/3
f 454/34/3 455/34/3 456/34/3
f 457/34/6 458/34/6 459/34/6
f 459/34/6 458/34/6 460/34/6
f 462/34/5 461/34/5 463/34/5
f 462/34/5 463/34/5 464/34/5
f 466/34/3 465/34/3 467/34/3
f 466/34/3 467/34/3 468/34/3
f 469/34/4 470/34/4 471/34/4
f 471/34/4 470/34/4 472/34/4
f 474/34/5 473/34/5 475/34/5
f 474/34/5 475/34/5 476/34/5
f 478/34/3 477/34/3 479/34/3
f 478/34/3 479/34/3 480/34/3
f 482/34/1 481/34/1 483/34/1
f 482/34/1 483/34/1 484/34/1
f 486/34/5 485/34/5 487/34/5
f 486/34/5 487/34/5 488/34/5
f 490/34/3 489/34/3 491/34/3
f 490/34/3 491/34/3 492/34/3
f 493/34/6 494/34/6 495/34/6
f 495/34/6 494/34/6 496/34/6
f 498/34/5 497/34/5 499/34/5
f 498/34/5 499/34/5 500/34/5
f 502/34/3 501/34/3 503/34/3
f 502/34/3 503/34/3 504/34/3
f 506/34/5 505/34/5 507/34/5
f 506/34/5 507/34/5 508/34/5
f 510/34/5 509/34/5 511/34/5
f 510/34/5 511/34/5 512/34/5
f 514/125/5 513/124/5 515/126/5
f 514/125/5 515/126/5 516/127/5
f 518/129/3 517/128/3 519/130/3
f 518/129/3 519/130/3 520/131/3
f 521/34/4 522/34/4 523/34/4
f 523/34/4 522/34/4 524/34/4
f 525/34/4 526/34/4 527/34/4
f 527/34/4 526/34/4 528/34/4
f 530/34/1 529/34/1 531/34/1
f 530/34/1 531/34/1 532/34/1
f 534/34/5 533/34/5 535/34/5
f 534/34/5 535/34/5 536/34/5
f 538/34/3 537/34/3 539/34/3
f 538/34/3 539/34/3 540/34/3
f 541/34/4 542/34/4 543/34/4
f 543/34/4 542/34/4 544/34/4
f 546/34/1 545/34/1 547/34/1
f 546/34/1 547/34/1 548/34/1
f 550/34/5 549/34/5 551/34/5
f 550/34/5 551/34/5 552/34/5
f 554/34/3 553/34/3 555/34/3
f 554/34/3 555/34/3 556/34/3
f 557/34/6 558/34/6 559/34/6
f 559/34/6 558/34/6 560/34/6
f 561/132/6 562/133/6 563/134/6
f 563/134/6 562/133/6 564/135/6
f 566/137/5 565/136/5 567/138/5
f 566/137/5 567/138/5 568/139/5
f 569/34/4 570/34/4 571/34/4
f 571/34/4 570/34/4 572/34/4
f 573/140/4 574/140/4 575/140/4
f 575/140/4 574/140/4 576/140/4
f 578/140/1 577/140/1 579/140/1
f 578/140/1 579/140/1 580/140/1
f 582/142/5 581/141/5 583/143/5
f 582/142/5 583/143/5 584/144/5
f 586/34/1 585/34/1 587/34/1
f 586/34/1 587/34/1 588/34/1
f 590/146/5 589/145/5 591/147/5
f 590/146/5 591/147/5 592/148/5
f 594/34/3 593/34/3 595/34/3
f 594/34/3 595/34/3 596/34/3
f 598/150/5 597/149/5 599/151/5
f 598/150/5 599/151/5 600/152/5
f 602/102/3 601/102/3 603/102/3
f 602/102/3 603/102/3 604/102/3
f 606/154/5 605/153/5 607/155/5
f 606/154/5 607/155/5 608/156/5
f 610/34/3 609/34/3 611/34/3
f 610/34/3 611/34/3 612/34/3
f 614/65/5 613/65/5 615/65/5
f 614/65/5 615/65/5 616/65/5
f 618/65/5 617/65/5 619/65/5
f 618/65/5 619/65/5 620/65/5
f 621/157/4 622/158/4 623/159/4
f 623/159/4 622/158/4 624/160/4
f 626/34/1 625/34/1 627/34/1
f 626/34/1 627/34/1 628/34/1
f 630/34/5 629/34/5 631/34/5
f 630/34/5 631/34/5 632/34/5
f 633/34/4 634/34/4 635/34/4
f 635/34/4 634/34/4 636/34/4
f 638/34/5 637/34/5 639/34/5
f 638/34/5 639/34/5 640/34/5
f 642/34/3 641/34/3 643/34/3
f 642/34/3 643/34/3 644/34/3
f 646/34/1 645/34/1 647/34/1
f 646/34/1 647/34/1 648/34/1
f 650/34/5 649/34/5 651/34/5
f 650/34/5 651/34/5 652/34/5
f 654/34/5 653/34/5 655/34/5
f 654/34/5 655/34/5 656/34/5
f 658/162/5 657/161/5 659/163/5
f 658/162/5 659/163/5 660/164/5
f 662/166/3 661/165/3 663/167/3
f 662/166/3 663/167/3 664/168/3
f 665/51/6 666/51/6 667/51/6
f 667/51/6 666/51/6 668/51/6
f 669/34/6 670/34/6 671/34/6
f 671/34/6 670/34/6 672/34/6
f 674/34/1 673/34/1 675/34/1
f 674/34/1 675/34/1 676/34/1
f 678/34/5 677/34/5 679/34/5
f 678/34/5 679/34/5 680/34/5
f 682/34/3 681/34/3 683/34/3
f 682/34/3 683/34/3 684/34/3
f 685/34/6 686/34/6 687/34/6
f 687/34/6 686/34/6 688/34/6
f 689/34/4 690/34/4 691/34/4
f 691/34/4 690/34/4 692/34/4
f 694/34/5 693/34/5 695/34/5
f 694/34/5 695/34/5 696/34/5
f 698/34/3 697/34/3 699/34/3
f 698/34/3 699/34/3 700/34/3
f 702/34/1 701/34/1 703/34/1
f 702/34/1 703/34/1 704/34/1
f 706/170/5 705/169/5 707/171/5
f 706/170/5 707/171/5 708/172/5
f 710/174/3 709/173/3 711/175/3
f 710/174/3 711/175/3 712/176/3
f 713/34/6 714/34/6 715/34/6
f 715/34/6 714/34/6 716/34/6
f 717/34/4 718/34/4 719/34/4
f 719/34/4 718/34/4 720/34/4
f 722/34/1 721/34/1 723/34/1
f 722/34/1 723/34/1 724/34/1
f 726/178/5 725/177/5 727/179/5
f 726/178/5 727/179/5 728/180/5
f 730/34/3 729/34/3 731/34/3
f 730/34/3 731/34/3 732/34/3
f 734/182/5 733/181/5 735/183/5
f 734/182/5 735/183/5 736/184/5
f 738/34/3 737/34/3 739/34/3
f 738/34/3 739/34/3 740/34/3
f 742/65/5 741/65/5 743/65/5
f 742/65/5 743/65/5 744/65/5
f 746/34/5 745/34/5 747/34/5
f 746/34/5 747/34/5 748/34/5
f 750/34/5 749/34/5 751/34/5
f 750/34/5 751/34/5 752/34/5
f 754/34/3 753/34/3 755/34/3
f 754/34/3 755/34/3 756/34/3
f 757/34/6 758/34/6 759/34/6
f 759/34/6 758/34/6 760/34/6
f 762/34/5 761/34/5 763/34/5
f 762/34/5 763/34/5 764/34/5
f 765/185/6 766/186/6 767/187/6
f 767/187/6 766/186/6 768/188/6
f 769/34/4 770/34/4 771/34/4
f 771/34/4 770/34/4 772/34/4
f 774/34/5 773/34/5 775/34/5
f 774/34/5 775/34/5 776/34/5
f 778/34/3 777/34/3 779/34/3
f 778/34/3 779/34/3 780/34/3
f 781/34/6 782/34/6 783/34/6
f 783/34/6 782/34/6 784/34/6
f 786/34/5 785/34/5 787/34/5
f 786/34/5 787/34/5 788/34/5
f 790/190/5 789/189/5 791/191/5
f 790/190/5 791/191/5 792/192/5
f 793/34/4 794/34/4 795/34/4
f 795/34/4 794/34/4 796/34/4
f 798/102/1 797/102/1 799/102/1
f 798/102/1 799/102/1 800/102/1
f 802/194/5 801/193/5 803/195/5
f 802/194/5 803/195/5 804/196/5
f 805/111/4 806/111/4 807/111/4
f 807/111/4 806/111/4 808/111/4
f 810/34/1 809/34/1 811/34/1
f 810/34/1 811/34/1 812/34/1
f 813/34/4 814/34/4 815/34/4
f 815/34/4 814/34/4 816/34/4
f 818/34/5 817/34/5 819/34/5
f 818/34/5 819/34/5 820/34/5
f 822/34/3 821/34/3 823/34/3
f 822/34/3 823/34/3 824/34/3
f 826/34/1 825/34/1 827/34/1
f 826/34/1 827/34/1 828/34/1
f 830/198/5 829/197/5 831/199/5
f 830/198/5 831/199/5 832/200/5
f 834/202/3 833/201/3 835/203/3
f 834/202/3 835/203/3 836/204/3
f 837/205/6 838/205/6 839/205/6
f 839/205/6 838/205/6 840/205/6
f 842/65/5 841/65/5 843/65/5
f 842/65/5 843/65/5 844/65/5
f 846/65/5 845/65/5 847/65/5
f 846/65/5 847/65/5 848/65/5
f 850/65/5 849/65/5 851/65/5
f 850/65/5 851/65/5 852/65/5
f 853/206/4 854/207/4 855/208/4
f 855/208/4 854/207/4 856/209/4
f 858/34/5 857/34/5 859/34/5
f 858/34/5 859/34/5 860/34/5
f 861/34/4 862/34/4 863/34/4
f 863/34/4 862/34/4 864/34/4
f 866/34/1 865/34/1 867/34/1
f 866/34/1 867/34/1 868/34/1
f 870/211/1 869/210/1 871/212/1
f 870/211/1 871/212/1 872/213/1
f 873/214/6 874/215/6 875/216/6
f 875/216/6 874/215/6 876/217/6
f 877/34/4 878/34/4 879/34/4
f 879/34/4 878/34/4 880/34/4
f 882/34/5 881/34/5 883/34/5
f 882/34/5 883/34/5 884/34/5
f 886/34/3 885/34/3 887/34/3
f 886/34/3 887/34/3 888/34/3
f 890/34/1 889/34/1 891/34/1
f 890/34/1 891/34/1 892/34/1
f 893/34/6 894/34/6 895/34/6
f 895/34/6 894/34/6 896/34/6
f 898/34/5 897/34/5 899/34/5
f 898/34/5 899/34/5 900/34/5
f 902/219/5 901/218/5 903/220/5
f 902/219/5 903/220/5 904/221/5
f 906/34/3 905/34/3 907/34/3
f 906/34/3 907/34/3 908/34/3
f 910/223/5 909/222/5 911/224/5
f 910/223/5 911/224/5 912/225/5
f 914/227/3 913/226/3 915/228/3
f 914/227/3 915/228/3 916/229/3
f 917/34/4 918/34/4 919/34/4
f 919/34/4 918/34/4 920/34/4
f 921/34/6 922/34/6 923/34/6
f 923/34/6 922/34/6 924/34/6
f 925/34/4 926/34/4 927/34/4
f 927/34/4 926/34/4 928/34/4
f 930/34/5 929/34/5 931/34/5
f 930/34/5 931/34/5 932/34/5
f 934/34/3 933/34/3 935/34/3
f 934/34/3 935/34/3 936/34/3
f 937/34/6 938/34/6 939/34/6
f 939/34/6 938/34/6 940/34/6
f 941/51/4 942/51/4 943/51/4
f 943/51/4 942/51/4 944/51/4
f 946/34/1 945/34/1 947/34/1
f 946/34/1 947/34/1 948/34/1
f 950/65/5 949/65/5 951/65/5
f 950/65/5 951/65/5 952/65/5
f 954/231/5 953/230/5 955/232/5
f 954/231/5 955/232/5 956/233/5
f 957/34/4 958/34/4 959/34/4
f 959/34/4 958/34/4 960/34/4
f 962/34/5 961/34/5 963/34/5
f 962/34/5 963/34/5 964/34/5
f 966/34/3 965/34/3 967/34/3
f 966/34/3 967/34/3 968/34/3
f 970/34/1 969/34/1 971/34/1
f 970/34/1 971/34/1 972/34/1
f 974/34/5 973/34/5 975/34/5
f 974/34/5 975/34/5 976/34/5
f 977/34/6 978/34/6 979/34/6
f 979/34/6 978/34/6 980/34/6
f 982/235/1 981/234/1 983/236/1
f 982/235/1 983/236/1 984/237/1
f 986/239/5 985/238/5 987/240/5
f 986/239/5 987/240/5 988/241/5
f 989/52/6 990/52/6 991/52/6
f 991/52/6 990/52/6 992/52/6
f 993/242/6 994/243/6 995/244/6
f 995/244/6 994/243/6 996/245/6
f 998/247/5 997/246/5 999/248/5
f 998/247/5 999/248/5 1000/249/5
f 1002/251/3 1001/250/3 1003/252/3
f 1002/251/3 1003/252/3 1004/253/3
f 1005/34/4 1006/34/4 1007/34/4
f 1007/34/4 1006/34/4 1008/34/4
f 1009/34/2 1010/34/2 1011/34/2
f 1011/34/2 1010/34/2 1012/34/2
f 1014/34/1 1013/34/1 1015/34/1
f 1014/34/1 1015/34/1 1016/34/1
f 1017/34/6 1018/34/6 1019/34/6
f 1019/34/6 1018/34/6 1020/34/6
f 1021/34/4 1022/34/4 1023/34/4
f 1023/34/4 1022/34/4 1024/34/4
f 1026/34/5 1025/34/5 1027/34/5
f 1026/34/5 1027/34/5 1028/34/5
f 1030/34/3 1029/34/3 1031/34/3
f 1030/34/3 1031/34/3 1032/34/3
f 1034/255/1 1033/254/1 1035/256/1
f 1034/255/1 1035/256/1 1036/257/1
f 1038/259/5 1037/258/5 1039/260/5
f 1038/259/5 1039/260/5 1040/261/5
f 1041/25/6 1042/25/6 1043/25/6
f 1043/25/6 1042/25/6 1044/25/6
f 1046/263/5 1045/262/5 1047/264/5
f 1046/263/5 1047/264/5 1048/265/5
f 1050/34/3 1049/34/3 1051/34/3
f 1050/34/3 1051/34/3 1052/34/3
f 1054/65/5 1053/65/5 1055/65/5
f 1054/65/5 1055/65/5 1056/65/5
f 1058/34/5 1057/34/5 1059/34/5
f 1058/34/5 1059/34/5 1060/34/5
f 1062/34/5 1061/34/5 1063/34/5
f 1062/34/5 1063/34/5 1064/34/5
f 1066/52/3 1065/52/3 1067/52/3
f 1066/52/3 1067/52/3 1068/52/3
f 1069/34/4 1070/34/4 1071/34/4
f 1071/34/4 1070/34/4 1072/34/4
f 1074/34/5 1073/34/5 1075/34/5
f 1074/34/5 1075/34/5 1076/34/5
f 1078/34/3 1077/34/3 1079/34/3
f 1078/34/3 1079/34/3 1080/34/3
f 1082/34/1 1081/34/1 1083/34/1
f 1082/34/1 1083/34/1 1084/34/1
f 1086/34/5 1085/34/5 1087/34/5
f 1086/34/5 1087/34/5 1088/34/5
f 1090/34/5 1089/34/5 1091/34/5
f 1090/34/5 1091/34/5 1092/34/5
f 1094/267/5 1093/266/5 1095/268/5
f 1094/267/5 1095/268/5 1096/269/5
f 1097/52/6 1098/52/6 1099/52/6
f 1099/52/6 1098/52/6 1100/52/6
f 1101/34/4 1102/34/4 1103/34/4
f 1103/34/4 1102/34/4 1104/34/4
f 1105/270/4 1106/270/4 1107/270/4
f 1107/270/4 1106/270/4 1108/270/4
f 1110/270/1 1109/270/1 1111/270/1
f 1110/270/1 1111/270/1 1112/270/1
f 1114/272/5 1113/271/5 1115/273/5
f 1114/272/5 1115/273/5 1116/274/5
f 1118/140/1 1117/140/1 1119/140/1
f 1118/140/1 1119/140/1 1120/140/1
f 1122/276/5 1121/275/5 1123/277/5
f 1122/276/5 1123/277/5 1124/278/5
f 1125/34/4 1126/34/4 1127/34/4
f 1127/34/4 1126/34/4 1128/34/4
f 1130/34/3 1129/34/3 1131/34/3
f 1130/34/3 1131/34/3 1132/34/3
f 1134/280/5 1133/279/5 1135/281/5
f 1134/280/5 1135/281/5 1136/282/5
f 1137/34/6 1138/34/6 1139/34/6
f 1139/34/6 1138/34/6 1140/34/6
f 1141/51/4 1142/51/4 1143/51/4
f 1143/51/4 1142/51/4 1144/51/4
f 1146/34/1 1145/34/1 1147/34/1
f 1146/34/1 1147/34/1 1148/34/1
f 1150/284/5 1149/283/5 1151/285/5
f 1150/284/5 1151/285/5 1152/286/5
f 1154/34/5 1153/34/5 1155/34/5
f 1154/34/5 1155/34/5 1156/34/5
f 1158/34/3 1157/34/3 1159/34/3
f 1158/34/3 1159/34/3 1160/34/3
f 1161/34/4 1162/34/4 1163/34/4
f 1163/34/4 1162/34/4 1164/34/4
f 1166/34/5 1165/34/5 1167/34/5
f 1166/34/5 1167/34/5 1168/34/5
f 1170/34/3 1169/34/3 1171/34/3
f 1170/34/3 1171/34/3 1172/34/3
f 1173/65/6 1174/65/6 1175/65/6
f 1175/65/6 1174/65/6 1176/65/6
f 1178/34/5 1177/34/5 1179/34/5
f 1178/34/5 1179/34/5 1180/34/5
f 1181/34/4 1182/34/4 1183/34/4
f 1183/34/4 1182/34/4 1184/34/4
f 1186/52/1 1185/52/1 1187/52/1
f 1186/52/1 1187/52/1 1188/52/1
f 1190/288/5 1189/287/5 1191/289/5
f 1190/288/5 1191/289/5 1192/290/5
f 1194/52/3 1193/52/3 1195/52/3
f 1194/52/3 1195/52/3 1196/52/3
f 1198/292/5 1197/291/5 1199/293/5
f 1198/292/5 1199/293/5 1200/294/5
f 1202/296/3 1201/295/3 1203/297/3
f 1202/296/3 1203/297/3 1204/298/3
f 1206/300/5 1205/299/5 1207/301/5
f 1206/300/5 1207/301/5 1208/302/5
f 1210/34/3 1209/34/3 1211/34/3
f 1210/34/3 1211/34/3 1212/34/3
f 1214/304/3 1213/303/3 1215/305/3
f 1214/304/3 1215/305/3 1216/306/3
f 1217/102/4 1218/102/4 1219/102/4
f 1219/102/4 1218/102/4 1220/102/4
f 1221/102/6 1222/102/6 1223/102/6
f 1223/102/6 1222/102/6 1224/102/6
f 1226/308/1 1225/307/1 1227/309/1
f 1226/308/1 1227/309/1 1228/310/1
f 1230/312/5 1229/311/5 1231/313/5
f 1230/312/5 1231/313/5 1232/314/5
f 1234/34/3 1233/34/3 1235/34/3
f 1234/34/3 1235/34/3 1236/34/3
f 1238/65/5 1237/65/5 1239/65/5
f 1238/65/5 1239/65/5 1240/65/5
f 1242/34/5 1241/34/5 1243/34/5
f 1242/34/5 1243/34/5 1244/34/5
f 1246/34/1 1245/34/1 1247/34/1
f 1246/34/1 1247/34/1 1248/34/1
f 1250/316/5 1249/315/5 1251/317/5
f 1250/316/5 1251/317/5 1252/318/5
f 1254/34/3 1253/34/3 1255/34/3
f 1254/34/3 1255/34/3 1256/34/3
f 1258/320/5 1257/319/5 1259/321/5
f 1258/320/5 1259/321/5 1260/322/5
f 1261/25/4 1262/25/4 1263/25/4
f 1263/25/4 1262/25/4 1264/25/4
f 1265/34/6 1266/34/6 1267/34/6
f 1267/34/6 1266/34/6 1268/34/6
f 1269/34/4 1270/34/4 1271/34/4
f 1271/34/4 1270/34/4 1272/34/4
f 1274/34/5 1273/34/5 1275/34/5
f 1274/34/5 1275/34/5 1276/34/5
f 1278/34/3 1277/34/3 1279/34/3
f 1278/34/3 1279/34/3 1280/34/3
f 1282/34/5 1281/34/5 1283/34/5
f 1282/34/5 1283/34/5 1284/34/5
f 1286/324/5 1285/323/5 1287/325/5
f 1286/324/5 1287/325/5 1288/326/5
f 1290/328/3 1289/327/3 1291/329/3
f 1290/328/3 1291/329/3 1292/330/3
f 1293/34/4 1294/34/4 1295/34/4
f 1295/34/4 1294/34/4 1296/34/4
f 1298/332/1 1297/331/1 1299/333/1
f 1298/332/1 1299/333/1 1300/334/1
f 1302/336/5 1301/335/5 1303/337/5
f 1302/336/5 1303/337/5 1304/338/5
f 1306/34/5 1305/34/5 1307/34/5
f 1306/34/5 1307/34/5 1308/34/5
f 1310/34/3 1309/34/3 1311/34/3
f 1310/34/3 1311/34/3 1312/34/3
f 1313/34/6 1314/34/6 1315/34/6
f 1315/34/6 1314/34/6 1316/34/6
f 1317/51/6 1318/51/6 1319/51/6
f 1319/51/6 1318/51/6 1320/51/6
f 1321/34/4 1322/34/4 1323/34/4
f 1323/34/4 1322/34/4 1324/34/4
f 1326/340/5 1325/339/5 1327/341/5
f 1326/340/5 1327/341/5 1328/342/5
f 1330/34/3 1329/34/3 1331/34/3
f 1330/34/3 1331/34/3 1332/34/3
f 1334/65/5 1333/65/5 1335/65/5
f 1334/65/5 1335/65/5 1336/65/5
f 1338/34/5 1337/34/5 1339/34/5
f 1338/34/5 1339/34/5 1340/34/5
f 1341/343/4 1342/344/4 1343/345/4
f 1343/345/4 1342/344/4 1344/346/4
f 1346/348/1 1345/347/1 1347/349/1
f 1346/348/1 1347/349/1 1348/350/1
f 1349/51/4 1350/51/4 1351/51/4
f 1351/51/4 1350/51/4 1352/51/4
f 1354/352/5 1353/351/5 1355/353/5
f 1354/352/5 1355/353/5 1356/354/5
f 1358/140/1 1357/140/1 1359/140/1
f 1358/140/1 1359/140/1 1360/140/1
f 1362/356/5 1361/355/5 1363/357/5
f 1362/356/5 1363/357/5 1364/358/5
f 1366/34/3 1365/34/3 1367/34/3
f 1366/34/3 1367/34/3 1368/34/3
f 1370/360/5 1369/359/5 1371/361/5
f 1370/360/5 1371/361/5 1372/362/5
f 1374/34/3 1373/34/3 1375/34/3
f 1374/34/3 1375/34/3 1376/34/3
f 1378/364/3 1377/363/3 1379/365/3
f 1378/364/3 1379/365/3 1380/366/3
f 1382/368/5 1381/367/5 1383/369/5
f 1382/368/5 1383/369/5 1384/370/5
f 1386/205/3 1385/205/3 1387/205/3
f 1386/205/3 1387/205/3 1388/205/3
f 1390/372/5 1389/371/5 1391/373/5
f 1390/372/5 1391/373/5 1392/374/5
f 1393/51/6 1394/51/6 1395/51/6
f 1395/51/6 1394/51/6 1396/51/6
f 1398/376/5 1397/375/5 1399/377/5
f 1398/376/5 1399/377/5 1400/378/5
f 1401/379/4 1402/380/4 1403/381/4
f 1403/381/4 1402/380/4 1404/382/4
f 1406/34/1 1405/34/1 1407/34/1
f 1406/34/1 1407/34/1 1408/34/1
f 1409/34/6 1410/34/6 1411/34/6
f 1411/34/6 1410/34/6 1412/34/6
f 1414/34/5 1413/34/5 1415/34/5
f 1414/34/5 1415/34/5 1416/34/5
f 1418/52/1 1417/52/1 1419/52/1
f 1418/52/1 1419/52/1 1420/52/1
f 1422/384/5 1421/383/5 1423/385/5
f 1422/384/5 1423/385/5 1424/386/5
f 1426/388/3 1425/387/3 1427/389/3
f 1426/388/3 1427/389/3 1428/390/3
f 1429/391/6 1430/392/6 1431/393/6
f 1431/393/6 1430/392/6 1432/394/6
