# Export of Cubik Model: Cubik Model
# Designed by MeLee with Cubik Studio - https://cubik.studio
# from Cubik OBJ Exporter v1.0
mtllib street_32_sidewalk_full_1.mtl
v 0 0 1.907349E-06
v -16 0 1.907349E-06
v 0 2 1.907349E-06
v -16 2 1.907349E-06
v 0 0 1.907349E-06
v -16 0 1.907349E-06
v 0 0 -16
v -16 0 -16
v 0 0 1.907349E-06
v 0 2 1.907349E-06
v 0 0 -16
v 0 2 -16
v 0 0 -16
v -16 0 -16
v 0 2 -16
v -16 2 -16
v 0 2 1.907349E-06
v -16 2 1.907349E-06
v 0 2 -16
v -16 2 -16
v -16 0 1.907349E-06
v -16 2 1.907349E-06
v -16 0 -16
v -16 2 -16
vn 0 -5.960464E-08 0.9999999
vn 0 -0.9999999 -5.960464E-08
vn 1 0 0
vn 0 5.960464E-08 -0.9999999
vn 0 0.9999999 5.960464E-08
vn -1 0 0
vt 0.015625 0.5703125
vt 0.515625 0.5703125
vt 0.015625 0.6015625
vt 0.515625 0.6015625
vt 0.015625 0.0078125
vt 0.515625 0.0078125
vt 0.015625 0.2578125
vt 0.515625 0.2578125
vt 0.578125 0.0078125
vt 0.640625 0.0078125
vt 0.578125 0.2578125
vt 0.640625 0.2578125
vt 0.015625 0.6328125
vt 0.515625 0.6328125
vt 0.015625 0.6640625
vt 0.515625 0.6640625
vt 0.015625 0.2890625
vt 0.515625 0.2890625
vt 0.015625 0.5390625
vt 0.515625 0.5390625
vt 0.703125 0.0078125
vt 0.765625 0.0078125
vt 0.703125 0.2578125
vt 0.765625 0.2578125
usemtl voxel
f 2/2/1 1/1/1 3/3/1
f 2/2/1 3/3/1 4/4/1
f 5/5/2 6/6/2 7/7/2
f 7/7/2 6/6/2 8/8/2
f 10/10/3 9/9/3 11/11/3
f 10/10/3 11/11/3 12/12/3
f 13/13/4 14/14/4 15/15/4
f 15/15/4 14/14/4 16/16/4
f 18/18/5 17/17/5 19/19/5
f 18/18/5 19/19/5 20/20/5
f 21/21/6 22/22/6 23/23/6
f 23/23/6 22/22/6 24/24/6
