# Export of Cubik Model: Cubik Model
# Designed by MeLee with Cubik Studio - https://cubik.studio
# from Cubik OBJ Exporter v1.0
mtllib grass_1b_a_mi.mtl
v 0 0 1.907349E-06
v -16 0 1.907349E-06
v 0 2 1.907349E-06
v -16 2 1.907349E-06
v 0 0 1.907349E-06
v -16 0 1.907349E-06
v 0 0 -16
v -16 0 -16
v 0 0 1.907349E-06
v 0 2 1.907349E-06
v 0 0 -16
v 0 2 -16
v 0 0 -16
v -16 0 -16
v 0 2 -16
v -16 2 -16
v 0 2 1.907349E-06
v -1.5 2 1.907349E-06
v 0 2 -16
v -1.5 2 -16
v -1.5 2 1.907349E-06
v -2.5 2 1.907349E-06
v -1.5 2 -3.999998
v -2.5 2 -3.999998
v -1.5 2 -4.499998
v -2 2 -4.499998
v -1.5 2 -7.499998
v -2 2 -7.499998
v -1.5 2 -7.999998
v -2 2 -7.999998
v -1.5 2 -8.499998
v -2 2 -8.499998
v -1.5 2 -9.499998
v -2 2 -9.499998
v -1.5 2 -9.999998
v -2 2 -9.999998
v -1.5 2 -10.5
v -2 2 -10.5
v -1.5 2 -16
v -2 2 -16
v -1.5 2 -4.499998
v -2 2 -4.499998
v -1.5 2.5 -4.499998
v -2 2.5 -4.499998
v -1.5 2 -3.999998
v -2 2 -3.999998
v -1.5 2.5 -3.999998
v -2 2.5 -3.999998
v -1.5 2.5 -3.999998
v -2 2.5 -3.999998
v -1.5 2.5 -4.499998
v -2 2.5 -4.499998
v -1.5 2 -3.999998
v -1.5 2.5 -3.999998
v -1.5 2 -4.499998
v -1.5 2.5 -4.499998
v -2 2 -3.999998
v -2 2.5 -3.999998
v -2 2 -4.499998
v -2 2.5 -4.499998
v -1.5 2 -7.999998
v -2 2 -7.999998
v -1.5 2.5 -7.999998
v -2 2.5 -7.999998
v -1.5 2 -7.499998
v -2 2 -7.499998
v -1.5 2.5 -7.499998
v -2 2.5 -7.499998
v -1.5 2.5 -7.499998
v -4 2.5 -7.499998
v -1.5 2.5 -7.999998
v -4 2.5 -7.999998
v -1.5 2 -7.499998
v -1.5 2.5 -7.499998
v -1.5 2 -7.999998
v -1.5 2.5 -7.999998
v -1.5 2 -8.499998
v -2 2 -8.499998
v -1.5 2.5 -8.499998
v -2 2.5 -8.499998
v -1.5 2.5 -8.499998
v -2 2.5 -8.499998
v -1.5 2.5 -9.499998
v -2 2.5 -9.499998
v -1.5 2 -8.499998
v -1.5 2.5 -8.499998
v -1.5 2 -9.499998
v -1.5 2.5 -9.499998
v -2 2 -8.499998
v -2 2.5 -8.499998
v -2 2 -9.499998
v -2 2.5 -9.499998
v -1.5 2 -9.499998
v -2 2 -9.499998
v -1.5 2.5 -9.499998
v -2 2.5 -9.499998
v -1.5 2 -10.5
v -2 2 -10.5
v -1.5 2.5 -10.5
v -2 2.5 -10.5
v -1.5 2 -9.999998
v -2 2 -9.999998
v -1.5 2.5 -9.999998
v -2 2.5 -9.999998
v -1.5 2.5 -9.999998
v -2 2.5 -9.999998
v -1.5 2.5 -10.5
v -2 2.5 -10.5
v -1.5 2 -9.999998
v -1.5 2.5 -9.999998
v -1.5 2 -10.5
v -1.5 2.5 -10.5
v -2 2 -9.999998
v -2 2.5 -9.999998
v -2 2 -10.5
v -2 2.5 -10.5
v -2 2 -3.999998
v -2.5 2 -3.999998
v -2 2 -4.499998
v -2.5 2 -4.499998
v -2 2 -8.499998
v -2.5 2 -8.499998
v -2 2 -9.499998
v -2.5 2 -9.499998
v -2 2 -9.999998
v -3.5 2 -9.999998
v -2 2 -10.5
v -3.5 2 -10.5
v -2 2 -11
v -2.5 2 -11
v -2 2 -16
v -2.5 2 -16
v -2.5 1.5 -11.5
v -2.5 2 -11.5
v -2.5 1.5 -12.5
v -2.5 2 -12.5
v -2 2 -4.499998
v -2.5 2 -4.499998
v -2 2.5 -4.499998
v -2.5 2.5 -4.499998
v -2 2.5 -4.499998
v -4.5 2.5 -4.499998
v -2 2.5 -7.499998
v -4.5 2.5 -7.499998
v -2 2 -4.499998
v -2 2.5 -4.499998
v -2 2 -7.499998
v -2 2.5 -7.499998
v -2 2 -8.499998
v -2.5 2 -8.499998
v -2 2.5 -8.499998
v -2.5 2.5 -8.499998
v -2 2.5 -7.999998
v -6 2.5 -7.999998
v -2 2.5 -8.499998
v -6 2.5 -8.499998
v -2 2 -7.999998
v -2 2.5 -7.999998
v -2 2 -8.499998
v -2 2.5 -8.499998
v -2 2 -9.999998
v -2.5 2 -9.999998
v -2 2.5 -9.999998
v -2.5 2.5 -9.999998
v -2 2 -9.499998
v -2.5 2 -9.499998
v -2 2.5 -9.499998
v -2.5 2.5 -9.499998
v -2 2.5 -9.499998
v -2.5 2.5 -9.499998
v -2 2.5 -9.999998
v -2.5 2.5 -9.999998
v -2 2 -9.499998
v -2 2.5 -9.499998
v -2 2 -9.999998
v -2 2.5 -9.999998
v -2.5 2 -9.499998
v -2.5 2.5 -9.499998
v -2.5 2 -9.999998
v -2.5 2.5 -9.999998
v -2 2 -11
v -2.5 2 -11
v -2 2.5 -11
v -2.5 2.5 -11
v -2 2 -10.5
v -2.5 2 -10.5
v -2 2.5 -10.5
v -2.5 2.5 -10.5
v -2 2.5 -10.5
v -2.5 2.5 -10.5
v -2 2.5 -11
v -2.5 2.5 -11
v -2 2 -10.5
v -2 2.5 -10.5
v -2 2 -11
v -2 2.5 -11
v -2.5 2 -10.5
v -2.5 2.5 -10.5
v -2.5 2 -11
v -2.5 2.5 -11
v -2.5 1.5 -11.5
v -3 1.5 -11.5
v -2.5 1.5 -12.5
v -3 1.5 -12.5
v -2.5 2 1.907349E-06
v -4 2 1.907349E-06
v -2.5 2 -3.499998
v -4 2 -3.499998
v -2.5 2 -9.499998
v -3 2 -9.499998
v -2.5 2 -9.999998
v -3 2 -9.999998
v -2.5 2 -10.5
v -3 2 -10.5
v -2.5 2 -11.5
v -3 2 -11.5
v -2.5 1.5 -11.5
v -3 1.5 -11.5
v -2.5 2 -11.5
v -3 2 -11.5
v -2.5 1.5 -12.5
v -3 1.5 -12.5
v -2.5 2 -12.5
v -3 2 -12.5
v -2.5 2 -12.5
v -3 2 -12.5
v -2.5 2 -16
v -3 2 -16
v -3 1.5 -13
v -3 2 -13
v -3 1.5 -13.5
v -3 2 -13.5
v -2.5 2 -3.499998
v -4 2 -3.499998
v -2.5 2.5 -3.499998
v -4 2.5 -3.499998
v -2.5 2.5 -3.499998
v -6.5 2.5 -3.499998
v -2.5 2.5 -4.499998
v -6.5 2.5 -4.499998
v -2.5 2 -3.499998
v -2.5 2.5 -3.499998
v -2.5 2 -4.499998
v -2.5 2.5 -4.499998
v -2.5 2.5 -8.499998
v -5.5 2.5 -8.499998
v -2.5 2.5 -9.499998
v -5.5 2.5 -9.499998
v -2.5 2 -8.499998
v -2.5 2.5 -8.499998
v -2.5 2 -9.499998
v -2.5 2.5 -9.499998
v -2.5 2 -9.499998
v -3 2 -9.499998
v -2.5 2.5 -9.499998
v -3 2.5 -9.499998
v -3 1.5 -13
v -3.5 1.5 -13
v -3 1.5 -13.5
v -3.5 1.5 -13.5
v -3 2 -11.5
v -3.5 2 -11.5
v -3 2 -13
v -3.5 2 -13
v -3 1.5 -11.5
v -3 2 -11.5
v -3 1.5 -12.5
v -3 2 -12.5
v -3.5 1.5 -11.5
v -3.5 2 -11.5
v -3.5 1.5 -12
v -3.5 2 -12
v -3 1.5 -13
v -3.5 1.5 -13
v -3 2 -13
v -3.5 2 -13
v -3 1.5 -13.5
v -3.5 1.5 -13.5
v -3 2 -13.5
v -3.5 2 -13.5
v -3 2 -13.5
v -4 2 -13.5
v -3 2 -16
v -4 2 -16
v -3 2 -9.999998
v -3.5 2 -9.999998
v -3 2.5 -9.999998
v -3.5 2.5 -9.999998
v -3 2.5 -9.499998
v -3.5 2.5 -9.499998
v -3 2.5 -9.999998
v -3.5 2.5 -9.999998
v -3 2 -9.499998
v -3 2.5 -9.499998
v -3 2 -9.999998
v -3 2.5 -9.999998
v -3.5 2 -9.499998
v -3.5 2.5 -9.499998
v -3.5 2 -9.999998
v -3.5 2.5 -9.999998
v -3 2 -10.5
v -3.5 2 -10.5
v -3 2.5 -10.5
v -3.5 2.5 -10.5
v -3 2.5 -10.5
v -4 2.5 -10.5
v -3 2.5 -11.5
v -4 2.5 -11.5
v -3 2 -10.5
v -3 2.5 -10.5
v -3 2 -11.5
v -3 2.5 -11.5
v -3 2 -11.5
v -4 2 -11.5
v -3 2.5 -11.5
v -4 2.5 -11.5
v -3.5 1.5 -11.5
v -4.5 1.5 -11.5
v -3.5 1.5 -12
v -4.5 1.5 -12
v -3.5 2 -9.499998
v -4 2 -9.499998
v -3.5 2 -9.999998
v -4 2 -9.999998
v -3.5 1.5 -11.5
v -4 1.5 -11.5
v -3.5 2 -11.5
v -4 2 -11.5
v -4 1.5 -11
v -4 2.5 -11
v -4 1.5 -11.5
v -4 2.5 -11.5
v -3.5 1.5 -12
v -4 1.5 -12
v -3.5 2 -12
v -4 2 -12
v -3.5 2 -12
v -4 2 -12
v -3.5 2 -13.5
v -4 2 -13.5
v -4 1.5 -12
v -4 2 -12
v -4 1.5 -12.5
v -4 2 -12.5
v -3.5 1.5 -13
v -3.5 2 -13
v -3.5 1.5 -13.5
v -3.5 2 -13.5
v -4 1.5 -13.5
v -4 2 -13.5
v -4 1.5 -14
v -4 2 -14
v -4 2 -7.499998
v -4 2.5 -7.499998
v -4 2 -7.999998
v -4 2.5 -7.999998
v -3.5 2 -9.499998
v -4 2 -9.499998
v -3.5 2.5 -9.499998
v -4 2.5 -9.499998
v -3.5 2 -9.999998
v -4 2 -9.999998
v -3.5 2.5 -9.999998
v -4 2.5 -9.999998
v -3.5 2.5 -9.999998
v -4 2.5 -9.999998
v -3.5 2.5 -10.5
v -4 2.5 -10.5
v -3.5 2 -9.999998
v -3.5 2.5 -9.999998
v -3.5 2 -10.5
v -3.5 2.5 -10.5
v -4 2 -9.999998
v -4 2.5 -9.999998
v -4 2 -11
v -4 2.5 -11
v -4 1.5 -11
v -5.5 1.5 -11
v -4 1.5 -11.5
v -5.5 1.5 -11.5
v -4.5 1 -11.5
v -4.5 1.5 -11.5
v -4.5 1 -12.5
v -4.5 1.5 -12.5
v -4 1.5 -12
v -4.5 1.5 -12
v -4 1.5 -12.5
v -4.5 1.5 -12.5
v -4 1.5 -13.5
v -5 1.5 -13.5
v -4 1.5 -14
v -5 1.5 -14
v -4 2 1.907349E-06
v -5.5 2 1.907349E-06
v -4 2 -2.999998
v -5.5 2 -2.999998
v -4 2 -7.499998
v -4.5 2 -7.499998
v -4 2 -7.999998
v -4.5 2 -7.999998
v -4 2 -9.999998
v -4.5 2 -9.999998
v -4 2 -11
v -4.5 2 -11
v -4 1.5 -11
v -4.5 1.5 -11
v -4 2 -11
v -4.5 2 -11
v -4.5 1.5 -10.5
v -4.5 2 -10.5
v -4.5 1.5 -11
v -4.5 2 -11
v -4 1.5 -12.5
v -4.5 1.5 -12.5
v -4 2 -12.5
v -4.5 2 -12.5
v -4 2 -12.5
v -4.5 2 -12.5
v -4 2 -13.5
v -4.5 2 -13.5
v -4.5 1.5 -12.5
v -4.5 2 -12.5
v -4.5 1.5 -13
v -4.5 2 -13
v -4 1.5 -13.5
v -5 1.5 -13.5
v -4 2 -13.5
v -5 2 -13.5
v -4 1.5 -14
v -5 1.5 -14
v -4 2 -14
v -5 2 -14
v -4 2 -14
v -16 2 -14
v -4 2 -16
v -16 2 -16
v -4 2 -2.999998
v -5.5 2 -2.999998
v -4 2.5 -2.999998
v -5.5 2.5 -2.999998
v -4 2.5 -2.999998
v -6.5 2.5 -2.999998
v -4 2.5 -3.499998
v -6.5 2.5 -3.499998
v -4 2 -2.999998
v -4 2.5 -2.999998
v -4 2 -3.499998
v -4 2.5 -3.499998
v -4.5 2 -4.999998
v -4.5 2.5 -4.999998
v -4.5 2 -6.999998
v -4.5 2.5 -6.999998
v -4 2 -7.499998
v -4.5 2 -7.499998
v -4 2.5 -7.499998
v -4.5 2.5 -7.499998
v -4 2 -7.999998
v -4.5 2 -7.999998
v -4 2.5 -7.999998
v -4.5 2.5 -7.999998
v -4 2 -9.999998
v -4.5 2 -9.999998
v -4 2.5 -9.999998
v -4.5 2.5 -9.999998
v -4 2.5 -9.499998
v -6 2.5 -9.499998
v -4 2.5 -9.999998
v -6 2.5 -9.999998
v -4 2 -9.499998
v -4 2.5 -9.499998
v -4 2 -9.999998
v -4 2.5 -9.999998
v -4.5 1 -11.5
v -5 1 -11.5
v -4.5 1 -12.5
v -5 1 -12.5
v -4.5 1.5 -10.5
v -6.5 1.5 -10.5
v -4.5 1.5 -11
v -6.5 1.5 -11
v -4.5 1 -11.5
v -5.5 1 -11.5
v -4.5 1.5 -11.5
v -5.5 1.5 -11.5
v -4.5 1 -12.5
v -5 1 -12.5
v -4.5 1.5 -12.5
v -5 1.5 -12.5
v -4.5 1.5 -12.5
v -5 1.5 -12.5
v -4.5 1.5 -13
v -5 1.5 -13
v -4.5 2 -4.999998
v -5 2 -4.999998
v -4.5 2 -6.999998
v -5 2 -6.999998
v -4.5 1.5 -10.5
v -5 1.5 -10.5
v -4.5 2.5 -10.5
v -5 2.5 -10.5
v -5 1.5 -9.999998
v -5 2.5 -9.999998
v -5 1.5 -10.5
v -5 2.5 -10.5
v -4.5 1.5 -13
v -5 1.5 -13
v -4.5 2 -13
v -5 2 -13
v -4.5 2 -13
v -5 2 -13
v -4.5 2 -13.5
v -5 2 -13.5
v -5 1.5 -13
v -5 2 -13
v -5 1.5 -13.5
v -5 2 -13.5
v -4.5 2 -4.999998
v -5 2 -4.999998
v -4.5 2.5 -4.999998
v -5 2.5 -4.999998
v -4.5 2.5 -4.499998
v -6.5 2.5 -4.499998
v -4.5 2.5 -4.999998
v -6.5 2.5 -4.999998
v -4.5 2 -6.999998
v -5 2 -6.999998
v -4.5 2.5 -6.999998
v -5 2.5 -6.999998
v -4.5 2.5 -6.999998
v -5 2.5 -6.999998
v -4.5 2.5 -7.999998
v -5 2.5 -7.999998
v -5 2 -6.999998
v -5 2.5 -6.999998
v -5 2 -7.499998
v -5 2.5 -7.499998
v -4.5 2 -7.499998
v -4.5 2.5 -7.499998
v -4.5 2 -7.999998
v -4.5 2.5 -7.999998
v -4.5 2.5 -9.999998
v -5 2.5 -9.999998
v -4.5 2.5 -10.5
v -5 2.5 -10.5
v -4.5 2 -9.999998
v -4.5 2.5 -9.999998
v -4.5 2 -10.5
v -4.5 2.5 -10.5
v -5 1 -11.5
v -5.5 1 -11.5
v -5 1 -12
v -5.5 1 -12
v -5 1.5 -9.999998
v -5.5 1.5 -9.999998
v -5 1.5 -10.5
v -5.5 1.5 -10.5
v -5.5 1 -9.999998
v -5.5 1.5 -9.999998
v -5.5 1 -10.5
v -5.5 1.5 -10.5
v -5.5 1 -11
v -5.5 1.5 -11
v -5.5 1 -11.5
v -5.5 1.5 -11.5
v -5 1 -12
v -5.5 1 -12
v -5 1.5 -12
v -5.5 1.5 -12
v -5 1.5 -12
v -6 1.5 -12
v -5 1.5 -12.5
v -6 1.5 -12.5
v -5 1 -12
v -5 1.5 -12
v -5 1 -12.5
v -5 1.5 -12.5
v -5 1.5 -13
v -6 1.5 -13
v -5 1.5 -13.5
v -6 1.5 -13.5
v -5 2 -6.499998
v -16 2 -6.499998
v -5 2 -7.499998
v -16 2 -7.499998
v -5 1.5 -9.999998
v -5.5 1.5 -9.999998
v -5 2.5 -9.999998
v -5.5 2.5 -9.999998
v -5.5 1.5 -9.499998
v -5.5 2 -9.499998
v -5.5 1.5 -9.999998
v -5.5 2 -9.999998
v -5 1.5 -13
v -5.5 1.5 -13
v -5 2 -13
v -5.5 2 -13
v -5 1.5 -12.5
v -5.5 1.5 -12.5
v -5 2 -12.5
v -5.5 2 -12.5
v -5 2 -12.5
v -5.5 2 -12.5
v -5 2 -13
v -5.5 2 -13
v -5 1.5 -12.5
v -5 2 -12.5
v -5 1.5 -13
v -5 2 -13
v -5.5 1.5 -12.5
v -5.5 2 -12.5
v -5.5 1.5 -13
v -5.5 2 -13
v -5 1.5 -13.5
v -5.5 1.5 -13.5
v -5 2 -13.5
v -5.5 2 -13.5
v -5 2 -13.5
v -5.5 2 -13.5
v -5 2 -14
v -5.5 2 -14
v -5 1.5 -13.5
v -5 2 -13.5
v -5 1.5 -14
v -5 2 -14
v -5.5 1.5 -13.5
v -5.5 2 -13.5
v -5.5 1.5 -14
v -5.5 2 -14
v -5 2.5 -4.999998
v -5.5 2.5 -4.999998
v -5 2.5 -6.499998
v -5.5 2.5 -6.499998
v -5 2 -4.999998
v -5 2.5 -4.999998
v -5 2 -6.499998
v -5 2.5 -6.499998
v -5 2 -6.499998
v -5.5 2 -6.499998
v -5 2.5 -6.499998
v -5.5 2.5 -6.499998
v -5.5 2 -5.999998
v -5.5 2.5 -5.999998
v -5.5 2 -6.499998
v -5.5 2.5 -6.499998
v -5 2 -7.499998
v -5.5 2 -7.499998
v -5 2.5 -7.499998
v -5.5 2.5 -7.499998
v -5 2.5 -7.499998
v -5.5 2.5 -7.499998
v -5 2.5 -7.999998
v -5.5 2.5 -7.999998
v -5.5 2 -7.499998
v -5.5 2.5 -7.499998
v -5.5 2 -7.999998
v -5.5 2.5 -7.999998
v -5.5 2 -8.499998
v -5.5 2.5 -8.499998
v -5.5 2 -9.499998
v -5.5 2.5 -9.499998
v -5.5 1 -9.999998
v -6 1 -9.999998
v -5.5 1 -10.5
v -6 1 -10.5
v -5.5 1 -11
v -6 1 -11
v -5.5 1 -11.5
v -6 1 -11.5
v -5.5 1 -9.999998
v -6 1 -9.999998
v -5.5 1.5 -9.999998
v -6 1.5 -9.999998
v -5.5 1.5 -9.499998
v -6 1.5 -9.499998
v -5.5 1.5 -9.999998
v -6 1.5 -9.999998
v -5.5 1 -11
v -6 1 -11
v -5.5 1.5 -11
v -6 1.5 -11
v -5.5 1 -10.5
v -6 1 -10.5
v -5.5 1.5 -10.5
v -6 1.5 -10.5
v -5.5 1 -11.5
v -6 1 -11.5
v -5.5 1.5 -11.5
v -6 1.5 -11.5
v -5.5 1.5 -11.5
v -6.5 1.5 -11.5
v -5.5 1.5 -12
v -6.5 1.5 -12
v -5.5 1 -11.5
v -5.5 1.5 -11.5
v -5.5 1 -12
v -5.5 1.5 -12
v -6 1 -12
v -6 1.5 -12
v -6 1 -12.5
v -6 1.5 -12.5
v -5.5 1.5 -12.5
v -12 1.5 -12.5
v -5.5 1.5 -13
v -12 1.5 -13
v -5.5 1.5 -13.5
v -7 1.5 -13.5
v -5.5 1.5 -14
v -7 1.5 -14
v -5.5 2 1.907349E-06
v -16 2 1.907349E-06
v -5.5 2 -2.499998
v -16 2 -2.499998
v -5.5 2 -5.999998
v -16 2 -5.999998
v -5.5 2 -6.499998
v -16 2 -6.499998
v -5.5 2 -7.499998
v -6 2 -7.499998
v -5.5 2 -7.999998
v -6 2 -7.999998
v -6 1.5 -7.999998
v -6 2.5 -7.999998
v -6 1.5 -8.499998
v -6 2.5 -8.499998
v -5.5 2 -8.499998
v -6 2 -8.499998
v -5.5 2 -9.499998
v -6 2 -9.499998
v -5.5 1.5 -9.499998
v -6 1.5 -9.499998
v -5.5 2 -9.499998
v -6 2 -9.499998
v -6 1.5 -8.999998
v -6 2 -8.999998
v -6 1.5 -9.499998
v -6 2 -9.499998
v -5.5 1.5 -14
v -7 1.5 -14
v -5.5 2 -14
v -7 2 -14
v -5.5 2 -2.499998
v -6.5 2 -2.499998
v -5.5 2.5 -2.499998
v -6.5 2.5 -2.499998
v -5.5 2.5 -2.499998
v -6.5 2.5 -2.499998
v -5.5 2.5 -2.999998
v -6.5 2.5 -2.999998
v -5.5 2 -2.499998
v -5.5 2.5 -2.499998
v -5.5 2 -2.999998
v -5.5 2.5 -2.999998
v -5.5 2.5 -4.999998
v -6 2.5 -4.999998
v -5.5 2.5 -5.999998
v -6 2.5 -5.999998
v -5.5 2 -5.999998
v -6 2 -5.999998
v -5.5 2.5 -5.999998
v -6 2.5 -5.999998
v -6 2 -5.499998
v -6 2.5 -5.499998
v -6 2 -5.999998
v -6 2.5 -5.999998
v -5.5 2 -8.499998
v -6 2 -8.499998
v -5.5 2.5 -8.499998
v -6 2.5 -8.499998
v -5.5 2 -7.999998
v -6 2 -7.999998
v -5.5 2.5 -7.999998
v -6 2.5 -7.999998
v -5.5 2 -9.999998
v -6 2 -9.999998
v -5.5 2.5 -9.999998
v -6 2.5 -9.999998
v -5.5 2 -9.499998
v -6 2 -9.499998
v -5.5 2.5 -9.499998
v -6 2.5 -9.499998
v -5.5 2 -9.499998
v -6 2 -9.499998
v -5.5 2 -9.999998
v -6 2 -9.999998
v -6 2 -9.499998
v -6 2.5 -9.499998
v -6 2 -9.999998
v -6 2.5 -9.999998
v -6 1 -12
v -8.5 1 -12
v -6 1 -12.5
v -8.5 1 -12.5
v -6 1.5 -7.999998
v -7 1.5 -7.999998
v -6 1.5 -8.499998
v -7 1.5 -8.499998
v -6 1.5 -8.999998
v -7 1.5 -8.999998
v -6 1.5 -9.499998
v -7 1.5 -9.499998
v -6.5 1 -9.499998
v -6.5 1.5 -9.499998
v -6.5 1 -12
v -6.5 1.5 -12
v -6 1.5 -9.999998
v -6.5 1.5 -9.999998
v -6 1.5 -10.5
v -6.5 1.5 -10.5
v -6 1 -9.999998
v -6 1.5 -9.999998
v -6 1 -10.5
v -6 1.5 -10.5
v -6 1.5 -11
v -6.5 1.5 -11
v -6 1.5 -11.5
v -6.5 1.5 -11.5
v -6 1 -11
v -6 1.5 -11
v -6 1 -11.5
v -6 1.5 -11.5
v -6 1 -12
v -6.5 1 -12
v -6 1.5 -12
v -6.5 1.5 -12
v -6 1 -12.5
v -8.5 1 -12.5
v -6 1.5 -12.5
v -8.5 1.5 -12.5
v -6 2 -5.499998
v -16 2 -5.499998
v -6 2 -5.999998
v -16 2 -5.999998
v -6 1.5 -7.999998
v -6.5 1.5 -7.999998
v -6 2.5 -7.999998
v -6.5 2.5 -7.999998
v -6 1.5 -8.999998
v -6.5 1.5 -8.999998
v -6 2 -8.999998
v -6.5 2 -8.999998
v -6 1.5 -8.499998
v -6.5 1.5 -8.499998
v -6 2 -8.499998
v -6.5 2 -8.499998
v -6 2 -8.499998
v -6.5 2 -8.499998
v -6 2 -8.999998
v -6.5 2 -8.999998
v -6.5 1.5 -8.499998
v -6.5 2 -8.499998
v -6.5 1.5 -8.999998
v -6.5 2 -8.999998
v -6 1.5 -9.999998
v -6.5 1.5 -9.999998
v -6 2 -9.999998
v -6.5 2 -9.999998
v -6 1.5 -9.499998
v -6.5 1.5 -9.499998
v -6 2 -9.499998
v -6.5 2 -9.499998
v -6 2 -9.499998
v -6.5 2 -9.499998
v -6 2 -9.999998
v -6.5 2 -9.999998
v -6 1.5 -9.499998
v -6 2 -9.499998
v -6 1.5 -9.999998
v -6 2 -9.999998
v -6.5 1.5 -9.499998
v -6.5 2 -9.499998
v -6.5 1.5 -9.999998
v -6.5 2 -9.999998
v -6 1.5 -13.5
v -6.5 1.5 -13.5
v -6 2 -13.5
v -6.5 2 -13.5
v -6 1.5 -13
v -6.5 1.5 -13
v -6 2 -13
v -6.5 2 -13
v -6 2 -13
v -6.5 2 -13
v -6 2 -13.5
v -6.5 2 -13.5
v -6 1.5 -13
v -6 2 -13
v -6 1.5 -13.5
v -6 2 -13.5
v -6.5 1.5 -13
v -6.5 2 -13
v -6.5 1.5 -13.5
v -6.5 2 -13.5
v -6.5 2 -2.499998
v -6.5 2.5 -2.499998
v -6.5 2 -5.499998
v -6.5 2.5 -5.499998
v -6 2 -5.499998
v -6.5 2 -5.499998
v -6 2.5 -5.499998
v -6.5 2.5 -5.499998
v -6 2.5 -4.999998
v -6.5 2.5 -4.999998
v -6 2.5 -5.499998
v -6.5 2.5 -5.499998
v -6 2 -7.499998
v -6.5 2 -7.499998
v -6 2.5 -7.499998
v -6.5 2.5 -7.499998
v -6 2.5 -7.499998
v -6.5 2.5 -7.499998
v -6 2.5 -7.999998
v -6.5 2.5 -7.999998
v -6 2 -7.499998
v -6 2.5 -7.499998
v -6 2 -7.999998
v -6 2.5 -7.999998
v -6.5 2 -7.499998
v -6.5 2.5 -7.499998
v -6.5 2 -7.999998
v -6.5 2.5 -7.999998
v -6.5 1 -9.499998
v -7 1 -9.499998
v -6.5 1 -12
v -7 1 -12
v -6.5 1.5 -8.499998
v -7.5 1.5 -8.499998
v -6.5 1.5 -8.999998
v -7.5 1.5 -8.999998
v -6.5 1 -9.499998
v -7 1 -9.499998
v -6.5 1.5 -9.499998
v -7 1.5 -9.499998
v -6.5 1.5 -13
v -9 1.5 -13
v -6.5 1.5 -13.5
v -9 1.5 -13.5
v -6.5 2 -2.499998
v -16 2 -2.499998
v -6.5 2 -5.499998
v -16 2 -5.499998
v -6.5 1.5 -7.999998
v -7 1.5 -7.999998
v -6.5 2 -7.999998
v -7 2 -7.999998
v -6.5 2 -7.499998
v -16 2 -7.499998
v -6.5 2 -7.999998
v -16 2 -7.999998
v -7 1 -9.999998
v -7.5 1 -9.999998
v -7 1 -12
v -7.5 1 -12
v -7 1 -9.999998
v -7.5 1 -9.999998
v -7 1.5 -9.999998
v -7.5 1.5 -9.999998
v -7 1.5 -9.499998
v -7.5 1.5 -9.499998
v -7 1.5 -9.999998
v -7.5 1.5 -9.999998
v -7 1 -9.499998
v -7 1.5 -9.499998
v -7 1 -9.999998
v -7 1.5 -9.999998
v -7.5 1 -9.499998
v -7.5 1.5 -9.499998
v -7.5 1 -9.999998
v -7.5 1.5 -9.999998
v -7 1.5 -8.499998
v -7.5 1.5 -8.499998
v -7 2 -8.499998
v -7.5 2 -8.499998
v -7 2 -7.999998
v -8.5 2 -7.999998
v -7 2 -8.499998
v -8.5 2 -8.499998
v -7 1.5 -7.999998
v -7 2 -7.999998
v -7 1.5 -8.499998
v -7 2 -8.499998
v -7 1.5 -9.499998
v -7.5 1.5 -9.499998
v -7 2 -9.499998
v -7.5 2 -9.499998
v -7 1.5 -8.999998
v -7.5 1.5 -8.999998
v -7 2 -8.999998
v -7.5 2 -8.999998
v -7 2 -8.999998
v -7.5 2 -8.999998
v -7 2 -9.499998
v -7.5 2 -9.499998
v -7 1.5 -8.999998
v -7 2 -8.999998
v -7 1.5 -9.499998
v -7 2 -9.499998
v -7.5 1.5 -8.999998
v -7.5 2 -8.999998
v -7.5 1.5 -9.499998
v -7.5 2 -9.499998
v -7 1.5 -13.5
v -7.5 1.5 -13.5
v -7 2 -13.5
v -7.5 2 -13.5
v -7 2 -13.5
v -7.5 2 -13.5
v -7 2 -14
v -7.5 2 -14
v -7 1.5 -13.5
v -7 2 -13.5
v -7 1.5 -14
v -7 2 -14
v -7.5 1.5 -13.5
v -7.5 2 -13.5
v -7.5 1.5 -14
v -7.5 2 -14
v -7.5 1 -9.499998
v -8 1 -9.499998
v -7.5 1 -10.5
v -8 1 -10.5
v -7.5 1 -11
v -8 1 -11
v -7.5 1 -12
v -8 1 -12
v -7.5 1 -9.499998
v -8 1 -9.499998
v -7.5 1.5 -9.499998
v -8 1.5 -9.499998
v -7.5 1.5 -8.999998
v -9.5 1.5 -8.999998
v -7.5 1.5 -9.499998
v -9.5 1.5 -9.499998
v -7.5 1 -11
v -8 1 -11
v -7.5 1.5 -11
v -8 1.5 -11
v -7.5 1 -10.5
v -8 1 -10.5
v -7.5 1.5 -10.5
v -8 1.5 -10.5
v -7.5 1.5 -10.5
v -8 1.5 -10.5
v -7.5 1.5 -11
v -8 1.5 -11
v -7.5 1 -10.5
v -7.5 1.5 -10.5
v -7.5 1 -11
v -7.5 1.5 -11
v -8 1 -10.5
v -8 1.5 -10.5
v -8 1 -11
v -8 1.5 -11
v -7.5 1.5 -13.5
v -8.5 1.5 -13.5
v -7.5 1.5 -14
v -8.5 1.5 -14
v -7.5 1.5 -8.999998
v -8 1.5 -8.999998
v -7.5 2 -8.999998
v -8 2 -8.999998
v -7.5 2 -8.499998
v -8 2 -8.499998
v -7.5 2 -8.999998
v -8 2 -8.999998
v -7.5 1.5 -8.499998
v -7.5 2 -8.499998
v -7.5 1.5 -8.999998
v -7.5 2 -8.999998
v -8 1.5 -8.499998
v -8 2 -8.499998
v -8 1.5 -8.999998
v -8 2 -8.999998
v -7.5 1.5 -14
v -8.5 1.5 -14
v -7.5 2 -14
v -8.5 2 -14
v -8 1 -10.5
v -9.5 1 -10.5
v -8 1 -11
v -9.5 1 -11
v -8 1.5 -8.499998
v -9 1.5 -8.499998
v -8 1.5 -8.999998
v -9 1.5 -8.999998
v -8 1.5 -9.499998
v -9.5 1.5 -9.499998
v -8 1.5 -10.5
v -9.5 1.5 -10.5
v -8 1 -9.499998
v -8 1.5 -9.499998
v -8 1 -10.5
v -8 1.5 -10.5
v -8 1 -10.5
v -9.5 1 -10.5
v -8 1.5 -10.5
v -9.5 1.5 -10.5
v -8 1 -11
v -8.5 1 -11
v -8 1.5 -11
v -8.5 1.5 -11
v -8 1.5 -11
v -8.5 1.5 -11
v -8 1.5 -12
v -8.5 1.5 -12
v -8 1 -11
v -8 1.5 -11
v -8 1 -12
v -8 1.5 -12
v -8.5 1 -11
v -8.5 1.5 -11
v -8.5 1 -12
v -8.5 1.5 -12
v -8 1 -12
v -8.5 1 -12
v -8 1.5 -12
v -8.5 1.5 -12
v -8 1.5 -8.499998
v -8.5 1.5 -8.499998
v -8 2 -8.499998
v -8.5 2 -8.499998
v -8.5 1.5 -7.999998
v -8.5 2 -7.999998
v -8.5 1.5 -8.499998
v -8.5 2 -8.499998
v -8.5 1 -11
v -9 1 -11
v -8.5 1 -12
v -9 1 -12
v -8.5 1.5 -7.999998
v -9 1.5 -7.999998
v -8.5 1.5 -8.499998
v -9 1.5 -8.499998
v -8.5 1 -12
v -9 1 -12
v -8.5 1.5 -12
v -9 1.5 -12
v -8.5 1.5 -12
v -12 1.5 -12
v -8.5 1.5 -12.5
v -12 1.5 -12.5
v -8.5 1 -12
v -8.5 1.5 -12
v -8.5 1 -12.5
v -8.5 1.5 -12.5
v -8.5 1.5 -7.999998
v -9 1.5 -7.999998
v -8.5 2 -7.999998
v -9 2 -7.999998
v -8.5 1.5 -13.5
v -9 1.5 -13.5
v -8.5 2 -13.5
v -9 2 -13.5
v -8.5 2 -13.5
v -9 2 -13.5
v -8.5 2 -14
v -9 2 -14
v -8.5 1.5 -13.5
v -8.5 2 -13.5
v -8.5 1.5 -14
v -8.5 2 -14
v -9 1.5 -13.5
v -9 2 -13.5
v -9 1.5 -14
v -9 2 -14
v -9 1 -11
v -9.5 1 -11
v -9 1 -11.5
v -9.5 1 -11.5
v -9 1 -11.5
v -9.5 1 -11.5
v -9 1.5 -11.5
v -9.5 1.5 -11.5
v -9 1.5 -11.5
v -11.5 1.5 -11.5
v -9 1.5 -12
v -11.5 1.5 -12
v -9 1 -11.5
v -9 1.5 -11.5
v -9 1 -12
v -9 1.5 -12
v -9 1.5 -13.5
v -11.5 1.5 -13.5
v -9 1.5 -14
v -11.5 1.5 -14
v -9 2 -7.999998
v -16 2 -7.999998
v -9 2 -8.999998
v -16 2 -8.999998
v -9 1.5 -7.999998
v -9 2 -7.999998
v -9 1.5 -8.999998
v -9 2 -8.999998
v -9 1.5 -8.999998
v -9.5 1.5 -8.999998
v -9 2 -8.999998
v -9.5 2 -8.999998
v -9 1.5 -13.5
v -9.5 1.5 -13.5
v -9 2 -13.5
v -9.5 2 -13.5
v -9 1.5 -13
v -9.5 1.5 -13
v -9 2 -13
v -9.5 2 -13
v -9 2 -13
v -9.5 2 -13
v -9 2 -13.5
v -9.5 2 -13.5
v -9 1.5 -13
v -9 2 -13
v -9 1.5 -13.5
v -9 2 -13.5
v -9.5 1.5 -13
v -9.5 2 -13
v -9.5 1.5 -13.5
v -9.5 2 -13.5
v -9 1.5 -14
v -11.5 1.5 -14
v -9 2 -14
v -11.5 2 -14
v -9.5 1.5 -10.5
v -10.5 1.5 -10.5
v -9.5 1.5 -11.5
v -10.5 1.5 -11.5
v -9.5 1 -10.5
v -9.5 1.5 -10.5
v -9.5 1 -11.5
v -9.5 1.5 -11.5
v -9.5 1.5 -13
v -13.5 1.5 -13
v -9.5 1.5 -13.5
v -13.5 1.5 -13.5
v -9.5 2 -8.999998
v -16 2 -8.999998
v -9.5 2 -10.5
v -16 2 -10.5
v -9.5 1.5 -8.999998
v -9.5 2 -8.999998
v -9.5 1.5 -10.5
v -9.5 2 -10.5
v -9.5 1.5 -10.5
v -10.5 1.5 -10.5
v -9.5 2 -10.5
v -10.5 2 -10.5
v -10.5 1.5 -11
v -11 1.5 -11
v -10.5 1.5 -11.5
v -11 1.5 -11.5
v -10.5 1.5 -11
v -11 1.5 -11
v -10.5 2 -11
v -11 2 -11
v -10.5 2 -10.5
v -16 2 -10.5
v -10.5 2 -11
v -16 2 -11
v -10.5 1.5 -10.5
v -10.5 2 -10.5
v -10.5 1.5 -11
v -10.5 2 -11
v -11 1.5 -11.5
v -11.5 1.5 -11.5
v -11 2 -11.5
v -11.5 2 -11.5
v -11 2 -11
v -16 2 -11
v -11 2 -11.5
v -16 2 -11.5
v -11 1.5 -11
v -11 2 -11
v -11 1.5 -11.5
v -11 2 -11.5
v -11.5 1.5 -12
v -12 1.5 -12
v -11.5 2 -12
v -12 2 -12
v -11.5 2 -11.5
v -16 2 -11.5
v -11.5 2 -12
v -16 2 -12
v -11.5 1.5 -11.5
v -11.5 2 -11.5
v -11.5 1.5 -12
v -11.5 2 -12
v -11.5 1.5 -13.5
v -12.5 1.5 -13.5
v -11.5 2 -13.5
v -12.5 2 -13.5
v -11.5 2 -13.5
v -12.5 2 -13.5
v -11.5 2 -14
v -12.5 2 -14
v -11.5 1.5 -13.5
v -11.5 2 -13.5
v -11.5 1.5 -14
v -11.5 2 -14
v -12 2 -12
v -12.5 2 -12
v -12 2 -13
v -12.5 2 -13
v -12 1.5 -12
v -12 2 -12
v -12 1.5 -13
v -12 2 -13
v -12 1.5 -13
v -12.5 1.5 -13
v -12 2 -13
v -12.5 2 -13
v -12.5 1.5 -12.5
v -12.5 2 -12.5
v -12.5 1.5 -13
v -12.5 2 -13
v -12.5 1.5 -13.5
v -12.5 2 -13.5
v -12.5 1.5 -14
v -12.5 2 -14
v -12.5 1.5 -12.5
v -13 1.5 -12.5
v -12.5 1.5 -13
v -13 1.5 -13
v -12.5 1.5 -13.5
v -13.5 1.5 -13.5
v -12.5 1.5 -14
v -13.5 1.5 -14
v -12.5 1.5 -12.5
v -13 1.5 -12.5
v -12.5 2 -12.5
v -13 2 -12.5
v -12.5 2 -12
v -16 2 -12
v -12.5 2 -12.5
v -16 2 -12.5
v -12.5 1.5 -14
v -13.5 1.5 -14
v -12.5 2 -14
v -13.5 2 -14
v -13 1.5 -13
v -13.5 1.5 -13
v -13 2 -13
v -13.5 2 -13
v -13 2 -12.5
v -16 2 -12.5
v -13 2 -13
v -16 2 -13
v -13 1.5 -12.5
v -13 2 -12.5
v -13 1.5 -13
v -13 2 -13
v -13.5 2 -13
v -16 2 -13
v -13.5 2 -14
v -16 2 -14
v -13.5 1.5 -13
v -13.5 2 -13
v -13.5 1.5 -14
v -13.5 2 -14
v -16 0 1.907349E-06
v -16 2 1.907349E-06
v -16 0 -16
v -16 2 -16
vn 0 -5.960464E-08 0.9999999
vn 0 -0.9999999 -5.960464E-08
vn 1 0 0
vn 0 5.960464E-08 -0.9999999
vn 0 0.9999999 5.960464E-08
vn -1 0 0
vt 0.2890625 0.0078125
vt 0.5390625 0.0078125
vt 0.2890625 0.0390625
vt 0.5390625 0.0390625
vt 0.0078125 0.0078125
vt 0.2578125 0.0078125
vt 0.0078125 0.2578125
vt 0.2578125 0.2578125
vt 0.5703125 0.0078125
vt 0.6015625 0.0078125
vt 0.5703125 0.2578125
vt 0.6015625 0.2578125
vt 0.2890625 0.0703125
vt 0.5390625 0.0703125
vt 0.2890625 0.1015625
vt 0.5390625 0.1015625
vt 0.6953125 0.0078125
vt 0.71875 0.0078125
vt 0.6953125 0.2578125
vt 0.71875 0.2578125
vt 0.0078125 0.4609375
vt 0.0234375 0.4609375
vt 0.0078125 0.5234375
vt 0.0234375 0.5234375
vt 0.5234375 0.2109375
vt 0.53125 0.2109375
vt 0.5234375 0.2578125
vt 0.53125 0.2578125
vt 0.109375 0.75
vt 0.5390625 0.1328125
vt 0.0078125 0.5546875
vt 0.015625 0.5546875
vt 0.0078125 0.640625
vt 0.015625 0.640625
vt 0.234375 0.7109375
vt 0.234375 0.6171875
vt 0.5390625 0.2890625
vt 0.578125 0.2890625
vt 0.5390625 0.296875
vt 0.578125 0.296875
vt 0.234375 0.5859375
vt 0.1484375 0.609375
vt 0.15625 0.609375
vt 0.1484375 0.625
vt 0.15625 0.625
vt 0.1875 0.8984375
vt 0.1953125 0.8984375
vt 0.1875 0.9140625
vt 0.1953125 0.9140625
vt 0.1484375 0.65625
vt 0.15625 0.65625
vt 0.1484375 0.671875
vt 0.15625 0.671875
vt 0.1171875 0.640625
vt 0.5390625 0.1640625
vt 0.09375 0.828125
vt 0.1171875 0.828125
vt 0.09375 0.8359375
vt 0.1171875 0.8359375
vt 0.046875 0.5546875
vt 0.0546875 0.5546875
vt 0.046875 0.6328125
vt 0.0546875 0.6328125
vt 0.234375 0.6796875
vt 0.46875 0.1328125
vt 0.5078125 0.1328125
vt 0.46875 0.1796875
vt 0.5078125 0.1796875
vt 0.046875 0.8671875
vt 0.0546875 0.8671875
vt 0.046875 0.9140625
vt 0.0546875 0.9140625
vt 0.234375 0.6484375
vt 0.0546875 0.5078125
vt 0.1171875 0.5078125
vt 0.0546875 0.515625
vt 0.1171875 0.515625
vt 0.0078125 0.375
vt 0.03125 0.375
vt 0.0078125 0.4296875
vt 0.03125 0.4296875
vt 0.234375 0.453125
vt 0.2421875 0.453125
vt 0.234375 0.46875
vt 0.2421875 0.46875
vt 0.0859375 0.5546875
vt 0.09375 0.5546875
vt 0.0859375 0.609375
vt 0.09375 0.609375
vt 0.234375 0.3671875
vt 0.2578125 0.3671875
vt 0.234375 0.375
vt 0.2578125 0.375
vt 0.0546875 0.4609375
vt 0.1171875 0.4609375
vt 0.0546875 0.4765625
vt 0.1171875 0.4765625
vt 0.1875 0.8515625
vt 0.1953125 0.8515625
vt 0.1875 0.8671875
vt 0.1953125 0.8671875
vt 0.0625 0.375
vt 0.109375 0.375
vt 0.0625 0.390625
vt 0.109375 0.390625
vt 0.1875 0.8046875
vt 0.1953125 0.8046875
vt 0.1875 0.8203125
vt 0.1953125 0.8203125
vt 0.1484375 0.390625
vt 0.15625 0.390625
vt 0.1484375 0.4140625
vt 0.15625 0.4140625
vt 0.421875 0.2109375
vt 0.4375 0.2109375
vt 0.421875 0.25
vt 0.4375 0.25
vt 0.1875 0.328125
vt 0.203125 0.328125
vt 0.1875 0.34375
vt 0.203125 0.34375
vt 0.1875 0.765625
vt 0.203125 0.765625
vt 0.1875 0.7734375
vt 0.203125 0.7734375
vt 0.1875 0.421875
vt 0.203125 0.421875
vt 0.1875 0.4296875
vt 0.203125 0.4296875
vt 0.1484375 0.5
vt 0.15625 0.5
vt 0.1484375 0.5234375
vt 0.15625 0.5234375
vt 0.1484375 0.9375
vt 0.15625 0.9375
vt 0.1484375 0.953125
vt 0.15625 0.953125
vt 0.234375 0.328125
vt 0.2578125 0.328125
vt 0.234375 0.3359375
vt 0.2578125 0.3359375
vt 0.1171875 0.7109375
vt 0.46875 0.2109375
vt 0.4921875 0.2109375
vt 0.46875 0.2578125
vt 0.4921875 0.2578125
vt 0.1484375 0.84375
vt 0.15625 0.84375
vt 0.1484375 0.859375
vt 0.15625 0.859375
vt 0.1484375 0.703125
vt 0.15625 0.703125
vt 0.1484375 0.71875
vt 0.15625 0.71875
vt 0.1015625 0.7890625
vt 0.1171875 0.7890625
vt 0.1015625 0.796875
vt 0.1171875 0.796875
vt 0.75 0.078125
vt 0.9375 0.078125
vt 0.75 0.109375
vt 0.9375 0.109375
vt 0.46875 0.2890625
vt 0.5078125 0.2890625
vt 0.46875 0.296875
vt 0.5078125 0.296875
vt 0.0078125 0.9453125
vt 0.015625 0.9453125
vt 0.0078125 0.9765625
vt 0.015625 0.9765625
vt 0.9453125 0.1875
vt 0.9765625 0.1875
vt 0.9453125 0.1953125
vt 0.9765625 0.1953125
vt 0.8828125 0.2890625
vt 0.9140625 0.2890625
vt 0.8828125 0.296875
vt 0.9140625 0.296875
vt 0.96875 0.078125
vt 0.9765625 0.078125
vt 0.96875 0.109375
vt 0.9765625 0.109375
vt 0.8203125 0.2890625
vt 0.8515625 0.2890625
vt 0.8203125 0.296875
vt 0.8515625 0.296875
vt 0.1875 0.5859375
vt 0.1953125 0.5859375
vt 0.1875 0.6015625
vt 0.1953125 0.6015625
vt 0.75 0.140625
vt 0.921875 0.140625
vt 0.75 0.15625
vt 0.921875 0.15625
vt 0.1875 0.71875
vt 0.1953125 0.71875
vt 0.1875 0.734375
vt 0.1953125 0.734375
vt 0.1484375 0.4453125
vt 0.15625 0.4453125
vt 0.1484375 0.46875
vt 0.15625 0.46875
vt 0.1484375 0.5546875
vt 0.15625 0.5546875
vt 0.1484375 0.578125
vt 0.15625 0.578125
vt 0.1484375 0.890625
vt 0.15625 0.890625
vt 0.1484375 0.90625
vt 0.15625 0.90625
vt 0.0078125 0.3359375
vt 0.109375 0.3359375
vt 0.0078125 0.34375
vt 0.109375 0.34375
vt 0.75 0.0078125
vt 0.9140625 0.0078125
vt 0.75 0.046875
vt 0.9140625 0.046875
vt 0.75 0.1875
vt 0.9140625 0.1875
vt 0.75 0.1953125
vt 0.9140625 0.1953125
vt 0.1484375 0.75
vt 0.15625 0.75
vt 0.1484375 0.765625
vt 0.15625 0.765625
vt 0.1875 0.4609375
vt 0.203125 0.4609375
vt 0.1875 0.46875
vt 0.203125 0.46875
vt 0.1875 0.5
vt 0.203125 0.5
vt 0.1875 0.5078125
vt 0.203125 0.5078125
vt 0.1484375 0.796875
vt 0.15625 0.796875
vt 0.1484375 0.8125
vt 0.15625 0.8125
vt 0.609375 0.2890625
vt 0.6484375 0.2890625
vt 0.609375 0.296875
vt 0.6484375 0.296875
vt 0.1875 0.9453125
vt 0.203125 0.9453125
vt 0.1875 0.953125
vt 0.203125 0.953125
vt 0.9453125 0.0078125
vt 0.953125 0.0078125
vt 0.9453125 0.046875
vt 0.953125 0.046875
vt 0.6796875 0.2890625
vt 0.71875 0.2890625
vt 0.6796875 0.296875
vt 0.71875 0.296875
vt 0.75 0.2265625
vt 0.90625 0.2265625
vt 0.75 0.234375
vt 0.90625 0.234375
vt 0.0859375 0.640625
vt 0.0078125 0.8671875
vt 0.015625 0.8671875
vt 0.0078125 0.9140625
vt 0.015625 0.9140625
vt 0.0859375 0.8671875
vt 0.09375 0.8671875
vt 0.0859375 0.90625
vt 0.09375 0.90625
vt 0.75 0.2890625
vt 0.7890625 0.2890625
vt 0.75 0.296875
vt 0.7890625 0.296875
vt 0.2890625 0.1328125
vt 0.4375 0.1328125
vt 0.2890625 0.1796875
vt 0.4375 0.1796875
vt 0.1484375 0.2890625
vt 0.296875 0.2890625
vt 0.1484375 0.296875
vt 0.296875 0.296875
vt 0.1484375 0.328125
vt 0.15625 0.328125
vt 0.1484375 0.359375
vt 0.15625 0.359375
vt 0.1875 0.5390625
vt 0.1953125 0.5390625
vt 0.1875 0.5546875
vt 0.1953125 0.5546875
vt 0.9453125 0.2890625
vt 0.9765625 0.2890625
vt 0.9453125 0.296875
vt 0.9765625 0.296875
vt 0.1875 0.6328125
vt 0.203125 0.6328125
vt 0.1875 0.640625
vt 0.203125 0.640625
vt 0.953125 0.140625
vt 0.9765625 0.140625
vt 0.953125 0.15625
vt 0.9765625 0.15625
vt 0.1875 0.671875
vt 0.1953125 0.671875
vt 0.1875 0.6875
vt 0.1953125 0.6875
vt 0.0625 0.421875
vt 0.1171875 0.421875
vt 0.0625 0.4296875
vt 0.1171875 0.4296875
vt 0.328125 0.2890625
vt 0.3671875 0.2890625
vt 0.328125 0.296875
vt 0.3671875 0.296875
vt 0.0078125 0.2890625
vt 0.1171875 0.2890625
vt 0.0078125 0.3046875
vt 0.1171875 0.3046875
vt 0.3984375 0.2890625
vt 0.4375 0.2890625
vt 0.3984375 0.296875
vt 0.4375 0.296875
vt 0.1875 0.375
vt 0.203125 0.375
vt 0.1875 0.390625
vt 0.203125 0.390625
vt 0.0078125 0.7890625
vt 0.0703125 0.7890625
vt 0.0078125 0.796875
vt 0.0703125 0.796875
vt 0.2890625 0.2109375
vt 0.390625 0.2109375
vt 0.2890625 0.234375
vt 0.390625 0.234375
vt 0.0078125 0.671875
vt 0.09375 0.671875
vt 0.0078125 0.6796875
vt 0.09375 0.6796875
vt 0.0078125 0.7109375
vt 0.0859375 0.7109375
vt 0.0078125 0.71875
vt 0.0859375 0.71875
vt 0.0078125 0.75
vt 0.078125 0.75
vt 0.0078125 0.7578125
vt 0.078125 0.7578125
vt 0.234375 0.5390625
vt 0.2421875 0.5390625
vt 0.234375 0.5546875
vt 0.2421875 0.5546875
vt 0.234375 0.40625
vt 0.2421875 0.40625
vt 0.234375 0.421875
vt 0.2421875 0.421875
vt 0.0078125 0.828125
vt 0.0625 0.828125
vt 0.0078125 0.8359375
vt 0.0625 0.8359375
vt 0.234375 0.5
vt 0.25 0.5
vt 0.234375 0.5078125
vt 0.25 0.5078125
vt 0.046875 0.9453125
vt 0.09375 0.9453125
vt 0.046875 0.953125
vt 0.09375 0.953125
vt 0.9375 0.2265625
vt 0.9765625 0.2265625
vt 0.9375 0.2421875
vt 0.9765625 0.2421875
vt 0.6328125 0.0078125
vt 0.6640625 0.0078125
vt 0.6328125 0.2578125
vt 0.6640625 0.2578125
usemtl voxel
f 2/2/1 1/1/1 3/3/1
f 2/2/1 3/3/1 4/4/1
f 5/5/2 6/6/2 7/7/2
f 7/7/2 6/6/2 8/8/2
f 10/10/3 9/9/3 11/11/3
f 10/10/3 11/11/3 12/12/3
f 13/13/4 14/14/4 15/15/4
f 15/15/4 14/14/4 16/16/4
f 18/18/5 17/17/5 19/19/5
f 18/18/5 19/19/5 20/20/5
f 22/22/5 21/21/5 23/23/5
f 22/22/5 23/23/5 24/24/5
f 26/26/5 25/25/5 27/27/5
f 26/26/5 27/27/5 28/28/5
f 30/29/5 29/29/5 31/29/5
f 30/29/5 31/29/5 32/29/5
f 34/30/5 33/30/5 35/30/5
f 34/30/5 35/30/5 36/30/5
f 38/32/5 37/31/5 39/33/5
f 38/32/5 39/33/5 40/34/5
f 41/35/4 42/35/4 43/35/4
f 43/35/4 42/35/4 44/35/4
f 46/35/1 45/35/1 47/35/1
f 46/35/1 47/35/1 48/35/1
f 50/35/5 49/35/5 51/35/5
f 50/35/5 51/35/5 52/35/5
f 54/35/3 53/35/3 55/35/3
f 54/35/3 55/35/3 56/35/3
f 57/35/6 58/35/6 59/35/6
f 59/35/6 58/35/6 60/35/6
f 61/36/4 62/36/4 63/36/4
f 63/36/4 62/36/4 64/36/4
f 66/36/1 65/36/1 67/36/1
f 66/36/1 67/36/1 68/36/1
f 70/38/5 69/37/5 71/39/5
f 70/38/5 71/39/5 72/40/5
f 74/36/3 73/36/3 75/36/3
f 74/36/3 75/36/3 76/36/3
f 78/41/1 77/41/1 79/41/1
f 78/41/1 79/41/1 80/41/1
f 82/43/5 81/42/5 83/44/5
f 82/43/5 83/44/5 84/45/5
f 86/47/3 85/46/3 87/48/3
f 86/47/3 87/48/3 88/49/3
f 89/50/6 90/51/6 91/52/6
f 91/52/6 90/51/6 92/53/6
f 93/54/4 94/54/4 95/54/4
f 95/54/4 94/54/4 96/54/4
f 97/35/4 98/35/4 99/35/4
f 99/35/4 98/35/4 100/35/4
f 102/35/1 101/35/1 103/35/1
f 102/35/1 103/35/1 104/35/1
f 106/35/5 105/35/5 107/35/5
f 106/35/5 107/35/5 108/35/5
f 110/35/3 109/35/3 111/35/3
f 110/35/3 111/35/3 112/35/3
f 113/35/6 114/35/6 115/35/6
f 115/35/6 114/35/6 116/35/6
f 118/55/5 117/55/5 119/55/5
f 118/55/5 119/55/5 120/55/5
f 122/41/5 121/41/5 123/41/5
f 122/41/5 123/41/5 124/41/5
f 126/57/5 125/56/5 127/58/5
f 126/57/5 127/58/5 128/59/5
f 130/61/5 129/60/5 131/62/5
f 130/61/5 131/62/5 132/63/5
f 133/64/6 134/64/6 135/64/6
f 135/64/6 134/64/6 136/64/6
f 138/41/1 137/41/1 139/41/1
f 138/41/1 139/41/1 140/41/1
f 142/66/5 141/65/5 143/67/5
f 142/66/5 143/67/5 144/68/5
f 146/70/3 145/69/3 147/71/3
f 146/70/3 147/71/3 148/72/3
f 149/73/4 150/73/4 151/73/4
f 151/73/4 150/73/4 152/73/4
f 154/75/5 153/74/5 155/76/5
f 154/75/5 155/76/5 156/77/5
f 158/73/3 157/73/3 159/73/3
f 158/73/3 159/73/3 160/73/3
f 161/54/4 162/54/4 163/54/4
f 163/54/4 162/54/4 164/54/4
f 166/54/1 165/54/1 167/54/1
f 166/54/1 167/54/1 168/54/1
f 170/54/5 169/54/5 171/54/5
f 170/54/5 171/54/5 172/54/5
f 174/54/3 173/54/3 175/54/3
f 174/54/3 175/54/3 176/54/3
f 177/54/6 178/54/6 179/54/6
f 179/54/6 178/54/6 180/54/6
f 181/55/4 182/55/4 183/55/4
f 183/55/4 182/55/4 184/55/4
f 186/55/1 185/55/1 187/55/1
f 186/55/1 187/55/1 188/55/1
f 190/55/5 189/55/5 191/55/5
f 190/55/5 191/55/5 192/55/5
f 194/55/3 193/55/3 195/55/3
f 194/55/3 195/55/3 196/55/3
f 197/55/6 198/55/6 199/55/6
f 199/55/6 198/55/6 200/55/6
f 202/64/5 201/64/5 203/64/5
f 202/64/5 203/64/5 204/64/5
f 206/79/5 205/78/5 207/80/5
f 206/79/5 207/80/5 208/81/5
f 210/73/5 209/73/5 211/73/5
f 210/73/5 211/73/5 212/73/5
f 214/83/5 213/82/5 215/84/5
f 214/83/5 215/84/5 216/85/5
f 217/73/4 218/73/4 219/73/4
f 219/73/4 218/73/4 220/73/4
f 222/64/1 221/64/1 223/64/1
f 222/64/1 223/64/1 224/64/1
f 226/87/5 225/86/5 227/88/5
f 226/87/5 227/88/5 228/89/5
f 229/64/6 230/64/6 231/64/6
f 231/64/6 230/64/6 232/64/6
f 234/91/1 233/90/1 235/92/1
f 234/91/1 235/92/1 236/93/1
f 238/95/5 237/94/5 239/96/5
f 238/95/5 239/96/5 240/97/5
f 242/99/3 241/98/3 243/100/3
f 242/99/3 243/100/3 244/101/3
f 246/103/5 245/102/5 247/104/5
f 246/103/5 247/104/5 248/105/5
f 250/107/3 249/106/3 251/108/3
f 250/107/3 251/108/3 252/109/3
f 253/35/4 254/35/4 255/35/4
f 255/35/4 254/35/4 256/35/4
f 258/64/5 257/64/5 259/64/5
f 258/64/5 259/64/5 260/64/5
f 262/111/5 261/110/5 263/112/5
f 262/111/5 263/112/5 264/113/5
f 266/64/3 265/64/3 267/64/3
f 266/64/3 267/64/3 268/64/3
f 269/64/6 270/64/6 271/64/6
f 271/64/6 270/64/6 272/64/6
f 273/29/4 274/29/4 275/29/4
f 275/29/4 274/29/4 276/29/4
f 278/55/1 277/55/1 279/55/1
f 278/55/1 279/55/1 280/55/1
f 282/115/5 281/114/5 283/116/5
f 282/115/5 283/116/5 284/117/5
f 285/54/4 286/54/4 287/54/4
f 287/54/4 286/54/4 288/54/4
f 290/54/5 289/54/5 291/54/5
f 290/54/5 291/54/5 292/54/5
f 294/54/3 293/54/3 295/54/3
f 294/54/3 295/54/3 296/54/3
f 297/54/6 298/54/6 299/54/6
f 299/54/6 298/54/6 300/54/6
f 302/36/1 301/36/1 303/36/1
f 302/36/1 303/36/1 304/36/1
f 306/119/5 305/118/5 307/120/5
f 306/119/5 307/120/5 308/121/5
f 310/36/3 309/36/3 311/36/3
f 310/36/3 311/36/3 312/36/3
f 313/122/4 314/123/4 315/124/4
f 315/124/4 314/123/4 316/125/4
f 318/127/5 317/126/5 319/128/5
f 318/127/5 319/128/5 320/129/5
f 322/30/5 321/30/5 323/30/5
f 322/30/5 323/30/5 324/30/5
f 325/64/4 326/64/4 327/64/4
f 327/64/4 326/64/4 328/64/4
f 329/64/6 330/64/6 331/64/6
f 331/64/6 330/64/6 332/64/6
f 334/64/1 333/64/1 335/64/1
f 334/64/1 335/64/1 336/64/1
f 338/131/5 337/130/5 339/132/5
f 338/131/5 339/132/5 340/133/5
f 341/64/6 342/64/6 343/64/6
f 343/64/6 342/64/6 344/64/6
f 346/64/3 345/64/3 347/64/3
f 346/64/3 347/64/3 348/64/3
f 349/64/6 350/64/6 351/64/6
f 351/64/6 350/64/6 352/64/6
f 353/41/6 354/41/6 355/41/6
f 355/41/6 354/41/6 356/41/6
f 357/29/4 358/29/4 359/29/4
f 359/29/4 358/29/4 360/29/4
f 362/55/1 361/55/1 363/55/1
f 362/55/1 363/55/1 364/55/1
f 366/55/5 365/55/5 367/55/5
f 366/55/5 367/55/5 368/55/5
f 370/55/3 369/55/3 371/55/3
f 370/55/3 371/55/3 372/55/3
f 373/134/6 374/135/6 375/136/6
f 375/136/6 374/135/6 376/137/6
f 378/139/5 377/138/5 379/140/5
f 378/139/5 379/140/5 380/141/5
f 381/142/6 382/142/6 383/142/6
f 383/142/6 382/142/6 384/142/6
f 386/142/5 385/142/5 387/142/5
f 386/142/5 387/142/5 388/142/5
f 390/64/5 389/64/5 391/64/5
f 390/64/5 391/64/5 392/64/5
f 394/144/5 393/143/5 395/145/5
f 394/144/5 395/145/5 396/146/5
f 398/73/5 397/73/5 399/73/5
f 398/73/5 399/73/5 400/73/5
f 402/148/5 401/147/5 403/149/5
f 402/148/5 403/149/5 404/150/5
f 405/64/4 406/64/4 407/64/4
f 407/64/4 406/64/4 408/64/4
f 409/64/6 410/64/6 411/64/6
f 411/64/6 410/64/6 412/64/6
f 414/64/1 413/64/1 415/64/1
f 414/64/1 415/64/1 416/64/1
f 418/152/5 417/151/5 419/153/5
f 418/152/5 419/153/5 420/154/5
f 421/64/6 422/64/6 423/64/6
f 423/64/6 422/64/6 424/64/6
f 425/155/4 426/156/4 427/157/4
f 427/157/4 426/156/4 428/158/4
f 430/64/1 429/64/1 431/64/1
f 430/64/1 431/64/1 432/64/1
f 434/160/5 433/159/5 435/161/5
f 434/160/5 435/161/5 436/162/5
f 438/73/1 437/73/1 439/73/1
f 438/73/1 439/73/1 440/73/1
f 442/164/5 441/163/5 443/165/5
f 442/164/5 443/165/5 444/166/5
f 446/73/3 445/73/3 447/73/3
f 446/73/3 447/73/3 448/73/3
f 449/167/6 450/168/6 451/169/6
f 451/169/6 450/168/6 452/170/6
f 453/54/4 454/54/4 455/54/4
f 455/54/4 454/54/4 456/54/4
f 458/35/1 457/35/1 459/35/1
f 458/35/1 459/35/1 460/35/1
f 461/35/4 462/35/4 463/35/4
f 463/35/4 462/35/4 464/35/4
f 466/172/5 465/171/5 467/173/5
f 466/172/5 467/173/5 468/174/5
f 470/35/3 469/35/3 471/35/3
f 470/35/3 471/35/3 472/35/3
f 474/142/5 473/142/5 475/142/5
f 474/142/5 475/142/5 476/142/5
f 478/176/5 477/175/5 479/177/5
f 478/176/5 479/177/5 480/178/5
f 481/142/4 482/142/4 483/142/4
f 483/142/4 482/142/4 484/142/4
f 486/64/1 485/64/1 487/64/1
f 486/64/1 487/64/1 488/64/1
f 490/64/5 489/64/5 491/64/5
f 490/64/5 491/64/5 492/64/5
f 494/180/5 493/179/5 495/181/5
f 494/180/5 495/181/5 496/182/5
f 497/64/4 498/64/4 499/64/4
f 499/64/4 498/64/4 500/64/4
f 501/64/6 502/64/6 503/64/6
f 503/64/6 502/64/6 504/64/6
f 506/64/1 505/64/1 507/64/1
f 506/64/1 507/64/1 508/64/1
f 510/64/5 509/64/5 511/64/5
f 510/64/5 511/64/5 512/64/5
f 513/64/6 514/64/6 515/64/6
f 515/64/6 514/64/6 516/64/6
f 517/54/4 518/54/4 519/54/4
f 519/54/4 518/54/4 520/54/4
f 522/184/5 521/183/5 523/185/5
f 522/184/5 523/185/5 524/186/5
f 526/73/1 525/73/1 527/73/1
f 526/73/1 527/73/1 528/73/1
f 530/188/5 529/187/5 531/189/5
f 530/188/5 531/189/5 532/190/5
f 533/73/6 534/73/6 535/73/6
f 535/73/6 534/73/6 536/73/6
f 538/29/3 537/29/3 539/29/3
f 538/29/3 539/29/3 540/29/3
f 542/64/5 541/64/5 543/64/5
f 542/64/5 543/64/5 544/64/5
f 546/64/3 545/64/3 547/64/3
f 546/64/3 547/64/3 548/64/3
f 550/142/5 549/142/5 551/142/5
f 550/142/5 551/142/5 552/142/5
f 554/142/5 553/142/5 555/142/5
f 554/142/5 555/142/5 556/142/5
f 557/142/6 558/142/6 559/142/6
f 559/142/6 558/142/6 560/142/6
f 561/142/6 562/142/6 563/142/6
f 563/142/6 562/142/6 564/142/6
f 566/142/1 565/142/1 567/142/1
f 566/142/1 567/142/1 568/142/1
f 570/142/5 569/142/5 571/142/5
f 570/142/5 571/142/5 572/142/5
f 574/142/3 573/142/3 575/142/3
f 574/142/3 575/142/3 576/142/3
f 578/64/5 577/64/5 579/64/5
f 578/64/5 579/64/5 580/64/5
f 582/192/5 581/191/5 583/193/5
f 582/192/5 583/193/5 584/194/5
f 585/195/4 586/196/4 587/197/4
f 587/197/4 586/196/4 588/198/4
f 589/64/6 590/64/6 591/64/6
f 591/64/6 590/64/6 592/64/6
f 593/142/4 594/142/4 595/142/4
f 595/142/4 594/142/4 596/142/4
f 598/142/1 597/142/1 599/142/1
f 598/142/1 599/142/1 600/142/1
f 602/142/5 601/142/5 603/142/5
f 602/142/5 603/142/5 604/142/5
f 606/142/3 605/142/3 607/142/3
f 606/142/3 607/142/3 608/142/3
f 609/142/6 610/142/6 611/142/6
f 611/142/6 610/142/6 612/142/6
f 614/64/1 613/64/1 615/64/1
f 614/64/1 615/64/1 616/64/1
f 618/64/5 617/64/5 619/64/5
f 618/64/5 619/64/5 620/64/5
f 622/64/3 621/64/3 623/64/3
f 622/64/3 623/64/3 624/64/3
f 625/64/6 626/64/6 627/64/6
f 627/64/6 626/64/6 628/64/6
f 630/200/5 629/199/5 631/201/5
f 630/200/5 631/201/5 632/202/5
f 634/204/3 633/203/3 635/205/3
f 634/204/3 635/205/3 636/206/3
f 637/35/4 638/35/4 639/35/4
f 639/35/4 638/35/4 640/35/4
f 641/35/6 642/35/6 643/35/6
f 643/35/6 642/35/6 644/35/6
f 646/41/1 645/41/1 647/41/1
f 646/41/1 647/41/1 648/41/1
f 650/41/5 649/41/5 651/41/5
f 650/41/5 651/41/5 652/41/5
f 653/41/6 654/41/6 655/41/6
f 655/41/6 654/41/6 656/41/6
f 657/207/6 658/208/6 659/209/6
f 659/209/6 658/208/6 660/210/6
f 662/64/5 661/64/5 663/64/5
f 662/64/5 663/64/5 664/64/5
f 666/142/5 665/142/5 667/142/5
f 666/142/5 667/142/5 668/142/5
f 669/142/4 670/142/4 671/142/4
f 671/142/4 670/142/4 672/142/4
f 674/142/5 673/142/5 675/142/5
f 674/142/5 675/142/5 676/142/5
f 677/142/4 678/142/4 679/142/4
f 679/142/4 678/142/4 680/142/4
f 682/142/1 681/142/1 683/142/1
f 682/142/1 683/142/1 684/142/1
f 686/142/1 685/142/1 687/142/1
f 686/142/1 687/142/1 688/142/1
f 690/142/5 689/142/5 691/142/5
f 690/142/5 691/142/5 692/142/5
f 694/142/3 693/142/3 695/142/3
f 694/142/3 695/142/3 696/142/3
f 697/142/6 698/142/6 699/142/6
f 699/142/6 698/142/6 700/142/6
f 702/212/5 701/211/5 703/213/5
f 702/212/5 703/213/5 704/214/5
f 706/64/5 705/64/5 707/64/5
f 706/64/5 707/64/5 708/64/5
f 710/216/5 709/215/5 711/217/5
f 710/216/5 711/217/5 712/218/5
f 714/220/5 713/219/5 715/221/5
f 714/220/5 715/221/5 716/222/5
f 718/36/5 717/36/5 719/36/5
f 718/36/5 719/36/5 720/36/5
f 721/30/6 722/30/6 723/30/6
f 723/30/6 722/30/6 724/30/6
f 726/224/5 725/223/5 727/225/5
f 726/224/5 727/225/5 728/226/5
f 729/64/4 730/64/4 731/64/4
f 731/64/4 730/64/4 732/64/4
f 733/64/6 734/64/6 735/64/6
f 735/64/6 734/64/6 736/64/6
f 738/64/1 737/64/1 739/64/1
f 738/64/1 739/64/1 740/64/1
f 742/228/1 741/227/1 743/229/1
f 742/228/1 743/229/1 744/230/1
f 746/232/5 745/231/5 747/233/5
f 746/232/5 747/233/5 748/234/5
f 750/35/3 749/35/3 751/35/3
f 750/35/3 751/35/3 752/35/3
f 754/236/5 753/235/5 755/237/5
f 754/236/5 755/237/5 756/238/5
f 757/29/4 758/29/4 759/29/4
f 759/29/4 758/29/4 760/29/4
f 761/29/6 762/29/6 763/29/6
f 763/29/6 762/29/6 764/29/6
f 765/30/4 766/30/4 767/30/4
f 767/30/4 766/30/4 768/30/4
f 770/30/1 769/30/1 771/30/1
f 770/30/1 771/30/1 772/30/1
f 773/55/4 774/55/4 775/55/4
f 775/55/4 774/55/4 776/55/4
f 778/55/1 777/55/1 779/55/1
f 778/55/1 779/55/1 780/55/1
f 781/55/2 782/55/2 783/55/2
f 783/55/2 782/55/2 784/55/2
f 785/55/6 786/55/6 787/55/6
f 787/55/6 786/55/6 788/55/6
f 790/240/5 789/239/5 791/241/5
f 790/240/5 791/241/5 792/242/5
f 794/64/5 793/64/5 795/64/5
f 794/64/5 795/64/5 796/64/5
f 798/244/5 797/243/5 799/245/5
f 798/244/5 799/245/5 800/246/5
f 801/247/6 802/248/6 803/249/6
f 803/249/6 802/248/6 804/250/6
f 806/142/5 805/142/5 807/142/5
f 806/142/5 807/142/5 808/142/5
f 810/142/3 809/142/3 811/142/3
f 810/142/3 811/142/3 812/142/3
f 814/142/5 813/142/5 815/142/5
f 814/142/5 815/142/5 816/142/5
f 818/142/3 817/142/3 819/142/3
f 818/142/3 819/142/3 820/142/3
f 821/142/4 822/142/4 823/142/4
f 823/142/4 822/142/4 824/142/4
f 826/252/1 825/251/1 827/253/1
f 826/252/1 827/253/1 828/254/1
f 830/256/5 829/255/5 831/257/5
f 830/256/5 831/257/5 832/258/5
f 833/73/4 834/73/4 835/73/4
f 835/73/4 834/73/4 836/73/4
f 837/73/4 838/73/4 839/73/4
f 839/73/4 838/73/4 840/73/4
f 842/73/1 841/73/1 843/73/1
f 842/73/1 843/73/1 844/73/1
f 846/73/5 845/73/5 847/73/5
f 846/73/5 847/73/5 848/73/5
f 849/73/6 850/73/6 851/73/6
f 851/73/6 850/73/6 852/73/6
f 853/259/4 854/259/4 855/259/4
f 855/259/4 854/259/4 856/259/4
f 858/259/1 857/259/1 859/259/1
f 858/259/1 859/259/1 860/259/1
f 862/259/5 861/259/5 863/259/5
f 862/259/5 863/259/5 864/259/5
f 866/259/3 865/259/3 867/259/3
f 866/259/3 867/259/3 868/259/3
f 869/259/6 870/259/6 871/259/6
f 871/259/6 870/259/6 872/259/6
f 873/142/4 874/142/4 875/142/4
f 875/142/4 874/142/4 876/142/4
f 878/142/1 877/142/1 879/142/1
f 878/142/1 879/142/1 880/142/1
f 882/142/5 881/142/5 883/142/5
f 882/142/5 883/142/5 884/142/5
f 886/142/3 885/142/3 887/142/3
f 886/142/3 887/142/3 888/142/3
f 889/142/6 890/142/6 891/142/6
f 891/142/6 890/142/6 892/142/6
f 893/260/6 894/261/6 895/262/6
f 895/262/6 894/261/6 896/263/6
f 897/36/4 898/36/4 899/36/4
f 899/36/4 898/36/4 900/36/4
f 902/36/5 901/36/5 903/36/5
f 902/36/5 903/36/5 904/36/5
f 906/73/1 905/73/1 907/73/1
f 906/73/1 907/73/1 908/73/1
f 910/73/5 909/73/5 911/73/5
f 910/73/5 911/73/5 912/73/5
f 914/73/3 913/73/3 915/73/3
f 914/73/3 915/73/3 916/73/3
f 917/73/6 918/73/6 919/73/6
f 919/73/6 918/73/6 920/73/6
f 922/265/5 921/264/5 923/266/5
f 922/265/5 923/266/5 924/267/5
f 926/64/5 925/64/5 927/64/5
f 926/64/5 927/64/5 928/64/5
f 929/142/4 930/142/4 931/142/4
f 931/142/4 930/142/4 932/142/4
f 934/269/5 933/268/5 935/270/5
f 934/269/5 935/270/5 936/271/5
f 938/273/5 937/272/5 939/274/5
f 938/273/5 939/274/5 940/275/5
f 941/64/4 942/64/4 943/64/4
f 943/64/4 942/64/4 944/64/4
f 946/277/5 945/276/5 947/278/5
f 946/277/5 947/278/5 948/279/5
f 950/281/5 949/280/5 951/282/5
f 950/281/5 951/282/5 952/283/5
f 953/142/4 954/142/4 955/142/4
f 955/142/4 954/142/4 956/142/4
f 958/142/5 957/142/5 959/142/5
f 958/142/5 959/142/5 960/142/5
f 962/142/3 961/142/3 963/142/3
f 962/142/3 963/142/3 964/142/3
f 965/142/6 966/142/6 967/142/6
f 967/142/6 966/142/6 968/142/6
f 969/64/4 970/64/4 971/64/4
f 971/64/4 970/64/4 972/64/4
f 974/64/5 973/64/5 975/64/5
f 974/64/5 975/64/5 976/64/5
f 978/64/3 977/64/3 979/64/3
f 978/64/3 979/64/3 980/64/3
f 981/64/4 982/64/4 983/64/4
f 983/64/4 982/64/4 984/64/4
f 986/64/1 985/64/1 987/64/1
f 986/64/1 987/64/1 988/64/1
f 990/64/5 989/64/5 991/64/5
f 990/64/5 991/64/5 992/64/5
f 994/64/3 993/64/3 995/64/3
f 994/64/3 995/64/3 996/64/3
f 997/64/6 998/64/6 999/64/6
f 999/64/6 998/64/6 1000/64/6
f 1002/64/1 1001/64/1 1003/64/1
f 1002/64/1 1003/64/1 1004/64/1
f 1006/64/5 1005/64/5 1007/64/5
f 1006/64/5 1007/64/5 1008/64/5
f 1010/64/3 1009/64/3 1011/64/3
f 1010/64/3 1011/64/3 1012/64/3
f 1013/64/6 1014/64/6 1015/64/6
f 1015/64/6 1014/64/6 1016/64/6
f 1018/285/5 1017/284/5 1019/286/5
f 1018/285/5 1019/286/5 1020/287/5
f 1022/259/5 1021/259/5 1023/259/5
f 1022/259/5 1023/259/5 1024/259/5
f 1025/142/4 1026/142/4 1027/142/4
f 1027/142/4 1026/142/4 1028/142/4
f 1030/289/5 1029/288/5 1031/290/5
f 1030/289/5 1031/290/5 1032/291/5
f 1033/64/4 1034/64/4 1035/64/4
f 1035/64/4 1034/64/4 1036/64/4
f 1038/64/1 1037/64/1 1039/64/1
f 1038/64/1 1039/64/1 1040/64/1
f 1042/64/5 1041/64/5 1043/64/5
f 1042/64/5 1043/64/5 1044/64/5
f 1046/64/3 1045/64/3 1047/64/3
f 1046/64/3 1047/64/3 1048/64/3
f 1049/64/6 1050/64/6 1051/64/6
f 1051/64/6 1050/64/6 1052/64/6
f 1054/64/5 1053/64/5 1055/64/5
f 1054/64/5 1055/64/5 1056/64/5
f 1057/64/4 1058/64/4 1059/64/4
f 1059/64/4 1058/64/4 1060/64/4
f 1062/64/5 1061/64/5 1063/64/5
f 1062/64/5 1063/64/5 1064/64/5
f 1066/64/3 1065/64/3 1067/64/3
f 1066/64/3 1067/64/3 1068/64/3
f 1069/64/6 1070/64/6 1071/64/6
f 1071/64/6 1070/64/6 1072/64/6
f 1074/293/1 1073/292/1 1075/294/1
f 1074/293/1 1075/294/1 1076/295/1
f 1078/142/5 1077/142/5 1079/142/5
f 1078/142/5 1079/142/5 1080/142/5
f 1082/64/5 1081/64/5 1083/64/5
f 1082/64/5 1083/64/5 1084/64/5
f 1086/297/5 1085/296/5 1087/298/5
f 1086/297/5 1087/298/5 1088/299/5
f 1090/142/3 1089/142/3 1091/142/3
f 1090/142/3 1091/142/3 1092/142/3
f 1093/142/4 1094/142/4 1095/142/4
f 1095/142/4 1094/142/4 1096/142/4
f 1098/64/1 1097/64/1 1099/64/1
f 1098/64/1 1099/64/1 1100/64/1
f 1102/64/5 1101/64/5 1103/64/5
f 1102/64/5 1103/64/5 1104/64/5
f 1106/64/3 1105/64/3 1107/64/3
f 1106/64/3 1107/64/3 1108/64/3
f 1109/64/6 1110/64/6 1111/64/6
f 1111/64/6 1110/64/6 1112/64/6
f 1113/64/4 1114/64/4 1115/64/4
f 1115/64/4 1114/64/4 1116/64/4
f 1117/64/4 1118/64/4 1119/64/4
f 1119/64/4 1118/64/4 1120/64/4
f 1121/64/6 1122/64/6 1123/64/6
f 1123/64/6 1122/64/6 1124/64/6
f 1126/301/5 1125/300/5 1127/302/5
f 1126/301/5 1127/302/5 1128/303/5
f 1130/64/5 1129/64/5 1131/64/5
f 1130/64/5 1131/64/5 1132/64/5
f 1134/142/1 1133/142/1 1135/142/1
f 1134/142/1 1135/142/1 1136/142/1
f 1138/305/5 1137/304/5 1139/306/5
f 1138/305/5 1139/306/5 1140/307/5
f 1142/142/3 1141/142/3 1143/142/3
f 1142/142/3 1143/142/3 1144/142/3
f 1145/64/4 1146/64/4 1147/64/4
f 1147/64/4 1146/64/4 1148/64/4
f 1150/64/1 1149/64/1 1151/64/1
f 1150/64/1 1151/64/1 1152/64/1
f 1154/64/5 1153/64/5 1155/64/5
f 1154/64/5 1155/64/5 1156/64/5
f 1158/64/3 1157/64/3 1159/64/3
f 1158/64/3 1159/64/3 1160/64/3
f 1161/64/6 1162/64/6 1163/64/6
f 1163/64/6 1162/64/6 1164/64/6
f 1166/142/5 1165/142/5 1167/142/5
f 1166/142/5 1167/142/5 1168/142/5
f 1170/142/1 1169/142/1 1171/142/1
f 1170/142/1 1171/142/1 1172/142/1
f 1174/309/5 1173/308/5 1175/310/5
f 1174/309/5 1175/310/5 1176/311/5
f 1178/142/3 1177/142/3 1179/142/3
f 1178/142/3 1179/142/3 1180/142/3
f 1182/64/5 1181/64/5 1183/64/5
f 1182/64/5 1183/64/5 1184/64/5
f 1186/313/5 1185/312/5 1187/314/5
f 1186/313/5 1187/314/5 1188/315/5
f 1190/64/3 1189/64/3 1191/64/3
f 1190/64/3 1191/64/3 1192/64/3
f 1193/64/4 1194/64/4 1195/64/4
f 1195/64/4 1194/64/4 1196/64/4
f 1197/64/4 1198/64/4 1199/64/4
f 1199/64/4 1198/64/4 1200/64/4
f 1202/64/1 1201/64/1 1203/64/1
f 1202/64/1 1203/64/1 1204/64/1
f 1206/64/5 1205/64/5 1207/64/5
f 1206/64/5 1207/64/5 1208/64/5
f 1210/64/3 1209/64/3 1211/64/3
f 1210/64/3 1211/64/3 1212/64/3
f 1213/64/6 1214/64/6 1215/64/6
f 1215/64/6 1214/64/6 1216/64/6
f 1218/317/1 1217/316/1 1219/318/1
f 1218/317/1 1219/318/1 1220/319/1
f 1222/321/5 1221/320/5 1223/322/5
f 1222/321/5 1223/322/5 1224/323/5
f 1226/142/3 1225/142/3 1227/142/3
f 1226/142/3 1227/142/3 1228/142/3
f 1230/325/5 1229/324/5 1231/326/5
f 1230/325/5 1231/326/5 1232/327/5
f 1234/329/5 1233/328/5 1235/330/5
f 1234/329/5 1235/330/5 1236/331/5
f 1238/64/3 1237/64/3 1239/64/3
f 1238/64/3 1239/64/3 1240/64/3
f 1241/64/4 1242/64/4 1243/64/4
f 1243/64/4 1242/64/4 1244/64/4
f 1246/64/5 1245/64/5 1247/64/5
f 1246/64/5 1247/64/5 1248/64/5
f 1249/64/4 1250/64/4 1251/64/4
f 1251/64/4 1250/64/4 1252/64/4
f 1254/333/5 1253/332/5 1255/334/5
f 1254/333/5 1255/334/5 1256/335/5
f 1258/64/3 1257/64/3 1259/64/3
f 1258/64/3 1259/64/3 1260/64/3
f 1261/64/4 1262/64/4 1263/64/4
f 1263/64/4 1262/64/4 1264/64/4
f 1266/337/5 1265/336/5 1267/338/5
f 1266/337/5 1267/338/5 1268/339/5
f 1270/64/3 1269/64/3 1271/64/3
f 1270/64/3 1271/64/3 1272/64/3
f 1273/64/4 1274/64/4 1275/64/4
f 1275/64/4 1274/64/4 1276/64/4
f 1278/341/5 1277/340/5 1279/342/5
f 1278/341/5 1279/342/5 1280/343/5
f 1282/64/3 1281/64/3 1283/64/3
f 1282/64/3 1283/64/3 1284/64/3
f 1286/64/1 1285/64/1 1287/64/1
f 1286/64/1 1287/64/1 1288/64/1
f 1290/64/5 1289/64/5 1291/64/5
f 1290/64/5 1291/64/5 1292/64/5
f 1294/64/3 1293/64/3 1295/64/3
f 1294/64/3 1295/64/3 1296/64/3
f 1298/345/5 1297/344/5 1299/346/5
f 1298/345/5 1299/346/5 1300/347/5
f 1302/349/3 1301/348/3 1303/350/3
f 1302/349/3 1303/350/3 1304/351/3
f 1305/36/4 1306/36/4 1307/36/4
f 1307/36/4 1306/36/4 1308/36/4
f 1309/36/6 1310/36/6 1311/36/6
f 1311/36/6 1310/36/6 1312/36/6
f 1313/64/6 1314/64/6 1315/64/6
f 1315/64/6 1314/64/6 1316/64/6
f 1318/64/5 1317/64/5 1319/64/5
f 1318/64/5 1319/64/5 1320/64/5
f 1322/64/5 1321/64/5 1323/64/5
f 1322/64/5 1323/64/5 1324/64/5
f 1325/64/4 1326/64/4 1327/64/4
f 1327/64/4 1326/64/4 1328/64/4
f 1330/353/5 1329/352/5 1331/354/5
f 1330/353/5 1331/354/5 1332/355/5
f 1334/357/1 1333/356/1 1335/358/1
f 1334/357/1 1335/358/1 1336/359/1
f 1337/73/4 1338/73/4 1339/73/4
f 1339/73/4 1338/73/4 1340/73/4
f 1342/361/5 1341/360/5 1343/362/5
f 1342/361/5 1343/362/5 1344/363/5
f 1346/73/3 1345/73/3 1347/73/3
f 1346/73/3 1347/73/3 1348/73/3
f 1350/365/5 1349/364/5 1351/366/5
f 1350/365/5 1351/366/5 1352/367/5
f 1354/64/3 1353/64/3 1355/64/3
f 1354/64/3 1355/64/3 1356/64/3
f 1357/368/6 1358/369/6 1359/370/6
f 1359/370/6 1358/369/6 1360/371/6
