# Export of Cubik Model: Cubik Model
# Designed by MeLee with Cubik Studio - https://cubik.studio
# from Cubik OBJ Exporter v1.0
mtllib grass_1_b_M.mtl
v 0 0 1.907349E-06
v -16 0 1.907349E-06
v 0 2 1.907349E-06
v -16 2 1.907349E-06
v 0 0 1.907349E-06
v -16 0 1.907349E-06
v 0 0 -16
v -16 0 -16
v 0 0 1.907349E-06
v 0 2 1.907349E-06
v 0 0 -16
v 0 2 -16
v 0 0 -16
v -16 0 -16
v 0 2 -16
v -16 2 -16
v 0 2 1.907349E-06
v -4.5 2 1.907349E-06
v 0 2 -16
v -4.5 2 -16
v -4.5 1.5 -12
v -4.5 2 -12
v -4.5 1.5 -12.5
v -4.5 2 -12.5
v -4.5 1.5 -13.5
v -4.5 2 -13.5
v -4.5 1.5 -14
v -4.5 2 -14
v -4.5 1.5 -12
v -5 1.5 -12
v -4.5 1.5 -12.5
v -5 1.5 -12.5
v -4.5 1.5 -13.5
v -5.5 1.5 -13.5
v -4.5 1.5 -14
v -5.5 1.5 -14
v -4.5 2 1.907349E-06
v -6 2 1.907349E-06
v -4.5 2 -12
v -6 2 -12
v -4.5 1.5 -12
v -5 1.5 -12
v -4.5 2 -12
v -5 2 -12
v -4.5 1.5 -12.5
v -5 1.5 -12.5
v -4.5 2 -12.5
v -5 2 -12.5
v -4.5 2 -12.5
v -6 2 -12.5
v -4.5 2 -13.5
v -6 2 -13.5
v -4.5 1.5 -13.5
v -5.5 1.5 -13.5
v -4.5 2 -13.5
v -5.5 2 -13.5
v -4.5 1.5 -14
v -5.5 1.5 -14
v -4.5 2 -14
v -5.5 2 -14
v -4.5 2 -14
v -16 2 -14
v -4.5 2 -16
v -16 2 -16
v -5 2 -12
v -6 2 -12
v -5 2 -12.5
v -6 2 -12.5
v -5 1.5 -12
v -5 2 -12
v -5 1.5 -12.5
v -5 2 -12.5
v -6 1.5 -10.5
v -6 2 -10.5
v -6 1.5 -13
v -6 2 -13
v -5.5 2 -13.5
v -8 2 -13.5
v -5.5 2 -14
v -8 2 -14
v -5.5 1.5 -13.5
v -5.5 2 -13.5
v -5.5 1.5 -14
v -5.5 2 -14
v -6.5 1 -9.999998
v -6.5 2 -9.999998
v -6.5 1 -10.5
v -6.5 2 -10.5
v -6 1.5 -10.5
v -7 1.5 -10.5
v -6 1.5 -13
v -7 1.5 -13
v -6 2 1.907349E-06
v -6.5 2 1.907349E-06
v -6 2 -10.5
v -6.5 2 -10.5
v -6.5 1.5 -9.499998
v -6.5 2 -9.499998
v -6.5 1.5 -9.999998
v -6.5 2 -9.999998
v -6 1.5 -10.5
v -6.5 1.5 -10.5
v -6 2 -10.5
v -6.5 2 -10.5
v -6 1.5 -13
v -7 1.5 -13
v -6 2 -13
v -7 2 -13
v -6 2 -13
v -7 2 -13
v -6 2 -13.5
v -7 2 -13.5
v -6.5 1 -9.999998
v -7 1 -9.999998
v -6.5 1 -10.5
v -7 1 -10.5
v -6.5 1 -9.999998
v -7 1 -9.999998
v -6.5 1.5 -9.999998
v -7 1.5 -9.999998
v -6.5 1.5 -9.499998
v -7 1.5 -9.499998
v -6.5 1.5 -9.999998
v -7 1.5 -9.999998
v -6.5 1 -10.5
v -7 1 -10.5
v -6.5 1.5 -10.5
v -7 1.5 -10.5
v -7 1 -10.5
v -7 1.5 -10.5
v -7 1 -11.5
v -7 1.5 -11.5
v -6.5 2 1.907349E-06
v -7 2 1.907349E-06
v -6.5 2 -9.499998
v -7 2 -9.499998
v -6.5 1.5 -9.499998
v -7 1.5 -9.499998
v -6.5 2 -9.499998
v -7 2 -9.499998
v -7 1.5 -8.999998
v -7 2 -8.999998
v -7 1.5 -9.499998
v -7 2 -9.499998
v -7 1.5 -13
v -7 2 -13
v -7 1.5 -13.5
v -7 2 -13.5
v -7 1 -10.5
v -9 1 -10.5
v -7 1 -11.5
v -9 1 -11.5
v -7 1.5 -8.999998
v -9 1.5 -8.999998
v -7 1.5 -9.499998
v -9 1.5 -9.499998
v -7 1 -10.5
v -7.5 1 -10.5
v -7 1.5 -10.5
v -7.5 1.5 -10.5
v -7 1.5 -9.999998
v -7.5 1.5 -9.999998
v -7 1.5 -10.5
v -7.5 1.5 -10.5
v -7 1 -9.999998
v -7 1.5 -9.999998
v -7 1 -10.5
v -7 1.5 -10.5
v -7.5 1 -9.999998
v -7.5 1.5 -9.999998
v -7.5 1 -10.5
v -7.5 1.5 -10.5
v -7 1 -11.5
v -8.5 1 -11.5
v -7 1.5 -11.5
v -8.5 1.5 -11.5
v -7 1.5 -11.5
v -8.5 1.5 -11.5
v -7 1.5 -13.5
v -8.5 1.5 -13.5
v -7 2 1.907349E-06
v -7.5 2 1.907349E-06
v -7 2 -8.999998
v -7.5 2 -8.999998
v -7.5 1.5 -7.999998
v -7.5 2 -7.999998
v -7.5 1.5 -8.499998
v -7.5 2 -8.499998
v -7 1.5 -8.999998
v -8 1.5 -8.999998
v -7 2 -8.999998
v -8 2 -8.999998
v -7 1.5 -9.999998
v -7.5 1.5 -9.999998
v -7 2 -9.999998
v -7.5 2 -9.999998
v -7 1.5 -9.499998
v -7.5 1.5 -9.499998
v -7 2 -9.499998
v -7.5 2 -9.499998
v -7 2 -9.499998
v -7.5 2 -9.499998
v -7 2 -9.999998
v -7.5 2 -9.999998
v -7 1.5 -9.499998
v -7 2 -9.499998
v -7 1.5 -9.999998
v -7 2 -9.999998
v -7.5 1.5 -9.499998
v -7.5 2 -9.499998
v -7.5 1.5 -9.999998
v -7.5 2 -9.999998
v -7 1.5 -13.5
v -8 1.5 -13.5
v -7 2 -13.5
v -8 2 -13.5
v -7.5 1 -9.999998
v -8.5 1 -9.999998
v -7.5 1 -10.5
v -8.5 1 -10.5
v -7.5 1.5 -7.999998
v -8 1.5 -7.999998
v -7.5 1.5 -8.499998
v -8 1.5 -8.499998
v -7.5 1 -9.999998
v -8 1 -9.999998
v -7.5 1.5 -9.999998
v -8 1.5 -9.999998
v -7.5 1.5 -9.499998
v -8 1.5 -9.499998
v -7.5 1.5 -9.999998
v -8 1.5 -9.999998
v -8 1 -9.499998
v -8 1.5 -9.499998
v -8 1 -9.999998
v -8 1.5 -9.999998
v -7.5 2 1.907349E-06
v -8.5 2 1.907349E-06
v -7.5 2 -7.999998
v -8.5 2 -7.999998
v -7.5 1.5 -7.999998
v -8 1.5 -7.999998
v -7.5 2 -7.999998
v -8 2 -7.999998
v -7.5 1.5 -8.499998
v -8 1.5 -8.499998
v -7.5 2 -8.499998
v -8 2 -8.499998
v -7.5 2 -8.499998
v -8 2 -8.499998
v -7.5 2 -8.999998
v -8 2 -8.999998
v -8 1.5 -8.499998
v -8 2 -8.499998
v -8 1.5 -8.999998
v -8 2 -8.999998
v -8 1.5 -13.5
v -8 2 -13.5
v -8 1.5 -14
v -8 2 -14
v -8 1 -9.499998
v -10.5 1 -9.499998
v -8 1 -9.999998
v -10.5 1 -9.999998
v -8.5 0.5 -9.999998
v -8.5 1 -9.999998
v -8.5 0.5 -10.5
v -8.5 1 -10.5
v -8 1.5 -8.499998
v -10.5 1.5 -8.499998
v -8 1.5 -8.999998
v -10.5 1.5 -8.999998
v -8 1 -9.499998
v -9 1 -9.499998
v -8 1.5 -9.499998
v -9 1.5 -9.499998
v -8.5 1 -11.5
v -8.5 1.5 -11.5
v -8.5 1 -12
v -8.5 1.5 -12
v -8 1.5 -13.5
v -9 1.5 -13.5
v -8 1.5 -14
v -9 1.5 -14
v -8.5 1.5 -7.499998
v -8.5 2 -7.499998
v -8.5 1.5 -7.999998
v -8.5 2 -7.999998
v -8 1.5 -8.499998
v -9 1.5 -8.499998
v -8 2 -8.499998
v -9 2 -8.499998
v -8 2 -7.999998
v -9 2 -7.999998
v -8 2 -8.499998
v -9 2 -8.499998
v -8 1.5 -7.999998
v -8 2 -7.999998
v -8 1.5 -8.499998
v -8 2 -8.499998
v -8 1.5 -14
v -9 1.5 -14
v -8 2 -14
v -9 2 -14
v -8.5 0.5 -9.999998
v -10.5 0.5 -9.999998
v -8.5 0.5 -10.5
v -10.5 0.5 -10.5
v -8.5 0.5 -9.999998
v -10.5 0.5 -9.999998
v -8.5 1 -9.999998
v -10.5 1 -9.999998
v -8.5 0.5 -10.5
v -9 0.5 -10.5
v -8.5 1 -10.5
v -9 1 -10.5
v -9 0.5 -10.5
v -9 1 -10.5
v -9 0.5 -11
v -9 1 -11
v -8.5 1 -11.5
v -12 1 -11.5
v -8.5 1 -12
v -12 1 -12
v -8.5 1.5 -7.499998
v -9.5 1.5 -7.499998
v -8.5 1.5 -7.999998
v -9.5 1.5 -7.999998
v -9 1 -8.999998
v -9 1.5 -8.999998
v -9 1 -9.499998
v -9 1.5 -9.499998
v -8.5 1 -12
v -9.5 1 -12
v -8.5 1.5 -12
v -9.5 1.5 -12
v -8.5 1.5 -12
v -9.5 1.5 -12
v -8.5 1.5 -13
v -9.5 1.5 -13
v -8.5 2 1.907349E-06
v -9.5 2 1.907349E-06
v -8.5 2 -7.499998
v -9.5 2 -7.499998
v -8.5 1.5 -7.499998
v -9.5 1.5 -7.499998
v -8.5 2 -7.499998
v -9.5 2 -7.499998
v -8.5 1.5 -7.999998
v -9 1.5 -7.999998
v -8.5 2 -7.999998
v -9 2 -7.999998
v -9 1.5 -7.999998
v -9 2 -7.999998
v -9 1.5 -8.499998
v -9 2 -8.499998
v -8.5 1.5 -13.5
v -9 1.5 -13.5
v -8.5 2 -13.5
v -9 2 -13.5
v -8.5 1.5 -13
v -9 1.5 -13
v -8.5 2 -13
v -9 2 -13
v -8.5 2 -13
v -9 2 -13
v -8.5 2 -13.5
v -9 2 -13.5
v -8.5 1.5 -13
v -8.5 2 -13
v -8.5 1.5 -13.5
v -8.5 2 -13.5
v -9 1.5 -13
v -9 2 -13
v -9 1.5 -13.5
v -9 2 -13.5
v -9 0.5 -10.5
v -12 0.5 -10.5
v -9 0.5 -11
v -12 0.5 -11
v -9 1 -8.999998
v -12 1 -8.999998
v -9 1 -9.499998
v -12 1 -9.499998
v -9 0.5 -11
v -9.5 0.5 -11
v -9 1 -11
v -9.5 1 -11
v -9 1 -11
v -9.5 1 -11
v -9 1 -11.5
v -9.5 1 -11.5
v -9.5 0.5 -11
v -9.5 1 -11
v -9.5 0.5 -11.5
v -9.5 1 -11.5
v -9 1.5 -7.999998
v -13 1.5 -7.999998
v -9 1.5 -8.499998
v -13 1.5 -8.499998
v -9 1 -8.999998
v -10.5 1 -8.999998
v -9 1.5 -8.999998
v -10.5 1.5 -8.999998
v -9.5 1 -12
v -9.5 1.5 -12
v -9.5 1 -12.5
v -9.5 1.5 -12.5
v -9 1.5 -13
v -14 1.5 -13
v -9 1.5 -13.5
v -14 1.5 -13.5
v -9.5 1.5 -6.999998
v -9.5 2 -6.999998
v -9.5 1.5 -7.499998
v -9.5 2 -7.499998
v -9 1.5 -13.5
v -10.5 1.5 -13.5
v -9 2 -13.5
v -10.5 2 -13.5
v -9 2 -13.5
v -10.5 2 -13.5
v -9 2 -14
v -10.5 2 -14
v -9 1.5 -13.5
v -9 2 -13.5
v -9 1.5 -14
v -9 2 -14
v -9.5 0.5 -11
v -11.5 0.5 -11
v -9.5 0.5 -11.5
v -11.5 0.5 -11.5
v -9.5 0.5 -11.5
v -11.5 0.5 -11.5
v -9.5 1 -11.5
v -11.5 1 -11.5
v -9.5 1 -12
v -12.5 1 -12
v -9.5 1 -12.5
v -12.5 1 -12.5
v -9.5 1.5 -6.999998
v -10 1.5 -6.999998
v -9.5 1.5 -7.499998
v -10 1.5 -7.499998
v -9.5 1 -12.5
v -10 1 -12.5
v -9.5 1.5 -12.5
v -10 1.5 -12.5
v -9.5 1.5 -12.5
v -10 1.5 -12.5
v -9.5 1.5 -13
v -10 1.5 -13
v -10 1 -12.5
v -10 1.5 -12.5
v -10 1 -13
v -10 1.5 -13
v -9.5 2 1.907349E-06
v -11.5 2 1.907349E-06
v -9.5 2 -6.999998
v -11.5 2 -6.999998
v -9.5 1.5 -6.999998
v -10 1.5 -6.999998
v -9.5 2 -6.999998
v -10 2 -6.999998
v -9.5 1.5 -7.999998
v -10.5 1.5 -7.999998
v -9.5 2 -7.999998
v -10.5 2 -7.999998
v -9.5 1.5 -7.499998
v -10 1.5 -7.499998
v -9.5 2 -7.499998
v -10 2 -7.499998
v -9.5 2 -7.499998
v -10.5 2 -7.499998
v -9.5 2 -7.999998
v -10.5 2 -7.999998
v -9.5 1.5 -7.499998
v -9.5 2 -7.499998
v -9.5 1.5 -7.999998
v -9.5 2 -7.999998
v -10.5 0.5 -9.499998
v -10.5 1 -9.499998
v -10.5 0.5 -9.999998
v -10.5 1 -9.999998
v -10 1 -12.5
v -12.5 1 -12.5
v -10 1 -13
v -12.5 1 -13
v -10.5 1 -8.499998
v -10.5 1.5 -8.499998
v -10.5 1 -8.999998
v -10.5 1.5 -8.999998
v -10 1 -13
v -12.5 1 -13
v -10 1.5 -13
v -12.5 1.5 -13
v -10 2 -6.999998
v -10.5 2 -6.999998
v -10 2 -7.499998
v -10.5 2 -7.499998
v -10 1.5 -6.999998
v -10 2 -6.999998
v -10 1.5 -7.499998
v -10 2 -7.499998
v -10.5 1.5 -6.999998
v -10.5 2 -6.999998
v -10.5 1.5 -7.999998
v -10.5 2 -7.999998
v -10.5 1.5 -13.5
v -10.5 2 -13.5
v -10.5 1.5 -14
v -10.5 2 -14
v -10.5 0.5 -9.499998
v -11 0.5 -9.499998
v -10.5 0.5 -9.999998
v -11 0.5 -9.999998
v -10.5 1 -8.499998
v -13 1 -8.499998
v -10.5 1 -8.999998
v -13 1 -8.999998
v -10.5 0.5 -9.499998
v -11 0.5 -9.499998
v -10.5 1 -9.499998
v -11 1 -9.499998
v -10.5 0.5 -10.5
v -12 0.5 -10.5
v -10.5 1 -10.5
v -12 1 -10.5
v -10.5 0.5 -9.999998
v -11 0.5 -9.999998
v -10.5 1 -9.999998
v -11 1 -9.999998
v -10.5 1 -9.999998
v -13.5 1 -9.999998
v -10.5 1 -10.5
v -13.5 1 -10.5
v -10.5 0.5 -9.999998
v -10.5 1 -9.999998
v -10.5 0.5 -10.5
v -10.5 1 -10.5
v -10.5 1.5 -6.999998
v -11 1.5 -6.999998
v -10.5 1.5 -7.999998
v -11 1.5 -7.999998
v -10.5 1 -8.499998
v -13 1 -8.499998
v -10.5 1.5 -8.499998
v -13 1.5 -8.499998
v -10.5 1.5 -13.5
v -13.5 1.5 -13.5
v -10.5 1.5 -14
v -13.5 1.5 -14
v -10.5 1.5 -6.999998
v -11 1.5 -6.999998
v -10.5 2 -6.999998
v -11 2 -6.999998
v -10.5 1.5 -14
v -13.5 1.5 -14
v -10.5 2 -14
v -13.5 2 -14
v -11 1 -9.499998
v -13.5 1 -9.499998
v -11 1 -9.999998
v -13.5 1 -9.999998
v -11 0.5 -9.499998
v -11 1 -9.499998
v -11 0.5 -9.999998
v -11 1 -9.999998
v -11 1.5 -7.499998
v -11.5 1.5 -7.499998
v -11 1.5 -7.999998
v -11.5 1.5 -7.999998
v -11.5 1.5 -6.499998
v -11.5 2 -6.499998
v -11.5 1.5 -7.499998
v -11.5 2 -7.499998
v -11 1.5 -7.499998
v -11.5 1.5 -7.499998
v -11 2 -7.499998
v -11.5 2 -7.499998
v -11 2 -6.999998
v -11.5 2 -6.999998
v -11 2 -7.499998
v -11.5 2 -7.499998
v -11 1.5 -6.999998
v -11 2 -6.999998
v -11 1.5 -7.499998
v -11 2 -7.499998
v -12 0.5 -8.999998
v -12 1 -8.999998
v -12 0.5 -9.499998
v -12 1 -9.499998
v -11.5 0.5 -11
v -12 0.5 -11
v -11.5 1 -11
v -12 1 -11
v -11.5 1 -11
v -13 1 -11
v -11.5 1 -11.5
v -13 1 -11.5
v -11.5 0.5 -11
v -11.5 1 -11
v -11.5 0.5 -11.5
v -11.5 1 -11.5
v -11.5 1.5 -6.499998
v -12 1.5 -6.499998
v -11.5 1.5 -7.499998
v -12 1.5 -7.499998
v -11.5 2 1.907349E-06
v -16 2 1.907349E-06
v -11.5 2 -6.499998
v -16 2 -6.499998
v -11.5 1.5 -6.499998
v -12 1.5 -6.499998
v -11.5 2 -6.499998
v -12 2 -6.499998
v -11.5 1.5 -7.999998
v -12.5 1.5 -7.999998
v -11.5 2 -7.999998
v -12.5 2 -7.999998
v -11.5 1.5 -7.499998
v -12.5 1.5 -7.499998
v -11.5 2 -7.499998
v -12.5 2 -7.499998
v -11.5 2 -7.499998
v -12.5 2 -7.499998
v -11.5 2 -7.999998
v -12.5 2 -7.999998
v -11.5 1.5 -7.499998
v -11.5 2 -7.499998
v -11.5 1.5 -7.999998
v -11.5 2 -7.999998
v -12 0.5 -8.999998
v -12.5 0.5 -8.999998
v -12 0.5 -9.499998
v -12.5 0.5 -9.499998
v -12 0.5 -8.999998
v -12.5 0.5 -8.999998
v -12 1 -8.999998
v -12.5 1 -8.999998
v -12 0.5 -9.499998
v -12.5 0.5 -9.499998
v -12 1 -9.499998
v -12.5 1 -9.499998
v -12 1 -10.5
v -13.5 1 -10.5
v -12 1 -11
v -13.5 1 -11
v -12 0.5 -10.5
v -12 1 -10.5
v -12 0.5 -11
v -12 1 -11
v -12 1.5 -6.999998
v -12.5 1.5 -6.999998
v -12 1.5 -7.499998
v -12.5 1.5 -7.499998
v -12 1 -12
v -12.5 1 -12
v -12 1.5 -12
v -12.5 1.5 -12
v -12 1 -11.5
v -12.5 1 -11.5
v -12 1.5 -11.5
v -12.5 1.5 -11.5
v -12 1.5 -11.5
v -12.5 1.5 -11.5
v -12 1.5 -12
v -12.5 1.5 -12
v -12 1 -11.5
v -12 1.5 -11.5
v -12 1 -12
v -12 1.5 -12
v -12.5 1 -11.5
v -12.5 1.5 -11.5
v -12.5 1 -12
v -12.5 1.5 -12
v -12 1.5 -6.999998
v -12.5 1.5 -6.999998
v -12 2 -6.999998
v -12.5 2 -6.999998
v -12 2 -6.499998
v -12.5 2 -6.499998
v -12 2 -6.999998
v -12.5 2 -6.999998
v -12 1.5 -6.499998
v -12 2 -6.499998
v -12 1.5 -6.999998
v -12 2 -6.999998
v -12.5 1.5 -6.499998
v -12.5 2 -6.499998
v -12.5 1.5 -6.999998
v -12.5 2 -6.999998
v -12.5 1.5 -7.499998
v -12.5 2 -7.499998
v -12.5 1.5 -7.999998
v -12.5 2 -7.999998
v -12.5 1 -8.999998
v -13.5 1 -8.999998
v -12.5 1 -9.499998
v -13.5 1 -9.499998
v -12.5 0.5 -8.999998
v -12.5 1 -8.999998
v -12.5 0.5 -9.499998
v -12.5 1 -9.499998
v -12.5 1 -11.5
v -13 1 -11.5
v -12.5 1 -12
v -13 1 -12
v -12.5 1.5 -6.499998
v -13 1.5 -6.499998
v -12.5 1.5 -6.999998
v -13 1.5 -6.999998
v -12.5 1.5 -7.499998
v -14 1.5 -7.499998
v -12.5 1.5 -7.999998
v -14 1.5 -7.999998
v -13 1 -7.999998
v -13 1.5 -7.999998
v -13 1 -8.499998
v -13 1.5 -8.499998
v -12.5 1 -12
v -13 1 -12
v -12.5 1.5 -12
v -13 1.5 -12
v -12.5 1.5 -12
v -14 1.5 -12
v -12.5 1.5 -13
v -14 1.5 -13
v -12.5 1 -12
v -12.5 1.5 -12
v -12.5 1 -13
v -12.5 1.5 -13
v -12.5 1.5 -6.499998
v -13 1.5 -6.499998
v -12.5 2 -6.499998
v -13 2 -6.499998
v -12.5 1.5 -7.499998
v -13 1.5 -7.499998
v -12.5 2 -7.499998
v -13 2 -7.499998
v -12.5 1.5 -6.999998
v -13 1.5 -6.999998
v -12.5 2 -6.999998
v -13 2 -6.999998
v -12.5 2 -6.999998
v -13 2 -6.999998
v -12.5 2 -7.499998
v -13 2 -7.499998
v -12.5 1.5 -6.999998
v -12.5 2 -6.999998
v -12.5 1.5 -7.499998
v -12.5 2 -7.499998
v -13 1.5 -6.999998
v -13 2 -6.999998
v -13 1.5 -7.499998
v -13 2 -7.499998
v -13 1 -7.999998
v -14 1 -7.999998
v -13 1 -8.499998
v -14 1 -8.499998
v -13 1.5 -6.999998
v -13.5 1.5 -6.999998
v -13 1.5 -7.499998
v -13.5 1.5 -7.499998
v -13 1 -7.999998
v -14 1 -7.999998
v -13 1.5 -7.999998
v -14 1.5 -7.999998
v -13 1 -8.999998
v -13.5 1 -8.999998
v -13 1.5 -8.999998
v -13.5 1.5 -8.999998
v -13 1 -8.499998
v -14 1 -8.499998
v -13 1.5 -8.499998
v -14 1.5 -8.499998
v -13 1.5 -8.499998
v -15 1.5 -8.499998
v -13 1.5 -8.999998
v -15 1.5 -8.999998
v -13 1 -8.499998
v -13 1.5 -8.499998
v -13 1 -8.999998
v -13 1.5 -8.999998
v -13 1 -11
v -13.5 1 -11
v -13 1.5 -11
v -13.5 1.5 -11
v -13 1.5 -11
v -13.5 1.5 -11
v -13 1.5 -12
v -13.5 1.5 -12
v -13 1 -11
v -13 1.5 -11
v -13 1 -12
v -13 1.5 -12
v -13.5 1 -11.5
v -13.5 1.5 -11.5
v -13.5 1 -12
v -13.5 1.5 -12
v -13 1.5 -6.999998
v -13.5 1.5 -6.999998
v -13 2 -6.999998
v -13.5 2 -6.999998
v -13 2 -6.499998
v -16 2 -6.499998
v -13 2 -6.999998
v -16 2 -6.999998
v -13 1.5 -6.499998
v -13 2 -6.499998
v -13 1.5 -6.999998
v -13 2 -6.999998
v -13.5 1 -11.5
v -14 1 -11.5
v -13.5 1 -12
v -14 1 -12
v -13.5 1.5 -8.999998
v -14.5 1.5 -8.999998
v -13.5 1.5 -11.5
v -14.5 1.5 -11.5
v -13.5 1 -8.999998
v -13.5 1.5 -8.999998
v -13.5 1 -11
v -13.5 1.5 -11
v -13.5 1 -11.5
v -14 1 -11.5
v -13.5 1.5 -11.5
v -14 1.5 -11.5
v -13.5 1 -12
v -14 1 -12
v -13.5 1.5 -12
v -14 1.5 -12
v -13.5 1.5 -7.499998
v -14 1.5 -7.499998
v -13.5 2 -7.499998
v -14 2 -7.499998
v -13.5 2 -6.999998
v -14 2 -6.999998
v -13.5 2 -7.499998
v -14 2 -7.499998
v -13.5 1.5 -6.999998
v -13.5 2 -6.999998
v -13.5 1.5 -7.499998
v -13.5 2 -7.499998
v -14 1.5 -6.999998
v -14 2 -6.999998
v -14 1.5 -7.499998
v -14 2 -7.499998
v -13.5 1.5 -13.5
v -14 1.5 -13.5
v -13.5 2 -13.5
v -14 2 -13.5
v -13.5 2 -13.5
v -16 2 -13.5
v -13.5 2 -14
v -16 2 -14
v -13.5 1.5 -13.5
v -13.5 2 -13.5
v -13.5 1.5 -14
v -13.5 2 -14
v -14 1.5 -6.999998
v -14.5 1.5 -6.999998
v -14 1.5 -7.499998
v -14.5 1.5 -7.499998
v -14 1.5 -7.999998
v -15.5 1.5 -7.999998
v -14 1.5 -8.499998
v -15.5 1.5 -8.499998
v -14 1 -7.999998
v -14 1.5 -7.999998
v -14 1 -8.499998
v -14 1.5 -8.499998
v -14 1.5 -11.5
v -14.5 1.5 -11.5
v -14 1.5 -12.5
v -14.5 1.5 -12.5
v -14 1 -11.5
v -14 1.5 -11.5
v -14 1 -12
v -14 1.5 -12
v -14 1.5 -6.999998
v -14.5 1.5 -6.999998
v -14 2 -6.999998
v -14.5 2 -6.999998
v -14 1.5 -7.999998
v -14.5 1.5 -7.999998
v -14 2 -7.999998
v -14.5 2 -7.999998
v -14 1.5 -7.499998
v -14.5 1.5 -7.499998
v -14 2 -7.499998
v -14.5 2 -7.499998
v -14 2 -7.499998
v -14.5 2 -7.499998
v -14 2 -7.999998
v -14.5 2 -7.999998
v -14 1.5 -7.499998
v -14 2 -7.499998
v -14 1.5 -7.999998
v -14 2 -7.999998
v -14.5 1.5 -7.499998
v -14.5 2 -7.499998
v -14.5 1.5 -7.999998
v -14.5 2 -7.999998
v -14 1.5 -12.5
v -14.5 1.5 -12.5
v -14 2 -12.5
v -14.5 2 -12.5
v -14 2 -12.5
v -16 2 -12.5
v -14 2 -13.5
v -16 2 -13.5
v -14 1.5 -12.5
v -14 2 -12.5
v -14 1.5 -13.5
v -14 2 -13.5
v -14.5 1.5 -7.499998
v -15 1.5 -7.499998
v -14.5 1.5 -7.999998
v -15 1.5 -7.999998
v -14.5 1.5 -9.499998
v -15 1.5 -9.499998
v -14.5 1.5 -9.999998
v -15 1.5 -9.999998
v -14.5 1.5 -10.5
v -15 1.5 -10.5
v -14.5 1.5 -12
v -15 1.5 -12
v -14.5 1.5 -7.499998
v -15 1.5 -7.499998
v -14.5 2 -7.499998
v -15 2 -7.499998
v -14.5 2 -6.999998
v -16 2 -6.999998
v -14.5 2 -7.499998
v -16 2 -7.499998
v -14.5 1.5 -6.999998
v -14.5 2 -6.999998
v -14.5 1.5 -7.499998
v -14.5 2 -7.499998
v -14.5 1.5 -9.499998
v -15 1.5 -9.499998
v -14.5 2 -9.499998
v -15 2 -9.499998
v -14.5 1.5 -8.999998
v -15 1.5 -8.999998
v -14.5 2 -8.999998
v -15 2 -8.999998
v -14.5 2 -8.999998
v -16 2 -8.999998
v -14.5 2 -9.499998
v -16 2 -9.499998
v -14.5 1.5 -8.999998
v -14.5 2 -8.999998
v -14.5 1.5 -9.499998
v -14.5 2 -9.499998
v -14.5 1.5 -10.5
v -15 1.5 -10.5
v -14.5 2 -10.5
v -15 2 -10.5
v -14.5 1.5 -9.999998
v -15 1.5 -9.999998
v -14.5 2 -9.999998
v -15 2 -9.999998
v -14.5 2 -9.999998
v -15 2 -9.999998
v -14.5 2 -10.5
v -15 2 -10.5
v -14.5 1.5 -9.999998
v -14.5 2 -9.999998
v -14.5 1.5 -10.5
v -14.5 2 -10.5
v -15 1.5 -9.999998
v -15 2 -9.999998
v -15 1.5 -10.5
v -15 2 -10.5
v -14.5 1.5 -12
v -15 1.5 -12
v -14.5 2 -12
v -15 2 -12
v -14.5 2 -12
v -16 2 -12
v -14.5 2 -12.5
v -16 2 -12.5
v -14.5 1.5 -12
v -14.5 2 -12
v -14.5 1.5 -12.5
v -14.5 2 -12.5
v -15 1.5 -9.999998
v -15.5 1.5 -9.999998
v -15 1.5 -10.5
v -15.5 1.5 -10.5
v -15 1.5 -11
v -15.5 1.5 -11
v -15 1.5 -11.5
v -15.5 1.5 -11.5
v -15 1.5 -7.999998
v -15.5 1.5 -7.999998
v -15 2 -7.999998
v -15.5 2 -7.999998
v -15 2 -7.499998
v -16 2 -7.499998
v -15 2 -7.999998
v -16 2 -7.999998
v -15 1.5 -7.499998
v -15 2 -7.499998
v -15 1.5 -7.999998
v -15 2 -7.999998
v -15 1.5 -8.499998
v -15.5 1.5 -8.499998
v -15 2 -8.499998
v -15.5 2 -8.499998
v -15 2 -8.499998
v -16 2 -8.499998
v -15 2 -8.999998
v -16 2 -8.999998
v -15 1.5 -8.499998
v -15 2 -8.499998
v -15 1.5 -8.999998
v -15 2 -8.999998
v -15 1.5 -9.999998
v -15.5 1.5 -9.999998
v -15 2 -9.999998
v -15.5 2 -9.999998
v -15 2 -9.499998
v -16 2 -9.499998
v -15 2 -9.999998
v -16 2 -9.999998
v -15 1.5 -9.499998
v -15 2 -9.499998
v -15 1.5 -9.999998
v -15 2 -9.999998
v -15 1.5 -11
v -15.5 1.5 -11
v -15 2 -11
v -15.5 2 -11
v -15 1.5 -10.5
v -15.5 1.5 -10.5
v -15 2 -10.5
v -15.5 2 -10.5
v -15 2 -10.5
v -16 2 -10.5
v -15 2 -11
v -16 2 -11
v -15 1.5 -10.5
v -15 2 -10.5
v -15 1.5 -11
v -15 2 -11
v -15 1.5 -11.5
v -15.5 1.5 -11.5
v -15 2 -11.5
v -15.5 2 -11.5
v -15 2 -11.5
v -16 2 -11.5
v -15 2 -12
v -16 2 -12
v -15 1.5 -11.5
v -15 2 -11.5
v -15 1.5 -12
v -15 2 -12
v -16 0 1.907349E-06
v -16 2 1.907349E-06
v -16 0 -16
v -16 2 -16
v -15.5 2 -7.999998
v -16 2 -7.999998
v -15.5 2 -8.499998
v -16 2 -8.499998
v -15.5 1.5 -7.999998
v -15.5 2 -7.999998
v -15.5 1.5 -8.499998
v -15.5 2 -8.499998
v -15.5 2 -9.999998
v -16 2 -9.999998
v -15.5 2 -10.5
v -16 2 -10.5
v -15.5 1.5 -9.999998
v -15.5 2 -9.999998
v -15.5 1.5 -10.5
v -15.5 2 -10.5
v -15.5 2 -11
v -16 2 -11
v -15.5 2 -11.5
v -16 2 -11.5
v -15.5 1.5 -11
v -15.5 2 -11
v -15.5 1.5 -11.5
v -15.5 2 -11.5
vn 0 -5.960464E-08 0.9999999
vn 0 -0.9999999 -5.960464E-08
vn 1 0 0
vn 0 5.960464E-08 -0.9999999
vn 0 0.9999999 5.960464E-08
vn -1 0 0
vt 0.015625 0.2890625
vt 0.515625 0.2890625
vt 0.015625 0.3203125
vt 0.515625 0.3203125
vt 0.015625 0.0078125
vt 0.515625 0.0078125
vt 0.015625 0.2578125
vt 0.515625 0.2578125
vt 0.78125 0.0078125
vt 0.84375 0.0078125
vt 0.78125 0.2578125
vt 0.84375 0.2578125
vt 0.015625 0.3515625
vt 0.515625 0.3515625
vt 0.015625 0.3828125
vt 0.515625 0.3828125
vt 0.578125 0.0078125
vt 0.71875 0.0078125
vt 0.578125 0.2578125
vt 0.71875 0.2578125
vt 0.6875 0.7109375
vt 0.625 0.7109375
vt 0.3125 0.796875
vt 0.34375 0.796875
vt 0.3125 0.8046875
vt 0.34375 0.8046875
vt 0.90625 0.0078125
vt 0.953125 0.0078125
vt 0.90625 0.1953125
vt 0.953125 0.1953125
vt 0.8125 0.7109375
vt 0.90625 0.4921875
vt 0.953125 0.4921875
vt 0.90625 0.5078125
vt 0.953125 0.5078125
vt 0.3125 0.7578125
vt 0.34375 0.7578125
vt 0.3125 0.765625
vt 0.34375 0.765625
vt 0.3125 0.671875
vt 0.34375 0.671875
vt 0.3125 0.6796875
vt 0.34375 0.6796875
vt 0.578125 0.2890625
vt 0.9375 0.2890625
vt 0.578125 0.3203125
vt 0.9375 0.3203125
vt 0.859375 0.6328125
vt 0.890625 0.6328125
vt 0.859375 0.640625
vt 0.890625 0.640625
vt 0.5625 0.7109375
vt 0.140625 0.921875
vt 0.15625 0.921875
vt 0.140625 0.9609375
vt 0.15625 0.9609375
vt 0.3125 0.546875
vt 0.390625 0.546875
vt 0.3125 0.5546875
vt 0.390625 0.5546875
vt 0.5 0.7109375
vt 0.921875 0.5859375
vt 0.953125 0.5859375
vt 0.921875 0.59375
vt 0.953125 0.59375
vt 0.953125 0.6328125
vt 0.140625 0.546875
vt 0.15625 0.546875
vt 0.140625 0.7109375
vt 0.15625 0.7109375
vt 0.21875 0.9453125
vt 0.25 0.9453125
vt 0.21875 0.953125
vt 0.25 0.953125
vt 0.21875 0.90625
vt 0.25 0.90625
vt 0.21875 0.9140625
vt 0.25 0.9140625
vt 0.9375 0.7109375
vt 0.140625 0.7421875
vt 0.15625 0.7421875
vt 0.140625 0.890625
vt 0.15625 0.890625
vt 0.875 0.7109375
vt 0.421875 0.5859375
vt 0.484375 0.5859375
vt 0.421875 0.59375
vt 0.484375 0.59375
vt 0.90625 0.4140625
vt 0.953125 0.4140625
vt 0.90625 0.421875
vt 0.953125 0.421875
vt 0.90625 0.2265625
vt 0.953125 0.2265625
vt 0.90625 0.2578125
vt 0.953125 0.2578125
vt 0.21875 0.6953125
vt 0.234375 0.6953125
vt 0.21875 0.8359375
vt 0.234375 0.8359375
vt 0.3125 0.9140625
vt 0.34375 0.9140625
vt 0.3125 0.921875
vt 0.34375 0.921875
vt 0.75 0.7109375
vt 0.015625 0.8359375
vt 0.046875 0.8359375
vt 0.015625 0.9609375
vt 0.046875 0.9609375
vt 0.453125 0.546875
vt 0.53125 0.546875
vt 0.453125 0.5546875
vt 0.53125 0.5546875
vt 0.59375 0.546875
vt 0.671875 0.546875
vt 0.59375 0.5546875
vt 0.671875 0.5546875
vt 0.21875 0.8671875
vt 0.25 0.8671875
vt 0.21875 0.875
vt 0.25 0.875
vt 0.40625 0.671875
vt 0.4375 0.671875
vt 0.40625 0.6796875
vt 0.4375 0.6796875
vt 0.40625 0.7109375
vt 0.4375 0.7109375
vt 0.40625 0.71875
vt 0.4375 0.71875
vt 0.546875 0.5859375
vt 0.609375 0.5859375
vt 0.546875 0.59375
vt 0.609375 0.59375
vt 0.4375 0.4140625
vt 0.546875 0.4140625
vt 0.4375 0.421875
vt 0.546875 0.421875
vt 0.21875 0.546875
vt 0.25 0.546875
vt 0.21875 0.6640625
vt 0.25 0.6640625
vt 0.3125 0.875
vt 0.34375 0.875
vt 0.3125 0.8828125
vt 0.34375 0.8828125
vt 0.4375 0.5
vt 0.53125 0.5
vt 0.4375 0.5078125
vt 0.53125 0.5078125
vt 0.796875 0.3515625
vt 0.921875 0.3515625
vt 0.796875 0.359375
vt 0.921875 0.359375
vt 0.3125 0.6328125
vt 0.359375 0.6328125
vt 0.3125 0.640625
vt 0.359375 0.640625
vt 0.578125 0.3515625
vt 0.734375 0.3515625
vt 0.578125 0.359375
vt 0.734375 0.359375
vt 0.90625 0.453125
vt 0.953125 0.453125
vt 0.90625 0.4609375
vt 0.953125 0.4609375
vt 0.75 0.6328125
vt 0.796875 0.6328125
vt 0.75 0.640625
vt 0.796875 0.640625
vt 0.796875 0.5859375
vt 0.859375 0.5859375
vt 0.796875 0.59375
vt 0.859375 0.59375
vt 0.015625 0.6953125
vt 0.078125 0.6953125
vt 0.015625 0.8046875
vt 0.078125 0.8046875
vt 0.875 0.546875
vt 0.953125 0.546875
vt 0.875 0.5546875
vt 0.953125 0.5546875
vt 0.765625 0.4921875
vt 0.84375 0.4921875
vt 0.765625 0.5
vt 0.84375 0.5
vt 0.609375 0.4921875
vt 0.703125 0.4921875
vt 0.609375 0.5
vt 0.703125 0.5
vt 0.765625 0.4140625
vt 0.84375 0.4140625
vt 0.765625 0.421875
vt 0.84375 0.421875
vt 0.609375 0.453125
vt 0.703125 0.453125
vt 0.609375 0.4609375
vt 0.703125 0.4609375
vt 0.765625 0.453125
vt 0.84375 0.453125
vt 0.765625 0.4609375
vt 0.84375 0.4609375
vt 0.3125 0.7109375
vt 0.328125 0.7109375
vt 0.3125 0.7265625
vt 0.328125 0.7265625
vt 0.140625 0.4140625
vt 0.28125 0.4140625
vt 0.140625 0.515625
vt 0.28125 0.515625
vt 0.3125 0.5859375
vt 0.359375 0.5859375
vt 0.3125 0.6015625
vt 0.359375 0.6015625
vt 0.3125 0.8359375
vt 0.34375 0.8359375
vt 0.3125 0.84375
vt 0.34375 0.84375
vt 0.671875 0.5859375
vt 0.734375 0.5859375
vt 0.671875 0.59375
vt 0.734375 0.59375
vt 0.609375 0.4140625
vt 0.703125 0.4140625
vt 0.609375 0.421875
vt 0.703125 0.421875
vt 0.34375 0.4140625
vt 0.375 0.4140625
vt 0.34375 0.453125
vt 0.375 0.453125
vt 0.34375 0.484375
vt 0.359375 0.484375
vt 0.34375 0.515625
vt 0.359375 0.515625
vt 0.734375 0.546875
vt 0.8125 0.546875
vt 0.734375 0.5546875
vt 0.8125 0.5546875
vt 0.3125 0.953125
vt 0.328125 0.953125
vt 0.3125 0.96875
vt 0.328125 0.96875
vt 0.4375 0.453125
vt 0.5 0.453125
vt 0.4375 0.46875
vt 0.5 0.46875
vt 0.421875 0.6328125
vt 0.46875 0.6328125
vt 0.421875 0.640625
vt 0.46875 0.640625
vt 0.53125 0.6328125
vt 0.578125 0.6328125
vt 0.53125 0.640625
vt 0.578125 0.640625
vt 0.640625 0.6328125
vt 0.6875 0.6328125
vt 0.640625 0.640625
vt 0.6875 0.640625
vt 0.5 0.671875
vt 0.53125 0.671875
vt 0.5 0.6796875
vt 0.53125 0.6796875
vt 0.59375 0.671875
vt 0.625 0.671875
vt 0.59375 0.6796875
vt 0.625 0.6796875
vt 0.6875 0.671875
vt 0.71875 0.671875
vt 0.6875 0.6796875
vt 0.71875 0.6796875
vt 0.78125 0.671875
vt 0.8125 0.671875
vt 0.78125 0.6796875
vt 0.8125 0.6796875
vt 0.875 0.671875
vt 0.90625 0.671875
vt 0.875 0.6796875
vt 0.90625 0.6796875
vt 0.015625 0.4140625
vt 0.078125 0.4140625
vt 0.015625 0.6640625
vt 0.078125 0.6640625
usemtl voxel
f 2/2/1 1/1/1 3/3/1
f 2/2/1 3/3/1 4/4/1
f 5/5/2 6/6/2 7/7/2
f 7/7/2 6/6/2 8/8/2
f 10/10/3 9/9/3 11/11/3
f 10/10/3 11/11/3 12/12/3
f 13/13/4 14/14/4 15/15/4
f 15/15/4 14/14/4 16/16/4
f 18/18/5 17/17/5 19/19/5
f 18/18/5 19/19/5 20/20/5
f 21/21/6 22/21/6 23/21/6
f 23/21/6 22/21/6 24/21/6
f 25/22/6 26/22/6 27/22/6
f 27/22/6 26/22/6 28/22/6
f 30/22/5 29/22/5 31/22/5
f 30/22/5 31/22/5 32/22/5
f 34/24/5 33/23/5 35/25/5
f 34/24/5 35/25/5 36/26/5
f 38/28/5 37/27/5 39/29/5
f 38/28/5 39/29/5 40/30/5
f 41/31/4 42/31/4 43/31/4
f 43/31/4 42/31/4 44/31/4
f 46/21/1 45/21/1 47/21/1
f 46/21/1 47/21/1 48/21/1
f 50/33/5 49/32/5 51/34/5
f 50/33/5 51/34/5 52/35/5
f 53/36/4 54/37/4 55/38/4
f 55/38/4 54/37/4 56/39/4
f 58/41/1 57/40/1 59/42/1
f 58/41/1 59/42/1 60/43/1
f 62/45/5 61/44/5 63/46/5
f 62/45/5 63/46/5 64/47/5
f 66/49/5 65/48/5 67/50/5
f 66/49/5 67/50/5 68/51/5
f 70/52/3 69/52/3 71/52/3
f 70/52/3 71/52/3 72/52/3
f 73/53/6 74/54/6 75/55/6
f 75/55/6 74/54/6 76/56/6
f 78/58/5 77/57/5 79/59/5
f 78/58/5 79/59/5 80/60/5
f 82/61/3 81/61/3 83/61/3
f 82/61/3 83/61/3 84/61/3
f 85/62/6 86/63/6 87/64/6
f 87/64/6 86/63/6 88/65/6
f 90/66/5 89/66/5 91/66/5
f 90/66/5 91/66/5 92/66/5
f 94/68/5 93/67/5 95/69/5
f 94/68/5 95/69/5 96/70/5
f 97/22/6 98/22/6 99/22/6
f 99/22/6 98/22/6 100/22/6
f 101/21/4 102/21/4 103/21/4
f 103/21/4 102/21/4 104/21/4
f 106/72/1 105/71/1 107/73/1
f 106/72/1 107/73/1 108/74/1
f 110/76/5 109/75/5 111/77/5
f 110/76/5 111/77/5 112/78/5
f 114/79/5 113/79/5 115/79/5
f 114/79/5 115/79/5 116/79/5
f 117/66/4 118/66/4 119/66/4
f 119/66/4 118/66/4 120/66/4
f 122/66/5 121/66/5 123/66/5
f 122/66/5 123/66/5 124/66/5
f 126/66/1 125/66/1 127/66/1
f 126/66/1 127/66/1 128/66/1
f 129/66/6 130/66/6 131/66/6
f 131/66/6 130/66/6 132/66/6
f 134/81/5 133/80/5 135/82/5
f 134/81/5 135/82/5 136/83/5
f 137/84/4 138/84/4 139/84/4
f 139/84/4 138/84/4 140/84/4
f 141/84/6 142/84/6 143/84/6
f 143/84/6 142/84/6 144/84/6
f 145/66/6 146/66/6 147/66/6
f 147/66/6 146/66/6 148/66/6
f 150/79/5 149/79/5 151/79/5
f 150/79/5 151/79/5 152/79/5
f 154/86/5 153/85/5 155/87/5
f 154/86/5 155/87/5 156/88/5
f 157/66/4 158/66/4 159/66/4
f 159/66/4 158/66/4 160/66/4
f 162/66/5 161/66/5 163/66/5
f 162/66/5 163/66/5 164/66/5
f 166/66/3 165/66/3 167/66/3
f 166/66/3 167/66/3 168/66/3
f 169/66/6 170/66/6 171/66/6
f 171/66/6 170/66/6 172/66/6
f 174/90/1 173/89/1 175/91/1
f 174/90/1 175/91/1 176/92/1
f 178/94/5 177/93/5 179/95/5
f 178/94/5 179/95/5 180/96/5
f 182/98/5 181/97/5 183/99/5
f 182/98/5 183/99/5 184/100/5
f 185/61/6 186/61/6 187/61/6
f 187/61/6 186/61/6 188/61/6
f 189/101/4 190/102/4 191/103/4
f 191/103/4 190/102/4 192/104/4
f 193/105/4 194/105/4 195/105/4
f 195/105/4 194/105/4 196/105/4
f 198/105/1 197/105/1 199/105/1
f 198/105/1 199/105/1 200/105/1
f 202/105/5 201/105/5 203/105/5
f 202/105/5 203/105/5 204/105/5
f 206/105/3 205/105/3 207/105/3
f 206/105/3 207/105/3 208/105/3
f 209/105/6 210/105/6 211/105/6
f 211/105/6 210/105/6 212/105/6
f 214/66/1 213/66/1 215/66/1
f 214/66/1 215/66/1 216/66/1
f 218/79/5 217/79/5 219/79/5
f 218/79/5 219/79/5 220/79/5
f 222/66/5 221/66/5 223/66/5
f 222/66/5 223/66/5 224/66/5
f 225/79/4 226/79/4 227/79/4
f 227/79/4 226/79/4 228/79/4
f 230/79/5 229/79/5 231/79/5
f 230/79/5 231/79/5 232/79/5
f 233/79/6 234/79/6 235/79/6
f 235/79/6 234/79/6 236/79/6
f 238/107/5 237/106/5 239/108/5
f 238/107/5 239/108/5 240/109/5
f 241/31/4 242/31/4 243/31/4
f 243/31/4 242/31/4 244/31/4
f 246/61/1 245/61/1 247/61/1
f 246/61/1 247/61/1 248/61/1
f 250/61/5 249/61/5 251/61/5
f 250/61/5 251/61/5 252/61/5
f 253/61/6 254/61/6 255/61/6
f 255/61/6 254/61/6 256/61/6
f 257/66/6 258/66/6 259/66/6
f 259/66/6 258/66/6 260/66/6
f 262/111/5 261/110/5 263/112/5
f 262/111/5 263/112/5 264/113/5
f 265/79/6 266/79/6 267/79/6
f 267/79/6 266/79/6 268/79/6
f 270/115/5 269/114/5 271/116/5
f 270/115/5 271/116/5 272/117/5
f 273/118/4 274/119/4 275/120/4
f 275/120/4 274/119/4 276/121/4
f 277/79/6 278/79/6 279/79/6
f 279/79/6 278/79/6 280/79/6
f 282/123/5 281/122/5 283/124/5
f 282/123/5 283/124/5 284/125/5
f 285/84/6 286/84/6 287/84/6
f 287/84/6 286/84/6 288/84/6
f 289/66/4 290/66/4 291/66/4
f 291/66/4 290/66/4 292/66/4
f 294/66/5 293/66/5 295/66/5
f 294/66/5 295/66/5 296/66/5
f 298/66/3 297/66/3 299/66/3
f 298/66/3 299/66/3 300/66/3
f 302/127/1 301/126/1 303/128/1
f 302/127/1 303/128/1 304/129/1
f 306/105/5 305/105/5 307/105/5
f 306/105/5 307/105/5 308/105/5
f 309/130/4 310/131/4 311/132/4
f 311/132/4 310/131/4 312/133/4
f 314/79/1 313/79/1 315/79/1
f 314/79/1 315/79/1 316/79/1
f 317/79/6 318/79/6 319/79/6
f 319/79/6 318/79/6 320/79/6
f 322/135/5 321/134/5 323/136/5
f 322/135/5 323/136/5 324/137/5
f 326/66/5 325/66/5 327/66/5
f 326/66/5 327/66/5 328/66/5
f 329/79/6 330/79/6 331/79/6
f 331/79/6 330/79/6 332/79/6
f 334/79/1 333/79/1 335/79/1
f 334/79/1 335/79/1 336/79/1
f 338/79/5 337/79/5 339/79/5
f 338/79/5 339/79/5 340/79/5
f 342/139/5 341/138/5 343/140/5
f 342/139/5 343/140/5 344/141/5
f 345/142/4 346/143/4 347/144/4
f 347/144/4 346/143/4 348/145/4
f 350/66/1 349/66/1 351/66/1
f 350/66/1 351/66/1 352/66/1
f 353/66/6 354/66/6 355/66/6
f 355/66/6 354/66/6 356/66/6
f 357/66/4 358/66/4 359/66/4
f 359/66/4 358/66/4 360/66/4
f 362/66/1 361/66/1 363/66/1
f 362/66/1 363/66/1 364/66/1
f 366/66/5 365/66/5 367/66/5
f 366/66/5 367/66/5 368/66/5
f 370/66/3 369/66/3 371/66/3
f 370/66/3 371/66/3 372/66/3
f 373/66/6 374/66/6 375/66/6
f 375/66/6 374/66/6 376/66/6
f 378/105/5 377/105/5 379/105/5
f 378/105/5 379/105/5 380/105/5
f 382/147/5 381/146/5 383/148/5
f 382/147/5 383/148/5 384/149/5
f 386/105/1 385/105/1 387/105/1
f 386/105/1 387/105/1 388/105/1
f 390/105/5 389/105/5 391/105/5
f 390/105/5 391/105/5 392/105/5
f 393/105/6 394/105/6 395/105/6
f 395/105/6 394/105/6 396/105/6
f 398/151/5 397/150/5 399/152/5
f 398/151/5 399/152/5 400/153/5
f 401/154/4 402/155/4 403/156/4
f 403/156/4 402/155/4 404/157/4
f 405/79/6 406/79/6 407/79/6
f 407/79/6 406/79/6 408/79/6
f 410/159/5 409/158/5 411/160/5
f 410/159/5 411/160/5 412/161/5
f 413/66/6 414/66/6 415/66/6
f 415/66/6 414/66/6 416/66/6
f 418/163/1 417/162/1 419/164/1
f 418/163/1 419/164/1 420/165/1
f 422/167/5 421/166/5 423/168/5
f 422/167/5 423/168/5 424/169/5
f 426/31/3 425/31/3 427/31/3
f 426/31/3 427/31/3 428/31/3
f 430/105/5 429/105/5 431/105/5
f 430/105/5 431/105/5 432/105/5
f 434/171/1 433/170/1 435/172/1
f 434/171/1 435/172/1 436/173/1
f 438/105/5 437/105/5 439/105/5
f 438/105/5 439/105/5 440/105/5
f 442/66/5 441/66/5 443/66/5
f 442/66/5 443/66/5 444/66/5
f 446/66/1 445/66/1 447/66/1
f 446/66/1 447/66/1 448/66/1
f 450/66/5 449/66/5 451/66/5
f 450/66/5 451/66/5 452/66/5
f 453/66/6 454/66/6 455/66/6
f 455/66/6 454/66/6 456/66/6
f 458/175/5 457/174/5 459/176/5
f 458/175/5 459/176/5 460/177/5
f 461/61/4 462/61/4 463/61/4
f 463/61/4 462/61/4 464/61/4
f 465/66/4 466/66/4 467/66/4
f 467/66/4 466/66/4 468/66/4
f 470/66/1 469/66/1 471/66/1
f 470/66/1 471/66/1 472/66/1
f 474/66/5 473/66/5 475/66/5
f 474/66/5 475/66/5 476/66/5
f 478/66/3 477/66/3 479/66/3
f 478/66/3 479/66/3 480/66/3
f 481/105/6 482/105/6 483/105/6
f 483/105/6 482/105/6 484/105/6
f 486/179/5 485/178/5 487/180/5
f 486/179/5 487/180/5 488/181/5
f 489/79/6 490/79/6 491/79/6
f 491/79/6 490/79/6 492/79/6
f 494/183/1 493/182/1 495/184/1
f 494/183/1 495/184/1 496/185/1
f 498/66/5 497/66/5 499/66/5
f 498/66/5 499/66/5 500/66/5
f 502/66/3 501/66/3 503/66/3
f 502/66/3 503/66/3 504/66/3
f 505/66/6 506/66/6 507/66/6
f 507/66/6 506/66/6 508/66/6
f 509/61/6 510/61/6 511/61/6
f 511/61/6 510/61/6 512/61/6
f 514/105/5 513/105/5 515/105/5
f 514/105/5 515/105/5 516/105/5
f 518/79/5 517/79/5 519/79/5
f 518/79/5 519/79/5 520/79/5
f 521/105/4 522/105/4 523/105/4
f 523/105/4 522/105/4 524/105/4
f 525/105/4 526/105/4 527/105/4
f 527/105/4 526/105/4 528/105/4
f 530/105/1 529/105/1 531/105/1
f 530/105/1 531/105/1 532/105/1
f 534/187/5 533/186/5 535/188/5
f 534/187/5 535/188/5 536/189/5
f 538/105/3 537/105/3 539/105/3
f 538/105/3 539/105/3 540/105/3
f 542/66/5 541/66/5 543/66/5
f 542/66/5 543/66/5 544/66/5
f 545/190/4 546/191/4 547/192/4
f 547/192/4 546/191/4 548/193/4
f 550/66/5 549/66/5 551/66/5
f 550/66/5 551/66/5 552/66/5
f 553/31/4 554/31/4 555/31/4
f 555/31/4 554/31/4 556/31/4
f 558/195/1 557/194/1 559/196/1
f 558/195/1 559/196/1 560/197/1
f 562/199/5 561/198/5 563/200/5
f 562/199/5 563/200/5 564/201/5
f 566/105/3 565/105/3 567/105/3
f 566/105/3 567/105/3 568/105/3
f 570/66/5 569/66/5 571/66/5
f 570/66/5 571/66/5 572/66/5
f 573/202/6 574/203/6 575/204/6
f 575/204/6 574/203/6 576/205/6
f 577/66/4 578/66/4 579/66/4
f 579/66/4 578/66/4 580/66/4
f 582/66/5 581/66/5 583/66/5
f 582/66/5 583/66/5 584/66/5
f 586/66/3 585/66/3 587/66/3
f 586/66/3 587/66/3 588/66/3
f 589/79/6 590/79/6 591/79/6
f 591/79/6 590/79/6 592/79/6
f 594/105/1 593/105/1 595/105/1
f 594/105/1 595/105/1 596/105/1
f 598/105/5 597/105/5 599/105/5
f 598/105/5 599/105/5 600/105/5
f 602/105/3 601/105/3 603/105/3
f 602/105/3 603/105/3 604/105/3
f 606/66/5 605/66/5 607/66/5
f 606/66/5 607/66/5 608/66/5
f 610/207/5 609/206/5 611/208/5
f 610/207/5 611/208/5 612/209/5
f 613/31/4 614/31/4 615/31/4
f 615/31/4 614/31/4 616/31/4
f 617/66/4 618/66/4 619/66/4
f 619/66/4 618/66/4 620/66/4
f 622/66/1 621/66/1 623/66/1
f 622/66/1 623/66/1 624/66/1
f 626/66/5 625/66/5 627/66/5
f 626/66/5 627/66/5 628/66/5
f 630/66/3 629/66/3 631/66/3
f 630/66/3 631/66/3 632/66/3
f 634/105/5 633/105/5 635/105/5
f 634/105/5 635/105/5 636/105/5
f 637/79/4 638/79/4 639/79/4
f 639/79/4 638/79/4 640/79/4
f 642/79/1 641/79/1 643/79/1
f 642/79/1 643/79/1 644/79/1
f 646/105/5 645/105/5 647/105/5
f 646/105/5 647/105/5 648/105/5
f 650/105/3 649/105/3 651/105/3
f 650/105/3 651/105/3 652/105/3
f 654/66/5 653/66/5 655/66/5
f 654/66/5 655/66/5 656/66/5
f 657/79/4 658/79/4 659/79/4
f 659/79/4 658/79/4 660/79/4
f 662/79/1 661/79/1 663/79/1
f 662/79/1 663/79/1 664/79/1
f 666/79/5 665/79/5 667/79/5
f 666/79/5 667/79/5 668/79/5
f 670/79/3 669/79/3 671/79/3
f 670/79/3 671/79/3 672/79/3
f 673/79/6 674/79/6 675/79/6
f 675/79/6 674/79/6 676/79/6
f 677/66/4 678/66/4 679/66/4
f 679/66/4 678/66/4 680/66/4
f 682/66/5 681/66/5 683/66/5
f 682/66/5 683/66/5 684/66/5
f 686/66/3 685/66/3 687/66/3
f 686/66/3 687/66/3 688/66/3
f 689/66/6 690/66/6 691/66/6
f 691/66/6 690/66/6 692/66/6
f 693/66/6 694/66/6 695/66/6
f 695/66/6 694/66/6 696/66/6
f 698/79/5 697/79/5 699/79/5
f 698/79/5 699/79/5 700/79/5
f 702/79/3 701/79/3 703/79/3
f 702/79/3 703/79/3 704/79/3
f 706/105/5 705/105/5 707/105/5
f 706/105/5 707/105/5 708/105/5
f 710/66/5 709/66/5 711/66/5
f 710/66/5 711/66/5 712/66/5
f 714/66/5 713/66/5 715/66/5
f 714/66/5 715/66/5 716/66/5
f 717/66/6 718/66/6 719/66/6
f 719/66/6 718/66/6 720/66/6
f 722/79/1 721/79/1 723/79/1
f 722/79/1 723/79/1 724/79/1
f 726/211/5 725/210/5 727/212/5
f 726/211/5 727/212/5 728/213/5
f 730/79/3 729/79/3 731/79/3
f 730/79/3 731/79/3 732/79/3
f 733/61/4 734/61/4 735/61/4
f 735/61/4 734/61/4 736/61/4
f 737/66/4 738/66/4 739/66/4
f 739/66/4 738/66/4 740/66/4
f 742/66/1 741/66/1 743/66/1
f 742/66/1 743/66/1 744/66/1
f 746/66/5 745/66/5 747/66/5
f 746/66/5 747/66/5 748/66/5
f 750/66/3 749/66/3 751/66/3
f 750/66/3 751/66/3 752/66/3
f 753/66/6 754/66/6 755/66/6
f 755/66/6 754/66/6 756/66/6
f 758/79/5 757/79/5 759/79/5
f 758/79/5 759/79/5 760/79/5
f 762/66/5 761/66/5 763/66/5
f 762/66/5 763/66/5 764/66/5
f 765/66/4 766/66/4 767/66/4
f 767/66/4 766/66/4 768/66/4
f 769/79/4 770/79/4 771/79/4
f 771/79/4 770/79/4 772/79/4
f 774/215/1 773/214/1 775/216/1
f 774/215/1 775/216/1 776/217/1
f 778/219/5 777/218/5 779/220/5
f 778/219/5 779/220/5 780/221/5
f 782/79/3 781/79/3 783/79/3
f 782/79/3 783/79/3 784/79/3
f 786/79/1 785/79/1 787/79/1
f 786/79/1 787/79/1 788/79/1
f 790/79/5 789/79/5 791/79/5
f 790/79/5 791/79/5 792/79/5
f 794/79/3 793/79/3 795/79/3
f 794/79/3 795/79/3 796/79/3
f 797/79/6 798/79/6 799/79/6
f 799/79/6 798/79/6 800/79/6
f 801/66/4 802/66/4 803/66/4
f 803/66/4 802/66/4 804/66/4
f 806/223/5 805/222/5 807/224/5
f 806/223/5 807/224/5 808/225/5
f 810/66/3 809/66/3 811/66/3
f 810/66/3 811/66/3 812/66/3
f 814/105/5 813/105/5 815/105/5
f 814/105/5 815/105/5 816/105/5
f 818/227/5 817/226/5 819/228/5
f 818/227/5 819/228/5 820/229/5
f 822/231/3 821/230/3 823/232/3
f 822/231/3 823/232/3 824/233/3
f 825/79/4 826/79/4 827/79/4
f 827/79/4 826/79/4 828/79/4
f 830/79/1 829/79/1 831/79/1
f 830/79/1 831/79/1 832/79/1
f 833/66/4 834/66/4 835/66/4
f 835/66/4 834/66/4 836/66/4
f 838/66/5 837/66/5 839/66/5
f 838/66/5 839/66/5 840/66/5
f 842/66/3 841/66/3 843/66/3
f 842/66/3 843/66/3 844/66/3
f 845/66/6 846/66/6 847/66/6
f 847/66/6 846/66/6 848/66/6
f 850/66/1 849/66/1 851/66/1
f 850/66/1 851/66/1 852/66/1
f 854/235/5 853/234/5 855/236/5
f 854/235/5 855/236/5 856/237/5
f 858/66/3 857/66/3 859/66/3
f 858/66/3 859/66/3 860/66/3
f 862/66/5 861/66/5 863/66/5
f 862/66/5 863/66/5 864/66/5
f 866/66/5 865/66/5 867/66/5
f 866/66/5 867/66/5 868/66/5
f 870/66/3 869/66/3 871/66/3
f 870/66/3 871/66/3 872/66/3
f 874/239/5 873/238/5 875/240/5
f 874/239/5 875/240/5 876/241/5
f 878/79/3 877/79/3 879/79/3
f 878/79/3 879/79/3 880/79/3
f 881/52/4 882/52/4 883/52/4
f 883/52/4 882/52/4 884/52/4
f 885/66/4 886/66/4 887/66/4
f 887/66/4 886/66/4 888/66/4
f 890/66/1 889/66/1 891/66/1
f 890/66/1 891/66/1 892/66/1
f 894/66/5 893/66/5 895/66/5
f 894/66/5 895/66/5 896/66/5
f 898/66/3 897/66/3 899/66/3
f 898/66/3 899/66/3 900/66/3
f 901/66/6 902/66/6 903/66/6
f 903/66/6 902/66/6 904/66/6
f 906/66/1 905/66/1 907/66/1
f 906/66/1 907/66/1 908/66/1
f 910/243/5 909/242/5 911/244/5
f 910/243/5 911/244/5 912/245/5
f 914/66/3 913/66/3 915/66/3
f 914/66/3 915/66/3 916/66/3
f 918/66/5 917/66/5 919/66/5
f 918/66/5 919/66/5 920/66/5
f 922/66/5 921/66/5 923/66/5
f 922/66/5 923/66/5 924/66/5
f 926/66/5 925/66/5 927/66/5
f 926/66/5 927/66/5 928/66/5
f 929/21/4 930/21/4 931/21/4
f 931/21/4 930/21/4 932/21/4
f 934/247/5 933/246/5 935/248/5
f 934/247/5 935/248/5 936/249/5
f 938/21/3 937/21/3 939/21/3
f 938/21/3 939/21/3 940/21/3
f 941/105/4 942/105/4 943/105/4
f 943/105/4 942/105/4 944/105/4
f 946/105/1 945/105/1 947/105/1
f 946/105/1 947/105/1 948/105/1
f 950/251/5 949/250/5 951/252/5
f 950/251/5 951/252/5 952/253/5
f 954/105/3 953/105/3 955/105/3
f 954/105/3 955/105/3 956/105/3
f 957/66/4 958/66/4 959/66/4
f 959/66/4 958/66/4 960/66/4
f 962/66/1 961/66/1 963/66/1
f 962/66/1 963/66/1 964/66/1
f 966/66/5 965/66/5 967/66/5
f 966/66/5 967/66/5 968/66/5
f 970/66/3 969/66/3 971/66/3
f 970/66/3 971/66/3 972/66/3
f 973/66/6 974/66/6 975/66/6
f 975/66/6 974/66/6 976/66/6
f 978/66/1 977/66/1 979/66/1
f 978/66/1 979/66/1 980/66/1
f 982/255/5 981/254/5 983/256/5
f 982/255/5 983/256/5 984/257/5
f 986/66/3 985/66/3 987/66/3
f 986/66/3 987/66/3 988/66/3
f 990/66/5 989/66/5 991/66/5
f 990/66/5 991/66/5 992/66/5
f 994/66/5 993/66/5 995/66/5
f 994/66/5 995/66/5 996/66/5
f 997/31/4 998/31/4 999/31/4
f 999/31/4 998/31/4 1000/31/4
f 1002/259/5 1001/258/5 1003/260/5
f 1002/259/5 1003/260/5 1004/261/5
f 1006/31/3 1005/31/3 1007/31/3
f 1006/31/3 1007/31/3 1008/31/3
f 1010/66/1 1009/66/1 1011/66/1
f 1010/66/1 1011/66/1 1012/66/1
f 1014/263/5 1013/262/5 1015/264/5
f 1014/263/5 1015/264/5 1016/265/5
f 1018/66/3 1017/66/3 1019/66/3
f 1018/66/3 1019/66/3 1020/66/3
f 1021/66/4 1022/66/4 1023/66/4
f 1023/66/4 1022/66/4 1024/66/4
f 1026/267/5 1025/266/5 1027/268/5
f 1026/267/5 1027/268/5 1028/269/5
f 1030/66/3 1029/66/3 1031/66/3
f 1030/66/3 1031/66/3 1032/66/3
f 1033/66/4 1034/66/4 1035/66/4
f 1035/66/4 1034/66/4 1036/66/4
f 1038/66/1 1037/66/1 1039/66/1
f 1038/66/1 1039/66/1 1040/66/1
f 1042/271/5 1041/270/5 1043/272/5
f 1042/271/5 1043/272/5 1044/273/5
f 1046/66/3 1045/66/3 1047/66/3
f 1046/66/3 1047/66/3 1048/66/3
f 1050/84/1 1049/84/1 1051/84/1
f 1050/84/1 1051/84/1 1052/84/1
f 1054/275/5 1053/274/5 1055/276/5
f 1054/275/5 1055/276/5 1056/277/5
f 1058/84/3 1057/84/3 1059/84/3
f 1058/84/3 1059/84/3 1060/84/3
f 1061/278/6 1062/279/6 1063/280/6
f 1063/280/6 1062/279/6 1064/281/6
f 1066/61/5 1065/61/5 1067/61/5
f 1066/61/5 1067/61/5 1068/61/5
f 1070/61/3 1069/61/3 1071/61/3
f 1070/61/3 1071/61/3 1072/61/3
f 1074/66/5 1073/66/5 1075/66/5
f 1074/66/5 1075/66/5 1076/66/5
f 1078/66/3 1077/66/3 1079/66/3
f 1078/66/3 1079/66/3 1080/66/3
f 1082/66/5 1081/66/5 1083/66/5
f 1082/66/5 1083/66/5 1084/66/5
f 1086/66/3 1085/66/3 1087/66/3
f 1086/66/3 1087/66/3 1088/66/3
