# Export of Cubik Model: Cubik Model
# Designed by MeLee with Cubik Studio - https://cubik.studio
# from Cubik OBJ Exporter v1.0
mtllib grass_1b.mtl
v 0 0 1.907349E-06
v -16 0 1.907349E-06
v 0 2 1.907349E-06
v -16 2 1.907349E-06
v 0 0 1.907349E-06
v -16 0 1.907349E-06
v 0 0 -16
v -16 0 -16
v 0 0 1.907349E-06
v 0 2 1.907349E-06
v 0 0 -16
v 0 2 -16
v 0 0 -16
v -16 0 -16
v 0 2 -16
v -16 2 -16
v 0 2 1.907349E-06
v -1.5 2 1.907349E-06
v 0 2 -16
v -1.5 2 -16
v -1.5 2 1.907349E-06
v -2.5 2 1.907349E-06
v -1.5 2 -3.999998
v -2.5 2 -3.999998
v -1.5 2 -4.499998
v -2 2 -4.499998
v -1.5 2 -7.499998
v -2 2 -7.499998
v -1.5 2 -7.999998
v -2 2 -7.999998
v -1.5 2 -8.499998
v -2 2 -8.499998
v -1.5 2 -9.499998
v -2 2 -9.499998
v -1.5 2 -9.999998
v -2 2 -9.999998
v -1.5 2 -10.5
v -2 2 -10.5
v -1.5 2 -16
v -2 2 -16
v -1.5 2 -4.499998
v -2 2 -4.499998
v -1.5 2.5 -4.499998
v -2 2.5 -4.499998
v -1.5 2 -3.999998
v -2 2 -3.999998
v -1.5 2.5 -3.999998
v -2 2.5 -3.999998
v -1.5 2.5 -3.999998
v -2 2.5 -3.999998
v -1.5 2.5 -4.499998
v -2 2.5 -4.499998
v -1.5 2 -3.999998
v -1.5 2.5 -3.999998
v -1.5 2 -4.499998
v -1.5 2.5 -4.499998
v -2 2 -3.999998
v -2 2.5 -3.999998
v -2 2 -4.499998
v -2 2.5 -4.499998
v -1.5 2 -7.999998
v -2 2 -7.999998
v -1.5 2.5 -7.999998
v -2 2.5 -7.999998
v -1.5 2 -7.499998
v -2 2 -7.499998
v -1.5 2.5 -7.499998
v -2 2.5 -7.499998
v -1.5 2.5 -7.499998
v -4 2.5 -7.499998
v -1.5 2.5 -7.999998
v -4 2.5 -7.999998
v -1.5 2 -7.499998
v -1.5 2.5 -7.499998
v -1.5 2 -7.999998
v -1.5 2.5 -7.999998
v -1.5 2 -8.499998
v -2 2 -8.499998
v -1.5 2.5 -8.499998
v -2 2.5 -8.499998
v -1.5 2.5 -8.499998
v -2 2.5 -8.499998
v -1.5 2.5 -9.499998
v -2 2.5 -9.499998
v -1.5 2 -8.499998
v -1.5 2.5 -8.499998
v -1.5 2 -9.499998
v -1.5 2.5 -9.499998
v -2 2 -8.499998
v -2 2.5 -8.499998
v -2 2 -9.499998
v -2 2.5 -9.499998
v -1.5 2 -9.499998
v -2 2 -9.499998
v -1.5 2.5 -9.499998
v -2 2.5 -9.499998
v -1.5 2 -10.5
v -2 2 -10.5
v -1.5 2.5 -10.5
v -2 2.5 -10.5
v -1.5 2 -9.999998
v -2 2 -9.999998
v -1.5 2.5 -9.999998
v -2 2.5 -9.999998
v -1.5 2.5 -9.999998
v -2 2.5 -9.999998
v -1.5 2.5 -10.5
v -2 2.5 -10.5
v -1.5 2 -9.999998
v -1.5 2.5 -9.999998
v -1.5 2 -10.5
v -1.5 2.5 -10.5
v -2 2 -9.999998
v -2 2.5 -9.999998
v -2 2 -10.5
v -2 2.5 -10.5
v -2 2 -3.999998
v -2.5 2 -3.999998
v -2 2 -4.499998
v -2.5 2 -4.499998
v -2 2 -8.499998
v -2.5 2 -8.499998
v -2 2 -9.499998
v -2.5 2 -9.499998
v -2 2 -9.999998
v -3.5 2 -9.999998
v -2 2 -10.5
v -3.5 2 -10.5
v -2 2 -11
v -3 2 -11
v -2 2 -16
v -3 2 -16
v -2 2 -4.499998
v -2.5 2 -4.499998
v -2 2.5 -4.499998
v -2.5 2.5 -4.499998
v -2 2.5 -4.499998
v -4.5 2.5 -4.499998
v -2 2.5 -7.499998
v -4.5 2.5 -7.499998
v -2 2 -4.499998
v -2 2.5 -4.499998
v -2 2 -7.499998
v -2 2.5 -7.499998
v -2 2 -8.499998
v -2.5 2 -8.499998
v -2 2.5 -8.499998
v -2.5 2.5 -8.499998
v -2 2.5 -7.999998
v -6 2.5 -7.999998
v -2 2.5 -8.499998
v -6 2.5 -8.499998
v -2 2 -7.999998
v -2 2.5 -7.999998
v -2 2 -8.499998
v -2 2.5 -8.499998
v -2 2 -9.999998
v -2.5 2 -9.999998
v -2 2.5 -9.999998
v -2.5 2.5 -9.999998
v -2 2 -9.499998
v -2.5 2 -9.499998
v -2 2.5 -9.499998
v -2.5 2.5 -9.499998
v -2 2.5 -9.499998
v -2.5 2.5 -9.499998
v -2 2.5 -9.999998
v -2.5 2.5 -9.999998
v -2 2 -9.499998
v -2 2.5 -9.499998
v -2 2 -9.999998
v -2 2.5 -9.999998
v -2.5 2 -9.499998
v -2.5 2.5 -9.499998
v -2.5 2 -9.999998
v -2.5 2.5 -9.999998
v -2 2 -11
v -2.5 2 -11
v -2 2.5 -11
v -2.5 2.5 -11
v -2 2 -10.5
v -2.5 2 -10.5
v -2 2.5 -10.5
v -2.5 2.5 -10.5
v -2 2.5 -10.5
v -2.5 2.5 -10.5
v -2 2.5 -11
v -2.5 2.5 -11
v -2 2 -10.5
v -2 2.5 -10.5
v -2 2 -11
v -2 2.5 -11
v -2.5 2 -10.5
v -2.5 2.5 -10.5
v -2.5 2 -11
v -2.5 2.5 -11
v -2.5 2 1.907349E-06
v -4 2 1.907349E-06
v -2.5 2 -3.499998
v -4 2 -3.499998
v -2.5 2 -9.499998
v -3 2 -9.499998
v -2.5 2 -9.999998
v -3 2 -9.999998
v -2.5 2 -10.5
v -3 2 -10.5
v -2.5 2 -11
v -3 2 -11
v -2.5 2 -3.499998
v -4 2 -3.499998
v -2.5 2.5 -3.499998
v -4 2.5 -3.499998
v -2.5 2.5 -3.499998
v -6.5 2.5 -3.499998
v -2.5 2.5 -4.499998
v -6.5 2.5 -4.499998
v -2.5 2 -3.499998
v -2.5 2.5 -3.499998
v -2.5 2 -4.499998
v -2.5 2.5 -4.499998
v -2.5 2.5 -8.499998
v -6 2.5 -8.499998
v -2.5 2.5 -9.499998
v -6 2.5 -9.499998
v -2.5 2 -8.499998
v -2.5 2.5 -8.499998
v -2.5 2 -9.499998
v -2.5 2.5 -9.499998
v -2.5 2 -9.499998
v -3 2 -9.499998
v -2.5 2.5 -9.499998
v -3 2.5 -9.499998
v -3 2 -13
v -3.5 2 -13
v -3 2 -16
v -3.5 2 -16
v -3 2 -9.999998
v -3.5 2 -9.999998
v -3 2.5 -9.999998
v -3.5 2.5 -9.999998
v -3 2.5 -9.499998
v -3.5 2.5 -9.499998
v -3 2.5 -9.999998
v -3.5 2.5 -9.999998
v -3 2 -9.499998
v -3 2.5 -9.499998
v -3 2 -9.999998
v -3 2.5 -9.999998
v -3.5 2 -9.499998
v -3.5 2.5 -9.499998
v -3.5 2 -9.999998
v -3.5 2.5 -9.999998
v -3 2 -10.5
v -3.5 2 -10.5
v -3 2.5 -10.5
v -3.5 2.5 -10.5
v -3 2.5 -10.5
v -3.5 2.5 -10.5
v -3 2.5 -13
v -3.5 2.5 -13
v -3 2 -10.5
v -3 2.5 -10.5
v -3 2 -13
v -3 2.5 -13
v -3.5 2 -11.5
v -3.5 2.5 -11.5
v -3.5 2 -12
v -3.5 2.5 -12
v -3 2 -13
v -3.5 2 -13
v -3 2.5 -13
v -3.5 2.5 -13
v -3.5 2 -9.499998
v -4 2 -9.499998
v -3.5 2 -9.999998
v -4 2 -9.999998
v -3.5 2 -11.5
v -4 2 -11.5
v -3.5 2 -12
v -4 2 -12
v -3.5 2 -13.5
v -16 2 -13.5
v -3.5 2 -16
v -16 2 -16
v -4 2 -7.499998
v -4 2.5 -7.499998
v -4 2 -7.999998
v -4 2.5 -7.999998
v -3.5 2 -9.499998
v -4 2 -9.499998
v -3.5 2.5 -9.499998
v -4 2.5 -9.499998
v -3.5 2 -9.999998
v -4 2 -9.999998
v -3.5 2.5 -9.999998
v -4 2.5 -9.999998
v -3.5 2.5 -9.999998
v -4 2.5 -9.999998
v -3.5 2.5 -11.5
v -4 2.5 -11.5
v -3.5 2 -9.999998
v -3.5 2.5 -9.999998
v -3.5 2 -10.5
v -3.5 2.5 -10.5
v -4 2 -9.999998
v -4 2.5 -9.999998
v -4 2 -11
v -4 2.5 -11
v -3.5 2 -11.5
v -4 2 -11.5
v -3.5 2.5 -11.5
v -4 2.5 -11.5
v -3.5 2 -12
v -4 2 -12
v -3.5 2.5 -12
v -4 2.5 -12
v -3.5 2.5 -12
v -4 2.5 -12
v -3.5 2.5 -13.5
v -4 2.5 -13.5
v -4 2 -12
v -4 2.5 -12
v -4 2 -12.5
v -4 2.5 -12.5
v -3.5 2 -13.5
v -4.5 2 -13.5
v -3.5 2.5 -13.5
v -4.5 2.5 -13.5
v -3.5 2 -13
v -3.5 2.5 -13
v -3.5 2 -13.5
v -3.5 2.5 -13.5
v -4 2 1.907349E-06
v -5.5 2 1.907349E-06
v -4 2 -2.999998
v -5.5 2 -2.999998
v -4 2 -7.499998
v -4.5 2 -7.499998
v -4 2 -7.999998
v -4.5 2 -7.999998
v -4 2 -9.999998
v -4.5 2 -9.999998
v -4 2 -11
v -4.5 2 -11
v -4 2 -12
v -5 2 -12
v -4 2 -12.5
v -5 2 -12.5
v -4 2 -2.999998
v -5.5 2 -2.999998
v -4 2.5 -2.999998
v -5.5 2.5 -2.999998
v -4 2.5 -2.999998
v -6.5 2.5 -2.999998
v -4 2.5 -3.499998
v -6.5 2.5 -3.499998
v -4 2 -2.999998
v -4 2.5 -2.999998
v -4 2 -3.499998
v -4 2.5 -3.499998
v -4.5 2 -4.999998
v -4.5 2.5 -4.999998
v -4.5 2 -6.999998
v -4.5 2.5 -6.999998
v -4 2 -7.499998
v -4.5 2 -7.499998
v -4 2.5 -7.499998
v -4.5 2.5 -7.499998
v -4 2 -7.999998
v -4.5 2 -7.999998
v -4 2.5 -7.999998
v -4.5 2.5 -7.999998
v -4 2 -9.999998
v -4.5 2 -9.999998
v -4 2.5 -9.999998
v -4.5 2.5 -9.999998
v -4 2.5 -9.499998
v -6 2.5 -9.499998
v -4 2.5 -9.999998
v -6 2.5 -9.999998
v -4 2 -9.499998
v -4 2.5 -9.499998
v -4 2 -9.999998
v -4 2.5 -9.999998
v -4 2 -11
v -4.5 2 -11
v -4 2.5 -11
v -4.5 2.5 -11
v -4 2.5 -11
v -4.5 2.5 -11
v -4 2.5 -12
v -4.5 2.5 -12
v -4 2 -12
v -4.5 2 -12
v -4 2.5 -12
v -4.5 2.5 -12
v -4 2 -11.5
v -4 2.5 -11.5
v -4 2 -12
v -4 2.5 -12
v -4.5 2 -11.5
v -4.5 2.5 -11.5
v -4.5 2 -12
v -4.5 2.5 -12
v -4 2 -12.5
v -4.5 2 -12.5
v -4 2.5 -12.5
v -4.5 2.5 -12.5
v -4 2.5 -12.5
v -4.5 2.5 -12.5
v -4 2.5 -13.5
v -4.5 2.5 -13.5
v -4.5 2 -12.5
v -4.5 2.5 -12.5
v -4.5 2 -13.5
v -4.5 2.5 -13.5
v -4.5 2 -4.999998
v -5 2 -4.999998
v -4.5 2 -6.999998
v -5 2 -6.999998
v -4.5 2 -11.5
v -5.5 2 -11.5
v -4.5 2 -12
v -5.5 2 -12
v -4.5 2 -12.5
v -16 2 -12.5
v -4.5 2 -13.5
v -16 2 -13.5
v -4.5 2 -4.999998
v -5 2 -4.999998
v -4.5 2.5 -4.999998
v -5 2.5 -4.999998
v -4.5 2.5 -4.499998
v -6.5 2.5 -4.499998
v -4.5 2.5 -4.999998
v -6.5 2.5 -4.999998
v -4.5 2 -6.999998
v -5 2 -6.999998
v -4.5 2.5 -6.999998
v -5 2.5 -6.999998
v -4.5 2.5 -6.999998
v -5 2.5 -6.999998
v -4.5 2.5 -7.999998
v -5 2.5 -7.999998
v -5 2 -6.999998
v -5 2.5 -6.999998
v -5 2 -7.499998
v -5 2.5 -7.499998
v -4.5 2 -7.499998
v -4.5 2.5 -7.499998
v -4.5 2 -7.999998
v -4.5 2.5 -7.999998
v -4.5 2.5 -9.999998
v -5.5 2.5 -9.999998
v -4.5 2.5 -11.5
v -5.5 2.5 -11.5
v -4.5 2 -9.999998
v -4.5 2.5 -9.999998
v -4.5 2 -11
v -4.5 2.5 -11
v -4.5 2 -11.5
v -5.5 2 -11.5
v -4.5 2.5 -11.5
v -5.5 2.5 -11.5
v -5 2 -6.499998
v -16 2 -6.499998
v -5 2 -7.499998
v -16 2 -7.499998
v -5 2.5 -4.999998
v -5.5 2.5 -4.999998
v -5 2.5 -6.499998
v -5.5 2.5 -6.499998
v -5 2 -4.999998
v -5 2.5 -4.999998
v -5 2 -6.499998
v -5 2.5 -6.499998
v -5 2 -6.499998
v -5.5 2 -6.499998
v -5 2.5 -6.499998
v -5.5 2.5 -6.499998
v -5.5 2 -5.999998
v -5.5 2.5 -5.999998
v -5.5 2 -6.499998
v -5.5 2.5 -6.499998
v -5 2 -7.499998
v -5.5 2 -7.499998
v -5 2.5 -7.499998
v -5.5 2.5 -7.499998
v -5 2.5 -7.499998
v -5.5 2.5 -7.499998
v -5 2.5 -7.999998
v -5.5 2.5 -7.999998
v -5.5 2 -7.499998
v -5.5 2.5 -7.499998
v -5.5 2 -7.999998
v -5.5 2.5 -7.999998
v -5.5 2 -9.999998
v -5.5 2.5 -9.999998
v -5.5 2 -10.5
v -5.5 2.5 -10.5
v -5.5 2 -11
v -5.5 2.5 -11
v -5.5 2 -11.5
v -5.5 2.5 -11.5
v -5 2 -12.5
v -5.5 2 -12.5
v -5 2.5 -12.5
v -5.5 2.5 -12.5
v -5 2 -12
v -5.5 2 -12
v -5 2.5 -12
v -5.5 2.5 -12
v -5 2.5 -12
v -5.5 2.5 -12
v -5 2.5 -12.5
v -5.5 2.5 -12.5
v -5 2 -12
v -5 2.5 -12
v -5 2 -12.5
v -5 2.5 -12.5
v -5.5 2 -12
v -5.5 2.5 -12
v -5.5 2 -12.5
v -5.5 2.5 -12.5
v -5.5 2 1.907349E-06
v -16 2 1.907349E-06
v -5.5 2 -2.499998
v -16 2 -2.499998
v -5.5 2 -5.999998
v -16 2 -5.999998
v -5.5 2 -6.499998
v -16 2 -6.499998
v -5.5 2 -7.499998
v -6 2 -7.499998
v -5.5 2 -7.999998
v -6 2 -7.999998
v -5.5 2 -9.999998
v -6 2 -9.999998
v -5.5 2 -10.5
v -6 2 -10.5
v -5.5 2 -11
v -6 2 -11
v -5.5 2 -11.5
v -6 2 -11.5
v -5.5 2 -12
v -16 2 -12
v -5.5 2 -12.5
v -16 2 -12.5
v -5.5 2 -2.499998
v -6.5 2 -2.499998
v -5.5 2.5 -2.499998
v -6.5 2.5 -2.499998
v -5.5 2.5 -2.499998
v -6.5 2.5 -2.499998
v -5.5 2.5 -2.999998
v -6.5 2.5 -2.999998
v -5.5 2 -2.499998
v -5.5 2.5 -2.499998
v -5.5 2 -2.999998
v -5.5 2.5 -2.999998
v -5.5 2.5 -4.999998
v -6 2.5 -4.999998
v -5.5 2.5 -5.999998
v -6 2.5 -5.999998
v -5.5 2 -5.999998
v -6 2 -5.999998
v -5.5 2.5 -5.999998
v -6 2.5 -5.999998
v -6 2 -5.499998
v -6 2.5 -5.499998
v -6 2 -5.999998
v -6 2.5 -5.999998
v -5.5 2 -7.999998
v -6 2 -7.999998
v -5.5 2.5 -7.999998
v -6 2.5 -7.999998
v -6 2 -7.999998
v -6 2.5 -7.999998
v -6 2 -9.999998
v -6 2.5 -9.999998
v -5.5 2 -9.999998
v -6 2 -9.999998
v -5.5 2.5 -9.999998
v -6 2.5 -9.999998
v -5.5 2 -11
v -6 2 -11
v -5.5 2.5 -11
v -6 2.5 -11
v -5.5 2 -10.5
v -6 2 -10.5
v -5.5 2.5 -10.5
v -6 2.5 -10.5
v -5.5 2.5 -10.5
v -6.5 2.5 -10.5
v -5.5 2.5 -11
v -6.5 2.5 -11
v -5.5 2 -12
v -6.5 2 -12
v -5.5 2.5 -12
v -6.5 2.5 -12
v -5.5 2 -11.5
v -6 2 -11.5
v -5.5 2.5 -11.5
v -6 2.5 -11.5
v -5.5 2.5 -11.5
v -6.5 2.5 -11.5
v -5.5 2.5 -12
v -6.5 2.5 -12
v -5.5 2 -11.5
v -5.5 2.5 -11.5
v -5.5 2 -12
v -5.5 2.5 -12
v -6 2 -5.499998
v -16 2 -5.499998
v -6 2 -5.999998
v -16 2 -5.999998
v -6 2 -7.999998
v -16 2 -7.999998
v -6 2 -9.999998
v -16 2 -9.999998
v -6.5 2 -2.499998
v -6.5 2.5 -2.499998
v -6.5 2 -5.499998
v -6.5 2.5 -5.499998
v -6 2 -5.499998
v -6.5 2 -5.499998
v -6 2.5 -5.499998
v -6.5 2.5 -5.499998
v -6 2.5 -4.999998
v -6.5 2.5 -4.999998
v -6 2.5 -5.499998
v -6.5 2.5 -5.499998
v -6 2 -7.999998
v -6.5 2 -7.999998
v -6 2.5 -7.999998
v -6.5 2.5 -7.999998
v -6 2 -7.499998
v -6.5 2 -7.499998
v -6 2.5 -7.499998
v -6.5 2.5 -7.499998
v -6 2.5 -7.499998
v -6.5 2.5 -7.499998
v -6 2.5 -7.999998
v -6.5 2.5 -7.999998
v -6 2 -7.499998
v -6 2.5 -7.499998
v -6 2 -7.999998
v -6 2.5 -7.999998
v -6.5 2 -7.499998
v -6.5 2.5 -7.499998
v -6.5 2 -7.999998
v -6.5 2.5 -7.999998
v -6 2 -9.999998
v -6.5 2 -9.999998
v -6 2.5 -9.999998
v -6.5 2.5 -9.999998
v -6 2.5 -9.999998
v -6.5 2.5 -9.999998
v -6 2.5 -10.5
v -6.5 2.5 -10.5
v -6 2 -9.999998
v -6 2.5 -9.999998
v -6 2 -10.5
v -6 2.5 -10.5
v -6.5 2 -9.999998
v -6.5 2.5 -9.999998
v -6.5 2 -12
v -6.5 2.5 -12
v -6 2.5 -11
v -6.5 2.5 -11
v -6 2.5 -11.5
v -6.5 2.5 -11.5
v -6 2 -11
v -6 2.5 -11
v -6 2 -11.5
v -6 2.5 -11.5
v -6.5 2 -2.499998
v -16 2 -2.499998
v -6.5 2 -5.499998
v -16 2 -5.499998
v -6.5 2 -7.499998
v -16 2 -7.499998
v -6.5 2 -7.999998
v -16 2 -7.999998
v -6.5 2 -9.999998
v -16 2 -9.999998
v -6.5 2 -12
v -16 2 -12
v -16 0 1.907349E-06
v -16 2 1.907349E-06
v -16 0 -16
v -16 2 -16
vn 0 -5.960464E-08 0.9999999
vn 0 -0.9999999 -5.960464E-08
vn 1 0 0
vn 0 5.960464E-08 -0.9999999
vn 0 0.9999999 5.960464E-08
vn -1 0 0
vt 0.0078125 0.578125
vt 0.2578125 0.578125
vt 0.0078125 0.640625
vt 0.2578125 0.640625
vt 0.0078125 0.015625
vt 0.2578125 0.015625
vt 0.0078125 0.515625
vt 0.2578125 0.515625
vt 0.2890625 0.015625
vt 0.3203125 0.015625
vt 0.2890625 0.515625
vt 0.3203125 0.515625
vt 0.0078125 0.703125
vt 0.2578125 0.703125
vt 0.0078125 0.765625
vt 0.2578125 0.765625
vt 0.4140625 0.015625
vt 0.4375 0.015625
vt 0.4140625 0.515625
vt 0.4375 0.515625
vt 0.2890625 0.796875
vt 0.3046875 0.796875
vt 0.2890625 0.921875
vt 0.3046875 0.921875
vt 0.4140625 0.578125
vt 0.421875 0.578125
vt 0.4140625 0.671875
vt 0.421875 0.671875
vt 0.5 0.953125
vt 0.46875 0.953125
vt 0.3515625 0.734375
vt 0.359375 0.734375
vt 0.3515625 0.90625
vt 0.359375 0.90625
vt 0.6484375 0.71875
vt 0.9765625 0.109375
vt 0.921875 0.171875
vt 0.9609375 0.171875
vt 0.921875 0.1875
vt 0.9609375 0.1875
vt 0.9453125 0.109375
vt 0.734375 0.890625
vt 0.7421875 0.890625
vt 0.734375 0.921875
vt 0.7421875 0.921875
vt 0.734375 0.703125
vt 0.7421875 0.703125
vt 0.734375 0.734375
vt 0.7421875 0.734375
vt 0.734375 0.515625
vt 0.7421875 0.515625
vt 0.734375 0.546875
vt 0.7421875 0.546875
vt 0.9140625 0.109375
vt 0.5625 0.953125
vt 0.734375 0.4375
vt 0.7578125 0.4375
vt 0.734375 0.453125
vt 0.7578125 0.453125
vt 0.2890625 0.578125
vt 0.3046875 0.578125
vt 0.2890625 0.734375
vt 0.3046875 0.734375
vt 0.84375 0.015625
vt 0.8828125 0.015625
vt 0.84375 0.109375
vt 0.8828125 0.109375
vt 0.4140625 0.734375
vt 0.421875 0.734375
vt 0.4140625 0.828125
vt 0.421875 0.828125
vt 0.53125 0.953125
vt 0.46875 0.796875
vt 0.53125 0.796875
vt 0.46875 0.8125
vt 0.53125 0.8125
vt 0.234375 0.828125
vt 0.2578125 0.828125
vt 0.234375 0.9375
vt 0.2578125 0.9375
vt 0.6796875 0.4375
vt 0.703125 0.4375
vt 0.6796875 0.453125
vt 0.703125 0.453125
vt 0.9140625 0.015625
vt 0.9765625 0.015625
vt 0.9140625 0.046875
vt 0.9765625 0.046875
vt 0.8515625 0.59375
vt 0.859375 0.59375
vt 0.8515625 0.625
vt 0.859375 0.625
vt 0.8359375 0.171875
vt 0.890625 0.171875
vt 0.8359375 0.203125
vt 0.890625 0.203125
vt 0.7734375 0.875
vt 0.78125 0.875
vt 0.7734375 0.90625
vt 0.78125 0.90625
vt 0.5625 0.796875
vt 0.5703125 0.796875
vt 0.5625 0.890625
vt 0.5703125 0.890625
vt 0.640625 0.796875
vt 0.6484375 0.796875
vt 0.640625 0.875
vt 0.6484375 0.875
vt 0.6796875 0.296875
vt 0.6875 0.296875
vt 0.6796875 0.375
vt 0.6875 0.375
vt 0.0078125 0.828125
vt 0.203125 0.828125
vt 0.0078125 0.90625
vt 0.203125 0.90625
vt 0.6796875 0.515625
vt 0.6875 0.515625
vt 0.6796875 0.5625
vt 0.6875 0.5625
vt 0.7734375 0.6875
vt 0.78125 0.6875
vt 0.7734375 0.71875
vt 0.78125 0.71875
vt 0.6796875 0.625
vt 0.6875 0.625
vt 0.6796875 0.671875
vt 0.6875 0.671875
vt 0.8828125 0.4375
vt 0.8984375 0.4375
vt 0.8828125 0.453125
vt 0.8984375 0.453125
vt 0.3515625 0.578125
vt 0.375 0.578125
vt 0.3515625 0.671875
vt 0.375 0.671875
vt 0.7734375 0.78125
vt 0.78125 0.78125
vt 0.7734375 0.8125
vt 0.78125 0.8125
vt 0.9140625 0.515625
vt 0.9296875 0.515625
vt 0.9140625 0.53125
vt 0.9296875 0.53125
vt 0.46875 0.875
vt 0.5078125 0.875
vt 0.46875 0.890625
vt 0.5078125 0.890625
vt 0.8203125 0.296875
vt 0.828125 0.296875
vt 0.8203125 0.359375
vt 0.828125 0.359375
vt 0.8984375 0.296875
vt 0.9296875 0.296875
vt 0.8984375 0.3125
vt 0.9296875 0.3125
vt 0.8125 0.59375
vt 0.8203125 0.59375
vt 0.8125 0.625
vt 0.8203125 0.625
vt 0.859375 0.296875
vt 0.8671875 0.296875
vt 0.859375 0.359375
vt 0.8671875 0.359375
vt 0.7890625 0.4375
vt 0.8046875 0.4375
vt 0.7890625 0.453125
vt 0.8046875 0.453125
vt 0.46875 0.296875
vt 0.6484375 0.296875
vt 0.46875 0.328125
vt 0.6484375 0.328125
vt 0.7578125 0.296875
vt 0.7890625 0.296875
vt 0.7578125 0.3125
vt 0.7890625 0.3125
vt 0.734375 0.609375
vt 0.7421875 0.609375
vt 0.734375 0.640625
vt 0.7421875 0.640625
vt 0.4140625 0.890625
vt 0.4296875 0.890625
vt 0.4140625 0.9375
vt 0.4296875 0.9375
vt 0.734375 0.796875
vt 0.7421875 0.796875
vt 0.734375 0.828125
vt 0.7421875 0.828125
vt 0.8359375 0.4375
vt 0.8515625 0.4375
vt 0.8359375 0.453125
vt 0.8515625 0.453125
vt 0.46875 0.390625
vt 0.640625 0.390625
vt 0.46875 0.421875
vt 0.640625 0.421875
vt 0.6796875 0.734375
vt 0.6875 0.734375
vt 0.6796875 0.78125
vt 0.6875 0.78125
vt 0.6796875 0.84375
vt 0.6875 0.84375
vt 0.6796875 0.890625
vt 0.6875 0.890625
vt 0.6484375 0.015625
vt 0.8125 0.015625
vt 0.6484375 0.09375
vt 0.8125 0.09375
vt 0.46875 0.5625
vt 0.6328125 0.5625
vt 0.46875 0.578125
vt 0.6328125 0.578125
vt 0.46875 0.484375
vt 0.6328125 0.484375
vt 0.46875 0.5
vt 0.6328125 0.5
vt 0.9296875 0.4375
vt 0.9453125 0.4375
vt 0.9296875 0.453125
vt 0.9453125 0.453125
vt 0.7734375 0.515625
vt 0.7890625 0.515625
vt 0.7734375 0.53125
vt 0.7890625 0.53125
vt 0.7734375 0.59375
vt 0.78125 0.59375
vt 0.7734375 0.625
vt 0.78125 0.625
vt 0.71875 0.296875
vt 0.7265625 0.296875
vt 0.71875 0.359375
vt 0.7265625 0.359375
vt 0.8203125 0.515625
vt 0.8359375 0.515625
vt 0.8203125 0.53125
vt 0.8359375 0.53125
vt 0.9609375 0.515625
vt 0.9765625 0.515625
vt 0.9609375 0.53125
vt 0.9765625 0.53125
vt 0.8671875 0.515625
vt 0.8828125 0.515625
vt 0.8671875 0.53125
vt 0.8828125 0.53125
vt 0.46875 0.640625
vt 0.625 0.640625
vt 0.46875 0.65625
vt 0.625 0.65625
vt 0.46875 0.171875
vt 0.625 0.171875
vt 0.46875 0.234375
vt 0.625 0.234375
vt 0.6015625 0.796875
vt 0.609375 0.796875
vt 0.6015625 0.890625
vt 0.609375 0.890625
vt 0.9609375 0.296875
vt 0.96875 0.296875
vt 0.9609375 0.359375
vt 0.96875 0.359375
vt 0.46875 0.015625
vt 0.6171875 0.015625
vt 0.46875 0.109375
vt 0.6171875 0.109375
vt 0.46875 0.71875
vt 0.6171875 0.71875
vt 0.46875 0.734375
vt 0.6171875 0.734375
vt 0.65625 0.171875
vt 0.8046875 0.171875
vt 0.65625 0.234375
vt 0.8046875 0.234375
vt 0.3515625 0.015625
vt 0.3828125 0.015625
vt 0.3515625 0.515625
vt 0.3828125 0.515625
usemtl voxel
f 2/2/1 1/1/1 3/3/1
f 2/2/1 3/3/1 4/4/1
f 5/5/2 6/6/2 7/7/2
f 7/7/2 6/6/2 8/8/2
f 10/10/3 9/9/3 11/11/3
f 10/10/3 11/11/3 12/12/3
f 13/13/4 14/14/4 15/15/4
f 15/15/4 14/14/4 16/16/4
f 18/18/5 17/17/5 19/19/5
f 18/18/5 19/19/5 20/20/5
f 22/22/5 21/21/5 23/23/5
f 22/22/5 23/23/5 24/24/5
f 26/26/5 25/25/5 27/27/5
f 26/26/5 27/27/5 28/28/5
f 30/29/5 29/29/5 31/29/5
f 30/29/5 31/29/5 32/29/5
f 34/30/5 33/30/5 35/30/5
f 34/30/5 35/30/5 36/30/5
f 38/32/5 37/31/5 39/33/5
f 38/32/5 39/33/5 40/34/5
f 41/35/4 42/35/4 43/35/4
f 43/35/4 42/35/4 44/35/4
f 46/35/1 45/35/1 47/35/1
f 46/35/1 47/35/1 48/35/1
f 50/35/5 49/35/5 51/35/5
f 50/35/5 51/35/5 52/35/5
f 54/35/3 53/35/3 55/35/3
f 54/35/3 55/35/3 56/35/3
f 57/35/6 58/35/6 59/35/6
f 59/35/6 58/35/6 60/35/6
f 61/36/4 62/36/4 63/36/4
f 63/36/4 62/36/4 64/36/4
f 66/36/1 65/36/1 67/36/1
f 66/36/1 67/36/1 68/36/1
f 70/38/5 69/37/5 71/39/5
f 70/38/5 71/39/5 72/40/5
f 74/36/3 73/36/3 75/36/3
f 74/36/3 75/36/3 76/36/3
f 78/41/1 77/41/1 79/41/1
f 78/41/1 79/41/1 80/41/1
f 82/43/5 81/42/5 83/44/5
f 82/43/5 83/44/5 84/45/5
f 86/47/3 85/46/3 87/48/3
f 86/47/3 87/48/3 88/49/3
f 89/50/6 90/51/6 91/52/6
f 91/52/6 90/51/6 92/53/6
f 93/54/4 94/54/4 95/54/4
f 95/54/4 94/54/4 96/54/4
f 97/35/4 98/35/4 99/35/4
f 99/35/4 98/35/4 100/35/4
f 102/35/1 101/35/1 103/35/1
f 102/35/1 103/35/1 104/35/1
f 106/35/5 105/35/5 107/35/5
f 106/35/5 107/35/5 108/35/5
f 110/35/3 109/35/3 111/35/3
f 110/35/3 111/35/3 112/35/3
f 113/35/6 114/35/6 115/35/6
f 115/35/6 114/35/6 116/35/6
f 118/55/5 117/55/5 119/55/5
f 118/55/5 119/55/5 120/55/5
f 122/41/5 121/41/5 123/41/5
f 122/41/5 123/41/5 124/41/5
f 126/57/5 125/56/5 127/58/5
f 126/57/5 127/58/5 128/59/5
f 130/61/5 129/60/5 131/62/5
f 130/61/5 131/62/5 132/63/5
f 134/41/1 133/41/1 135/41/1
f 134/41/1 135/41/1 136/41/1
f 138/65/5 137/64/5 139/66/5
f 138/65/5 139/66/5 140/67/5
f 142/69/3 141/68/3 143/70/3
f 142/69/3 143/70/3 144/71/3
f 145/72/4 146/72/4 147/72/4
f 147/72/4 146/72/4 148/72/4
f 150/74/5 149/73/5 151/75/5
f 150/74/5 151/75/5 152/76/5
f 154/72/3 153/72/3 155/72/3
f 154/72/3 155/72/3 156/72/3
f 157/54/4 158/54/4 159/54/4
f 159/54/4 158/54/4 160/54/4
f 162/54/1 161/54/1 163/54/1
f 162/54/1 163/54/1 164/54/1
f 166/54/5 165/54/5 167/54/5
f 166/54/5 167/54/5 168/54/5
f 170/54/3 169/54/3 171/54/3
f 170/54/3 171/54/3 172/54/3
f 173/54/6 174/54/6 175/54/6
f 175/54/6 174/54/6 176/54/6
f 177/55/4 178/55/4 179/55/4
f 179/55/4 178/55/4 180/55/4
f 182/55/1 181/55/1 183/55/1
f 182/55/1 183/55/1 184/55/1
f 186/55/5 185/55/5 187/55/5
f 186/55/5 187/55/5 188/55/5
f 190/55/3 189/55/3 191/55/3
f 190/55/3 191/55/3 192/55/3
f 193/55/6 194/55/6 195/55/6
f 195/55/6 194/55/6 196/55/6
f 198/78/5 197/77/5 199/79/5
f 198/78/5 199/79/5 200/80/5
f 202/72/5 201/72/5 203/72/5
f 202/72/5 203/72/5 204/72/5
f 206/55/5 205/55/5 207/55/5
f 206/55/5 207/55/5 208/55/5
f 210/82/1 209/81/1 211/83/1
f 210/82/1 211/83/1 212/84/1
f 214/86/5 213/85/5 215/87/5
f 214/86/5 215/87/5 216/88/5
f 218/90/3 217/89/3 219/91/3
f 218/90/3 219/91/3 220/92/3
f 222/94/5 221/93/5 223/95/5
f 222/94/5 223/95/5 224/96/5
f 226/98/3 225/97/3 227/99/3
f 226/98/3 227/99/3 228/100/3
f 229/35/4 230/35/4 231/35/4
f 231/35/4 230/35/4 232/35/4
f 234/102/5 233/101/5 235/103/5
f 234/102/5 235/103/5 236/104/5
f 237/54/4 238/54/4 239/54/4
f 239/54/4 238/54/4 240/54/4
f 242/54/5 241/54/5 243/54/5
f 242/54/5 243/54/5 244/54/5
f 246/54/3 245/54/3 247/54/3
f 246/54/3 247/54/3 248/54/3
f 249/54/6 250/54/6 251/54/6
f 251/54/6 250/54/6 252/54/6
f 254/36/1 253/36/1 255/36/1
f 254/36/1 255/36/1 256/36/1
f 258/106/5 257/105/5 259/107/5
f 258/106/5 259/107/5 260/108/5
f 262/110/3 261/109/3 263/111/3
f 262/110/3 263/111/3 264/112/3
f 265/35/6 266/35/6 267/35/6
f 267/35/6 266/35/6 268/35/6
f 269/29/4 270/29/4 271/29/4
f 271/29/4 270/29/4 272/29/4
f 274/30/5 273/30/5 275/30/5
f 274/30/5 275/30/5 276/30/5
f 278/35/5 277/35/5 279/35/5
f 278/35/5 279/35/5 280/35/5
f 282/114/5 281/113/5 283/115/5
f 282/114/5 283/115/5 284/116/5
f 285/41/6 286/41/6 287/41/6
f 287/41/6 286/41/6 288/41/6
f 289/29/4 290/29/4 291/29/4
f 291/29/4 290/29/4 292/29/4
f 294/55/1 293/55/1 295/55/1
f 294/55/1 295/55/1 296/55/1
f 298/118/5 297/117/5 299/119/5
f 298/118/5 299/119/5 300/120/5
f 302/55/3 301/55/3 303/55/3
f 302/55/3 303/55/3 304/55/3
f 305/121/6 306/122/6 307/123/6
f 307/123/6 306/122/6 308/124/6
f 309/36/4 310/36/4 311/36/4
f 311/36/4 310/36/4 312/36/4
f 314/72/1 313/72/1 315/72/1
f 314/72/1 315/72/1 316/72/1
f 318/126/5 317/125/5 319/127/5
f 318/126/5 319/127/5 320/128/5
f 321/72/6 322/72/6 323/72/6
f 323/72/6 322/72/6 324/72/6
f 325/129/4 326/130/4 327/131/4
f 327/131/4 326/130/4 328/132/4
f 330/72/3 329/72/3 331/72/3
f 330/72/3 331/72/3 332/72/3
f 334/134/5 333/133/5 335/135/5
f 334/134/5 335/135/5 336/136/5
f 338/72/5 337/72/5 339/72/5
f 338/72/5 339/72/5 340/72/5
f 342/138/5 341/137/5 343/139/5
f 342/138/5 343/139/5 344/140/5
f 346/142/5 345/141/5 347/143/5
f 346/142/5 347/143/5 348/144/5
f 350/72/1 349/72/1 351/72/1
f 350/72/1 351/72/1 352/72/1
f 354/146/5 353/145/5 355/147/5
f 354/146/5 355/147/5 356/148/5
f 358/72/3 357/72/3 359/72/3
f 358/72/3 359/72/3 360/72/3
f 361/149/6 362/150/6 363/151/6
f 363/151/6 362/150/6 364/152/6
f 365/54/4 366/54/4 367/54/4
f 367/54/4 366/54/4 368/54/4
f 370/35/1 369/35/1 371/35/1
f 370/35/1 371/35/1 372/35/1
f 373/35/4 374/35/4 375/35/4
f 375/35/4 374/35/4 376/35/4
f 378/154/5 377/153/5 379/155/5
f 378/154/5 379/155/5 380/156/5
f 382/35/3 381/35/3 383/35/3
f 382/35/3 383/35/3 384/35/3
f 386/29/1 385/29/1 387/29/1
f 386/29/1 387/29/1 388/29/1
f 390/158/5 389/157/5 391/159/5
f 390/158/5 391/159/5 392/160/5
f 393/30/4 394/30/4 395/30/4
f 395/30/4 394/30/4 396/30/4
f 398/30/3 397/30/3 399/30/3
f 398/30/3 399/30/3 400/30/3
f 401/30/6 402/30/6 403/30/6
f 403/30/6 402/30/6 404/30/6
f 406/30/1 405/30/1 407/30/1
f 406/30/1 407/30/1 408/30/1
f 410/30/5 409/30/5 411/30/5
f 410/30/5 411/30/5 412/30/5
f 413/30/6 414/30/6 415/30/6
f 415/30/6 414/30/6 416/30/6
f 418/162/5 417/161/5 419/163/5
f 418/162/5 419/163/5 420/164/5
f 422/166/5 421/165/5 423/167/5
f 422/166/5 423/167/5 424/168/5
f 426/170/5 425/169/5 427/171/5
f 426/170/5 427/171/5 428/172/5
f 429/54/4 430/54/4 431/54/4
f 431/54/4 430/54/4 432/54/4
f 434/174/5 433/173/5 435/175/5
f 434/174/5 435/175/5 436/176/5
f 438/72/1 437/72/1 439/72/1
f 438/72/1 439/72/1 440/72/1
f 442/178/5 441/177/5 443/179/5
f 442/178/5 443/179/5 444/180/5
f 445/72/6 446/72/6 447/72/6
f 447/72/6 446/72/6 448/72/6
f 450/29/3 449/29/3 451/29/3
f 450/29/3 451/29/3 452/29/3
f 454/182/5 453/181/5 455/183/5
f 454/182/5 455/183/5 456/184/5
f 458/186/3 457/185/3 459/187/3
f 458/186/3 459/187/3 460/188/3
f 461/189/4 462/190/4 463/191/4
f 463/191/4 462/190/4 464/192/4
f 466/194/5 465/193/5 467/195/5
f 466/194/5 467/195/5 468/196/5
f 470/198/5 469/197/5 471/199/5
f 470/198/5 471/199/5 472/200/5
f 474/202/3 473/201/3 475/203/3
f 474/202/3 475/203/3 476/204/3
f 477/35/4 478/35/4 479/35/4
f 479/35/4 478/35/4 480/35/4
f 481/35/6 482/35/6 483/35/6
f 483/35/6 482/35/6 484/35/6
f 486/41/1 485/41/1 487/41/1
f 486/41/1 487/41/1 488/41/1
f 490/41/5 489/41/5 491/41/5
f 490/41/5 491/41/5 492/41/5
f 493/41/6 494/41/6 495/41/6
f 495/41/6 494/41/6 496/41/6
f 497/30/6 498/30/6 499/30/6
f 499/30/6 498/30/6 500/30/6
f 501/35/6 502/35/6 503/35/6
f 503/35/6 502/35/6 504/35/6
f 505/29/4 506/29/4 507/29/4
f 507/29/4 506/29/4 508/29/4
f 510/29/1 509/29/1 511/29/1
f 510/29/1 511/29/1 512/29/1
f 514/29/5 513/29/5 515/29/5
f 514/29/5 515/29/5 516/29/5
f 518/29/3 517/29/3 519/29/3
f 518/29/3 519/29/3 520/29/3
f 521/29/6 522/29/6 523/29/6
f 523/29/6 522/29/6 524/29/6
f 526/206/5 525/205/5 527/207/5
f 526/206/5 527/207/5 528/208/5
f 530/210/5 529/209/5 531/211/5
f 530/210/5 531/211/5 532/212/5
f 534/36/5 533/36/5 535/36/5
f 534/36/5 535/36/5 536/36/5
f 538/29/5 537/29/5 539/29/5
f 538/29/5 539/29/5 540/29/5
f 542/35/5 541/35/5 543/35/5
f 542/35/5 543/35/5 544/35/5
f 546/214/5 545/213/5 547/215/5
f 546/214/5 547/215/5 548/216/5
f 550/218/1 549/217/1 551/219/1
f 550/218/1 551/219/1 552/220/1
f 554/222/5 553/221/5 555/223/5
f 554/222/5 555/223/5 556/224/5
f 558/35/3 557/35/3 559/35/3
f 558/35/3 559/35/3 560/35/3
f 562/226/5 561/225/5 563/227/5
f 562/226/5 563/227/5 564/228/5
f 565/29/4 566/29/4 567/29/4
f 567/29/4 566/29/4 568/29/4
f 569/29/6 570/29/6 571/29/6
f 571/29/6 570/29/6 572/29/6
f 574/30/1 573/30/1 575/30/1
f 574/30/1 575/30/1 576/30/1
f 577/229/6 578/230/6 579/231/6
f 579/231/6 578/230/6 580/232/6
f 581/55/4 582/55/4 583/55/4
f 583/55/4 582/55/4 584/55/4
f 585/36/4 586/36/4 587/36/4
f 587/36/4 586/36/4 588/36/4
f 590/36/1 589/36/1 591/36/1
f 590/36/1 591/36/1 592/36/1
f 594/234/5 593/233/5 595/235/5
f 594/234/5 595/235/5 596/236/5
f 597/237/4 598/238/4 599/239/4
f 599/239/4 598/238/4 600/240/4
f 602/29/1 601/29/1 603/29/1
f 602/29/1 603/29/1 604/29/1
f 606/242/5 605/241/5 607/243/5
f 606/242/5 607/243/5 608/244/5
f 610/29/3 609/29/3 611/29/3
f 610/29/3 611/29/3 612/29/3
f 614/246/5 613/245/5 615/247/5
f 614/246/5 615/247/5 616/248/5
f 618/250/5 617/249/5 619/251/5
f 618/250/5 619/251/5 620/252/5
f 621/253/6 622/254/6 623/255/6
f 623/255/6 622/254/6 624/256/6
f 625/36/4 626/36/4 627/36/4
f 627/36/4 626/36/4 628/36/4
f 630/36/5 629/36/5 631/36/5
f 630/36/5 631/36/5 632/36/5
f 633/72/4 634/72/4 635/72/4
f 635/72/4 634/72/4 636/72/4
f 638/72/1 637/72/1 639/72/1
f 638/72/1 639/72/1 640/72/1
f 642/72/5 641/72/5 643/72/5
f 642/72/5 643/72/5 644/72/5
f 646/72/3 645/72/3 647/72/3
f 646/72/3 647/72/3 648/72/3
f 649/72/6 650/72/6 651/72/6
f 651/72/6 650/72/6 652/72/6
f 654/35/1 653/35/1 655/35/1
f 654/35/1 655/35/1 656/35/1
f 658/35/5 657/35/5 659/35/5
f 658/35/5 659/35/5 660/35/5
f 662/35/3 661/35/3 663/35/3
f 662/35/3 663/35/3 664/35/3
f 665/257/6 666/258/6 667/259/6
f 667/259/6 666/258/6 668/260/6
f 670/30/5 669/30/5 671/30/5
f 670/30/5 671/30/5 672/30/5
f 674/30/3 673/30/3 675/30/3
f 674/30/3 675/30/3 676/30/3
f 678/262/5 677/261/5 679/263/5
f 678/262/5 679/263/5 680/264/5
f 682/266/5 681/265/5 683/267/5
f 682/266/5 683/267/5 684/268/5
f 686/270/5 685/269/5 687/271/5
f 686/270/5 687/271/5 688/272/5
f 689/273/6 690/274/6 691/275/6
f 691/275/6 690/274/6 692/276/6
