# Export of Cubik Model: Cubik Model
# Designed by MeLee with Cubik Studio - https://cubik.studio
# from Cubik OBJ Exporter v1.0
mtllib grass_standing_a.mtl
v 1 0.5 0.5000019
v 0.5 0.5 0.5000019
v 1 1 0.5000019
v 0.5 1 0.5000019
v 1 0.5 1.000002
v 0.5 0.5 1.000002
v 1 1 1.000002
v 0.5 1 1.000002
v 1 0.5 1.000002
v 0.5 0.5 1.000002
v 1 0.5 0.5000019
v 0.5 0.5 0.5000019
v 1 1 1.000002
v 0.5 1 1.000002
v 1 1 0.5000019
v 0.5 1 0.5000019
v 1 0.5 1.000002
v 1 1 1.000002
v 1 0.5 0.5000019
v 1 1 0.5000019
v 0.5 0.5 1.000002
v 0.5 1 1.000002
v 0.5 0.5 0.5000019
v 0.5 1 0.5000019
v 1 1.5 -0.9999981
v 0.5 1.5 -0.9999981
v 1 2 -0.9999981
v 0.5 2 -0.9999981
v 1 1.5 -0.4999981
v 0.5 1.5 -0.4999981
v 1 2 -0.4999981
v 0.5 2 -0.4999981
v 1 1.5 -0.4999981
v 0.5 1.5 -0.4999981
v 1 1.5 -0.9999981
v 0.5 1.5 -0.9999981
v 1 2 -0.4999981
v 0.5 2 -0.4999981
v 1 2 -0.9999981
v 0.5 2 -0.9999981
v 1 1.5 -0.4999981
v 1 2 -0.4999981
v 1 1.5 -0.9999981
v 1 2 -0.9999981
v 0.5 1.5 -0.4999981
v 0.5 2 -0.4999981
v 0.5 1.5 -0.9999981
v 0.5 2 -0.9999981
v 0.5 0 0.5000019
v -0.5 0 0.5000019
v 0.5 0.5 0.5000019
v -0.5 0.5 0.5000019
v 0.5 0 0.5000019
v 0 0 0.5000019
v 0.5 0 -0.4999981
v 0 0 -0.4999981
v 0.5 0.5 0.5000019
v 0 0.5 0.5000019
v 0.5 0.5 1.907349E-06
v 0 0.5 1.907349E-06
v 0.5 0 0.5000019
v 0.5 0.5 0.5000019
v 0.5 0 -0.4999981
v 0.5 0.5 -0.4999981
v 0.5 0 -0.4999981
v 0 0 -0.4999981
v 0.5 1.5 -0.4999981
v 0 1.5 -0.4999981
v 0 0 1.907349E-06
v 0 1.5 1.907349E-06
v 0 0 -0.4999981
v 0 1.5 -0.4999981
v 0.5 0.5 1.907349E-06
v 0 0.5 1.907349E-06
v 0.5 1.5 1.907349E-06
v 0 1.5 1.907349E-06
v 0.5 0.5 1.907349E-06
v 0.5 1.5 1.907349E-06
v 0.5 0.5 -0.4999981
v 0.5 1.5 -0.4999981
v 0.5 1.5 1.907349E-06
v 0 1.5 1.907349E-06
v 0.5 1.5 -0.4999981
v 0 1.5 -0.4999981
v 0 0 1.907349E-06
v -0.5 0 1.907349E-06
v 0 2.5 1.907349E-06
v -0.5 2.5 1.907349E-06
v 0 0 0.5000019
v -0.5 0 0.5000019
v 0 0 1.907349E-06
v -0.5 0 1.907349E-06
v -0.5 0 0.5000019
v -0.5 2.5 0.5000019
v -0.5 0 1.907349E-06
v -0.5 2.5 1.907349E-06
v 0 0.5 0.5000019
v -0.5 0.5 0.5000019
v 0 2.5 0.5000019
v -0.5 2.5 0.5000019
v 0 0.5 0.5000019
v 0 2.5 0.5000019
v 0 0.5 1.907349E-06
v 0 2.5 1.907349E-06
v 0 2.5 0.5000019
v -0.5 2.5 0.5000019
v 0 2.5 1.907349E-06
v -0.5 2.5 1.907349E-06
v -0.5 2.5 1.907349E-06
v -1 2.5 1.907349E-06
v -0.5 3.5 1.907349E-06
v -1 3.5 1.907349E-06
v -0.5 2.5 0.5000019
v -1 2.5 0.5000019
v -0.5 3.5 0.5000019
v -1 3.5 0.5000019
v -0.5 2.5 0.5000019
v -1 2.5 0.5000019
v -0.5 2.5 1.907349E-06
v -1 2.5 1.907349E-06
v -0.5 2.5 0.5000019
v -0.5 3.5 0.5000019
v -0.5 2.5 1.907349E-06
v -0.5 3.5 1.907349E-06
v -1 2.5 0.5000019
v -1 3.5 0.5000019
v -1 2.5 1.907349E-06
v -1 3.5 1.907349E-06
v -0.5 3.5 0.5000019
v -1 3.5 0.5000019
v -0.5 3.5 1.907349E-06
v -1 3.5 1.907349E-06
v -1 3.5 1.907349E-06
v -1.5 3.5 1.907349E-06
v -1 4 1.907349E-06
v -1.5 4 1.907349E-06
v -1 3.5 0.5000019
v -1.5 3.5 0.5000019
v -1 4 0.5000019
v -1.5 4 0.5000019
v -1 3.5 0.5000019
v -1.5 3.5 0.5000019
v -1 3.5 1.907349E-06
v -1.5 3.5 1.907349E-06
v -1 4 0.5000019
v -1.5 4 0.5000019
v -1 4 1.907349E-06
v -1.5 4 1.907349E-06
v -1 3.5 0.5000019
v -1 4 0.5000019
v -1 3.5 1.907349E-06
v -1 4 1.907349E-06
v -1.5 3.5 0.5000019
v -1.5 4 0.5000019
v -1.5 3.5 1.907349E-06
v -1.5 4 1.907349E-06
vn 0 5.960464E-08 -0.9999999
vn 0 -5.960464E-08 0.9999999
vn 0 -0.9999999 -5.960464E-08
vn 0 0.9999999 5.960464E-08
vn 1 0 0
vn -1 0 0
vt 0.5625 0.1875
vt 0.6875 0.1875
vt 0.1875 0.1875
vt 0.25 0.1875
vt 0.1875 0.21875
vt 0.25 0.21875
vt 0.03125 0.78125
vt 0.0625 0.78125
vt 0.03125 0.84375
vt 0.0625 0.84375
vt 0.8125 0.1875
vt 0.1875 0.34375
vt 0.21875 0.34375
vt 0.1875 0.40625
vt 0.21875 0.40625
vt 0.03125 0.5625
vt 0.0625 0.5625
vt 0.03125 0.65625
vt 0.0625 0.65625
vt 0.71875 0.03125
vt 0.8125 0.03125
vt 0.71875 0.0625
vt 0.8125 0.0625
vt 0.1875 0.53125
vt 0.21875 0.53125
vt 0.1875 0.59375
vt 0.21875 0.59375
vt 0.375 0.1875
vt 0.4375 0.1875
vt 0.375 0.21875
vt 0.4375 0.21875
vt 0.1875 0.71875
vt 0.03125 0.03125
vt 0.0625 0.03125
vt 0.03125 0.1875
vt 0.0625 0.1875
vt 0.1875 0.03125
vt 0.34375 0.03125
vt 0.1875 0.0625
vt 0.34375 0.0625
vt 0.03125 0.3125
vt 0.0625 0.3125
vt 0.03125 0.4375
vt 0.0625 0.4375
vt 0.46875 0.03125
vt 0.59375 0.03125
vt 0.46875 0.0625
vt 0.59375 0.0625
vt 0.1875 0.84375
usemtl voxel
f 1/1/1 2/1/1 3/1/1
f 3/1/1 2/1/1 4/1/1
f 6/1/2 5/1/2 7/1/2
f 6/1/2 7/1/2 8/1/2
f 9/1/3 10/1/3 11/1/3
f 11/1/3 10/1/3 12/1/3
f 14/1/4 13/1/4 15/1/4
f 14/1/4 15/1/4 16/1/4
f 18/1/5 17/1/5 19/1/5
f 18/1/5 19/1/5 20/1/5
f 21/1/6 22/1/6 23/1/6
f 23/1/6 22/1/6 24/1/6
f 25/2/1 26/2/1 27/2/1
f 27/2/1 26/2/1 28/2/1
f 30/2/2 29/2/2 31/2/2
f 30/2/2 31/2/2 32/2/2
f 33/2/3 34/2/3 35/2/3
f 35/2/3 34/2/3 36/2/3
f 38/2/4 37/2/4 39/2/4
f 38/2/4 39/2/4 40/2/4
f 42/2/5 41/2/5 43/2/5
f 42/2/5 43/2/5 44/2/5
f 45/2/6 46/2/6 47/2/6
f 47/2/6 46/2/6 48/2/6
f 50/4/2 49/3/2 51/5/2
f 50/4/2 51/5/2 52/6/2
f 53/7/3 54/8/3 55/9/3
f 55/9/3 54/8/3 56/10/3
f 58/11/4 57/11/4 59/11/4
f 58/11/4 59/11/4 60/11/4
f 62/13/5 61/12/5 63/14/5
f 62/13/5 63/14/5 64/15/5
f 65/16/1 66/17/1 67/18/1
f 67/18/1 66/17/1 68/19/1
f 69/20/6 70/21/6 71/22/6
f 71/22/6 70/21/6 72/23/6
f 74/25/2 73/24/2 75/26/2
f 74/25/2 75/26/2 76/27/2
f 78/29/5 77/28/5 79/30/5
f 78/29/5 79/30/5 80/31/5
f 82/32/4 81/32/4 83/32/4
f 82/32/4 83/32/4 84/32/4
f 85/33/1 86/34/1 87/35/1
f 87/35/1 86/34/1 88/36/1
f 89/2/3 90/2/3 91/2/3
f 91/2/3 90/2/3 92/2/3
f 93/37/6 94/38/6 95/39/6
f 95/39/6 94/38/6 96/40/6
f 98/42/2 97/41/2 99/43/2
f 98/42/2 99/43/2 100/44/2
f 102/46/5 101/45/5 103/47/5
f 102/46/5 103/47/5 104/48/5
f 106/49/4 105/49/4 107/49/4
f 106/49/4 107/49/4 108/49/4
f 109/2/1 110/2/1 111/2/1
f 111/2/1 110/2/1 112/2/1
f 114/2/2 113/2/2 115/2/2
f 114/2/2 115/2/2 116/2/2
f 117/2/3 118/2/3 119/2/3
f 119/2/3 118/2/3 120/2/3
f 122/2/5 121/2/5 123/2/5
f 122/2/5 123/2/5 124/2/5
f 125/2/6 126/2/6 127/2/6
f 127/2/6 126/2/6 128/2/6
f 130/2/4 129/2/4 131/2/4
f 130/2/4 131/2/4 132/2/4
f 133/49/1 134/49/1 135/49/1
f 135/49/1 134/49/1 136/49/1
f 138/49/2 137/49/2 139/49/2
f 138/49/2 139/49/2 140/49/2
f 141/49/3 142/49/3 143/49/3
f 143/49/3 142/49/3 144/49/3
f 146/49/4 145/49/4 147/49/4
f 146/49/4 147/49/4 148/49/4
f 150/49/5 149/49/5 151/49/5
f 150/49/5 151/49/5 152/49/5
f 153/49/6 154/49/6 155/49/6
f 155/49/6 154/49/6 156/49/6
