# Export of Cubik Model: Cubik Model
# Designed by MeLee with Cubik Studio - https://cubik.studio
# from Cubik OBJ Exporter v1.0
mtllib rnr_bar.mtl
v 9.5 -4.75 1.500002
v -9.5 -4.75 1.500002
v 9.5 4 1.500004
v -9.5 4 1.500004
v 9.5 -4.75 1.500002
v -9.5 -4.75 1.500002
v 9.5 -4.75 -1.499998
v -9.5 -4.75 -1.499998
v 9.5 -4.75 1.500002
v 9.5 4 1.500004
v 9.5 -4.75 -1.499998
v 9.5 4 -1.499996
v 9.5 -4.75 -1.499998
v -9.5 -4.75 -1.499998
v 9.5 4 -1.499996
v -9.5 4 -1.499996
v 9.5 4 1.500004
v -9.5 4 1.500004
v 9.5 4 -1.499996
v -9.5 4 -1.499996
v -9.5 -4.75 1.500002
v -9.5 4 1.500004
v -9.5 -4.75 -1.499998
v -9.5 4 -1.499996
vn 0 -5.960464E-08 0.9999999
vn 0 -0.9999999 -5.960464E-08
vn 1 0 0
vn 0 5.960464E-08 -0.9999999
vn 0 0.9999999 5.960464E-08
vn -1 0 0
vt 0.0078125 0.0078125
vt 0.6015625 0.0078125
vt 0.0078125 0.28125
vt 0.6015625 0.28125
vt 0.6328125 0.0078125
usemtl voxel
f 2/2/1 1/1/1 3/3/1
f 2/2/1 3/3/1 4/4/1
f 5/5/2 6/5/2 7/5/2
f 7/5/2 6/5/2 8/5/2
f 10/5/3 9/5/3 11/5/3
f 10/5/3 11/5/3 12/5/3
f 13/5/4 14/5/4 15/5/4
f 15/5/4 14/5/4 16/5/4
f 18/5/5 17/5/5 19/5/5
f 18/5/5 19/5/5 20/5/5
f 21/5/6 22/5/6 23/5/6
f 23/5/6 22/5/6 24/5/6
