# Export of Cubik Model: Cubik Model
# Designed by MeLee with Cubik Studio - https://cubik.studio
# from Cubik OBJ Exporter v1.0
mtllib street_32_2a_mi.mtl
v 0 0 1.907349E-06
v -16 0 1.907349E-06
v 0 2 1.907349E-06
v -16 2 1.907349E-06
v 0 0 1.907349E-06
v -16 0 1.907349E-06
v 0 1.907349E-06 -32
v -16 1.907349E-06 -32
v 0 0 1.907349E-06
v 0 2 1.907349E-06
v 0 1.907349E-06 -32
v 0 2.000002 -32
v 0 1.907349E-06 -32
v -16 1.907349E-06 -32
v 0 2.000002 -32
v -16 2.000002 -32
v 0 2 1.907349E-06
v -2.5 2 1.907349E-06
v 0 2.000002 -32
v -2.5 2.000002 -32
v -2.5 1.5 -9.499998
v -2.5 2 -9.499998
v -2.5 1.5 -9.999998
v -2.5 2 -9.999998
v -2.5 1.5 -9.499998
v -3 1.5 -9.499998
v -2.5 1.5 -9.999998
v -3 1.5 -9.999998
v -2.5 2 1.907349E-06
v -8.5 2 1.907349E-06
v -2.5 2 -9.499998
v -8.5 2 -9.499998
v -2.5 1.5 -9.499998
v -3 1.5 -9.499998
v -2.5 2 -9.499998
v -3 2 -9.499998
v -2.5 1.5 -9.999998
v -3 1.5 -9.999998
v -2.5 2 -9.999998
v -3 2 -9.999998
v -2.5 2 -9.999998
v -3 2 -9.999998
v -2.5 2.000002 -32
v -3 2.000002 -32
v -3 1.5 -11
v -3 2 -11
v -3 1.5 -11.5
v -3 2 -11.5
v -3 1.5 -11
v -3.5 1.5 -11
v -3 1.5 -11.5
v -3.5 1.5 -11.5
v -3 2 -9.499998
v -8 2 -9.499998
v -3 2 -11
v -8 2 -11
v -3 1.5 -9.499998
v -3 2 -9.499998
v -3 1.5 -9.999998
v -3 2 -9.999998
v -3 1.5 -11
v -3.5 1.5 -11
v -3 2 -11
v -3.5 2 -11
v -3 1.5 -11.5
v -3.5 1.5 -11.5
v -3 2 -11.5
v -3.5 2 -11.5
v -3 2 -11.5
v -3.5 2 -11.5
v -3 2.000002 -32
v -3.5 2.000002 -32
v -3.5 1.5 -12
v -3.5 2 -12
v -3.5 1.5 -13
v -3.5 2 -13
v -3.5 1.5 -12
v -4.5 1.5 -12
v -3.5 1.5 -13
v -4.5 1.5 -13
v -3.5 2 -11
v -7.5 2 -11
v -3.5 2 -12
v -7.5 2 -12
v -3.5 1.5 -11
v -3.5 2 -11
v -3.5 1.5 -11.5
v -3.5 2 -11.5
v -3.5 1.5 -12
v -4.5 1.5 -12
v -3.5 2 -12
v -4.5 2 -12
v -3.5 1.5 -13
v -4 1.5 -13
v -3.5 2 -13
v -4 2 -13
v -3.5 2 -13
v -4 2 -13
v -3.5 2.000002 -32
v -4 2.000002 -32
v -4 1.5 -13
v -4 2 -13
v -4 1.5 -13.5
v -4 2 -13.5
v -4.5 1 -12.5
v -4.5 1.5 -12.5
v -4.5 1 -13
v -4.5 1.5 -13
v -4 1.5 -13
v -6 1.5 -13
v -4 1.5 -13.5
v -6 1.5 -13.5
v -4 1.5 -13.5
v -6 1.5 -13.5
v -4 2 -13.5
v -6 2 -13.5
v -4 2 -13.5
v -5.5 2 -13.5
v -4 2.000002 -32
v -5.5 2.000002 -32
v -4.5 1 -12.5
v -6 1 -12.5
v -4.5 1 -13
v -6 1 -13
v -4.5 1 -12.5
v -5.5 1 -12.5
v -4.5 2 -12.5
v -5.5 2 -12.5
v -4.5 1 -13
v -6 1 -13
v -4.5 1.5 -13
v -6 1.5 -13
v -4.5 2 -12
v -5.5 2 -12
v -4.5 2 -12.5
v -5.5 2 -12.5
v -4.5 1.5 -12
v -4.5 2 -12
v -4.5 1.5 -12.5
v -4.5 2 -12.5
v -5.5 1.5 -12
v -5.5 2 -12
v -5.5 1.5 -12.5
v -5.5 2 -12.5
v -5.5 1.500002 -25.5
v -5.5 2.000002 -25.5
v -5.5 1.500002 -26
v -5.5 2.000002 -26
v -5.5 1 -12.5
v -6 1 -12.5
v -5.5 1.5 -12.5
v -6 1.5 -12.5
v -5.5 1.5 -12
v -6 1.5 -12
v -5.5 1.5 -12.5
v -6 1.5 -12.5
v -6 1 -13
v -6 1.5 -13
v -6 1 -13.5
v -6 1.5 -13.5
v -5.5 1.500002 -25.5
v -6 1.500002 -25.5
v -5.5 1.500002 -26
v -6 1.500002 -26
v -5.5 1.5 -12
v -6 1.5 -12
v -5.5 2 -12
v -6 2 -12
v -5.5 2 -13.5
v -6 2 -13.5
v -5.5 2.000002 -25.5
v -6 2.000002 -25.5
v -6 1.5 -13.5
v -6 2 -13.5
v -6 1.5 -14
v -6 2 -14
v -5.5 1.500002 -25.5
v -6 1.500002 -25.5
v -5.5 2.000002 -25.5
v -6 2.000002 -25.5
v -5.5 1.500002 -26
v -6 1.500002 -26
v -5.5 2.000002 -26
v -6 2.000002 -26
v -5.5 2.000002 -26
v -16 2.000002 -26
v -5.5 2.000002 -32
v -16 2.000002 -32
v -6 1 -13
v -8.5 1 -13
v -6 1 -13.5
v -8.5 1 -13.5
v -6 1 -13
v -7.5 1 -13
v -6 1.5 -13
v -7.5 1.5 -13
v -6 1.5 -12.5
v -7.5 1.5 -12.5
v -6 1.5 -13
v -7.5 1.5 -13
v -6 1 -12.5
v -6 1.5 -12.5
v -6 1 -13
v -6 1.5 -13
v -6 1 -13.5
v -7.5 1 -13.5
v -6 1.5 -13.5
v -7.5 1.5 -13.5
v -6 1.5 -13.5
v -7.5 1.5 -13.5
v -6 1.5 -14
v -7.5 1.5 -14
v -6 1.5 -12.5
v -7 1.5 -12.5
v -6 2 -12.5
v -7 2 -12.5
v -6 2 -12
v -7 2 -12
v -6 2 -12.5
v -7 2 -12.5
v -6 1.5 -12
v -6 2 -12
v -6 1.5 -12.5
v -6 2 -12.5
v -6 1.5 -14
v -7 1.5 -14
v -6 2 -14
v -7 2 -14
v -6 2 -14
v -7 2 -14
v -6 2.000002 -26
v -7 2.000002 -26
v -6 1.500002 -25.5
v -6 2.000002 -25.5
v -6 1.500002 -26
v -6 2.000002 -26
v -7 1.5 -12
v -7 2 -12
v -7 1.5 -12.5
v -7 2 -12.5
v -7 1.5 -14
v -7 2 -14
v -7 1.500002 -18
v -7 2 -18
v -7 1.500002 -18.5
v -7 2.000002 -18.5
v -7 1.500002 -19
v -7 2.000002 -19
v -7 1.500002 -24
v -7 2.000002 -24
v -7 1.500002 -25
v -7 2.000002 -25
v -7 1.5 -12
v -8.5 1.5 -12
v -7 1.5 -12.5
v -8.5 1.5 -12.5
v -7.5 1 -12.5
v -7.5 1.5 -12.5
v -7.5 1 -13
v -7.5 1.5 -13
v -7.5 1 -13.5
v -7.5 1.5 -13.5
v -7.5 1 -16.5
v -7.5 1.5 -16.5
v -7 1.5 -14
v -7.5 1.5 -14
v -7 1.500002 -18
v -7.5 1.500002 -18
v -7 1.500002 -18.5
v -8.5 1.500002 -18.5
v -7 1.500002 -19
v -8.5 1.500002 -19
v -7.5 1.000002 -19
v -7.5 2.000002 -19
v -7.5 1.000002 -19.5
v -7.5 2.000002 -19.5
v -7 1.500002 -24
v -7.5 1.500002 -24
v -7 1.500002 -25
v -7.5 1.500002 -25
v -7 1.5 -12
v -7.5 1.5 -12
v -7 2 -12
v -7.5 2 -12
v -7.5 1.5 -11.5
v -7.5 2 -11.5
v -7.5 1.5 -12
v -7.5 2 -12
v -7 1.500002 -18.5
v -7.5 1.500002 -18.5
v -7 2.000002 -18.5
v -7.5 2.000002 -18.5
v -7 1.500002 -18
v -7.5 1.500002 -18
v -7 2 -18
v -7.5 2 -18
v -7 2 -18
v -7.5 2 -18
v -7 2.000002 -18.5
v -7.5 2.000002 -18.5
v -7.5 1.500002 -18
v -7.5 2 -18
v -7.5 1.500002 -18.5
v -7.5 2.000002 -18.5
v -7 1.500002 -19
v -7.5 1.500002 -19
v -7 2.000002 -19
v -7.5 2.000002 -19
v -7 2.000002 -19
v -7.5 2.000002 -19
v -7 2.000002 -24
v -7.5 2.000002 -24
v -7.5 1.500002 -19.5
v -7.5 2.000002 -19.5
v -7.5 1.500002 -21.5
v -7.5 2.000002 -21.5
v -7.5 1.500002 -22.5
v -7.5 2.000002 -22.5
v -7.5 1.500002 -24
v -7.5 2.000002 -24
v -7 1.500002 -24
v -7.5 1.500002 -24
v -7 2.000002 -24
v -7.5 2.000002 -24
v -7 1.500002 -25
v -7.5 1.500002 -25
v -7 2.000002 -25
v -7.5 2.000002 -25
v -7 2.000002 -25
v -16 2.000002 -25
v -7 2.000002 -26
v -16 2.000002 -26
v -7.5 1 -12.5
v -8.5 1 -12.5
v -7.5 1 -13
v -8.5 1 -13
v -7.5 1 -13.5
v -8.5 1 -13.5
v -7.5 1 -16.5
v -8.5 1 -16.5
v -7.5 1.000002 -19
v -8.5 1.000002 -19
v -7.5 1.000002 -19.5
v -8.5 1.000002 -19.5
v -7.5 1.5 -11.5
v -8.5 1.5 -11.5
v -7.5 1.5 -12
v -8.5 1.5 -12
v -7.5 1 -12.5
v -8.5 1 -12.5
v -7.5 1.5 -12.5
v -8.5 1.5 -12.5
v -7.5 1 -16.5
v -8 1 -16.5
v -7.5 1.5 -16.5
v -8 1.5 -16.5
v -7.5 1.5 -16.5
v -8 1.5 -16.5
v -7.5 1.500002 -18.5
v -8 1.500002 -18.5
v -8 1 -16.5
v -8 1.5 -16.5
v -8 1 -17
v -8 1.5 -17
v -8 1.000002 -17.5
v -8 1.5 -17.5
v -8 1.000002 -18.5
v -8 1.500002 -18.5
v -7.5 1.000002 -19
v -8.5 1.000002 -19
v -7.5 1.500002 -19
v -8.5 1.500002 -19
v -7.5 1.000002 -19.5
v -8 1.000002 -19.5
v -7.5 1.500002 -19.5
v -8 1.500002 -19.5
v -7.5 1.500002 -19.5
v -8 1.500002 -19.5
v -7.5 1.500002 -21.5
v -8 1.500002 -21.5
v -8 1.000002 -19.5
v -8 1.500002 -19.5
v -8 1.000002 -20.5
v -8 1.500002 -20.5
v -7.5 1.500002 -22.5
v -8 1.500002 -22.5
v -7.5 1.500002 -24
v -8 1.500002 -24
v -8 1.5 -9.499998
v -8 2 -9.499998
v -8 1.5 -11.5
v -8 2 -11.5
v -7.5 1.5 -11.5
v -8 1.5 -11.5
v -7.5 2 -11.5
v -8 2 -11.5
v -7.5 2 -11
v -8 2 -11
v -7.5 2 -11.5
v -8 2 -11.5
v -7.5 1.500002 -21.5
v -8 1.500002 -21.5
v -7.5 2.000002 -21.5
v -8 2.000002 -21.5
v -7.5 2.000002 -21.5
v -8 2.000002 -21.5
v -7.5 2.000002 -22.5
v -8 2.000002 -22.5
v -8 1.500002 -21.5
v -8 2.000002 -21.5
v -8 1.500002 -22
v -8 2.000002 -22
v -7.5 1.500002 -22.5
v -8 1.500002 -22.5
v -7.5 2.000002 -22.5
v -8 2.000002 -22.5
v -7.5 1.500002 -24
v -8 1.500002 -24
v -7.5 2.000002 -24
v -8 2.000002 -24
v -7.5 2.000002 -24
v -16 2.000002 -24
v -7.5 2.000002 -25
v -16 2.000002 -25
v -7.5 1.500002 -24
v -7.5 2.000002 -24
v -7.5 1.500002 -25
v -7.5 2.000002 -25
v -8 1 -16.5
v -9 1 -16.5
v -8 1 -17
v -9 1 -17
v -8 1.000002 -17.5
v -8.5 1.000002 -17.5
v -8 1.000002 -18.5
v -8.5 1.000002 -18.5
v -8 1.000002 -19.5
v -8.5 1.000002 -19.5
v -8 1.000002 -20.5
v -8.5 1.000002 -20.5
v -8 1.5 -9.499998
v -8.5 1.5 -9.499998
v -8 1.5 -11.5
v -8.5 1.5 -11.5
v -8.5 1 -11.5
v -8.5 1.5 -11.5
v -8.5 1 -12.5
v -8.5 1.5 -12.5
v -8 1.000002 -17.5
v -8.5 1.000002 -17.5
v -8 1.5 -17.5
v -8.5 1.5 -17.5
v -8 1 -17
v -9 1 -17
v -8 1.5 -17
v -9 1.5 -17
v -8 1.5 -17
v -9.5 1.5 -17
v -8 1.5 -17.5
v -9.5 1.5 -17.5
v -8 1.000002 -18.5
v -8.5 1.000002 -18.5
v -8 1.500002 -18.5
v -8.5 1.500002 -18.5
v -8 1.000002 -20.5
v -8.5 1.000002 -20.5
v -8 1.500002 -20.5
v -8.5 1.500002 -20.5
v -8 1.500002 -20.5
v -9 1.500002 -20.5
v -8 1.500002 -21
v -9 1.500002 -21
v -8 1.500002 -21.5
v -8.5 1.500002 -21.5
v -8 1.500002 -22
v -8.5 1.500002 -22
v -8.5 1.5 -8.499998
v -8.5 2 -8.499998
v -8.5 1.5 -8.999998
v -8.5 2 -8.999998
v -8 1.5 -9.499998
v -9 1.5 -9.499998
v -8 2 -9.499998
v -9 2 -9.499998
v -8 1.500002 -21.5
v -8.5 1.500002 -21.5
v -8 2.000002 -21.5
v -8.5 2.000002 -21.5
v -8 1.500002 -21
v -8.5 1.500002 -21
v -8 2.000002 -21
v -8.5 2.000002 -21
v -8 2.000002 -21
v -8.5 2.000002 -21
v -8 2.000002 -21.5
v -8.5 2.000002 -21.5
v -8 1.500002 -21
v -8 2.000002 -21
v -8 1.500002 -21.5
v -8 2.000002 -21.5
v -8.5 1.500002 -21
v -8.5 2.000002 -21
v -8.5 1.500002 -21.5
v -8.5 2.000002 -21.5
v -8 1.500002 -22
v -8.5 1.500002 -22
v -8 2.000002 -22
v -8.5 2.000002 -22
v -8 2.000002 -22
v -8.5 2.000002 -22
v -8 2.000002 -24
v -8.5 2.000002 -24
v -8.5 1.500002 -22
v -8.5 2.000002 -22
v -8.5 1.500002 -23
v -8.5 2.000002 -23
v -8 1.500002 -22.5
v -8 2.000002 -22.5
v -8 1.500002 -24
v -8 2.000002 -24
v -8.5 1 -11.5
v -9 1 -11.5
v -8.5 1 -12.5
v -9 1 -12.5
v -8.5 1 -14
v -9 1 -14
v -8.5 1 -16.5
v -9 1 -16.5
v -8.5 1.5 -8.499998
v -9 1.5 -8.499998
v -8.5 1.5 -8.999998
v -9 1.5 -8.999998
v -8.5 1.5 -9.499998
v -10 1.5 -9.499998
v -8.5 1.5 -10.5
v -10 1.5 -10.5
v -8.5 1 -11.5
v -9.5 1 -11.5
v -8.5 1.5 -11.5
v -9.5 1.5 -11.5
v -8.5 1.5 -11
v -10 1.5 -11
v -8.5 1.5 -11.5
v -10 1.5 -11.5
v -8.5 1 -12.5
v -9 1 -12.5
v -8.5 1.5 -12.5
v -9 1.5 -12.5
v -8.5 1.5 -12.5
v -9.5 1.5 -12.5
v -8.5 1.5 -14
v -9.5 1.5 -14
v -8.5 1 -12.5
v -8.5 1.5 -12.5
v -8.5 1 -14
v -8.5 1.5 -14
v -8.5 1 -14
v -9 1 -14
v -8.5 1.5 -14
v -9 1.5 -14
v -8.5 1.5 -17.5
v -9 1.5 -17.5
v -8.5 1.500002 -18.5
v -9 1.500002 -18.5
v -8.5 1.000002 -17.5
v -8.5 1.5 -17.5
v -8.5 1.000002 -18.5
v -8.5 1.500002 -18.5
v -8.5 1.000002 -19
v -8.5 2.000002 -19
v -8.5 1.000002 -20.5
v -8.5 2.000002 -20.5
v -8.5 1.500002 -21
v -9.5 1.500002 -21
v -8.5 1.500002 -21.5
v -9.5 1.500002 -21.5
v -8.5 1.500002 -22
v -9 1.500002 -22
v -8.5 1.500002 -23
v -9 1.500002 -23
v -8.5 2 1.907349E-06
v -9 2 1.907349E-06
v -8.5 2 -8.499998
v -9 2 -8.499998
v -9 1.5 -5.999998
v -9 2 -5.999998
v -9 1.5 -7.499998
v -9 2 -7.499998
v -8.5 1.5 -8.499998
v -9 1.5 -8.499998
v -8.5 2 -8.499998
v -9 2 -8.499998
v -9 1.5 -7.999998
v -9 2 -7.999998
v -9 1.5 -8.499998
v -9 2 -8.499998
v -8.5 1.5 -8.999998
v -9 1.5 -8.999998
v -8.5 2 -8.999998
v -9 2 -8.999998
v -8.5 2 -8.999998
v -9 2 -8.999998
v -8.5 2 -9.499998
v -9 2 -9.499998
v -9 1.5 -8.999998
v -9 2 -8.999998
v -9 1.5 -9.499998
v -9 2 -9.499998
v -8.5 1.5 -11
v -9 1.5 -11
v -8.5 2 -11
v -9 2 -11
v -8.5 1.5 -10.5
v -9 1.5 -10.5
v -8.5 2 -10.5
v -9 2 -10.5
v -8.5 2 -10.5
v -9 2 -10.5
v -8.5 2 -11
v -9 2 -11
v -8.5 1.5 -10.5
v -8.5 2 -10.5
v -8.5 1.5 -11
v -8.5 2 -11
v -9 1.5 -10.5
v -9 2 -10.5
v -9 1.5 -11
v -9 2 -11
v -8.5 1.500002 -18.5
v -9 1.500002 -18.5
v -8.5 2.000002 -18.5
v -9 2.000002 -18.5
v -8.5 2.000002 -18.5
v -9 2.000002 -18.5
v -8.5 2.000002 -20.5
v -9 2.000002 -20.5
v -8.5 1.500002 -18.5
v -8.5 2.000002 -18.5
v -8.5 1.500002 -19
v -8.5 2.000002 -19
v -9 1.500002 -18.5
v -9 2.000002 -18.5
v -9 1.500002 -19
v -9 2.000002 -19
v -8.5 1.500002 -20.5
v -9 1.500002 -20.5
v -8.5 2.000002 -20.5
v -9 2.000002 -20.5
v -9 1.500002 -20
v -9 2.000002 -20
v -9 1.500002 -20.5
v -9 2.000002 -20.5
v -8.5 1.500002 -22
v -9 1.500002 -22
v -8.5 2.000002 -22
v -9 2.000002 -22
v -8.5 1.500002 -21.5
v -9.5 1.500002 -21.5
v -8.5 2.000002 -21.5
v -9.5 2.000002 -21.5
v -8.5 2.000002 -21.5
v -16 2.000002 -21.5
v -8.5 2.000002 -22
v -16 2.000002 -22
v -8.5 1.500002 -21.5
v -8.5 2.000002 -21.5
v -8.5 1.500002 -22
v -8.5 2.000002 -22
v -8.5 1.500002 -23
v -9 1.500002 -23
v -8.5 2.000002 -23
v -9 2.000002 -23
v -8.5 2.000002 -23
v -16 2.000002 -23
v -8.5 2.000002 -24
v -16 2.000002 -24
v -9 1 -11.5
v -9.5 1 -11.5
v -9 1 -12
v -9.5 1 -12
v -9 1.5 -5.999998
v -9.5 1.5 -5.999998
v -9 1.5 -7.499998
v -9.5 1.5 -7.499998
v -9 1.5 -7.999998
v -9.5 1.5 -7.999998
v -9 1.5 -8.499998
v -9.5 1.5 -8.499998
v -9 1.5 -8.999998
v -9.5 1.5 -8.999998
v -9 1.5 -9.499998
v -9.5 1.5 -9.499998
v -9 1.5 -10.5
v -10.5 1.5 -10.5
v -9 1.5 -11
v -10.5 1.5 -11
v -9 1 -12
v -9.5 1 -12
v -9 1.5 -12
v -9.5 1.5 -12
v -9 1.5 -12
v -10 1.5 -12
v -9 1.5 -12.5
v -10 1.5 -12.5
v -9 1 -12
v -9 1.5 -12
v -9 1 -12.5
v -9 1.5 -12.5
v -9 1.5 -14
v -9.5 1.5 -14
v -9 1.5 -17
v -9.5 1.5 -17
v -9 1 -14
v -9 1.5 -14
v -9 1 -17
v -9 1.5 -17
v -9 1.5 -17.5
v -9.5 1.5 -17.5
v -9 1.500002 -18
v -9.5 1.500002 -18
v -9 1.500002 -18.5
v -9.5 1.500002 -18.5
v -9 1.500002 -19
v -9.5 1.500002 -19
v -9 1.500002 -20
v -9.5 1.500002 -20
v -9 1.500002 -20.5
v -9.5 1.500002 -20.5
v -9 2 1.907349E-06
v -16 2 1.907349E-06
v -9 2 -5.999998
v -16 2 -5.999998
v -9 1.5 -5.999998
v -9.5 1.5 -5.999998
v -9 2 -5.999998
v -9.5 2 -5.999998
v -9 1.5 -7.999998
v -9.5 1.5 -7.999998
v -9 2 -7.999998
v -9.5 2 -7.999998
v -9 1.5 -7.499998
v -9.5 1.5 -7.499998
v -9 2 -7.499998
v -9.5 2 -7.499998
v -9 2 -7.499998
v -11 2 -7.499998
v -9 2 -7.999998
v -11 2 -7.999998
v -9 1.5 -8.999998
v -9.5 1.5 -8.999998
v -9 2 -8.999998
v -9.5 2 -8.999998
v -9 1.5 -8.499998
v -9.5 1.5 -8.499998
v -9 2 -8.499998
v -9.5 2 -8.499998
v -9 2 -8.499998
v -10.5 2 -8.499998
v -9 2 -8.999998
v -10.5 2 -8.999998
v -9 1.5 -8.499998
v -9 2 -8.499998
v -9 1.5 -8.999998
v -9 2 -8.999998
v -9 1.500002 -18.5
v -9.5 1.500002 -18.5
v -9 2.000002 -18.5
v -9.5 2.000002 -18.5
v -9 1.500002 -18
v -9.5 1.500002 -18
v -9 2 -18
v -9.5 2 -18
v -9 2 -18
v -16 2 -18
v -9 2.000002 -18.5
v -16 2.000002 -18.5
v -9 1.500002 -18
v -9 2 -18
v -9 1.500002 -18.5
v -9 2.000002 -18.5
v -9 1.500002 -19
v -9.5 1.500002 -19
v -9 2.000002 -19
v -9.5 2.000002 -19
v -9 2.000002 -19
v -16 2.000002 -19
v -9 2.000002 -20
v -16 2.000002 -20
v -9 1.500002 -20
v -9.5 1.500002 -20
v -9 2.000002 -20
v -9.5 2.000002 -20
v -9 1.500002 -21
v -9.5 1.500002 -21
v -9 2.000002 -21
v -9.5 2.000002 -21
v -9 1.500002 -20.5
v -9.5 1.500002 -20.5
v -9 2.000002 -20.5
v -9.5 2.000002 -20.5
v -9 2.000002 -20.5
v -16 2.000002 -20.5
v -9 2.000002 -21
v -16 2.000002 -21
v -9 1.500002 -20.5
v -9 2.000002 -20.5
v -9 1.500002 -21
v -9 2.000002 -21
v -9 2.000002 -22
v -16 2.000002 -22
v -9 2.000002 -23
v -16 2.000002 -23
v -9 1.500002 -22
v -9 2.000002 -22
v -9 1.500002 -23
v -9 2.000002 -23
v -10 1 -11
v -10 1.5 -11
v -10 1 -11.5
v -10 1.5 -11.5
v -9.5 1.5 -11.5
v -10.5 1.5 -11.5
v -9.5 1.5 -12
v -10.5 1.5 -12
v -9.5 1 -11.5
v -9.5 1.5 -11.5
v -9.5 1 -12
v -9.5 1.5 -12
v -9.5 1.5 -14
v -10 1.5 -14
v -9.5 1.5 -14.5
v -10 1.5 -14.5
v -9.5 1.5 -15
v -10 1.5 -15
v -9.5 1.5 -16
v -10 1.5 -16
v -9.5 1.5 -16.5
v -10 1.5 -16.5
v -9.5 1.5 -17
v -10 1.5 -17
v -9.5 2 -5.999998
v -11.5 2 -5.999998
v -9.5 2 -7.499998
v -11.5 2 -7.499998
v -9.5 1.5 -5.999998
v -9.5 2 -5.999998
v -9.5 1.5 -7.499998
v -9.5 2 -7.499998
v -9.5 2 -7.999998
v -10.5 2 -7.999998
v -9.5 2 -8.499998
v -10.5 2 -8.499998
v -9.5 1.5 -7.999998
v -9.5 2 -7.999998
v -9.5 1.5 -8.499998
v -9.5 2 -8.499998
v -9.5 1.5 -9.499998
v -10 1.5 -9.499998
v -9.5 2 -9.499998
v -10 2 -9.499998
v -9.5 2 -8.999998
v -16 2 -8.999998
v -9.5 2 -9.499998
v -16 2 -9.499998
v -9.5 1.5 -8.999998
v -9.5 2 -8.999998
v -9.5 1.5 -9.499998
v -9.5 2 -9.499998
v -9.5 1.5 -12.5
v -10 1.5 -12.5
v -9.5 2 -12.5
v -10 2 -12.5
v -9.5 2 -12.5
v -16 2 -12.5
v -9.5 2 -14
v -16 2 -14
v -9.5 1.5 -12.5
v -9.5 2 -12.5
v -9.5 1.5 -14
v -9.5 2 -14
v -9.5 1.5 -14
v -10 1.5 -14
v -9.5 2 -14
v -10 2 -14
v -9.5 1.5 -15
v -10 1.5 -15
v -9.5 2 -15
v -10 2 -15
v -9.5 1.5 -14.5
v -10 1.5 -14.5
v -9.5 2 -14.5
v -10 2 -14.5
v -9.5 2 -14.5
v -16 2 -14.5
v -9.5 2 -15
v -16 2 -15
v -9.5 1.5 -14.5
v -9.5 2 -14.5
v -9.5 1.5 -15
v -9.5 2 -15
v -9.5 1.5 -16.5
v -10 1.5 -16.5
v -9.5 2 -16.5
v -10 2 -16.5
v -9.5 1.5 -16
v -10 1.5 -16
v -9.5 2 -16
v -10 2 -16
v -9.5 2 -16
v -16 2 -16
v -9.5 2 -16.5
v -16 2 -16.5
v -9.5 1.5 -16
v -9.5 2 -16
v -9.5 1.5 -16.5
v -9.5 2 -16.5
v -9.5 1.5 -17
v -10 1.5 -17
v -9.5 2 -17
v -10 2 -17
v -9.5 2 -17
v -16 2 -17
v -9.5 2 -18
v -16 2 -18
v -9.5 1.5 -17
v -9.5 2 -17
v -9.5 1.500002 -18
v -9.5 2 -18
v -9.5 2.000002 -18.5
v -16 2.000002 -18.5
v -9.5 2.000002 -19
v -16 2.000002 -19
v -9.5 1.500002 -18.5
v -9.5 2.000002 -18.5
v -9.5 1.500002 -19
v -9.5 2.000002 -19
v -9.5 2.000002 -20
v -16 2.000002 -20
v -9.5 2.000002 -20.5
v -16 2.000002 -20.5
v -9.5 1.500002 -20
v -9.5 2.000002 -20
v -9.5 1.500002 -20.5
v -9.5 2.000002 -20.5
v -9.5 2.000002 -21
v -16 2.000002 -21
v -9.5 2.000002 -21.5
v -16 2.000002 -21.5
v -9.5 1.500002 -21
v -9.5 2.000002 -21
v -9.5 1.500002 -21.5
v -9.5 2.000002 -21.5
v -10 1 -11
v -10.5 1 -11
v -10 1 -11.5
v -10.5 1 -11.5
v -10 1 -11
v -10.5 1 -11
v -10 1.5 -11
v -10.5 1.5 -11
v -10 1 -11.5
v -10.5 1 -11.5
v -10 1.5 -11.5
v -10.5 1.5 -11.5
v -10.5 1.5 -7.999998
v -10.5 2 -7.999998
v -10.5 1.5 -8.999998
v -10.5 2 -8.999998
v -10 2 -9.499998
v -16 2 -9.499998
v -10 2 -10.5
v -16 2 -10.5
v -10 1.5 -9.499998
v -10 2 -9.499998
v -10 1.5 -10.5
v -10 2 -10.5
v -10 1.5 -10.5
v -10.5 1.5 -10.5
v -10 2 -10.5
v -10.5 2 -10.5
v -10 1.5 -12
v -10.5 1.5 -12
v -10 2 -12
v -10.5 2 -12
v -10 2 -12
v -16 2 -12
v -10 2 -12.5
v -16 2 -12.5
v -10 1.5 -12
v -10 2 -12
v -10 1.5 -12.5
v -10 2 -12.5
v -10 2 -14
v -16 2 -14
v -10 2 -14.5
v -16 2 -14.5
v -10 1.5 -14
v -10 2 -14
v -10 1.5 -14.5
v -10 2 -14.5
v -10 2 -15
v -16 2 -15
v -10 2 -16
v -16 2 -16
v -10 1.5 -15
v -10 2 -15
v -10 1.5 -16
v -10 2 -16
v -10 2 -16.5
v -16 2 -16.5
v -10 2 -17
v -16 2 -17
v -10 1.5 -16.5
v -10 2 -16.5
v -10 1.5 -17
v -10 2 -17
v -10.5 1.5 -7.999998
v -11 1.5 -7.999998
v -10.5 1.5 -8.999998
v -11 1.5 -8.999998
v -10.5 1 -11
v -10.5 2 -11
v -10.5 1 -11.5
v -10.5 2 -11.5
v -10.5 1.5 -7.999998
v -11 1.5 -7.999998
v -10.5 2 -7.999998
v -11 2 -7.999998
v -11 1.5 -7.499998
v -11 2 -7.499998
v -11 1.5 -7.999998
v -11 2 -7.999998
v -10.5 1.5 -8.999998
v -11 1.5 -8.999998
v -10.5 2 -8.999998
v -11 2 -8.999998
v -10.5 2 -10.5
v -16 2 -10.5
v -10.5 2 -12
v -16 2 -12
v -10.5 1.5 -10.5
v -10.5 2 -10.5
v -10.5 1.5 -11
v -10.5 2 -11
v -10.5 1.5 -11.5
v -10.5 2 -11.5
v -10.5 1.5 -12
v -10.5 2 -12
v -11 1.5 -7.499998
v -11.5 1.5 -7.499998
v -11 1.5 -8.499998
v -11.5 1.5 -8.499998
v -11 1.5 -7.499998
v -11.5 1.5 -7.499998
v -11 2 -7.499998
v -11.5 2 -7.499998
v -11.5 1.5 -6.999998
v -11.5 2 -6.999998
v -11.5 1.5 -7.499998
v -11.5 2 -7.499998
v -11 1.5 -8.499998
v -11.5 1.5 -8.499998
v -11 2 -8.499998
v -11.5 2 -8.499998
v -11 2 -8.499998
v -16 2 -8.499998
v -11 2 -8.999998
v -16 2 -8.999998
v -11 1.5 -8.499998
v -11 2 -8.499998
v -11 1.5 -8.999998
v -11 2 -8.999998
v -11.5 1.5 -6.999998
v -12 1.5 -6.999998
v -11.5 1.5 -7.499998
v -12 1.5 -7.499998
v -11.5 2 -5.999998
v -16 2 -5.999998
v -11.5 2 -6.999998
v -16 2 -6.999998
v -11.5 1.5 -6.999998
v -12 1.5 -6.999998
v -11.5 2 -6.999998
v -12 2 -6.999998
v -11.5 1.5 -7.499998
v -12 1.5 -7.499998
v -11.5 2 -7.499998
v -12 2 -7.499998
v -11.5 2 -7.499998
v -16 2 -7.499998
v -11.5 2 -8.499998
v -16 2 -8.499998
v -11.5 1.5 -7.499998
v -11.5 2 -7.499998
v -11.5 1.5 -8.499998
v -11.5 2 -8.499998
v -12 2 -6.999998
v -16 2 -6.999998
v -12 2 -7.499998
v -16 2 -7.499998
v -12 1.5 -6.999998
v -12 2 -6.999998
v -12 1.5 -7.499998
v -12 2 -7.499998
v -16 0 1.907349E-06
v -16 2 1.907349E-06
v -16 1.907349E-06 -32
v -16 2.000002 -32
vn 0 -5.960464E-08 0.9999999
vn 0 -0.9999999 -5.960464E-08
vn 1 0 0
vn 0 5.960464E-08 -0.9999999
vn 0 0.9999999 5.960464E-08
vn -1 0 0
vt 0.0078125 0.84375
vt 0.2578125 0.84375
vt 0.0078125 0.875
vt 0.2578125 0.875
vt 0.0078125 0.0078125
vt 0.2578125 0.0078125
vt 0.0078125 0.5078125
vt 0.2578125 0.5078125
vt 0.359375 0.0078125
vt 0.390625 0.0078125
vt 0.359375 0.5078125
vt 0.390625 0.5078125
vt 0.0078125 0.90625
vt 0.2578125 0.90625
vt 0.0078125 0.9375
vt 0.2578125 0.9375
vt 0.2890625 0.0078125
vt 0.328125 0.0078125
vt 0.2890625 0.5078125
vt 0.328125 0.5078125
vt 0.9765625 0.375
vt 0.7265625 0.1015625
vt 0.0078125 0.6640625
vt 0.1015625 0.6640625
vt 0.0078125 0.8125
vt 0.1015625 0.8125
vt 0.359375 0.5390625
vt 0.3671875 0.5390625
vt 0.359375 0.8828125
vt 0.3671875 0.8828125
vt 0.609375 0.25
vt 0.6875 0.25
vt 0.609375 0.2734375
vt 0.6875 0.2734375
vt 0.671875 0.3046875
vt 0.421875 0.5390625
vt 0.4296875 0.5390625
vt 0.421875 0.859375
vt 0.4296875 0.859375
vt 0.71875 0.4140625
vt 0.7265625 0.4140625
vt 0.71875 0.4296875
vt 0.7265625 0.4296875
vt 0.484375 0.4140625
vt 0.546875 0.4140625
vt 0.484375 0.4296875
vt 0.546875 0.4296875
vt 0.671875 0.4140625
vt 0.6875 0.4140625
vt 0.671875 0.421875
vt 0.6875 0.421875
vt 0.96875 0.4140625
vt 0.484375 0.0078125
vt 0.4921875 0.0078125
vt 0.484375 0.3046875
vt 0.4921875 0.3046875
vt 0.2890625 0.96875
vt 0.3203125 0.96875
vt 0.2890625 0.9765625
vt 0.3203125 0.9765625
vt 0.2890625 0.5390625
vt 0.3125 0.5390625
vt 0.2890625 0.828125
vt 0.3125 0.828125
vt 0.5703125 0.0546875
vt 0.578125 0.0546875
vt 0.5703125 0.2421875
vt 0.578125 0.2421875
vt 0.609375 0.3046875
vt 0.640625 0.3046875
vt 0.0078125 0.5390625
vt 0.171875 0.5390625
vt 0.0078125 0.6328125
vt 0.171875 0.6328125
vt 0.9375 0.2734375
vt 0.953125 0.2734375
vt 0.9375 0.28125
vt 0.953125 0.28125
vt 0.9375 0.234375
vt 0.953125 0.234375
vt 0.9375 0.2421875
vt 0.953125 0.2421875
vt 0.9375 0.1953125
vt 0.953125 0.1953125
vt 0.9375 0.203125
vt 0.953125 0.203125
vt 0.5234375 0.0078125
vt 0.5390625 0.0078125
vt 0.5234375 0.1953125
vt 0.5390625 0.1953125
vt 0.71875 0.3046875
vt 0.2421875 0.5390625
vt 0.25 0.5390625
vt 0.2421875 0.6015625
vt 0.25 0.6015625
vt 0.921875 0.1015625
vt 0.9375 0.1015625
vt 0.921875 0.109375
vt 0.9375 0.109375
vt 0.203125 0.5390625
vt 0.2109375 0.5390625
vt 0.203125 0.6171875
vt 0.2109375 0.6171875
vt 0.5703125 0.2734375
vt 0.578125 0.2734375
vt 0.5703125 0.296875
vt 0.578125 0.296875
vt 0.5703125 0.0078125
vt 0.7109375 0.0078125
vt 0.5703125 0.0234375
vt 0.7109375 0.0234375
vt 0.7578125 0.265625
vt 0.765625 0.265625
vt 0.7578125 0.28125
vt 0.765625 0.28125
vt 0.2421875 0.6328125
vt 0.7421875 0.0078125
vt 0.875 0.0078125
vt 0.7421875 0.0234375
vt 0.875 0.0234375
vt 0.96875 0.1484375
vt 0.9765625 0.1484375
vt 0.96875 0.1640625
vt 0.9765625 0.1640625
vt 0.5234375 0.2890625
vt 0.5390625 0.2890625
vt 0.5234375 0.296875
vt 0.5390625 0.296875
vt 0.5234375 0.2265625
vt 0.53125 0.2265625
vt 0.5234375 0.2578125
vt 0.53125 0.2578125
vt 0.796875 0.4140625
vt 0.8046875 0.4140625
vt 0.796875 0.4296875
vt 0.8046875 0.4296875
vt 0.2890625 0.9140625
vt 0.3046875 0.9140625
vt 0.2890625 0.9375
vt 0.3046875 0.9375
vt 0.7578125 0.1015625
vt 0.765625 0.1015625
vt 0.7578125 0.234375
vt 0.765625 0.234375
vt 0.71875 0.25
vt 0.7265625 0.25
vt 0.71875 0.2734375
vt 0.7265625 0.2734375
vt 0.421875 0.890625
vt 0.4296875 0.890625
vt 0.421875 0.921875
vt 0.4296875 0.921875
vt 0.8828125 0.4140625
vt 0.8984375 0.4140625
vt 0.8828125 0.421875
vt 0.8984375 0.421875
vt 0.0078125 0.96875
vt 0.125 0.96875
vt 0.0078125 0.9765625
vt 0.125 0.9765625
vt 0.609375 0.0546875
vt 0.7265625 0.0546875
vt 0.609375 0.0703125
vt 0.7265625 0.0703125
vt 0.1328125 0.6640625
vt 0.2421875 0.6640625
vt 0.1328125 0.7578125
vt 0.2421875 0.7578125
vt 0.484375 0.4609375
vt 0.359375 0.9140625
vt 0.390625 0.9140625
vt 0.359375 0.921875
vt 0.390625 0.921875
vt 0.359375 0.953125
vt 0.3828125 0.953125
vt 0.359375 0.9609375
vt 0.3828125 0.9609375
vt 0.796875 0.234375
vt 0.90625 0.234375
vt 0.796875 0.2421875
vt 0.90625 0.2421875
vt 0.609375 0.203125
vt 0.71875 0.203125
vt 0.609375 0.21875
vt 0.71875 0.21875
vt 0.796875 0.1953125
vt 0.90625 0.1953125
vt 0.796875 0.203125
vt 0.90625 0.203125
vt 0.609375 0.15625
vt 0.71875 0.15625
vt 0.609375 0.171875
vt 0.71875 0.171875
vt 0.2890625 0.859375
vt 0.3203125 0.859375
vt 0.2890625 0.8828125
vt 0.3203125 0.8828125
vt 0.421875 0.953125
vt 0.4296875 0.953125
vt 0.421875 0.9765625
vt 0.4296875 0.9765625
vt 0.921875 0.1484375
vt 0.9375 0.1484375
vt 0.921875 0.15625
vt 0.9375 0.15625
vt 0.484375 0.3359375
vt 0.5859375 0.3359375
vt 0.484375 0.34375
vt 0.5859375 0.34375
vt 0.1328125 0.7890625
vt 0.234375 0.7890625
vt 0.1328125 0.8125
vt 0.234375 0.8125
vt 0.15625 0.96875
vt 0.2578125 0.96875
vt 0.15625 0.9765625
vt 0.2578125 0.9765625
vt 0.796875 0.2734375
vt 0.8984375 0.2734375
vt 0.796875 0.28125
vt 0.8984375 0.28125
vt 0.7578125 0.0546875
vt 0.859375 0.0546875
vt 0.7578125 0.0703125
vt 0.859375 0.0703125
vt 0.96875 0.1015625
vt 0.9765625 0.1015625
vt 0.96875 0.1171875
vt 0.9765625 0.1171875
vt 0.6171875 0.3359375
vt 0.71875 0.3359375
vt 0.6171875 0.34375
vt 0.71875 0.34375
vt 0.75 0.3359375
vt 0.8515625 0.3359375
vt 0.75 0.34375
vt 0.8515625 0.34375
vt 0.484375 0.375
vt 0.5859375 0.375
vt 0.484375 0.3828125
vt 0.5859375 0.3828125
vt 0.796875 0.1015625
vt 0.890625 0.1015625
vt 0.796875 0.1171875
vt 0.890625 0.1171875
vt 0.7578125 0.4140625
vt 0.765625 0.4140625
vt 0.7578125 0.4296875
vt 0.765625 0.4296875
vt 0.8828125 0.3359375
vt 0.9765625 0.3359375
vt 0.8828125 0.34375
vt 0.9765625 0.34375
vt 0.7421875 0.375
vt 0.8359375 0.375
vt 0.7421875 0.3828125
vt 0.8359375 0.3828125
vt 0.796875 0.1484375
vt 0.890625 0.1484375
vt 0.796875 0.1640625
vt 0.890625 0.1640625
vt 0.6171875 0.375
vt 0.7109375 0.375
vt 0.6171875 0.3828125
vt 0.7109375 0.3828125
vt 0.8359375 0.4140625
vt 0.8515625 0.4140625
vt 0.8359375 0.421875
vt 0.8515625 0.421875
vt 0.609375 0.1015625
vt 0.6953125 0.1015625
vt 0.609375 0.125
vt 0.6953125 0.125
vt 0.8671875 0.375
vt 0.9453125 0.375
vt 0.8671875 0.3828125
vt 0.9453125 0.3828125
vt 0.90625 0.0078125
vt 0.9765625 0.0078125
vt 0.90625 0.0234375
vt 0.9765625 0.0234375
vt 0.890625 0.0546875
vt 0.9609375 0.0546875
vt 0.890625 0.0703125
vt 0.9609375 0.0703125
vt 0.9296875 0.4140625
vt 0.9375 0.4140625
vt 0.9296875 0.4296875
vt 0.9375 0.4296875
vt 0.578125 0.4140625
vt 0.640625 0.4140625
vt 0.578125 0.421875
vt 0.640625 0.421875
vt 0.421875 0.0078125
vt 0.453125 0.0078125
vt 0.421875 0.5078125
vt 0.453125 0.5078125
usemtl voxel
f 2/2/1 1/1/1 3/3/1
f 2/2/1 3/3/1 4/4/1
f 5/5/2 6/6/2 7/7/2
f 7/7/2 6/6/2 8/8/2
f 10/10/3 9/9/3 11/11/3
f 10/10/3 11/11/3 12/12/3
f 13/13/4 14/14/4 15/15/4
f 15/15/4 14/14/4 16/16/4
f 18/18/5 17/17/5 19/19/5
f 18/18/5 19/19/5 20/20/5
f 21/21/6 22/21/6 23/21/6
f 23/21/6 22/21/6 24/21/6
f 26/22/5 25/22/5 27/22/5
f 26/22/5 27/22/5 28/22/5
f 30/24/5 29/23/5 31/25/5
f 30/24/5 31/25/5 32/26/5
f 33/21/4 34/21/4 35/21/4
f 35/21/4 34/21/4 36/21/4
f 38/22/1 37/22/1 39/22/1
f 38/22/1 39/22/1 40/22/1
f 42/28/5 41/27/5 43/29/5
f 42/28/5 43/29/5 44/30/5
f 45/22/6 46/22/6 47/22/6
f 47/22/6 46/22/6 48/22/6
f 50/22/5 49/22/5 51/22/5
f 50/22/5 51/22/5 52/22/5
f 54/32/5 53/31/5 55/33/5
f 54/32/5 55/33/5 56/34/5
f 58/22/3 57/22/3 59/22/3
f 58/22/3 59/22/3 60/22/3
f 61/35/4 62/35/4 63/35/4
f 63/35/4 62/35/4 64/35/4
f 66/22/1 65/22/1 67/22/1
f 66/22/1 67/22/1 68/22/1
f 70/37/5 69/36/5 71/38/5
f 70/37/5 71/38/5 72/39/5
f 73/40/6 74/41/6 75/42/6
f 75/42/6 74/41/6 76/43/6
f 78/22/5 77/22/5 79/22/5
f 78/22/5 79/22/5 80/22/5
f 82/45/5 81/44/5 83/46/5
f 82/45/5 83/46/5 84/47/5
f 86/35/3 85/35/3 87/35/3
f 86/35/3 87/35/3 88/35/3
f 89/48/4 90/49/4 91/50/4
f 91/50/4 90/49/4 92/51/4
f 94/52/1 93/52/1 95/52/1
f 94/52/1 95/52/1 96/52/1
f 98/54/5 97/53/5 99/55/5
f 98/54/5 99/55/5 100/56/5
f 101/52/6 102/52/6 103/52/6
f 103/52/6 102/52/6 104/52/6
f 105/22/6 106/22/6 107/22/6
f 107/22/6 106/22/6 108/22/6
f 110/22/5 109/22/5 111/22/5
f 110/22/5 111/22/5 112/22/5
f 114/58/1 113/57/1 115/59/1
f 114/58/1 115/59/1 116/60/1
f 118/62/5 117/61/5 119/63/5
f 118/62/5 119/63/5 120/64/5
f 122/22/5 121/22/5 123/22/5
f 122/22/5 123/22/5 124/22/5
f 125/22/4 126/22/4 127/22/4
f 127/22/4 126/22/4 128/22/4
f 130/22/1 129/22/1 131/22/1
f 130/22/1 131/22/1 132/22/1
f 134/22/5 133/22/5 135/22/5
f 134/22/5 135/22/5 136/22/5
f 138/22/3 137/22/3 139/22/3
f 138/22/3 139/22/3 140/22/3
f 141/22/6 142/22/6 143/22/6
f 143/22/6 142/22/6 144/22/6
f 145/22/6 146/22/6 147/22/6
f 147/22/6 146/22/6 148/22/6
f 149/22/4 150/22/4 151/22/4
f 151/22/4 150/22/4 152/22/4
f 154/22/5 153/22/5 155/22/5
f 154/22/5 155/22/5 156/22/5
f 157/22/6 158/22/6 159/22/6
f 159/22/6 158/22/6 160/22/6
f 162/22/5 161/22/5 163/22/5
f 162/22/5 163/22/5 164/22/5
f 165/21/4 166/21/4 167/21/4
f 167/21/4 166/21/4 168/21/4
f 170/66/5 169/65/5 171/67/5
f 170/66/5 171/67/5 172/68/5
f 173/69/6 174/69/6 175/69/6
f 175/69/6 174/69/6 176/69/6
f 177/70/4 178/70/4 179/70/4
f 179/70/4 178/70/4 180/70/4
f 182/22/1 181/22/1 183/22/1
f 182/22/1 183/22/1 184/22/1
f 186/72/5 185/71/5 187/73/5
f 186/72/5 187/73/5 188/74/5
f 190/22/5 189/22/5 191/22/5
f 190/22/5 191/22/5 192/22/5
f 193/22/4 194/22/4 195/22/4
f 195/22/4 194/22/4 196/22/4
f 198/22/5 197/22/5 199/22/5
f 198/22/5 199/22/5 200/22/5
f 202/22/3 201/22/3 203/22/3
f 202/22/3 203/22/3 204/22/3
f 206/22/1 205/22/1 207/22/1
f 206/22/1 207/22/1 208/22/1
f 210/22/5 209/22/5 211/22/5
f 210/22/5 211/22/5 212/22/5
f 213/75/4 214/76/4 215/77/4
f 215/77/4 214/76/4 216/78/4
f 218/80/5 217/79/5 219/81/5
f 218/80/5 219/81/5 220/82/5
f 222/52/3 221/52/3 223/52/3
f 222/52/3 223/52/3 224/52/3
f 226/84/1 225/83/1 227/85/1
f 226/84/1 227/85/1 228/86/1
f 230/88/5 229/87/5 231/89/5
f 230/88/5 231/89/5 232/90/5
f 234/91/3 233/91/3 235/91/3
f 234/91/3 235/91/3 236/91/3
f 237/22/6 238/22/6 239/22/6
f 239/22/6 238/22/6 240/22/6
f 241/92/6 242/93/6 243/94/6
f 243/94/6 242/93/6 244/95/6
f 245/69/6 246/69/6 247/69/6
f 247/69/6 246/69/6 248/69/6
f 249/22/6 250/22/6 251/22/6
f 251/22/6 250/22/6 252/22/6
f 254/22/5 253/22/5 255/22/5
f 254/22/5 255/22/5 256/22/5
f 257/22/6 258/22/6 259/22/6
f 259/22/6 258/22/6 260/22/6
f 261/22/6 262/22/6 263/22/6
f 263/22/6 262/22/6 264/22/6
f 266/22/5 265/22/5 267/22/5
f 266/22/5 267/22/5 268/22/5
f 270/22/5 269/22/5 271/22/5
f 270/22/5 271/22/5 272/22/5
f 273/96/6 274/97/6 275/98/6
f 275/98/6 274/97/6 276/99/6
f 278/22/5 277/22/5 279/22/5
f 278/22/5 279/22/5 280/22/5
f 281/22/4 282/22/4 283/22/4
f 283/22/4 282/22/4 284/22/4
f 285/22/6 286/22/6 287/22/6
f 287/22/6 286/22/6 288/22/6
f 289/22/4 290/22/4 291/22/4
f 291/22/4 290/22/4 292/22/4
f 294/22/1 293/22/1 295/22/1
f 294/22/1 295/22/1 296/22/1
f 298/22/5 297/22/5 299/22/5
f 298/22/5 299/22/5 300/22/5
f 301/22/6 302/22/6 303/22/6
f 303/22/6 302/22/6 304/22/6
f 306/22/1 305/22/1 307/22/1
f 306/22/1 307/22/1 308/22/1
f 310/101/5 309/100/5 311/102/5
f 310/101/5 311/102/5 312/103/5
f 313/22/6 314/22/6 315/22/6
f 315/22/6 314/22/6 316/22/6
f 317/104/6 318/105/6 319/106/6
f 319/106/6 318/105/6 320/107/6
f 321/52/4 322/52/4 323/52/4
f 323/52/4 322/52/4 324/52/4
f 326/22/1 325/22/1 327/22/1
f 326/22/1 327/22/1 328/22/1
f 330/109/5 329/108/5 331/110/5
f 330/109/5 331/110/5 332/111/5
f 334/22/5 333/22/5 335/22/5
f 334/22/5 335/22/5 336/22/5
f 338/22/5 337/22/5 339/22/5
f 338/22/5 339/22/5 340/22/5
f 342/22/5 341/22/5 343/22/5
f 342/22/5 343/22/5 344/22/5
f 346/22/5 345/22/5 347/22/5
f 346/22/5 347/22/5 348/22/5
f 349/22/4 350/22/4 351/22/4
f 351/22/4 350/22/4 352/22/4
f 354/22/1 353/22/1 355/22/1
f 354/22/1 355/22/1 356/22/1
f 358/22/5 357/22/5 359/22/5
f 358/22/5 359/22/5 360/22/5
f 361/22/6 362/22/6 363/22/6
f 363/22/6 362/22/6 364/22/6
f 365/22/6 366/22/6 367/22/6
f 367/22/6 366/22/6 368/22/6
f 369/22/4 370/22/4 371/22/4
f 371/22/4 370/22/4 372/22/4
f 374/22/1 373/22/1 375/22/1
f 374/22/1 375/22/1 376/22/1
f 378/22/5 377/22/5 379/22/5
f 378/22/5 379/22/5 380/22/5
f 381/22/6 382/22/6 383/22/6
f 383/22/6 382/22/6 384/22/6
f 386/22/5 385/22/5 387/22/5
f 386/22/5 387/22/5 388/22/5
f 389/22/6 390/22/6 391/22/6
f 391/22/6 390/22/6 392/22/6
f 393/22/4 394/22/4 395/22/4
f 395/22/4 394/22/4 396/22/4
f 398/22/5 397/22/5 399/22/5
f 398/22/5 399/22/5 400/22/5
f 402/22/1 401/22/1 403/22/1
f 402/22/1 403/22/1 404/22/1
f 406/113/5 405/112/5 407/114/5
f 406/113/5 407/114/5 408/115/5
f 409/22/6 410/22/6 411/22/6
f 411/22/6 410/22/6 412/22/6
f 413/116/4 414/116/4 415/116/4
f 415/116/4 414/116/4 416/116/4
f 418/22/1 417/22/1 419/22/1
f 418/22/1 419/22/1 420/22/1
f 422/118/5 421/117/5 423/119/5
f 422/118/5 423/119/5 424/120/5
f 426/122/3 425/121/3 427/123/3
f 426/122/3 427/123/3 428/124/3
f 430/22/5 429/22/5 431/22/5
f 430/22/5 431/22/5 432/22/5
f 434/22/5 433/22/5 435/22/5
f 434/22/5 435/22/5 436/22/5
f 438/22/5 437/22/5 439/22/5
f 438/22/5 439/22/5 440/22/5
f 442/22/5 441/22/5 443/22/5
f 442/22/5 443/22/5 444/22/5
f 445/22/6 446/22/6 447/22/6
f 447/22/6 446/22/6 448/22/6
f 449/22/4 450/22/4 451/22/4
f 451/22/4 450/22/4 452/22/4
f 454/22/1 453/22/1 455/22/1
f 454/22/1 455/22/1 456/22/1
f 458/22/5 457/22/5 459/22/5
f 458/22/5 459/22/5 460/22/5
f 462/22/1 461/22/1 463/22/1
f 462/22/1 463/22/1 464/22/1
f 466/22/1 465/22/1 467/22/1
f 466/22/1 467/22/1 468/22/1
f 470/22/5 469/22/5 471/22/5
f 470/22/5 471/22/5 472/22/5
f 474/22/5 473/22/5 475/22/5
f 474/22/5 475/22/5 476/22/5
f 477/35/6 478/35/6 479/35/6
f 479/35/6 478/35/6 480/35/6
f 481/125/4 482/126/4 483/127/4
f 483/127/4 482/126/4 484/128/4
f 485/22/4 486/22/4 487/22/4
f 487/22/4 486/22/4 488/22/4
f 490/22/1 489/22/1 491/22/1
f 490/22/1 491/22/1 492/22/1
f 494/22/5 493/22/5 495/22/5
f 494/22/5 495/22/5 496/22/5
f 498/22/3 497/22/3 499/22/3
f 498/22/3 499/22/3 500/22/3
f 501/22/6 502/22/6 503/22/6
f 503/22/6 502/22/6 504/22/6
f 506/116/1 505/116/1 507/116/1
f 506/116/1 507/116/1 508/116/1
f 510/130/5 509/129/5 511/131/5
f 510/130/5 511/131/5 512/132/5
f 513/133/6 514/134/6 515/135/6
f 515/135/6 514/134/6 516/136/6
f 518/22/3 517/22/3 519/22/3
f 518/22/3 519/22/3 520/22/3
f 522/22/5 521/22/5 523/22/5
f 522/22/5 523/22/5 524/22/5
f 526/22/5 525/22/5 527/22/5
f 526/22/5 527/22/5 528/22/5
f 530/22/5 529/22/5 531/22/5
f 530/22/5 531/22/5 532/22/5
f 534/22/5 533/22/5 535/22/5
f 534/22/5 535/22/5 536/22/5
f 537/22/4 538/22/4 539/22/4
f 539/22/4 538/22/4 540/22/4
f 542/22/5 541/22/5 543/22/5
f 542/22/5 543/22/5 544/22/5
f 546/22/1 545/22/1 547/22/1
f 546/22/1 547/22/1 548/22/1
f 550/22/5 549/22/5 551/22/5
f 550/22/5 551/22/5 552/22/5
f 554/22/3 553/22/3 555/22/3
f 554/22/3 555/22/3 556/22/3
f 557/22/4 558/22/4 559/22/4
f 559/22/4 558/22/4 560/22/4
f 562/22/5 561/22/5 563/22/5
f 562/22/5 563/22/5 564/22/5
f 566/22/3 565/22/3 567/22/3
f 566/22/3 567/22/3 568/22/3
f 570/138/3 569/137/3 571/139/3
f 570/138/3 571/139/3 572/140/3
f 574/22/5 573/22/5 575/22/5
f 574/22/5 575/22/5 576/22/5
f 578/22/5 577/22/5 579/22/5
f 578/22/5 579/22/5 580/22/5
f 582/142/5 581/141/5 583/143/5
f 582/142/5 583/143/5 584/144/5
f 585/145/6 586/146/6 587/147/6
f 587/147/6 586/146/6 588/148/6
f 589/52/4 590/52/4 591/52/4
f 591/52/4 590/52/4 592/52/4
f 593/52/6 594/52/6 595/52/6
f 595/52/6 594/52/6 596/52/6
f 598/35/1 597/35/1 599/35/1
f 598/35/1 599/35/1 600/35/1
f 602/35/5 601/35/5 603/35/5
f 602/35/5 603/35/5 604/35/5
f 605/35/6 606/35/6 607/35/6
f 607/35/6 606/35/6 608/35/6
f 609/22/4 610/22/4 611/22/4
f 611/22/4 610/22/4 612/22/4
f 614/22/1 613/22/1 615/22/1
f 614/22/1 615/22/1 616/22/1
f 618/22/5 617/22/5 619/22/5
f 618/22/5 619/22/5 620/22/5
f 622/22/3 621/22/3 623/22/3
f 622/22/3 623/22/3 624/22/3
f 625/22/6 626/22/6 627/22/6
f 627/22/6 626/22/6 628/22/6
f 630/22/1 629/22/1 631/22/1
f 630/22/1 631/22/1 632/22/1
f 634/150/5 633/149/5 635/151/5
f 634/150/5 635/151/5 636/152/5
f 638/22/3 637/22/3 639/22/3
f 638/22/3 639/22/3 640/22/3
f 641/22/6 642/22/6 643/22/6
f 643/22/6 642/22/6 644/22/6
f 645/116/4 646/116/4 647/116/4
f 647/116/4 646/116/4 648/116/4
f 649/116/6 650/116/6 651/116/6
f 651/116/6 650/116/6 652/116/6
f 653/35/4 654/35/4 655/35/4
f 655/35/4 654/35/4 656/35/4
f 658/154/1 657/153/1 659/155/1
f 658/154/1 659/155/1 660/156/1
f 662/158/5 661/157/5 663/159/5
f 662/158/5 663/159/5 664/160/5
f 666/35/3 665/35/3 667/35/3
f 666/35/3 667/35/3 668/35/3
f 670/22/1 669/22/1 671/22/1
f 670/22/1 671/22/1 672/22/1
f 674/162/5 673/161/5 675/163/5
f 674/162/5 675/163/5 676/164/5
f 678/22/5 677/22/5 679/22/5
f 678/22/5 679/22/5 680/22/5
f 682/22/5 681/22/5 683/22/5
f 682/22/5 683/22/5 684/22/5
f 686/22/5 685/22/5 687/22/5
f 686/22/5 687/22/5 688/22/5
f 690/22/5 689/22/5 691/22/5
f 690/22/5 691/22/5 692/22/5
f 694/22/5 693/22/5 695/22/5
f 694/22/5 695/22/5 696/22/5
f 698/22/1 697/22/1 699/22/1
f 698/22/1 699/22/1 700/22/1
f 702/22/5 701/22/5 703/22/5
f 702/22/5 703/22/5 704/22/5
f 706/22/3 705/22/3 707/22/3
f 706/22/3 707/22/3 708/22/3
f 710/22/5 709/22/5 711/22/5
f 710/22/5 711/22/5 712/22/5
f 714/22/3 713/22/3 715/22/3
f 714/22/3 715/22/3 716/22/3
f 718/22/5 717/22/5 719/22/5
f 718/22/5 719/22/5 720/22/5
f 722/22/5 721/22/5 723/22/5
f 722/22/5 723/22/5 724/22/5
f 726/22/5 725/22/5 727/22/5
f 726/22/5 727/22/5 728/22/5
f 730/166/5 729/165/5 731/167/5
f 730/166/5 731/167/5 732/168/5
f 733/169/4 734/169/4 735/169/4
f 735/169/4 734/169/4 736/169/4
f 737/21/4 738/21/4 739/21/4
f 739/21/4 738/21/4 740/21/4
f 742/21/1 741/21/1 743/21/1
f 742/21/1 743/21/1 744/21/1
f 746/171/5 745/170/5 747/172/5
f 746/171/5 747/172/5 748/173/5
f 749/22/4 750/22/4 751/22/4
f 751/22/4 750/22/4 752/22/4
f 754/22/1 753/22/1 755/22/1
f 754/22/1 755/22/1 756/22/1
f 758/175/5 757/174/5 759/176/5
f 758/175/5 759/176/5 760/177/5
f 762/22/3 761/22/3 763/22/3
f 762/22/3 763/22/3 764/22/3
f 765/52/4 766/52/4 767/52/4
f 767/52/4 766/52/4 768/52/4
f 770/52/1 769/52/1 771/52/1
f 770/52/1 771/52/1 772/52/1
f 774/179/5 773/178/5 775/180/5
f 774/179/5 775/180/5 776/181/5
f 778/52/3 777/52/3 779/52/3
f 778/52/3 779/52/3 780/52/3
f 782/21/1 781/21/1 783/21/1
f 782/21/1 783/21/1 784/21/1
f 786/183/5 785/182/5 787/184/5
f 786/183/5 787/184/5 788/185/5
f 789/70/4 790/70/4 791/70/4
f 791/70/4 790/70/4 792/70/4
f 793/91/4 794/91/4 795/91/4
f 795/91/4 794/91/4 796/91/4
f 798/91/1 797/91/1 799/91/1
f 798/91/1 799/91/1 800/91/1
f 802/187/5 801/186/5 803/188/5
f 802/187/5 803/188/5 804/189/5
f 806/91/3 805/91/3 807/91/3
f 806/91/3 807/91/3 808/91/3
f 810/191/5 809/190/5 811/192/5
f 810/191/5 811/192/5 812/193/5
f 814/91/3 813/91/3 815/91/3
f 814/91/3 815/91/3 816/91/3
f 817/22/6 818/22/6 819/22/6
f 819/22/6 818/22/6 820/22/6
f 822/22/5 821/22/5 823/22/5
f 822/22/5 823/22/5 824/22/5
f 826/22/3 825/22/3 827/22/3
f 826/22/3 827/22/3 828/22/3
f 830/22/5 829/22/5 831/22/5
f 830/22/5 831/22/5 832/22/5
f 834/22/5 833/22/5 835/22/5
f 834/22/5 835/22/5 836/22/5
f 838/22/5 837/22/5 839/22/5
f 838/22/5 839/22/5 840/22/5
f 842/195/5 841/194/5 843/196/5
f 842/195/5 843/196/5 844/197/5
f 846/199/3 845/198/3 847/200/3
f 846/199/3 847/200/3 848/201/3
f 850/203/5 849/202/5 851/204/5
f 850/203/5 851/204/5 852/205/5
f 854/52/3 853/52/3 855/52/3
f 854/52/3 855/52/3 856/52/3
f 857/22/4 858/22/4 859/22/4
f 859/22/4 858/22/4 860/22/4
f 862/207/5 861/206/5 863/208/5
f 862/207/5 863/208/5 864/209/5
f 866/22/3 865/22/3 867/22/3
f 866/22/3 867/22/3 868/22/3
f 870/22/1 869/22/1 871/22/1
f 870/22/1 871/22/1 872/22/1
f 874/211/5 873/210/5 875/212/5
f 874/211/5 875/212/5 876/213/5
f 878/22/3 877/22/3 879/22/3
f 878/22/3 879/22/3 880/22/3
f 881/22/4 882/22/4 883/22/4
f 883/22/4 882/22/4 884/22/4
f 885/22/4 886/22/4 887/22/4
f 887/22/4 886/22/4 888/22/4
f 890/22/1 889/22/1 891/22/1
f 890/22/1 891/22/1 892/22/1
f 894/215/5 893/214/5 895/216/5
f 894/215/5 895/216/5 896/217/5
f 898/22/3 897/22/3 899/22/3
f 898/22/3 899/22/3 900/22/3
f 901/22/4 902/22/4 903/22/4
f 903/22/4 902/22/4 904/22/4
f 906/22/1 905/22/1 907/22/1
f 906/22/1 907/22/1 908/22/1
f 910/219/5 909/218/5 911/220/5
f 910/219/5 911/220/5 912/221/5
f 914/22/3 913/22/3 915/22/3
f 914/22/3 915/22/3 916/22/3
f 918/91/1 917/91/1 919/91/1
f 918/91/1 919/91/1 920/91/1
f 922/223/5 921/222/5 923/224/5
f 922/223/5 923/224/5 924/225/5
f 926/227/3 925/226/3 927/228/3
f 926/227/3 927/228/3 928/229/3
f 930/231/5 929/230/5 931/232/5
f 930/231/5 931/232/5 932/233/5
f 934/70/3 933/70/3 935/70/3
f 934/70/3 935/70/3 936/70/3
f 938/235/5 937/234/5 939/236/5
f 938/235/5 939/236/5 940/237/5
f 942/169/3 941/169/3 943/169/3
f 942/169/3 943/169/3 944/169/3
f 946/239/5 945/238/5 947/240/5
f 946/239/5 947/240/5 948/241/5
f 950/69/3 949/69/3 951/69/3
f 950/69/3 951/69/3 952/69/3
f 954/22/5 953/22/5 955/22/5
f 954/22/5 955/22/5 956/22/5
f 957/22/4 958/22/4 959/22/4
f 959/22/4 958/22/4 960/22/4
f 962/22/1 961/22/1 963/22/1
f 962/22/1 963/22/1 964/22/1
f 965/69/6 966/69/6 967/69/6
f 967/69/6 966/69/6 968/69/6
f 970/243/5 969/242/5 971/244/5
f 970/243/5 971/244/5 972/245/5
f 974/247/3 973/246/3 975/248/3
f 974/247/3 975/248/3 976/249/3
f 977/70/4 978/70/4 979/70/4
f 979/70/4 978/70/4 980/70/4
f 982/69/1 981/69/1 983/69/1
f 982/69/1 983/69/1 984/69/1
f 986/251/5 985/250/5 987/252/5
f 986/251/5 987/252/5 988/253/5
f 990/69/3 989/69/3 991/69/3
f 990/69/3 991/69/3 992/69/3
f 994/255/5 993/254/5 995/256/5
f 994/255/5 995/256/5 996/257/5
f 998/22/3 997/22/3 999/22/3
f 998/22/3 999/22/3 1000/22/3
f 1002/259/5 1001/258/5 1003/260/5
f 1002/259/5 1003/260/5 1004/261/5
f 1006/22/3 1005/22/3 1007/22/3
f 1006/22/3 1007/22/3 1008/22/3
f 1010/263/5 1009/262/5 1011/264/5
f 1010/263/5 1011/264/5 1012/265/5
f 1014/91/3 1013/91/3 1015/91/3
f 1014/91/3 1015/91/3 1016/91/3
f 1018/22/5 1017/22/5 1019/22/5
f 1018/22/5 1019/22/5 1020/22/5
f 1022/267/3 1021/266/3 1023/268/3
f 1022/267/3 1023/268/3 1024/269/3
f 1025/22/4 1026/22/4 1027/22/4
f 1027/22/4 1026/22/4 1028/22/4
f 1029/22/6 1030/22/6 1031/22/6
f 1031/22/6 1030/22/6 1032/22/6
f 1034/22/1 1033/22/1 1035/22/1
f 1034/22/1 1035/22/1 1036/22/1
f 1038/271/5 1037/270/5 1039/272/5
f 1038/271/5 1039/272/5 1040/273/5
f 1042/169/3 1041/169/3 1043/169/3
f 1042/169/3 1043/169/3 1044/169/3
f 1046/52/3 1045/52/3 1047/52/3
f 1046/52/3 1047/52/3 1048/52/3
f 1050/22/5 1049/22/5 1051/22/5
f 1050/22/5 1051/22/5 1052/22/5
f 1053/22/4 1054/22/4 1055/22/4
f 1055/22/4 1054/22/4 1056/22/4
f 1057/22/6 1058/22/6 1059/22/6
f 1059/22/6 1058/22/6 1060/22/6
f 1062/22/1 1061/22/1 1063/22/1
f 1062/22/1 1063/22/1 1064/22/1
f 1066/275/5 1065/274/5 1067/276/5
f 1066/275/5 1067/276/5 1068/277/5
f 1070/22/3 1069/22/3 1071/22/3
f 1070/22/3 1071/22/3 1072/22/3
f 1074/22/5 1073/22/5 1075/22/5
f 1074/22/5 1075/22/5 1076/22/5
f 1078/279/5 1077/278/5 1079/280/5
f 1078/279/5 1079/280/5 1080/281/5
f 1081/91/4 1082/91/4 1083/91/4
f 1083/91/4 1082/91/4 1084/91/4
f 1086/22/1 1085/22/1 1087/22/1
f 1086/22/1 1087/22/1 1088/22/1
f 1090/283/5 1089/282/5 1091/284/5
f 1090/283/5 1091/284/5 1092/285/5
f 1094/287/3 1093/286/3 1095/288/3
f 1094/287/3 1095/288/3 1096/289/3
f 1098/291/5 1097/290/5 1099/292/5
f 1098/291/5 1099/292/5 1100/293/5
f 1102/116/3 1101/116/3 1103/116/3
f 1102/116/3 1103/116/3 1104/116/3
f 1105/294/6 1106/295/6 1107/296/6
f 1107/296/6 1106/295/6 1108/297/6
