# Export of Cubik Model: Cubik Model
# Designed by MeLee with Cubik Studio - https://cubik.studio
# from Cubik OBJ Exporter v1.0
mtllib street_32_2a_M.mtl
v 0 0 1.907349E-06
v -16 0 1.907349E-06
v 0 2 1.907349E-06
v -16 2 1.907349E-06
v 0 0 1.907349E-06
v -16 0 1.907349E-06
v 0 1.907349E-06 -32
v -16 1.907349E-06 -32
v 0 0 1.907349E-06
v 0 2 1.907349E-06
v 0 1.907349E-06 -32
v 0 2.000002 -32
v 0 1.907349E-06 -32
v -16 1.907349E-06 -32
v 0 2.000002 -32
v -16 2.000002 -32
v 0 2 1.907349E-06
v -1.5 2 1.907349E-06
v 0 2.000002 -32
v -1.5 2.000002 -32
v -1.5 1.5 -11.5
v -1.5 2 -11.5
v -1.5 1.5 -12
v -1.5 2 -12
v -1.5 1.500002 -22.5
v -1.5 2.000002 -22.5
v -1.5 1.500002 -23
v -1.5 2.000002 -23
v -1.5 1.5 -11.5
v -2.5 1.5 -11.5
v -1.5 1.5 -12
v -2.5 1.5 -12
v -1.5 1.500002 -22.5
v -2 1.500002 -22.5
v -1.5 1.500002 -23
v -2 1.500002 -23
v -1.5 2 1.907349E-06
v -2 2 1.907349E-06
v -1.5 2 -11.5
v -2 2 -11.5
v -2 1.5 -10.5
v -2 2 -10.5
v -2 1.5 -11.5
v -2 2 -11.5
v -1.5 1.5 -11.5
v -2 1.5 -11.5
v -1.5 2 -11.5
v -2 2 -11.5
v -1.5 1.5 -12
v -2.5 1.5 -12
v -1.5 2 -12
v -2.5 2 -12
v -1.5 2 -12
v -2.5 2 -12
v -1.5 2.000002 -22.5
v -2.5 2.000002 -22.5
v -1.5 1.500002 -22.5
v -2 1.500002 -22.5
v -1.5 2.000002 -22.5
v -2 2.000002 -22.5
v -1.5 1.500002 -23
v -2 1.500002 -23
v -1.5 2.000002 -23
v -2 2.000002 -23
v -1.5 2.000002 -23
v -5.5 2.000002 -23
v -1.5 2.000002 -32
v -5.5 2.000002 -32
v -2 1.5 -10.5
v -2.5 1.5 -10.5
v -2 1.5 -11.5
v -2.5 1.5 -11.5
v -2.5 1 -11.5
v -2.5 1.5 -11.5
v -2.5 1 -12
v -2.5 1.5 -12
v -2 2 1.907349E-06
v -2.5 2 1.907349E-06
v -2 2 -10.5
v -2.5 2 -10.5
v -2.5 1.5 -9.499998
v -2.5 2 -9.499998
v -2.5 1.5 -9.999998
v -2.5 2 -9.999998
v -2 1.5 -10.5
v -5 1.5 -10.5
v -2 2 -10.5
v -5 2 -10.5
v -2.5 1.5 -12
v -2.5 2 -12
v -2.5 1.5 -12.5
v -2.5 2 -12.5
v -2.5 1.500002 -21
v -2.5 2.000002 -21
v -2.5 1.500002 -21.5
v -2.5 2.000002 -21.5
v -2 2.000002 -22.5
v -7.5 2.000002 -22.5
v -2 2.000002 -23
v -7.5 2.000002 -23
v -2 1.500002 -22.5
v -2 2.000002 -22.5
v -2 1.500002 -23
v -2 2.000002 -23
v -2.5 1 -11.5
v -5 1 -11.5
v -2.5 1 -12
v -5 1 -12
v -2.5 1.5 -9.499998
v -3 1.5 -9.499998
v -2.5 1.5 -9.999998
v -3 1.5 -9.999998
v -2.5 1.5 -10.5
v -5 1.5 -10.5
v -2.5 1.5 -11
v -5 1.5 -11
v -2.5 1 -11.5
v -3 1 -11.5
v -2.5 2 -11.5
v -3 2 -11.5
v -3 1 -11
v -3 2 -11
v -3 1 -11.5
v -3 2 -11.5
v -2.5 1 -12
v -3 1 -12
v -2.5 1.5 -12
v -3 1.5 -12
v -2.5 1.5 -12
v -3 1.5 -12
v -2.5 1.5 -12.5
v -3 1.5 -12.5
v -3 1 -12
v -3 1.5 -12
v -3 1 -12.5
v -3 1.5 -12.5
v -2.5 1.500002 -21
v -3 1.500002 -21
v -2.5 1.500002 -21.5
v -3 1.500002 -21.5
v -2.5 2 1.907349E-06
v -4.5 2 1.907349E-06
v -2.5 2 -9.499998
v -4.5 2 -9.499998
v -2.5 1.5 -9.499998
v -3 1.5 -9.499998
v -2.5 2 -9.499998
v -3 2 -9.499998
v -2.5 1.5 -9.999998
v -3 1.5 -9.999998
v -2.5 2 -9.999998
v -3 2 -9.999998
v -2.5 2 -9.999998
v -6.5 2 -9.999998
v -2.5 2 -10.5
v -6.5 2 -10.5
v -2.5 1.5 -11
v -3 1.5 -11
v -2.5 2 -11
v -3 2 -11
v -2.5 2 -11
v -3 2 -11
v -2.5 2 -11.5
v -3 2 -11.5
v -2.5 1.5 -11
v -2.5 2 -11
v -2.5 1.5 -11.5
v -2.5 2 -11.5
v -2.5 1.5 -12.5
v -3 1.5 -12.5
v -2.5 2 -12.5
v -3 2 -12.5
v -2.5 2 -12.5
v -3 2 -12.5
v -2.5 2.000002 -21
v -3 2.000002 -21
v -3 1.5 -12.5
v -3 2 -12.5
v -3 1.5 -13.5
v -3 2 -13.5
v -2.5 1.500002 -21
v -3 1.500002 -21
v -2.5 2.000002 -21
v -3 2.000002 -21
v -2.5 1.500002 -21.5
v -3 1.500002 -21.5
v -2.5 2.000002 -21.5
v -3 2.000002 -21.5
v -2.5 2.000002 -21.5
v -7 2.000002 -21.5
v -2.5 2.000002 -22.5
v -7 2.000002 -22.5
v -3 1 -11
v -3.5 1 -11
v -3 1 -11.5
v -3.5 1 -11.5
v -3 1 -12
v -4 1 -12
v -3 1 -12.5
v -4 1 -12.5
v -3 1 -11
v -3.5 1 -11
v -3 1.5 -11
v -3.5 1.5 -11
v -3 1 -12.5
v -3.5 1 -12.5
v -3 1.5 -12.5
v -3.5 1.5 -12.5
v -3 1.5 -12.5
v -3.5 1.5 -12.5
v -3 1.5 -13.5
v -3.5 1.5 -13.5
v -3.5 1 -12.5
v -3.5 1.5 -12.5
v -3.5 1 -13
v -3.5 1.5 -13
v -3 2 -9.499998
v -6.5 2 -9.499998
v -3 2 -9.999998
v -6.5 2 -9.999998
v -3 1.5 -9.499998
v -3 2 -9.499998
v -3 1.5 -9.999998
v -3 2 -9.999998
v -3 1.5 -13.5
v -3.5 1.5 -13.5
v -3 2 -13.5
v -3.5 2 -13.5
v -3 2 -13.5
v -3.5 2 -13.5
v -3 2.000002 -21.5
v -3.5 2.000002 -21.5
v -3.5 1.5 -13.5
v -3.5 2 -13.5
v -3.5 1.5 -14
v -3.5 2 -14
v -3.5 1.500002 -20
v -3.5 2.000002 -20
v -3.5 1.500002 -21
v -3.5 2.000002 -21
v -3 1.500002 -21
v -3 2.000002 -21
v -3 1.500002 -21.5
v -3 2.000002 -21.5
v -4 0.5 -12
v -4 1 -12
v -4 0.5 -13
v -4 1 -13
v -3.5 1 -12.5
v -4 1 -12.5
v -3.5 1 -13
v -4 1 -13
v -3.5 1 -11.5
v -5 1 -11.5
v -3.5 1.5 -11.5
v -5 1.5 -11.5
v -3.5 1.5 -11
v -6.5 1.5 -11
v -3.5 1.5 -11.5
v -6.5 1.5 -11.5
v -3.5 1 -11
v -3.5 1.5 -11
v -3.5 1 -11.5
v -3.5 1.5 -11.5
v -3.5 1 -13
v -4 1 -13
v -3.5 1.5 -13
v -4 1.5 -13
v -3.5 1.5 -13
v -4 1.5 -13
v -3.5 1.5 -14
v -4 1.5 -14
v -4 1 -13
v -4 1.5 -13
v -4 1 -13.5
v -4 1.5 -13.5
v -3.5 1.500002 -20
v -4.5 1.500002 -20
v -3.5 1.500002 -21
v -4.5 1.500002 -21
v -3.5 1.5 -14
v -4 1.5 -14
v -3.5 2 -14
v -4 2 -14
v -3.5 2 -14
v -4 2 -14
v -3.5 2.000002 -20
v -4 2.000002 -20
v -4 1.5 -14
v -4 2 -14
v -4 1.5 -14.5
v -4 2 -14.5
v -3.5 1.500002 -20
v -4 1.500002 -20
v -3.5 2.000002 -20
v -4 2.000002 -20
v -4 1.500002 -19.5
v -4 2.000002 -19.5
v -4 1.500002 -20
v -4 2.000002 -20
v -3.5 1.500002 -21
v -4.5 1.500002 -21
v -3.5 2.000002 -21
v -4.5 2.000002 -21
v -3.5 2.000002 -21
v -6 2.000002 -21
v -3.5 2.000002 -21.5
v -6 2.000002 -21.5
v -4 0.5 -12
v -4.5 0.5 -12
v -4 0.5 -13
v -4.5 0.5 -13
v -4 0.5 -12
v -4.5 0.5 -12
v -4 1 -12
v -4.5 1 -12
v -4 0.5 -13
v -6 0.5 -13
v -4 1 -13
v -6 1 -13
v -4 1 -13
v -6.5 1 -13
v -4 1 -13.5
v -6.5 1 -13.5
v -4 1 -13.5
v -5.5 1 -13.5
v -4 1.5 -13.5
v -5.5 1.5 -13.5
v -4 1.5 -13.5
v -5.5 1.5 -13.5
v -4 1.5 -14.5
v -5.5 1.5 -14.5
v -4 1.500002 -19.5
v -5 1.500002 -19.5
v -4 1.500002 -20
v -5 1.500002 -20
v -4.5 1.5 -7.499998
v -4.5 2 -7.499998
v -4.5 1.5 -7.999998
v -4.5 2 -7.999998
v -4 1.5 -14.5
v -5 1.5 -14.5
v -4 2 -14.5
v -5 2 -14.5
v -4 2 -14.5
v -4.5 2 -14.5
v -4 2.000002 -19.5
v -4.5 2.000002 -19.5
v -4.5 1.500002 -18.5
v -4.5 2.000002 -18.5
v -4.5 1.500002 -19.5
v -4.5 2.000002 -19.5
v -4 1.500002 -19.5
v -4.5 1.500002 -19.5
v -4 2.000002 -19.5
v -4.5 2.000002 -19.5
v -4.5 0.5 -12.5
v -6 0.5 -12.5
v -4.5 0.5 -13
v -6 0.5 -13
v -4.5 0.5 -12.5
v -5 0.5 -12.5
v -4.5 1 -12.5
v -5 1 -12.5
v -4.5 1 -12
v -5 1 -12
v -4.5 1 -12.5
v -5 1 -12.5
v -4.5 0.5 -12
v -4.5 1 -12
v -4.5 0.5 -12.5
v -4.5 1 -12.5
v -5 0.5 -12
v -5 1 -12
v -5 0.5 -12.5
v -5 1 -12.5
v -4.5 1.5 -7.499998
v -5.5 1.5 -7.499998
v -4.5 1.5 -7.999998
v -5.5 1.5 -7.999998
v -4.5 1.500002 -18.5
v -5 1.500002 -18.5
v -4.5 1.500002 -19.5
v -5 1.500002 -19.5
v -4.5 2 1.907349E-06
v -9 2 1.907349E-06
v -4.5 2 -7.499998
v -9 2 -7.499998
v -4.5 1.5 -7.499998
v -5.5 1.5 -7.499998
v -4.5 2 -7.499998
v -5.5 2 -7.499998
v -4.5 1.5 -7.999998
v -5.5 1.5 -7.999998
v -4.5 2 -7.999998
v -5.5 2 -7.999998
v -4.5 2 -7.999998
v -6 2 -7.999998
v -4.5 2 -9.499998
v -6 2 -9.499998
v -4.5 2 -14.5
v -5 2 -14.5
v -4.5 2.000002 -18.5
v -5 2.000002 -18.5
v -5 1.5 -14.5
v -5 2 -14.5
v -5 1.5 -15
v -5 2 -15
v -5 1.5 -16
v -5 2 -16
v -5 1.5 -16.5
v -5 2 -16.5
v -4.5 1.500002 -18.5
v -5 1.500002 -18.5
v -4.5 2.000002 -18.5
v -5 2.000002 -18.5
v -5 1.500002 -18
v -5 2 -18
v -5 1.500002 -18.5
v -5 2.000002 -18.5
v -4.5 1.500002 -20
v -5 1.500002 -20
v -4.5 2.000002 -20
v -5 2.000002 -20
v -4.5 2.000002 -20
v -5.5 2.000002 -20
v -4.5 2.000002 -21
v -5.5 2.000002 -21
v -4.5 1.500002 -20
v -4.5 2.000002 -20
v -4.5 1.500002 -21
v -4.5 2.000002 -21
v -5 0.5 -12
v -6 0.5 -12
v -5 0.5 -12.5
v -6 0.5 -12.5
v -5 0.5 -12
v -5.5 0.5 -12
v -5 1.5 -12
v -5.5 1.5 -12
v -5 1.5 -11.5
v -5.5 1.5 -11.5
v -5 1.5 -12
v -5.5 1.5 -12
v -5 1 -11.5
v -5 1.5 -11.5
v -5 1 -12
v -5 1.5 -12
v -5.5 1 -11.5
v -5.5 1.5 -11.5
v -5.5 1 -12
v -5.5 1.5 -12
v -5.5 1 -13.5
v -5.5 1.5 -13.5
v -5.5 1 -14
v -5.5 1.5 -14
v -5 1.5 -14.5
v -6 1.5 -14.5
v -5 1.5 -15
v -6 1.5 -15
v -5 1.5 -16
v -6.5 1.5 -16
v -5 1.5 -16.5
v -6.5 1.5 -16.5
v -5.5 1 -17
v -5.5 2 -17
v -5.5 1.000002 -17.5
v -5.5 2 -17.5
v -5 1.500002 -18
v -6.5 1.500002 -18
v -5 1.500002 -19
v -6.5 1.500002 -19
v -5.5 1.000002 -25.5
v -5.5 2.000002 -25.5
v -5.5 1.000002 -26
v -5.5 2.000002 -26
v -5 1.5 -11
v -6.5 1.5 -11
v -5 2 -11
v -6.5 2 -11
v -5 2 -10.5
v -6.5 2 -10.5
v -5 2 -11
v -6.5 2 -11
v -5 1.5 -10.5
v -5 2 -10.5
v -5 1.5 -11
v -5 2 -11
v -5 1.5 -15
v -5.5 1.5 -15
v -5 2 -15
v -5.5 2 -15
v -5 2 -15
v -5.5 2 -15
v -5 2 -16
v -5.5 2 -16
v -5.5 1.5 -15
v -5.5 2 -15
v -5.5 1.5 -15.5
v -5.5 2 -15.5
v -5 1.5 -16
v -6 1.5 -16
v -5 2 -16
v -6 2 -16
v -5 1.5 -16.5
v -6 1.5 -16.5
v -5 2 -16.5
v -6 2 -16.5
v -5 2 -16.5
v -5.5 2 -16.5
v -5 2 -18
v -5.5 2 -18
v -5 1.500002 -18
v -5.5 1.500002 -18
v -5 2 -18
v -5.5 2 -18
v -5.5 1.5 -17.5
v -5.5 2 -17.5
v -5.5 1.500002 -18
v -5.5 2 -18
v -5 1.500002 -19
v -5.5 1.500002 -19
v -5 2.000002 -19
v -5.5 2.000002 -19
v -5 2.000002 -19
v -5.5 2.000002 -19
v -5 2.000002 -20
v -5.5 2.000002 -20
v -5 1.500002 -19
v -5 2.000002 -19
v -5 1.500002 -20
v -5 2.000002 -20
v -5.5 1.500002 -19
v -5.5 2.000002 -19
v -5.5 1.500002 -20.5
v -5.5 2.000002 -20.5
v -5.5 1.500002 -24.5
v -5.5 2.000002 -24.5
v -5.5 1.500002 -25.5
v -5.5 2.000002 -25.5
v -5.5 1.500002 -26
v -5.5 2.000002 -26
v -5.5 1.500002 -26.5
v -5.5 2.000002 -26.5
v -5.5 0.5 -12
v -6 0.5 -12
v -5.5 1 -12
v -6 1 -12
v -5.5 1 -11.5
v -6 1 -11.5
v -5.5 1 -12
v -6 1 -12
v -5.5 1 -13.5
v -6 1 -13.5
v -5.5 1 -14
v -6 1 -14
v -5.5 1 -17
v -6.5 1 -17
v -5.5 1.000002 -17.5
v -6.5 1.000002 -17.5
v -5.5 1.000002 -25.5
v -6 1.000002 -25.5
v -5.5 1.000002 -26
v -6 1.000002 -26
v -5.5 1 -11.5
v -6 1 -11.5
v -5.5 1.5 -11.5
v -6 1.5 -11.5
v -5.5 1 -14
v -6 1 -14
v -5.5 1.5 -14
v -6 1.5 -14
v -5.5 1.5 -14
v -6 1.5 -14
v -5.5 1.5 -14.5
v -6 1.5 -14.5
v -6 1 -14
v -6 1.5 -14
v -6 1 -15
v -6 1.5 -15
v -5.5 1.5 -15
v -6 1.5 -15
v -5.5 1.5 -15.5
v -6 1.5 -15.5
v -5.5 1 -17
v -6 1 -17
v -5.5 2 -17
v -6 2 -17
v -5.5 1.000002 -17.5
v -6.5 1.000002 -17.5
v -5.5 1.5 -17.5
v -6.5 1.5 -17.5
v -5.5 1.5 -17.5
v -7 1.5 -17.5
v -5.5 1.500002 -18
v -7 1.500002 -18
v -5.5 1.500002 -19
v -6 1.500002 -19
v -5.5 1.500002 -20.5
v -6 1.500002 -20.5
v -6 1.000002 -19
v -6 1.500002 -19
v -6 1.000002 -20
v -6 1.500002 -20
v -6 1.000002 -20.5
v -6 2.000002 -20.5
v -6 1.000002 -21
v -6 2.000002 -21
v -5.5 1.500002 -24.5
v -6 1.500002 -24.5
v -5.5 1.500002 -25.5
v -6 1.500002 -25.5
v -5.5 1.000002 -25.5
v -6 1.000002 -25.5
v -5.5 1.500002 -25.5
v -6 1.500002 -25.5
v -6 1.000002 -25
v -6 1.500002 -25
v -6 1.000002 -25.5
v -6 1.500002 -25.5
v -5.5 1.000002 -26
v -6 1.000002 -26
v -5.5 1.500002 -26
v -6 1.500002 -26
v -5.5 1.500002 -26
v -6.5 1.500002 -26
v -5.5 1.500002 -26.5
v -6.5 1.500002 -26.5
v -5.5 2 -7.499998
v -10 2 -7.499998
v -5.5 2 -7.999998
v -10 2 -7.999998
v -5.5 1.5 -7.499998
v -5.5 2 -7.499998
v -5.5 1.5 -7.999998
v -5.5 2 -7.999998
v -6 1.5 -8.499998
v -6 2 -8.499998
v -6 1.5 -9.499998
v -6 2 -9.499998
v -5.5 1.5 -15.5
v -6 1.5 -15.5
v -5.5 2 -15.5
v -6 2 -15.5
v -5.5 2 -15.5
v -6 2 -15.5
v -5.5 2 -16
v -6 2 -16
v -6 1.5 -15.5
v -6 2 -15.5
v -6 1.5 -16
v -6 2 -16
v -5.5 2 -16.5
v -6 2 -16.5
v -5.5 2 -17
v -6 2 -17
v -6 1.5 -16.5
v -6 2 -16.5
v -6 1.5 -17
v -6 2 -17
v -5.5 1.500002 -20.5
v -6 1.500002 -20.5
v -5.5 2.000002 -20.5
v -6 2.000002 -20.5
v -5.5 2.000002 -20.5
v -6 2.000002 -20.5
v -5.5 2.000002 -21
v -6 2.000002 -21
v -6 1.500002 -21
v -6 2.000002 -21
v -6 1.500002 -21.5
v -6 2.000002 -21.5
v -5.5 2.000002 -23
v -6 2.000002 -23
v -5.5 2.000002 -24.5
v -6 2.000002 -24.5
v -6 1.500002 -23
v -6 2.000002 -23
v -6 1.500002 -24.5
v -6 2.000002 -24.5
v -5.5 1.500002 -24.5
v -6 1.500002 -24.5
v -5.5 2.000002 -24.5
v -6 2.000002 -24.5
v -5.5 1.500002 -26.5
v -7.5 1.500002 -26.5
v -5.5 2.000002 -26.5
v -7.5 2.000002 -26.5
v -5.5 2.000002 -26.5
v -16 2.000002 -26.5
v -5.5 2.000002 -32
v -16 2.000002 -32
v -6 0.5 -12
v -6 1 -12
v -6 0.5 -13
v -6 1 -13
v -6 1 -12.5
v -7.5 1 -12.5
v -6 1 -13
v -7.5 1 -13
v -6.5 0.5 -13
v -6.5 1 -13
v -6.5 0.5 -13.5
v -6.5 1 -13.5
v -6 1 -14
v -6.5 1 -14
v -6 1 -15
v -6.5 1 -15
v -6.5 0.5000019 -18.5
v -6.5 1.000002 -18.5
v -6.5 0.5000019 -19.5
v -6.5 1.000002 -19.5
v -6 1.000002 -19
v -6.5 1.000002 -19
v -6 1.000002 -20
v -6.5 1.000002 -20
v -6 1.000002 -20.5
v -6.5 1.000002 -20.5
v -6 1.000002 -21
v -6.5 1.000002 -21
v -6 1.000002 -25
v -7 1.000002 -25
v -6 1.000002 -25.5
v -7 1.000002 -25.5
v -6 1.5 -8.499998
v -6.5 1.5 -8.499998
v -6 1.5 -9.499998
v -6.5 1.5 -9.499998
v -6 1.5 -11.5
v -7 1.5 -11.5
v -6 1.5 -12.5
v -7 1.5 -12.5
v -6 1 -11.5
v -6 1.5 -11.5
v -6 1 -12.5
v -6 1.5 -12.5
v -6 1 -12.5
v -7 1 -12.5
v -6 1.5 -12.5
v -7 1.5 -12.5
v -6 1 -14
v -6.5 1 -14
v -6 1.5 -14
v -6.5 1.5 -14
v -6 1 -13.5
v -6.5 1 -13.5
v -6 1.5 -13.5
v -6.5 1.5 -13.5
v -6 1.5 -13.5
v -6.5 1.5 -13.5
v -6 1.5 -14
v -6.5 1.5 -14
v -6 1 -13.5
v -6 1.5 -13.5
v -6 1 -14
v -6 1.5 -14
v -6.5 1 -13.5
v -6.5 1.5 -13.5
v -6.5 1 -14
v -6.5 1.5 -14
v -6 1 -15
v -6.5 1 -15
v -6 2 -15
v -6.5 2 -15
v -6 1.5 -15.5
v -7 1.5 -15.5
v -6 1.5 -16
v -7 1.5 -16
v -6 1 -17
v -6.5 1 -17
v -6 1.5 -17
v -6.5 1.5 -17
v -6 1.5 -16.5
v -7 1.5 -16.5
v -6 1.5 -17
v -7 1.5 -17
v -6 1.000002 -19
v -6.5 1.000002 -19
v -6 1.500002 -19
v -6.5 1.500002 -19
v -6.5 1.000002 -18.5
v -6.5 1.500002 -18.5
v -6.5 1.000002 -19
v -6.5 1.500002 -19
v -6 1.000002 -20.5
v -6.5 1.000002 -20.5
v -6 1.500002 -20.5
v -6.5 1.500002 -20.5
v -6 1.000002 -20
v -6.5 1.000002 -20
v -6 1.500002 -20
v -6.5 1.500002 -20
v -6 1.500002 -20
v -6.5 1.500002 -20
v -6 1.500002 -20.5
v -6.5 1.500002 -20.5
v -6.5 1.000002 -20
v -6.5 1.500002 -20
v -6.5 1.000002 -20.5
v -6.5 1.500002 -20.5
v -6 1.000002 -21
v -6.5 1.000002 -21
v -6 1.500002 -21
v -6.5 1.500002 -21
v -6 1.500002 -21
v -6.5 1.500002 -21
v -6 1.500002 -21.5
v -6.5 1.500002 -21.5
v -6.5 1.000002 -21
v -6.5 1.500002 -21
v -6.5 1.000002 -21.5
v -6.5 1.500002 -21.5
v -6 1.500002 -23
v -7.5 1.500002 -23
v -6 1.500002 -25
v -7.5 1.500002 -25
v -6 1.000002 -25
v -7 1.000002 -25
v -6 1.500002 -25
v -7 1.500002 -25
v -6 1.000002 -25.5
v -6.5 1.000002 -25.5
v -6 1.500002 -25.5
v -6.5 1.500002 -25.5
v -6 1.500002 -25.5
v -6.5 1.500002 -25.5
v -6 1.500002 -26
v -6.5 1.500002 -26
v -6 1.000002 -25.5
v -6 1.500002 -25.5
v -6 1.000002 -26
v -6 1.500002 -26
v -6.5 1.000002 -25.5
v -6.5 1.500002 -25.5
v -6.5 1.000002 -26.5
v -6.5 1.500002 -26.5
v -6 1.5 -8.499998
v -6.5 1.5 -8.499998
v -6 2 -8.499998
v -6.5 2 -8.499998
v -6 2 -7.999998
v -9 2 -7.999998
v -6 2 -8.499998
v -9 2 -8.499998
v -6 1.5 -9.499998
v -6.5 1.5 -9.499998
v -6 2 -9.499998
v -6.5 2 -9.499998
v -6.5 1.5 -9.499998
v -6.5 2 -9.499998
v -6.5 1.5 -11
v -6.5 2 -11
v -6 1.5 -15.5
v -6.5 1.5 -15.5
v -6 2 -15.5
v -6.5 2 -15.5
v -6 2 -15
v -6.5 2 -15
v -6 2 -15.5
v -6.5 2 -15.5
v -6 1.5 -15
v -6 2 -15
v -6 1.5 -15.5
v -6 2 -15.5
v -6.5 1.5 -15
v -6.5 2 -15
v -6.5 1.5 -15.5
v -6.5 2 -15.5
v -6 1.500002 -21.5
v -7 1.500002 -21.5
v -6 2.000002 -21.5
v -7 2.000002 -21.5
v -6 1.500002 -23
v -7.5 1.500002 -23
v -6 2.000002 -23
v -7.5 2.000002 -23
v -6.5 0.5 -13
v -7 0.5 -13
v -6.5 0.5 -13.5
v -7 0.5 -13.5
v -6.5 0.5000019 -18.5
v -7 0.5000019 -18.5
v -6.5 0.5000019 -19.5
v -7 0.5000019 -19.5
v -6.5 0.5 -13
v -7 0.5 -13
v -6.5 1 -13
v -7 1 -13
v -6.5 0.5 -13.5
v -7 0.5 -13.5
v -6.5 1 -13.5
v -7 1 -13.5
v -6.5 1 -13.5
v -8 1 -13.5
v -6.5 1 -14
v -8 1 -14
v -6.5 1 -14.5
v -7 1 -14.5
v -6.5 1 -15
v -7 1 -15
v -6.5 0.5000019 -18.5
v -7 0.5000019 -18.5
v -6.5 1.500002 -18.5
v -7 1.500002 -18.5
v -6.5 0.5000019 -19.5
v -7 0.5000019 -19.5
v -6.5 1.000002 -19.5
v -7 1.000002 -19.5
v -6.5 1.000002 -19.5
v -7 1.000002 -19.5
v -6.5 1.000002 -20.5
v -7 1.000002 -20.5
v -7 0.5000019 -20
v -7 1.000002 -20
v -7 0.5000019 -20.5
v -7 1.000002 -20.5
v -6.5 1.000002 -21
v -7 1.000002 -21
v -6.5 1.000002 -21.5
v -7 1.000002 -21.5
v -6.5 1.000002 -25.5
v -7 1.000002 -25.5
v -6.5 1.000002 -26.5
v -7 1.000002 -26.5
v -6.5 1.5 -9.499998
v -7 1.5 -9.499998
v -6.5 1.5 -11
v -7 1.5 -11
v -7 1 -12
v -7 1.5 -12
v -7 1 -12.5
v -7 1.5 -12.5
v -6.5 1 -14.5
v -7 1 -14.5
v -6.5 2 -14.5
v -7 2 -14.5
v -6.5 1 -14
v -7 1 -14
v -6.5 2 -14
v -7 2 -14
v -6.5 1 -14
v -6.5 2 -14
v -6.5 1 -14.5
v -6.5 2 -14.5
v -7 1 -14
v -7 2 -14
v -7 1 -14.5
v -7 2 -14.5
v -6.5 1 -15
v -7 1 -15
v -6.5 1.5 -15
v -7 1.5 -15
v -6.5 1.5 -15
v -7 1.5 -15
v -6.5 1.5 -15.5
v -7 1.5 -15.5
v -7 1 -15
v -7 1.5 -15
v -7 1 -16
v -7 1.5 -16
v -7 1 -16.5
v -7 1.5 -16.5
v -7 1 -17
v -7 1.5 -17
v -6.5 1.5 -17
v -7.5 1.5 -17
v -6.5 1.5 -17.5
v -7.5 1.5 -17.5
v -6.5 1 -17
v -6.5 1.5 -17
v -6.5 1.000002 -17.5
v -6.5 1.5 -17.5
v -7 1.000002 -17.5
v -7 1.5 -17.5
v -7 1.000002 -18.5
v -7 1.500002 -18.5
v -6.5 1.500002 -18
v -7 1.500002 -18
v -6.5 1.500002 -18.5
v -7 1.500002 -18.5
v -6.5 1.000002 -21
v -7 1.000002 -21
v -6.5 1.500002 -21
v -7 1.500002 -21
v -6.5 1.000002 -20.5
v -7.5 1.000002 -20.5
v -6.5 1.500002 -20.5
v -7.5 1.500002 -20.5
v -6.5 1.500002 -20.5
v -9 1.500002 -20.5
v -6.5 1.500002 -21
v -9 1.500002 -21
v -6.5 1.000002 -20.5
v -6.5 1.500002 -20.5
v -6.5 1.000002 -21
v -6.5 1.500002 -21
v -6.5 1.000002 -21.5
v -7 1.000002 -21.5
v -6.5 1.500002 -21.5
v -7 1.500002 -21.5
v -6.5 1.000002 -26.5
v -7 1.000002 -26.5
v -6.5 1.500002 -26.5
v -7 1.500002 -26.5
v -6.5 2 -8.499998
v -8.5 2 -8.499998
v -6.5 2 -9.499998
v -8.5 2 -9.499998
v -6.5 1.5 -8.499998
v -6.5 2 -8.499998
v -6.5 1.5 -9.499998
v -6.5 2 -9.499998
v -6.5 1.5 -9.499998
v -7 1.5 -9.499998
v -6.5 2 -9.499998
v -7 2 -9.499998
v -6.5 1.5 -11.5
v -7 1.5 -11.5
v -6.5 2 -11.5
v -7 2 -11.5
v -6.5 1.5 -11
v -7 1.5 -11
v -6.5 2 -11
v -7 2 -11
v -6.5 2 -11
v -7 2 -11
v -6.5 2 -11.5
v -7 2 -11.5
v -6.5 1.5 -11
v -6.5 2 -11
v -6.5 1.5 -11.5
v -6.5 2 -11.5
v -7 1.5 -11
v -7 2 -11
v -7 1.5 -11.5
v -7 2 -11.5
v -6.5 2 -14
v -7 2 -14
v -6.5 2 -14.5
v -7 2 -14.5
v -6.5 1.5 -16.5
v -7 1.5 -16.5
v -6.5 2 -16.5
v -7 2 -16.5
v -6.5 1.5 -16
v -7 1.5 -16
v -6.5 2 -16
v -7 2 -16
v -6.5 2 -16
v -7 2 -16
v -6.5 2 -16.5
v -7 2 -16.5
v -6.5 1.5 -16
v -6.5 2 -16
v -6.5 1.5 -16.5
v -6.5 2 -16.5
v -7 1.5 -16
v -7 2 -16
v -7 1.5 -16.5
v -7 2 -16.5
v -7 1.500002 -21.5
v -7 2.000002 -21.5
v -7 1.500002 -22.5
v -7 2.000002 -22.5
v -7 0.5000019 -18.5
v -7.5 0.5000019 -18.5
v -7 0.5000019 -19
v -7.5 0.5000019 -19
v -7 0.5000019 -20
v -7.5 0.5000019 -20
v -7 0.5000019 -20.5
v -7.5 0.5000019 -20.5
v -7 1 -12
v -8.5 1 -12
v -7 1 -12.5
v -8.5 1 -12.5
v -7.5 0.5 -12.5
v -7.5 1 -12.5
v -7.5 0.5 -13.5
v -7.5 1 -13.5
v -7 1 -13
v -7.5 1 -13
v -7 1 -13.5
v -7.5 1 -13.5
v -7 0.5 -13
v -7 1 -13
v -7 0.5 -13.5
v -7 1 -13.5
v -7 1 -14
v -9.5 1 -14
v -7 1 -14.5
v -9.5 1 -14.5
v -7 1 -15
v -7.5 1 -15
v -7 1 -16
v -7.5 1 -16
v -7.5 0.5 -15.5
v -7.5 1 -15.5
v -7.5 0.5 -16
v -7.5 1 -16
v -7 1 -16.5
v -8 1 -16.5
v -7 1 -17
v -8 1 -17
v -7 1.000002 -17.5
v -7.5 1.000002 -17.5
v -7 1.000002 -18.5
v -7.5 1.000002 -18.5
v -7 0.5000019 -18.5
v -7.5 0.5000019 -18.5
v -7 1.000002 -18.5
v -7.5 1.000002 -18.5
v -7 0.5000019 -19
v -7.5 0.5000019 -19
v -7 1.000002 -19
v -7.5 1.000002 -19
v -7 1.000002 -19
v -8.5 1.000002 -19
v -7 1.000002 -20
v -8.5 1.000002 -20
v -7 0.5000019 -19
v -7 1.000002 -19
v -7 0.5000019 -19.5
v -7 1.000002 -19.5
v -7 0.5000019 -20
v -7.5 0.5000019 -20
v -7 1.000002 -20
v -7.5 1.000002 -20
v -7 0.5000019 -20.5
v -7.5 0.5000019 -20.5
v -7 1.000002 -20.5
v -7.5 1.000002 -20.5
v -7 1.5 -11
v -7.5 1.5 -11
v -7 1.5 -12
v -7.5 1.5 -12
v -7 1 -12
v -7.5 1 -12
v -7 1.5 -12
v -7.5 1.5 -12
v -7.5 1 -11.5
v -7.5 1.5 -11.5
v -7.5 1 -12
v -7.5 1.5 -12
v -7 1 -15
v -7.5 1 -15
v -7 1.5 -15
v -7.5 1.5 -15
v -7 1 -14.5
v -7.5 1 -14.5
v -7 1.5 -14.5
v -7.5 1.5 -14.5
v -7 1.5 -14.5
v -7.5 1.5 -14.5
v -7 1.5 -15
v -7.5 1.5 -15
v -7 1 -14.5
v -7 1.5 -14.5
v -7 1 -15
v -7 1.5 -15
v -7.5 1 -14.5
v -7.5 1.5 -14.5
v -7.5 1 -15
v -7.5 1.5 -15
v -7 1 -16.5
v -7.5 1 -16.5
v -7 1.5 -16.5
v -7.5 1.5 -16.5
v -7 1 -16
v -7.5 1 -16
v -7 1.5 -16
v -7.5 1.5 -16
v -7 1.5 -16
v -7.5 1.5 -16
v -7 1.5 -16.5
v -7.5 1.5 -16.5
v -7.5 1 -16
v -7.5 1.5 -16
v -7.5 1 -16.5
v -7.5 1.5 -16.5
v -7 1.000002 -17.5
v -7.5 1.000002 -17.5
v -7 1.5 -17.5
v -7.5 1.5 -17.5
v -7 1 -17
v -7.5 1 -17
v -7 1.5 -17
v -7.5 1.5 -17
v -7.5 1 -17
v -7.5 1.5 -17
v -7.5 1.000002 -17.5
v -7.5 1.5 -17.5
v -7 1.500002 -21
v -8 1.500002 -21
v -7 1.500002 -22.5
v -8 1.500002 -22.5
v -7 1.000002 -21
v -7 1.500002 -21
v -7 1.000002 -21.5
v -7 1.500002 -21.5
v -7.5 1.000002 -23
v -7.5 1.500002 -23
v -7.5 1.000002 -23.5
v -7.5 1.500002 -23.5
v -7 1.500002 -25
v -7.5 1.500002 -25
v -7 1.500002 -26.5
v -7.5 1.500002 -26.5
v -7 1.000002 -25
v -7 1.500002 -25
v -7 1.000002 -26.5
v -7 1.500002 -26.5
v -7 2 -9.499998
v -7.5 2 -9.499998
v -7 2 -11
v -7.5 2 -11
v -7 1.5 -9.499998
v -7 2 -9.499998
v -7 1.5 -11
v -7 2 -11
v -7 1.5 -11
v -7.5 1.5 -11
v -7 2 -11
v -7.5 2 -11
v -7.5 1.5 -10.5
v -7.5 2 -10.5
v -7.5 1.5 -11
v -7.5 2 -11
v -7 1.500002 -22.5
v -7.5 1.500002 -22.5
v -7 2.000002 -22.5
v -7.5 2.000002 -22.5
v -7.5 1.500002 -22.5
v -7.5 2.000002 -22.5
v -7.5 1.500002 -23
v -7.5 2.000002 -23
v -7.5 0.5 -12.5
v -8.5 0.5 -12.5
v -7.5 0.5 -13.5
v -8.5 0.5 -13.5
v -7.5 0.5 -15.5
v -9 0.5 -15.5
v -7.5 0.5 -16
v -9 0.5 -16
v -7.5 1 -11.5
v -8 1 -11.5
v -7.5 1 -12
v -8 1 -12
v -7.5 0.5 -12.5
v -8.5 0.5 -12.5
v -7.5 1 -12.5
v -8.5 1 -12.5
v -7.5 0.5 -13.5
v -8 0.5 -13.5
v -7.5 1 -13.5
v -8 1 -13.5
v -8 0.5 -13.5
v -8 1 -13.5
v -8 0.5 -14
v -8 1 -14
v -7.5 1 -14.5
v -9 1 -14.5
v -7.5 1 -15.5
v -9 1 -15.5
v -7.5 0.5 -15.5
v -9 0.5 -15.5
v -7.5 1 -15.5
v -9 1 -15.5
v -7.5 0.5 -16
v -8.5 0.5 -16
v -7.5 1 -16
v -8.5 1 -16
v -7.5 1 -16
v -8.5 1 -16
v -7.5 1 -16.5
v -8.5 1 -16.5
v -8 0.5 -16.5
v -8 1 -16.5
v -8 0.5000019 -17
v -8 1 -17
v -7.5 1 -17
v -8 1 -17
v -7.5 1.000002 -18
v -8 1.000002 -18
v -8 0.5000019 -17.5
v -8 1.000002 -17.5
v -8 0.5000019 -18
v -8 1.000002 -18
v -7.5 1.000002 -18.5
v -8.5 1.000002 -18.5
v -7.5 1.000002 -19
v -8.5 1.000002 -19
v -7.5 0.5000019 -18.5
v -7.5 1.000002 -18.5
v -7.5 0.5000019 -19
v -7.5 1.000002 -19
v -7.5 0.5000019 -20
v -7.5 1.500002 -20
v -7.5 0.5000019 -20.5
v -7.5 1.500002 -20.5
v -7.5 1.000002 -23
v -8 1.000002 -23
v -7.5 1.000002 -23.5
v -8 1.000002 -23.5
v -7.5 1.5 -10.5
v -8 1.5 -10.5
v -7.5 1.5 -11.5
v -8 1.5 -11.5
v -8 1 -10.5
v -8 1.5 -10.5
v -8 1 -11.5
v -8 1.5 -11.5
v -7.5 1 -11.5
v -8 1 -11.5
v -7.5 1.5 -11.5
v -8 1.5 -11.5
v -7.5 1.000002 -18.5
v -8 1.000002 -18.5
v -7.5 1.500002 -18.5
v -8 1.500002 -18.5
v -7.5 1.000002 -18
v -8 1.000002 -18
v -7.5 1.500002 -18
v -8 1.500002 -18
v -7.5 1.500002 -18
v -8 1.500002 -18
v -7.5 1.500002 -18.5
v -8 1.500002 -18.5
v -7.5 1.000002 -18
v -7.5 1.500002 -18
v -7.5 1.000002 -18.5
v -7.5 1.500002 -18.5
v -8 1.000002 -18
v -8 1.500002 -18
v -8 1.000002 -18.5
v -8 1.500002 -18.5
v -7.5 1.000002 -20
v -8 1.000002 -20
v -7.5 1.500002 -20
v -8 1.500002 -20
v -7.5 1.500002 -20
v -8 1.500002 -20
v -7.5 1.500002 -20.5
v -8 1.500002 -20.5
v -8 1.000002 -20
v -8 1.500002 -20
v -8 1.000002 -20.5
v -8 1.500002 -20.5
v -7.5 1.000002 -23
v -8 1.000002 -23
v -7.5 1.500002 -23
v -8 1.500002 -23
v -7.5 1.500002 -22.5
v -8 1.500002 -22.5
v -7.5 1.500002 -23
v -8 1.500002 -23
v -8 1.000002 -22.5
v -8 1.500002 -22.5
v -8 1.000002 -23
v -8 1.500002 -23
v -7.5 1.000002 -23.5
v -8 1.000002 -23.5
v -7.5 1.500002 -23.5
v -8 1.500002 -23.5
v -7.5 1.500002 -23.5
v -8 1.500002 -23.5
v -7.5 1.500002 -26
v -8 1.500002 -26
v -7.5 2 -9.499998
v -8 2 -9.499998
v -7.5 2 -10.5
v -8 2 -10.5
v -8 1.5 -9.499998
v -8 2 -9.499998
v -8 1.5 -10.5
v -8 2 -10.5
v -7.5 1.5 -10.5
v -8 1.5 -10.5
v -7.5 2 -10.5
v -8 2 -10.5
v -7.5 1.500002 -26
v -8 1.500002 -26
v -7.5 2.000002 -26
v -8 2.000002 -26
v -7.5 2.000002 -26
v -16 2.000002 -26
v -7.5 2.000002 -26.5
v -16 2.000002 -26.5
v -7.5 1.500002 -26
v -7.5 2.000002 -26
v -7.5 1.500002 -26.5
v -7.5 2.000002 -26.5
v -8 0.5 -13.5
v -8.5 0.5 -13.5
v -8 0.5 -14
v -8.5 0.5 -14
v -8 0.5 -16.5
v -8.5 0.5 -16.5
v -8 0.5000019 -17
v -8.5 0.5000019 -17
v -8 0.5000019 -17.5
v -8.5 0.5000019 -17.5
v -8 0.5000019 -18
v -8.5 0.5000019 -18
v -8 1 -10.5
v -8.5 1 -10.5
v -8 1 -11.5
v -8.5 1 -11.5
v -8.5 0.5 -10.5
v -8.5 1 -10.5
v -8.5 0.5 -11
v -8.5 1 -11
v -8.5 0.5 -12
v -8.5 1 -12
v -8.5 0.5 -12.5
v -8.5 1 -12.5
v -8 0.5 -14
v -8.5 0.5 -14
v -8 1 -14
v -8.5 1 -14
v -8 0.5 -16.5
v -8.5 0.5 -16.5
v -8 1 -16.5
v -8.5 1 -16.5
v -8.5 0.5 -16
v -8.5 1 -16
v -8.5 0.5 -16.5
v -8.5 1 -16.5
v -8 0.5000019 -17.5
v -8.5 0.5000019 -17.5
v -8 1.000002 -17.5
v -8.5 1.000002 -17.5
v -8 0.5000019 -17
v -8.5 0.5000019 -17
v -8 1 -17
v -8.5 1 -17
v -8 1 -17
v -9.5 1 -17
v -8 1.000002 -17.5
v -9.5 1.000002 -17.5
v -8 0.5000019 -18
v -8.5 0.5000019 -18
v -8 1.000002 -18
v -8.5 1.000002 -18
v -8 1.000002 -18
v -9 1.000002 -18
v -8 1.000002 -18.5
v -9 1.000002 -18.5
v -8 1.000002 -20
v -8.5 1.000002 -20
v -8 1.000002 -20.5
v -8.5 1.000002 -20.5
v -8 1.000002 -22.5
v -8.5 1.000002 -22.5
v -8 1.000002 -23
v -8.5 1.000002 -23
v -8 1.5 -9.499998
v -9 1.5 -9.499998
v -8 1.5 -10.5
v -9 1.5 -10.5
v -8 1 -10.5
v -9 1 -10.5
v -8 1.5 -10.5
v -9 1.5 -10.5
v -8 1 -12
v -8.5 1 -12
v -8 1.5 -12
v -8.5 1.5 -12
v -8 1 -11.5
v -8.5 1 -11.5
v -8 1.5 -11.5
v -8.5 1.5 -11.5
v -8 1.5 -11.5
v -8.5 1.5 -11.5
v -8 1.5 -12
v -8.5 1.5 -12
v -8 1 -11.5
v -8 1.5 -11.5
v -8 1 -12
v -8 1.5 -12
v -8.5 1 -11.5
v -8.5 1.5 -11.5
v -8.5 1 -12
v -8.5 1.5 -12
v -8 1.000002 -20.5
v -8.5 1.000002 -20.5
v -8 1.500002 -20.5
v -8.5 1.500002 -20.5
v -8 1.500002 -21.5
v -8.5 1.500002 -21.5
v -8 1.500002 -22.5
v -8.5 1.500002 -22.5
v -8 1.000002 -22.5
v -8.5 1.000002 -22.5
v -8 1.500002 -22.5
v -8.5 1.500002 -22.5
v -8 1.000002 -23
v -8.5 1.000002 -23
v -8 1.500002 -23
v -8.5 1.500002 -23
v -8 1.500002 -23
v -8.5 1.500002 -23
v -8 1.500002 -25.5
v -8.5 1.500002 -25.5
v -8 1.000002 -23
v -8 1.500002 -23
v -8 1.000002 -23.5
v -8 1.500002 -23.5
v -8.5 1.5 -8.499998
v -8.5 2 -8.499998
v -8.5 1.5 -8.999998
v -8.5 2 -8.999998
v -8 1.5 -9.499998
v -9 1.5 -9.499998
v -8 2 -9.499998
v -9 2 -9.499998
v -8 1.500002 -21.5
v -8.5 1.500002 -21.5
v -8 2.000002 -21.5
v -8.5 2.000002 -21.5
v -8 1.500002 -21
v -8.5 1.500002 -21
v -8 2.000002 -21
v -8.5 2.000002 -21
v -8 2.000002 -21
v -8.5 2.000002 -21
v -8 2.000002 -21.5
v -8.5 2.000002 -21.5
v -8 1.500002 -21
v -8 2.000002 -21
v -8 1.500002 -21.5
v -8 2.000002 -21.5
v -8.5 1.500002 -21
v -8.5 2.000002 -21
v -8.5 1.500002 -21.5
v -8.5 2.000002 -21.5
v -8 1.500002 -25.5
v -8.5 1.500002 -25.5
v -8 2.000002 -25.5
v -8.5 2.000002 -25.5
v -8 2.000002 -25.5
v -16 2.000002 -25.5
v -8 2.000002 -26
v -16 2.000002 -26
v -8 1.500002 -25.5
v -8 2.000002 -25.5
v -8 1.500002 -26
v -8 2.000002 -26
v -8.5 0.5 -10.5
v -9 0.5 -10.5
v -8.5 0.5 -11
v -9 0.5 -11
v -8.5 0.5 -12
v -9 0.5 -12
v -8.5 0.5 -12.5
v -9 0.5 -12.5
v -8.5 0.5 -16
v -9 0.5 -16
v -8.5 0.5 -16.5
v -9 0.5 -16.5
v -8.5 0.5 -10.5
v -9 0.5 -10.5
v -8.5 1 -10.5
v -9 1 -10.5
v -8.5 0.5 -11
v -9 0.5 -11
v -8.5 1 -11
v -9 1 -11
v -8.5 1 -11
v -9 1 -11
v -8.5 1 -12
v -9 1 -12
v -8.5 0.5 -12
v -9 0.5 -12
v -8.5 1 -12
v -9 1 -12
v -9 0.5 -11.5
v -9 1 -11.5
v -9 0.5 -12
v -9 1 -12
v -8.5 0.5 -12.5
v -9 0.5 -12.5
v -8.5 1 -12.5
v -9 1 -12.5
v -8.5 1 -12.5
v -9 1 -12.5
v -8.5 1 -13.5
v -9 1 -13.5
v -8.5 0.5 -12.5
v -8.5 1 -12.5
v -8.5 0.5 -14
v -8.5 1 -14
v -8.5 0.5 -16.5
v -9 0.5 -16.5
v -8.5 1 -16.5
v -9 1 -16.5
v -8.5 1 -16.5
v -9 1 -16.5
v -8.5 1 -17
v -9 1 -17
v -8.5 0.5 -16.5
v -8.5 1 -16.5
v -8.5 0.5000019 -17
v -8.5 1 -17
v -8.5 1.000002 -17.5
v -9.5 1.000002 -17.5
v -8.5 1.000002 -18
v -9.5 1.000002 -18
v -8.5 0.5000019 -17.5
v -8.5 1.000002 -17.5
v -8.5 0.5000019 -18
v -8.5 1.000002 -18
v -8.5 1.000002 -19.5
v -9 1.000002 -19.5
v -8.5 1.000002 -20
v -9 1.000002 -20
v -8.5 1.5 -8.499998
v -9 1.5 -8.499998
v -8.5 1.5 -8.999998
v -9 1.5 -8.999998
v -9 1 -8.999998
v -9 1.5 -8.999998
v -9 1 -10.5
v -9 1.5 -10.5
v -8.5 1 -14
v -9 1 -14
v -8.5 1.5 -14
v -9 1.5 -14
v -8.5 1 -13.5
v -9 1 -13.5
v -8.5 1.5 -13.5
v -9 1.5 -13.5
v -8.5 1.5 -13.5
v -9 1.5 -13.5
v -8.5 1.5 -14
v -9 1.5 -14
v -8.5 1 -13.5
v -8.5 1.5 -13.5
v -8.5 1 -14
v -8.5 1.5 -14
v -9 1 -13.5
v -9 1.5 -13.5
v -9 1 -14
v -9 1.5 -14
v -8.5 1.000002 -18.5
v -9 1.000002 -18.5
v -8.5 1.500002 -18.5
v -9 1.500002 -18.5
v -8.5 1.500002 -18.5
v -9 1.500002 -18.5
v -8.5 1.500002 -19.5
v -9 1.500002 -19.5
v -8.5 1.000002 -18.5
v -8.5 1.500002 -18.5
v -8.5 1.000002 -19.5
v -8.5 1.500002 -19.5
v -8.5 1.000002 -19.5
v -9 1.000002 -19.5
v -8.5 1.500002 -19.5
v -9 1.500002 -19.5
v -9 1.000002 -19
v -9 1.500002 -19
v -9 1.000002 -19.5
v -9 1.500002 -19.5
v -8.5 1.000002 -20
v -9 1.000002 -20
v -8.5 1.500002 -20
v -9 1.500002 -20
v -8.5 1.500002 -20
v -11 1.500002 -20
v -8.5 1.500002 -20.5
v -11 1.500002 -20.5
v -8.5 1.000002 -20
v -8.5 1.500002 -20
v -8.5 1.000002 -20.5
v -8.5 1.500002 -20.5
v -8.5 1.500002 -21
v -9.5 1.500002 -21
v -8.5 1.500002 -21.5
v -9.5 1.500002 -21.5
v -8.5 1.500002 -22
v -9 1.500002 -22
v -8.5 1.500002 -23
v -9 1.500002 -23
v -8.5 1.000002 -22.5
v -8.5 1.500002 -22.5
v -8.5 1.000002 -23
v -8.5 1.500002 -23
v -8.5 1.500002 -23.5
v -9 1.500002 -23.5
v -8.5 1.500002 -24.5
v -9 1.500002 -24.5
v -9 1.5 -5.999998
v -9 2 -5.999998
v -9 1.5 -7.499998
v -9 2 -7.499998
v -8.5 1.5 -8.499998
v -9 1.5 -8.499998
v -8.5 2 -8.499998
v -9 2 -8.499998
v -9 1.5 -7.999998
v -9 2 -7.999998
v -9 1.5 -8.499998
v -9 2 -8.499998
v -8.5 1.5 -8.999998
v -9 1.5 -8.999998
v -8.5 2 -8.999998
v -9 2 -8.999998
v -8.5 2 -8.999998
v -9 2 -8.999998
v -8.5 2 -9.499998
v -9 2 -9.499998
v -9 1.5 -8.999998
v -9 2 -8.999998
v -9 1.5 -9.499998
v -9 2 -9.499998
v -8.5 1.500002 -22
v -9 1.500002 -22
v -8.5 2.000002 -22
v -9 2.000002 -22
v -8.5 1.500002 -21.5
v -9.5 1.500002 -21.5
v -8.5 2.000002 -21.5
v -9.5 2.000002 -21.5
v -8.5 2.000002 -21.5
v -16 2.000002 -21.5
v -8.5 2.000002 -22
v -16 2.000002 -22
v -8.5 1.500002 -21.5
v -8.5 2.000002 -21.5
v -8.5 1.500002 -22
v -8.5 2.000002 -22
v -8.5 1.500002 -23.5
v -9 1.500002 -23.5
v -8.5 2.000002 -23.5
v -9 2.000002 -23.5
v -8.5 1.500002 -23
v -9 1.500002 -23
v -8.5 2.000002 -23
v -9 2.000002 -23
v -8.5 2.000002 -23
v -16 2.000002 -23
v -8.5 2.000002 -23.5
v -16 2.000002 -23.5
v -8.5 1.500002 -23
v -8.5 2.000002 -23
v -8.5 1.500002 -23.5
v -8.5 2.000002 -23.5
v -8.5 1.500002 -24.5
v -9 1.500002 -24.5
v -8.5 2.000002 -24.5
v -9 2.000002 -24.5
v -8.5 2.000002 -24.5
v -16 2.000002 -24.5
v -8.5 2.000002 -25.5
v -16 2.000002 -25.5
v -8.5 1.500002 -24.5
v -8.5 2.000002 -24.5
v -8.5 1.500002 -25.5
v -8.5 2.000002 -25.5
v -9 0.5 -11.5
v -9.5 0.5 -11.5
v -9 0.5 -12
v -9.5 0.5 -12
v -9 1 -8.999998
v -9.5 1 -8.999998
v -9 1 -11
v -9.5 1 -11
v -9.5 0.5 -8.999998
v -9.5 1 -8.999998
v -9.5 0.5 -10.5
v -9.5 1 -10.5
v -9 0.5 -10.5
v -9 1 -10.5
v -9 0.5 -11
v -9 1 -11
v -9 0.5 -11.5
v -9.5 0.5 -11.5
v -9 1.5 -11.5
v -9.5 1.5 -11.5
v -9 0.5 -12
v -9.5 0.5 -12
v -9 1 -12
v -9.5 1 -12
v -9 1 -12
v -9.5 1 -12
v -9 1 -13
v -9.5 1 -13
v -9 0.5 -12
v -9 1 -12
v -9 0.5 -12.5
v -9 1 -12.5
v -9 1 -13.5
v -9.5 1 -13.5
v -9 1 -14
v -9.5 1 -14
v -9 1 -15
v -9.5 1 -15
v -9 1 -16.5
v -9.5 1 -16.5
v -9 0.5 -15.5
v -9 1 -15.5
v -9 0.5 -16.5
v -9 1 -16.5
v -9 1.000002 -19
v -9.5 1.000002 -19
v -9 1.000002 -19.5
v -9.5 1.000002 -19.5
v -9 1.5 -5.999998
v -9.5 1.5 -5.999998
v -9 1.5 -7.499998
v -9.5 1.5 -7.499998
v -9 1.5 -7.999998
v -9.5 1.5 -7.999998
v -9 1.5 -8.499998
v -9.5 1.5 -8.499998
v -9 1 -8.999998
v -9.5 1 -8.999998
v -9 2 -8.999998
v -9.5 2 -8.999998
v -9.5 1 -8.499998
v -9.5 2 -8.499998
v -9.5 1 -8.999998
v -9.5 2 -8.999998
v -9 1 -11
v -9.5 1 -11
v -9 1.5 -11
v -9.5 1.5 -11
v -9 1.5 -11
v -9.5 1.5 -11
v -9 1.5 -11.5
v -9.5 1.5 -11.5
v -9 1 -11
v -9 1.5 -11
v -9 1 -11.5
v -9 1.5 -11.5
v -9.5 1 -11
v -9.5 1.5 -11
v -9.5 1 -11.5
v -9.5 1.5 -11.5
v -9 1 -13.5
v -9.5 1 -13.5
v -9 1.5 -13.5
v -9.5 1.5 -13.5
v -9 1 -13
v -9.5 1 -13
v -9 1.5 -13
v -9.5 1.5 -13
v -9 1.5 -13
v -10 1.5 -13
v -9 1.5 -13.5
v -10 1.5 -13.5
v -9 1 -13
v -9 1.5 -13
v -9 1 -13.5
v -9 1.5 -13.5
v -9 1 -15
v -9.5 1 -15
v -9 1.5 -15
v -9.5 1.5 -15
v -9 1 -14.5
v -9.5 1 -14.5
v -9 1.5 -14.5
v -9.5 1.5 -14.5
v -9 1.5 -14.5
v -11 1.5 -14.5
v -9 1.5 -15
v -11 1.5 -15
v -9 1 -14.5
v -9 1.5 -14.5
v -9 1 -15
v -9 1.5 -15
v -9 1 -17
v -9.5 1 -17
v -9 1.5 -17
v -9.5 1.5 -17
v -9 1 -16.5
v -9.5 1 -16.5
v -9 1.5 -16.5
v -9.5 1.5 -16.5
v -9 1.5 -16.5
v -9.5 1.5 -16.5
v -9 1.5 -17
v -9.5 1.5 -17
v -9 1 -16.5
v -9 1.5 -16.5
v -9 1 -17
v -9 1.5 -17
v -9.5 1 -16.5
v -9.5 1.5 -16.5
v -9.5 1 -17
v -9.5 1.5 -17
v -9 1.000002 -18
v -9.5 1.000002 -18
v -9 2 -18
v -9.5 2 -18
v -9 1.000002 -18
v -9 2 -18
v -9 1.000002 -18.5
v -9 2.000002 -18.5
v -9 1.000002 -19
v -9.5 1.000002 -19
v -9 1.500002 -19
v -9.5 1.500002 -19
v -9 1.500002 -18.5
v -9.5 1.500002 -18.5
v -9 1.500002 -19
v -9.5 1.500002 -19
v -9 1.000002 -19.5
v -9.5 1.000002 -19.5
v -9 1.500002 -19.5
v -9.5 1.500002 -19.5
v -9 1.500002 -19.5
v -10 1.500002 -19.5
v -9 1.500002 -20
v -10 1.500002 -20
v -9 1.000002 -19.5
v -9 1.500002 -19.5
v -9 1.000002 -20
v -9 1.500002 -20
v -9 2 1.907349E-06
v -16 2 1.907349E-06
v -9 2 -5.999998
v -16 2 -5.999998
v -9 1.5 -5.999998
v -9.5 1.5 -5.999998
v -9 2 -5.999998
v -9.5 2 -5.999998
v -9 1.5 -7.999998
v -9.5 1.5 -7.999998
v -9 2 -7.999998
v -9.5 2 -7.999998
v -9 1.5 -7.499998
v -9.5 1.5 -7.499998
v -9 2 -7.499998
v -9.5 2 -7.499998
v -9 1.5 -8.499998
v -9.5 1.5 -8.499998
v -9 2 -8.499998
v -9.5 2 -8.499998
v -9 2 -8.499998
v -9.5 2 -8.499998
v -9 2 -8.999998
v -9.5 2 -8.999998
v -9 1.5 -8.499998
v -9 2 -8.499998
v -9 1.5 -8.999998
v -9 2 -8.999998
v -9 1.500002 -18.5
v -9.5 1.500002 -18.5
v -9 2.000002 -18.5
v -9.5 2.000002 -18.5
v -9 2 -18
v -16 2 -18
v -9 2.000002 -18.5
v -16 2.000002 -18.5
v -9 1.500002 -21
v -9.5 1.500002 -21
v -9 2.000002 -21
v -9.5 2.000002 -21
v -9 1.500002 -20.5
v -10.5 1.500002 -20.5
v -9 2.000002 -20.5
v -10.5 2.000002 -20.5
v -9 2.000002 -20.5
v -10.5 2.000002 -20.5
v -9 2.000002 -21
v -10.5 2.000002 -21
v -9 1.500002 -20.5
v -9 2.000002 -20.5
v -9 1.500002 -21
v -9 2.000002 -21
v -9 2.000002 -22
v -12.5 2.000002 -22
v -9 2.000002 -23
v -12.5 2.000002 -23
v -9 1.500002 -22
v -9 2.000002 -22
v -9 1.500002 -23
v -9 2.000002 -23
v -9 2.000002 -23.5
v -12.5 2.000002 -23.5
v -9 2.000002 -24.5
v -12.5 2.000002 -24.5
v -9 1.500002 -23.5
v -9 2.000002 -23.5
v -9 1.500002 -24.5
v -9 2.000002 -24.5
v -9.5 0.5 -8.999998
v -10 0.5 -8.999998
v -9.5 0.5 -10.5
v -10 0.5 -10.5
v -9.5 0.5 -8.999998
v -10 0.5 -8.999998
v -9.5 1 -8.999998
v -10 1 -8.999998
v -9.5 1 -8.499998
v -10 1 -8.499998
v -9.5 1 -8.999998
v -10 1 -8.999998
v -10 0.5 -8.499998
v -10 1 -8.499998
v -10 0.5 -8.999998
v -10 1 -8.999998
v -9.5 0.5 -10.5
v -10 0.5 -10.5
v -9.5 1.5 -10.5
v -10 1.5 -10.5
v -9.5 1 -11
v -10 1 -11
v -9.5 1 -11.5
v -10 1 -11.5
v -10 0.5 -11
v -10 1 -11
v -10 0.5 -11.5
v -10 1 -11.5
v -9.5 0.5 -11.5
v -9.5 1.5 -11.5
v -9.5 0.5 -12
v -9.5 1.5 -12
v -9.5 1 -12
v -10 1 -12
v -9.5 1 -12.5
v -10 1 -12.5
v -9.5 1 -15.5
v -10 1 -15.5
v -9.5 1 -16
v -10 1 -16
v -9.5 1 -16.5
v -10 1 -16.5
v -9.5 1 -17
v -10 1 -17
v -9.5 1 -8.499998
v -10 1 -8.499998
v -9.5 2 -8.499998
v -10 2 -8.499998
v -9.5 1 -11
v -10.5 1 -11
v -9.5 1.5 -11
v -10.5 1.5 -11
v -9.5 1.5 -10.5
v -11 1.5 -10.5
v -9.5 1.5 -11
v -11 1.5 -11
v -9.5 1 -10.5
v -9.5 1.5 -10.5
v -9.5 1 -11
v -9.5 1.5 -11
v -9.5 1 -12
v -10 1 -12
v -9.5 1.5 -12
v -10 1.5 -12
v -9.5 1 -11.5
v -10.5 1 -11.5
v -9.5 1.5 -11.5
v -10.5 1.5 -11.5
v -9.5 1.5 -11.5
v -10.5 1.5 -11.5
v -9.5 1.5 -12
v -10.5 1.5 -12
v -9.5 1 -12.5
v -10 1 -12.5
v -9.5 1.5 -12.5
v -10 1.5 -12.5
v -9.5 1.5 -12.5
v -10.5 1.5 -12.5
v -9.5 1.5 -13
v -10.5 1.5 -13
v -9.5 1 -12.5
v -9.5 1.5 -12.5
v -9.5 1 -13
v -9.5 1.5 -13
v -9.5 1.5 -13.5
v -11 1.5 -13.5
v -9.5 1.5 -14.5
v -11 1.5 -14.5
v -9.5 1 -13.5
v -9.5 1.5 -13.5
v -9.5 1 -14.5
v -9.5 1.5 -14.5
v -9.5 1 -15.5
v -10 1 -15.5
v -9.5 1.5 -15.5
v -10 1.5 -15.5
v -9.5 1.5 -15
v -10 1.5 -15
v -9.5 1.5 -15.5
v -10 1.5 -15.5
v -9.5 1 -15
v -9.5 1.5 -15
v -9.5 1 -15.5
v -9.5 1.5 -15.5
v -9.5 1 -16.5
v -10 1 -16.5
v -9.5 2 -16.5
v -10 2 -16.5
v -9.5 1 -16
v -10 1 -16
v -9.5 2 -16
v -10 2 -16
v -9.5 1 -16
v -9.5 2 -16
v -9.5 1 -16.5
v -9.5 2 -16.5
v -9.5 1 -17
v -10 1 -17
v -9.5 1.5 -17
v -10 1.5 -17
v -9.5 1.5 -17
v -10 1.5 -17
v -9.5 1.5 -17.5
v -10 1.5 -17.5
v -9.5 1 -17
v -9.5 1.5 -17
v -9.5 1.000002 -18
v -9.5 1.500002 -18
v -9.5 1.500002 -19
v -10 1.500002 -19
v -9.5 1.500002 -19.5
v -10 1.500002 -19.5
v -9.5 1.000002 -19
v -9.5 1.500002 -19
v -9.5 1.000002 -19.5
v -9.5 1.500002 -19.5
v -10 1.000002 -19.5
v -10 1.500002 -19.5
v -10 1.000002 -20
v -10 1.500002 -20
v -9.5 2 -5.999998
v -11.5 2 -5.999998
v -9.5 2 -7.499998
v -11.5 2 -7.499998
v -9.5 1.5 -5.999998
v -9.5 2 -5.999998
v -9.5 1.5 -7.499998
v -9.5 2 -7.499998
v -10 1.5 -7.499998
v -10 2 -7.499998
v -10 1.5 -8.499998
v -10 2 -8.499998
v -9.5 2 -7.999998
v -10 2 -7.999998
v -9.5 2 -8.499998
v -10 2 -8.499998
v -9.5 1.5 -7.999998
v -9.5 2 -7.999998
v -9.5 1.5 -8.499998
v -9.5 2 -8.499998
v -9.5 2 -16
v -10 2 -16
v -9.5 2 -16.5
v -10 2 -16.5
v -10 1.5 -16
v -10 2 -16
v -10 1.5 -16.5
v -10 2 -16.5
v -9.5 1.5 -17.5
v -10 1.5 -17.5
v -9.5 2 -17.5
v -10 2 -17.5
v -9.5 2 -17.5
v -16 2 -17.5
v -9.5 2 -18
v -16 2 -18
v -9.5 1.5 -17.5
v -9.5 2 -17.5
v -9.5 1.500002 -18
v -9.5 2 -18
v -9.5 1.500002 -19
v -10 1.500002 -19
v -9.5 2.000002 -19
v -10 2.000002 -19
v -9.5 2.000002 -18.5
v -16 2.000002 -18.5
v -9.5 2.000002 -19
v -16 2.000002 -19
v -9.5 1.500002 -18.5
v -9.5 2.000002 -18.5
v -9.5 1.500002 -19
v -9.5 2.000002 -19
v -9.5 2.000002 -21
v -11 2.000002 -21
v -9.5 2.000002 -21.5
v -11 2.000002 -21.5
v -9.5 1.500002 -21
v -9.5 2.000002 -21
v -9.5 1.500002 -21.5
v -9.5 2.000002 -21.5
v -10 0.5 -8.499998
v -11 0.5 -8.499998
v -10 0.5 -9.499998
v -11 0.5 -9.499998
v -10 0.5 -11
v -10.5 0.5 -11
v -10 0.5 -11.5
v -10.5 0.5 -11.5
v -10 0.5 -8.499998
v -11 0.5 -8.499998
v -10 1.5 -8.499998
v -11 1.5 -8.499998
v -10 0.5 -9.499998
v -11 0.5 -9.499998
v -10 1 -9.499998
v -11 1 -9.499998
v -10 1 -9.499998
v -11 1 -9.499998
v -10 1 -10.5
v -11 1 -10.5
v -10 0.5 -9.499998
v -10 1 -9.499998
v -10 0.5 -10.5
v -10 1 -10.5
v -10 0.5 -11
v -10.5 0.5 -11
v -10 1 -11
v -10.5 1 -11
v -10 0.5 -11.5
v -10.5 0.5 -11.5
v -10 1 -11.5
v -10.5 1 -11.5
v -10 1.000002 -19.5
v -10.5 1.000002 -19.5
v -10 1.000002 -20
v -10.5 1.000002 -20
v -10 1.5 -7.499998
v -10.5 1.5 -7.499998
v -10 1.5 -8.499998
v -10.5 1.5 -8.499998
v -10 1 -10.5
v -11 1 -10.5
v -10 1.5 -10.5
v -11 1.5 -10.5
v -10 1.5 -12
v -11 1.5 -12
v -10 1.5 -12.5
v -11 1.5 -12.5
v -10 1 -12
v -10 1.5 -12
v -10 1 -12.5
v -10 1.5 -12.5
v -10 1.5 -15.5
v -10.5 1.5 -15.5
v -10 1.5 -17
v -10.5 1.5 -17
v -10 1 -15.5
v -10 1.5 -15.5
v -10 1 -16
v -10 1.5 -16
v -10 1 -16.5
v -10 1.5 -16.5
v -10 1 -17
v -10 1.5 -17
v -10 1.000002 -19.5
v -10.5 1.000002 -19.5
v -10 2.000002 -19.5
v -10.5 2.000002 -19.5
v -10 1.000002 -20
v -10.5 1.000002 -20
v -10 1.500002 -20
v -10.5 1.500002 -20
v -10 1.5 -7.499998
v -10.5 1.5 -7.499998
v -10 2 -7.499998
v -10.5 2 -7.499998
v -10 1.5 -13.5
v -10.5 1.5 -13.5
v -10 2 -13.5
v -10.5 2 -13.5
v -10 1.5 -13
v -10.5 1.5 -13
v -10 2 -13
v -10.5 2 -13
v -10 2 -13
v -10.5 2 -13
v -10 2 -13.5
v -10.5 2 -13.5
v -10 1.5 -13
v -10 2 -13
v -10 1.5 -13.5
v -10 2 -13.5
v -10.5 1.5 -13
v -10.5 2 -13
v -10.5 1.5 -13.5
v -10.5 2 -13.5
v -10 1.5 -15.5
v -10.5 1.5 -15.5
v -10 2 -15.5
v -10.5 2 -15.5
v -10 1.5 -15
v -10.5 1.5 -15
v -10 2 -15
v -10.5 2 -15
v -10 2 -15
v -10.5 2 -15
v -10 2 -15.5
v -10.5 2 -15.5
v -10 1.5 -15
v -10 2 -15
v -10 1.5 -15.5
v -10 2 -15.5
v -10.5 1.5 -15
v -10.5 2 -15
v -10.5 1.5 -15.5
v -10.5 2 -15.5
v -10 1.5 -17
v -10.5 1.5 -17
v -10 2 -17
v -10.5 2 -17
v -10 2 -17
v -16 2 -17
v -10 2 -17.5
v -16 2 -17.5
v -10 1.5 -17
v -10 2 -17
v -10 1.5 -17.5
v -10 2 -17.5
v -10 2.000002 -19
v -16 2.000002 -19
v -10 2.000002 -19.5
v -16 2.000002 -19.5
v -10 1.500002 -19
v -10 2.000002 -19
v -10 1.500002 -19.5
v -10 2.000002 -19.5
v -10.5 1.500002 -20.5
v -10.5 2.000002 -20.5
v -10.5 1.500002 -21
v -10.5 2.000002 -21
v -10.5 0.5 -11
v -10.5 2 -11
v -10.5 0.5 -11.5
v -10.5 2 -11.5
v -10.5 1.5 -7.999998
v -11.5 1.5 -7.999998
v -10.5 1.5 -8.499998
v -11.5 1.5 -8.499998
v -10.5 1.5 -13
v -11 1.5 -13
v -10.5 1.5 -13.5
v -11 1.5 -13.5
v -10.5 1.5 -15
v -11 1.5 -15
v -10.5 1.5 -16
v -11 1.5 -16
v -10.5 1.500002 -19.5
v -11 1.500002 -19.5
v -10.5 1.500002 -20
v -11 1.500002 -20
v -10.5 1.000002 -19.5
v -10.5 1.500002 -19.5
v -10.5 1.000002 -20
v -10.5 1.500002 -20
v -11 1.000002 -20
v -11 1.500002 -20
v -11 1.000002 -20.5
v -11 1.500002 -20.5
v -10.5 1.500002 -20.5
v -11.5 1.500002 -20.5
v -10.5 1.500002 -21
v -11.5 1.500002 -21
v -10.5 1.5 -7.999998
v -11 1.5 -7.999998
v -10.5 2 -7.999998
v -11 2 -7.999998
v -10.5 2 -7.499998
v -11 2 -7.499998
v -10.5 2 -7.999998
v -11 2 -7.999998
v -10.5 1.5 -7.499998
v -10.5 2 -7.499998
v -10.5 1.5 -7.999998
v -10.5 2 -7.999998
v -11 1.5 -7.499998
v -11 2 -7.499998
v -11 1.5 -7.999998
v -11 2 -7.999998
v -10.5 1.5 -11
v -11 1.5 -11
v -10.5 2 -11
v -11 2 -11
v -10.5 2 -11
v -16 2 -11
v -10.5 2 -12
v -16 2 -12
v -10.5 1.5 -12
v -11 1.5 -12
v -10.5 2 -12
v -11 2 -12
v -10.5 1.5 -11.5
v -10.5 2 -11.5
v -10.5 1.5 -12
v -10.5 2 -12
v -10.5 1.5 -13
v -11 1.5 -13
v -10.5 2 -13
v -11 2 -13
v -10.5 1.5 -12.5
v -11 1.5 -12.5
v -10.5 2 -12.5
v -11 2 -12.5
v -10.5 2 -12.5
v -16 2 -12.5
v -10.5 2 -13
v -16 2 -13
v -10.5 1.5 -12.5
v -10.5 2 -12.5
v -10.5 1.5 -13
v -10.5 2 -13
v -10.5 1.5 -16
v -11 1.5 -16
v -10.5 2 -16
v -11 2 -16
v -10.5 2 -16
v -16 2 -16
v -10.5 2 -17
v -16 2 -17
v -10.5 1.5 -16
v -10.5 2 -16
v -10.5 1.5 -17
v -10.5 2 -17
v -10.5 1.500002 -19.5
v -11 1.500002 -19.5
v -10.5 2.000002 -19.5
v -11 2.000002 -19.5
v -10.5 1.500002 -21
v -11 1.500002 -21
v -10.5 2.000002 -21
v -11 2.000002 -21
v -11 1.500002 -21
v -11 2.000002 -21
v -11 1.500002 -21.5
v -11 2.000002 -21.5
v -11 0.5 -8.499998
v -11 1.5 -8.499998
v -11 0.5 -9.499998
v -11 1.5 -9.499998
v -11 1.000002 -20
v -11.5 1.000002 -20
v -11 1.000002 -20.5
v -11.5 1.000002 -20.5
v -11 1.5 -7.499998
v -11.5 1.5 -7.499998
v -11 1.5 -7.999998
v -11.5 1.5 -7.999998
v -11 1.5 -8.499998
v -11.5 1.5 -8.499998
v -11 1.5 -10.5
v -11.5 1.5 -10.5
v -11 1 -9.499998
v -11 1.5 -9.499998
v -11 1 -10.5
v -11 1.5 -10.5
v -11 1.5 -14
v -11.5 1.5 -14
v -11 1.5 -14.5
v -11.5 1.5 -14.5
v -11 1.000002 -20
v -11.5 1.000002 -20
v -11 2.000002 -20
v -11.5 2.000002 -20
v -11 1.000002 -20.5
v -11.5 1.000002 -20.5
v -11 1.500002 -20.5
v -11.5 1.500002 -20.5
v -11.5 1.000002 -20.5
v -11.5 1.500002 -20.5
v -11.5 1.000002 -21.5
v -11.5 1.500002 -21.5
v -11 1.500002 -21
v -11.5 1.500002 -21
v -11 1.500002 -21.5
v -11.5 1.500002 -21.5
v -11 1.5 -7.499998
v -11.5 1.5 -7.499998
v -11 2 -7.499998
v -11.5 2 -7.499998
v -11.5 1.5 -6.999998
v -11.5 2 -6.999998
v -11.5 1.5 -7.499998
v -11.5 2 -7.499998
v -11 1.5 -10.5
v -11.5 1.5 -10.5
v -11 2 -10.5
v -11.5 2 -10.5
v -11 2 -10.5
v -16 2 -10.5
v -11 2 -11
v -16 2 -11
v -11 1.5 -10.5
v -11 2 -10.5
v -11 1.5 -11
v -11 2 -11
v -11 2 -12
v -16 2 -12
v -11 2 -12.5
v -16 2 -12.5
v -11 1.5 -12
v -11 2 -12
v -11 1.5 -12.5
v -11 2 -12.5
v -11 2 -13
v -16 2 -13
v -11 2 -14
v -16 2 -14
v -11 1.5 -13
v -11 2 -13
v -11 1.5 -14
v -11 2 -14
v -11 1.5 -14
v -11.5 1.5 -14
v -11 2 -14
v -11.5 2 -14
v -11 1.5 -14.5
v -11.5 1.5 -14.5
v -11 2 -14.5
v -11.5 2 -14.5
v -11 2 -14.5
v -16 2 -14.5
v -11 2 -16
v -16 2 -16
v -11 1.5 -14.5
v -11 2 -14.5
v -11 1.5 -16
v -11 2 -16
v -11 2.000002 -19.5
v -16 2.000002 -19.5
v -11 2.000002 -20
v -16 2.000002 -20
v -11 1.500002 -19.5
v -11 2.000002 -19.5
v -11 1.500002 -20
v -11 2.000002 -20
v -11 1.500002 -21.5
v -12 1.500002 -21.5
v -11 2.000002 -21.5
v -12 2.000002 -21.5
v -11.5 1.000002 -20.5
v -12 1.000002 -20.5
v -11.5 1.000002 -21.5
v -12 1.000002 -21.5
v -11.5 1.5 -6.999998
v -12 1.5 -6.999998
v -11.5 1.5 -7.499998
v -12 1.5 -7.499998
v -11.5 1.5 -8.499998
v -12 1.5 -8.499998
v -11.5 1.5 -9.499998
v -12 1.5 -9.499998
v -11.5 1.000002 -20.5
v -12 1.000002 -20.5
v -11.5 2.000002 -20.5
v -12 2.000002 -20.5
v -11.5 1.000002 -20
v -11.5 2.000002 -20
v -11.5 1.000002 -20.5
v -11.5 2.000002 -20.5
v -11.5 1.000002 -21.5
v -12 1.000002 -21.5
v -11.5 1.500002 -21.5
v -12 1.500002 -21.5
v -11.5 2 -5.999998
v -16 2 -5.999998
v -11.5 2 -6.999998
v -16 2 -6.999998
v -11.5 1.5 -6.999998
v -12 1.5 -6.999998
v -11.5 2 -6.999998
v -12 2 -6.999998
v -11.5 1.5 -7.499998
v -12 1.5 -7.499998
v -11.5 2 -7.499998
v -12 2 -7.499998
v -11.5 2 -7.499998
v -16 2 -7.499998
v -11.5 2 -8.499998
v -16 2 -8.499998
v -11.5 1.5 -7.499998
v -11.5 2 -7.499998
v -11.5 1.5 -8.499998
v -11.5 2 -8.499998
v -11.5 1.5 -8.499998
v -12 1.5 -8.499998
v -11.5 2 -8.499998
v -12 2 -8.499998
v -11.5 1.5 -9.499998
v -12 1.5 -9.499998
v -11.5 2 -9.499998
v -12 2 -9.499998
v -11.5 2 -9.499998
v -16 2 -9.499998
v -11.5 2 -10.5
v -16 2 -10.5
v -11.5 1.5 -9.499998
v -11.5 2 -9.499998
v -11.5 1.5 -10.5
v -11.5 2 -10.5
v -11.5 2 -14
v -16 2 -14
v -11.5 2 -14.5
v -16 2 -14.5
v -11.5 1.5 -14
v -11.5 2 -14
v -11.5 1.5 -14.5
v -11.5 2 -14.5
v -11.5 2.000002 -20
v -16 2.000002 -20
v -11.5 2.000002 -20.5
v -16 2.000002 -20.5
v -12 1.000002 -20.5
v -12 2.000002 -20.5
v -12 1.000002 -21.5
v -12 2.000002 -21.5
v -12 2 -6.999998
v -16 2 -6.999998
v -12 2 -7.499998
v -16 2 -7.499998
v -12 1.5 -6.999998
v -12 2 -6.999998
v -12 1.5 -7.499998
v -12 2 -7.499998
v -12 2 -8.499998
v -16 2 -8.499998
v -12 2 -9.499998
v -16 2 -9.499998
v -12 1.5 -8.499998
v -12 2 -8.499998
v -12 1.5 -9.499998
v -12 2 -9.499998
v -12 2.000002 -20.5
v -16 2.000002 -20.5
v -12 2.000002 -21.5
v -16 2.000002 -21.5
v -12.5 1.500002 -22
v -12.5 2.000002 -22
v -12.5 1.500002 -23
v -12.5 2.000002 -23
v -12.5 1.500002 -23.5
v -12.5 2.000002 -23.5
v -12.5 1.500002 -24
v -12.5 2.000002 -24
v -12.5 1.500002 -22
v -13 1.500002 -22
v -12.5 1.500002 -23
v -13 1.500002 -23
v -12.5 1.500002 -23.5
v -13 1.500002 -23.5
v -12.5 1.500002 -24
v -13 1.500002 -24
v -12.5 1.500002 -22
v -13 1.500002 -22
v -12.5 2.000002 -22
v -13 2.000002 -22
v -12.5 1.500002 -23.5
v -13 1.500002 -23.5
v -12.5 2.000002 -23.5
v -13 2.000002 -23.5
v -12.5 1.500002 -23
v -13 1.500002 -23
v -12.5 2.000002 -23
v -13 2.000002 -23
v -12.5 1.500002 -24
v -13 1.500002 -24
v -12.5 2.000002 -24
v -13 2.000002 -24
v -12.5 2.000002 -24
v -13 2.000002 -24
v -12.5 2.000002 -24.5
v -13 2.000002 -24.5
v -13 1.500002 -24
v -13 2.000002 -24
v -13 1.500002 -24.5
v -13 2.000002 -24.5
v -13 1.500002 -24
v -13.5 1.500002 -24
v -13 1.500002 -24.5
v -13.5 1.500002 -24.5
v -13 2.000002 -22
v -16 2.000002 -22
v -13 2.000002 -23
v -16 2.000002 -23
v -13 1.500002 -22
v -13 2.000002 -22
v -13 1.500002 -23
v -13 2.000002 -23
v -13 1.500002 -24
v -13.5 1.500002 -24
v -13 2.000002 -24
v -13.5 2.000002 -24
v -13 2.000002 -23.5
v -16 2.000002 -23.5
v -13 2.000002 -24
v -16 2.000002 -24
v -13 1.500002 -23.5
v -13 2.000002 -23.5
v -13 1.500002 -24
v -13 2.000002 -24
v -13 1.500002 -24.5
v -13.5 1.500002 -24.5
v -13 2.000002 -24.5
v -13.5 2.000002 -24.5
v -13.5 2.000002 -24
v -16 2.000002 -24
v -13.5 2.000002 -24.5
v -16 2.000002 -24.5
v -13.5 1.500002 -24
v -13.5 2.000002 -24
v -13.5 1.500002 -24.5
v -13.5 2.000002 -24.5
v -16 0 1.907349E-06
v -16 2 1.907349E-06
v -16 1.907349E-06 -32
v -16 2.000002 -32
vn 0 -5.960464E-08 0.9999999
vn 0 -0.9999999 -5.960464E-08
vn 1 0 0
vn 0 5.960464E-08 -0.9999999
vn 0 0.9999999 5.960464E-08
vn -1 0 0
vt 0.0078125 0.78125
vt 0.2578125 0.78125
vt 0.0078125 0.8125
vt 0.2578125 0.8125
vt 0.0078125 0.0078125
vt 0.2578125 0.0078125
vt 0.0078125 0.5078125
vt 0.2578125 0.5078125
vt 0.2890625 0.0078125
vt 0.3203125 0.0078125
vt 0.2890625 0.5078125
vt 0.3203125 0.5078125
vt 0.0078125 0.84375
vt 0.2578125 0.84375
vt 0.0078125 0.875
vt 0.2578125 0.875
vt 0.4140625 0.0078125
vt 0.4375 0.0078125
vt 0.4140625 0.5078125
vt 0.4375 0.5078125
vt 0.6796875 0.3515625
vt 0.6484375 0.3515625
vt 0.3515625 0.5390625
vt 0.359375 0.5390625
vt 0.3515625 0.71875
vt 0.359375 0.71875
vt 0.9140625 0.421875
vt 0.921875 0.421875
vt 0.9140625 0.4375
vt 0.921875 0.4375
vt 0.5703125 0.3515625
vt 0.953125 0.421875
vt 0.96875 0.421875
vt 0.953125 0.4296875
vt 0.96875 0.4296875
vt 0.2890625 0.71875
vt 0.3046875 0.71875
vt 0.2890625 0.8828125
vt 0.3046875 0.8828125
vt 0.5078125 0.3515625
vt 0.46875 0.0078125
vt 0.53125 0.0078125
vt 0.46875 0.1484375
vt 0.53125 0.1484375
vt 0.3515625 0.75
vt 0.359375 0.75
vt 0.3515625 0.9140625
vt 0.359375 0.9140625
vt 0.96875 0.0078125
vt 0.9296875 0.1328125
vt 0.9765625 0.1328125
vt 0.9296875 0.140625
vt 0.9765625 0.140625
vt 0.125 0.953125
vt 0.6171875 0.3515625
vt 0.65625 0.2265625
vt 0.7421875 0.2265625
vt 0.65625 0.234375
vt 0.7421875 0.234375
vt 0.2890625 0.5390625
vt 0.3203125 0.5390625
vt 0.2890625 0.6875
vt 0.3203125 0.6875
vt 0.71875 0.3125
vt 0.78125 0.3125
vt 0.71875 0.3203125
vt 0.78125 0.3203125
vt 0.4140625 0.5390625
vt 0.421875 0.5390625
vt 0.4140625 0.671875
vt 0.421875 0.671875
vt 0.5390625 0.3515625
vt 0.828125 0.0859375
vt 0.8984375 0.0859375
vt 0.828125 0.1015625
vt 0.8984375 0.1015625
vt 0.921875 0.1796875
vt 0.9765625 0.1796875
vt 0.921875 0.1875
vt 0.9765625 0.1875
vt 0.4140625 0.703125
vt 0.421875 0.703125
vt 0.4140625 0.828125
vt 0.421875 0.828125
vt 0.4140625 0.859375
vt 0.421875 0.859375
vt 0.4140625 0.953125
vt 0.421875 0.953125
vt 0.71875 0.46875
vt 0.734375 0.46875
vt 0.71875 0.4765625
vt 0.734375 0.4765625
vt 0.546875 0.3828125
vt 0.5859375 0.3828125
vt 0.546875 0.390625
vt 0.5859375 0.390625
vt 0.2578125 0.65625
vt 0.765625 0.46875
vt 0.78125 0.46875
vt 0.765625 0.4765625
vt 0.78125 0.4765625
vt 0.46875 0.2734375
vt 0.4765625 0.2734375
vt 0.46875 0.3515625
vt 0.4765625 0.3515625
vt 0.9375 0.46875
vt 0.9453125 0.46875
vt 0.9375 0.484375
vt 0.9453125 0.484375
vt 0.546875 0.5234375
vt 0.5625 0.5234375
vt 0.546875 0.53125
vt 0.5625 0.53125
vt 0.5625 0.0078125
vt 0.6328125 0.0078125
vt 0.5625 0.125
vt 0.6328125 0.125
vt 0.59375 0.5234375
vt 0.609375 0.5234375
vt 0.59375 0.53125
vt 0.609375 0.53125
vt 0.640625 0.5234375
vt 0.65625 0.5234375
vt 0.640625 0.53125
vt 0.65625 0.53125
vt 0.8203125 0.3125
vt 0.84375 0.3125
vt 0.8203125 0.3359375
vt 0.84375 0.3359375
vt 0.2890625 0.9140625
vt 0.296875 0.9140625
vt 0.2890625 0.9765625
vt 0.296875 0.9765625
vt 0.46875 0.421875
vt 0.484375 0.421875
vt 0.46875 0.4375
vt 0.484375 0.4375
vt 0.5078125 0.5703125
vt 0.515625 0.5703125
vt 0.5078125 0.5859375
vt 0.515625 0.5859375
vt 0.6875 0.5234375
vt 0.703125 0.5234375
vt 0.6875 0.53125
vt 0.703125 0.53125
vt 0.734375 0.5234375
vt 0.75 0.5234375
vt 0.734375 0.53125
vt 0.75 0.53125
vt 0.8046875 0.3828125
vt 0.828125 0.3828125
vt 0.8046875 0.390625
vt 0.828125 0.390625
vt 0.6171875 0.421875
vt 0.640625 0.421875
vt 0.6171875 0.4296875
vt 0.640625 0.4296875
vt 0.75 0.421875
vt 0.7578125 0.421875
vt 0.75 0.4375
vt 0.7578125 0.4375
vt 0.78125 0.5234375
vt 0.796875 0.5234375
vt 0.78125 0.53125
vt 0.796875 0.53125
vt 0.828125 0.5234375
vt 0.84375 0.5234375
vt 0.828125 0.53125
vt 0.84375 0.53125
vt 0.5078125 0.46875
vt 0.515625 0.46875
vt 0.5078125 0.4921875
vt 0.515625 0.4921875
vt 0.46875 0.90625
vt 0.4765625 0.90625
vt 0.46875 0.9296875
vt 0.4765625 0.9296875
vt 0.875 0.5234375
vt 0.890625 0.5234375
vt 0.875 0.53125
vt 0.890625 0.53125
vt 0.6171875 0.2734375
vt 0.6875 0.2734375
vt 0.6171875 0.28125
vt 0.6875 0.28125
vt 0.671875 0.421875
vt 0.6796875 0.421875
vt 0.671875 0.4375
vt 0.6796875 0.4375
vt 0.46875 0.6875
vt 0.4765625 0.6875
vt 0.46875 0.7109375
vt 0.4765625 0.7109375
vt 0.46875 0.5234375
vt 0.4765625 0.5234375
vt 0.46875 0.546875
vt 0.4765625 0.546875
vt 0.6875 0.3828125
vt 0.71875 0.3828125
vt 0.6875 0.390625
vt 0.71875 0.390625
vt 0.0078125 0.5390625
vt 0.171875 0.5390625
vt 0.0078125 0.625
vt 0.171875 0.625
vt 0.7109375 0.421875
vt 0.71875 0.421875
vt 0.7109375 0.4375
vt 0.71875 0.4375
vt 0.9140625 0.3203125
vt 0.9609375 0.3203125
vt 0.9140625 0.328125
vt 0.9609375 0.328125
vt 0.5859375 0.46875
vt 0.59375 0.46875
vt 0.5859375 0.4921875
vt 0.59375 0.4921875
vt 0.671875 0.46875
vt 0.6875 0.46875
vt 0.671875 0.4765625
vt 0.6875 0.4765625
vt 0.75 0.3828125
vt 0.7734375 0.3828125
vt 0.75 0.390625
vt 0.7734375 0.390625
vt 0.46875 0.46875
vt 0.4765625 0.46875
vt 0.46875 0.4921875
vt 0.4765625 0.4921875
vt 0.9140625 0.2734375
vt 0.9453125 0.2734375
vt 0.9140625 0.2890625
vt 0.9453125 0.2890625
vt 0.7890625 0.421875
vt 0.796875 0.421875
vt 0.7890625 0.4375
vt 0.796875 0.4375
vt 0.875 0.3125
vt 0.8828125 0.3125
vt 0.875 0.3359375
vt 0.8828125 0.3359375
vt 0.546875 0.46875
vt 0.5546875 0.46875
vt 0.546875 0.4921875
vt 0.5546875 0.4921875
vt 0.9609375 0.046875
vt 0.9765625 0.046875
vt 0.9609375 0.0546875
vt 0.9765625 0.0546875
vt 0.6640625 0.0078125
vt 0.796875 0.0078125
vt 0.6640625 0.015625
vt 0.796875 0.015625
vt 0.828125 0.421875
vt 0.84375 0.421875
vt 0.828125 0.4296875
vt 0.84375 0.4296875
vt 0.6640625 0.046875
vt 0.7890625 0.046875
vt 0.6640625 0.0546875
vt 0.7890625 0.0546875
vt 0.46875 0.8515625
vt 0.4765625 0.8515625
vt 0.46875 0.875
vt 0.4765625 0.875
vt 0.46875 0.6328125
vt 0.4765625 0.6328125
vt 0.46875 0.65625
vt 0.4765625 0.65625
vt 0.46875 0.7421875
vt 0.4765625 0.7421875
vt 0.46875 0.765625
vt 0.4765625 0.765625
vt 0.625 0.46875
vt 0.640625 0.46875
vt 0.625 0.4765625
vt 0.640625 0.4765625
vt 0.6640625 0.0859375
vt 0.78125 0.0859375
vt 0.6640625 0.09375
vt 0.78125 0.09375
vt 0.6640625 0.125
vt 0.78125 0.125
vt 0.6640625 0.1328125
vt 0.78125 0.1328125
vt 0.0078125 0.90625
vt 0.125 0.90625
vt 0.0078125 0.921875
vt 0.125 0.921875
vt 0.859375 0.46875
vt 0.8671875 0.46875
vt 0.859375 0.484375
vt 0.8671875 0.484375
vt 0.0078125 0.65625
vt 0.1171875 0.65625
vt 0.0078125 0.75
vt 0.1171875 0.75
vt 0.828125 0.0078125
vt 0.9375 0.0078125
vt 0.828125 0.015625
vt 0.9375 0.015625
vt 0.9140625 0.3828125
vt 0.9375 0.3828125
vt 0.9140625 0.390625
vt 0.9375 0.390625
vt 0.859375 0.3828125
vt 0.8828125 0.3828125
vt 0.859375 0.390625
vt 0.8828125 0.390625
vt 0.203125 0.5390625
vt 0.2578125 0.5390625
vt 0.203125 0.5546875
vt 0.2578125 0.5546875
vt 0.203125 0.5859375
vt 0.2578125 0.5859375
vt 0.203125 0.6015625
vt 0.2578125 0.6015625
vt 0.5078125 0.6640625
vt 0.515625 0.6640625
vt 0.5078125 0.6796875
vt 0.515625 0.6796875
vt 0.3515625 0.9453125
vt 0.3828125 0.9453125
vt 0.3515625 0.96875
vt 0.3828125 0.96875
vt 0.46875 0.796875
vt 0.4765625 0.796875
vt 0.46875 0.8203125
vt 0.4765625 0.8203125
vt 0.828125 0.046875
vt 0.9296875 0.046875
vt 0.828125 0.0546875
vt 0.9296875 0.0546875
vt 0.15625 0.953125
vt 0.2578125 0.953125
vt 0.15625 0.9609375
vt 0.2578125 0.9609375
vt 0.5625 0.421875
vt 0.5859375 0.421875
vt 0.5625 0.4296875
vt 0.5859375 0.4296875
vt 0.796875 0.1796875
vt 0.890625 0.1796875
vt 0.796875 0.1875
vt 0.890625 0.1875
vt 0.671875 0.1796875
vt 0.765625 0.1796875
vt 0.671875 0.1875
vt 0.765625 0.1875
vt 0.0078125 0.953125
vt 0.09375 0.953125
vt 0.0078125 0.96875
vt 0.09375 0.96875
vt 0.7734375 0.2265625
vt 0.859375 0.2265625
vt 0.7734375 0.234375
vt 0.859375 0.234375
vt 0.1484375 0.7109375
vt 0.234375 0.7109375
vt 0.1484375 0.7265625
vt 0.234375 0.7265625
vt 0.875 0.421875
vt 0.8828125 0.421875
vt 0.875 0.4375
vt 0.8828125 0.4375
vt 0.5078125 0.2734375
vt 0.5859375 0.2734375
vt 0.5078125 0.28125
vt 0.5859375 0.28125
vt 0.5078125 0.3125
vt 0.5859375 0.3125
vt 0.5078125 0.3203125
vt 0.5859375 0.3203125
vt 0.15625 0.90625
vt 0.234375 0.90625
vt 0.15625 0.921875
vt 0.234375 0.921875
vt 0.46875 0.9609375
vt 0.4765625 0.9609375
vt 0.46875 0.9765625
vt 0.4765625 0.9765625
vt 0.1484375 0.65625
vt 0.2265625 0.65625
vt 0.1484375 0.6796875
vt 0.2265625 0.6796875
vt 0.46875 0.578125
vt 0.4765625 0.578125
vt 0.46875 0.6015625
vt 0.4765625 0.6015625
vt 0.890625 0.2265625
vt 0.96875 0.2265625
vt 0.890625 0.234375
vt 0.96875 0.234375
vt 0.8125 0.46875
vt 0.828125 0.46875
vt 0.8125 0.4765625
vt 0.828125 0.4765625
vt 0.46875 0.1796875
vt 0.5390625 0.1796875
vt 0.46875 0.1953125
vt 0.5390625 0.1953125
vt 0.5703125 0.1796875
vt 0.640625 0.1796875
vt 0.5703125 0.1953125
vt 0.640625 0.1953125
vt 0.8984375 0.46875
vt 0.90625 0.46875
vt 0.8984375 0.484375
vt 0.90625 0.484375
vt 0.828125 0.1328125
vt 0.8984375 0.1328125
vt 0.828125 0.1484375
vt 0.8984375 0.1484375
vt 0.5078125 0.5234375
vt 0.515625 0.5234375
vt 0.5078125 0.5390625
vt 0.515625 0.5390625
vt 0.6171875 0.3125
vt 0.6875 0.3125
vt 0.6171875 0.3203125
vt 0.6875 0.3203125
vt 0.71875 0.2734375
vt 0.7890625 0.2734375
vt 0.71875 0.28125
vt 0.7890625 0.28125
vt 0.515625 0.421875
vt 0.53125 0.421875
vt 0.515625 0.4375
vt 0.53125 0.4375
vt 0.8203125 0.2734375
vt 0.8828125 0.2734375
vt 0.8203125 0.28125
vt 0.8828125 0.28125
vt 0.46875 0.2265625
vt 0.53125 0.2265625
vt 0.46875 0.2421875
vt 0.53125 0.2421875
vt 0.5078125 0.6171875
vt 0.515625 0.6171875
vt 0.5078125 0.6328125
vt 0.515625 0.6328125
vt 0.5625 0.2265625
vt 0.625 0.2265625
vt 0.5625 0.2421875
vt 0.625 0.2421875
vt 0.9296875 0.0859375
vt 0.9765625 0.0859375
vt 0.9296875 0.1015625
vt 0.9765625 0.1015625
vt 0.5078125 0.7109375
vt 0.515625 0.7109375
vt 0.5078125 0.7265625
vt 0.515625 0.7265625
vt 0.46875 0.3828125
vt 0.515625 0.3828125
vt 0.46875 0.390625
vt 0.515625 0.390625
vt 0.6171875 0.3828125
vt 0.65625 0.3828125
vt 0.6171875 0.390625
vt 0.65625 0.390625
vt 0.3515625 0.0078125
vt 0.3828125 0.0078125
vt 0.3515625 0.5078125
vt 0.3828125 0.5078125
usemtl voxel
f 2/2/1 1/1/1 3/3/1
f 2/2/1 3/3/1 4/4/1
f 5/5/2 6/6/2 7/7/2
f 7/7/2 6/6/2 8/8/2
f 10/10/3 9/9/3 11/11/3
f 10/10/3 11/11/3 12/12/3
f 13/13/4 14/14/4 15/15/4
f 15/15/4 14/14/4 16/16/4
f 18/18/5 17/17/5 19/19/5
f 18/18/5 19/19/5 20/20/5
f 21/21/6 22/21/6 23/21/6
f 23/21/6 22/21/6 24/21/6
f 25/22/6 26/22/6 27/22/6
f 27/22/6 26/22/6 28/22/6
f 30/22/5 29/22/5 31/22/5
f 30/22/5 31/22/5 32/22/5
f 34/22/5 33/22/5 35/22/5
f 34/22/5 35/22/5 36/22/5
f 38/24/5 37/23/5 39/25/5
f 38/24/5 39/25/5 40/26/5
f 41/27/6 42/28/6 43/29/6
f 43/29/6 42/28/6 44/30/6
f 45/31/4 46/31/4 47/31/4
f 47/31/4 46/31/4 48/31/4
f 50/33/1 49/32/1 51/34/1
f 50/33/1 51/34/1 52/35/1
f 54/37/5 53/36/5 55/38/5
f 54/37/5 55/38/5 56/39/5
f 57/40/4 58/40/4 59/40/4
f 59/40/4 58/40/4 60/40/4
f 62/21/1 61/21/1 63/21/1
f 62/21/1 63/21/1 64/21/1
f 66/42/5 65/41/5 67/43/5
f 66/42/5 67/43/5 68/44/5
f 70/22/5 69/22/5 71/22/5
f 70/22/5 71/22/5 72/22/5
f 73/22/6 74/22/6 75/22/6
f 75/22/6 74/22/6 76/22/6
f 78/46/5 77/45/5 79/47/5
f 78/46/5 79/47/5 80/48/5
f 81/49/6 82/49/6 83/49/6
f 83/49/6 82/49/6 84/49/6
f 85/50/4 86/51/4 87/52/4
f 87/52/4 86/51/4 88/53/4
f 89/54/6 90/54/6 91/54/6
f 91/54/6 90/54/6 92/54/6
f 93/55/6 94/55/6 95/55/6
f 95/55/6 94/55/6 96/55/6
f 98/57/5 97/56/5 99/58/5
f 98/57/5 99/58/5 100/59/5
f 102/22/3 101/22/3 103/22/3
f 102/22/3 103/22/3 104/22/3
f 106/22/5 105/22/5 107/22/5
f 106/22/5 107/22/5 108/22/5
f 110/22/5 109/22/5 111/22/5
f 110/22/5 111/22/5 112/22/5
f 114/22/5 113/22/5 115/22/5
f 114/22/5 115/22/5 116/22/5
f 117/22/4 118/22/4 119/22/4
f 119/22/4 118/22/4 120/22/4
f 121/22/6 122/22/6 123/22/6
f 123/22/6 122/22/6 124/22/6
f 126/22/1 125/22/1 127/22/1
f 126/22/1 127/22/1 128/22/1
f 130/22/5 129/22/5 131/22/5
f 130/22/5 131/22/5 132/22/5
f 133/22/6 134/22/6 135/22/6
f 135/22/6 134/22/6 136/22/6
f 138/22/5 137/22/5 139/22/5
f 138/22/5 139/22/5 140/22/5
f 142/61/5 141/60/5 143/62/5
f 142/61/5 143/62/5 144/63/5
f 145/49/4 146/49/4 147/49/4
f 147/49/4 146/49/4 148/49/4
f 150/22/1 149/22/1 151/22/1
f 150/22/1 151/22/1 152/22/1
f 154/65/5 153/64/5 155/66/5
f 154/65/5 155/66/5 156/67/5
f 158/22/1 157/22/1 159/22/1
f 158/22/1 159/22/1 160/22/1
f 162/22/5 161/22/5 163/22/5
f 162/22/5 163/22/5 164/22/5
f 166/22/3 165/22/3 167/22/3
f 166/22/3 167/22/3 168/22/3
f 170/22/1 169/22/1 171/22/1
f 170/22/1 171/22/1 172/22/1
f 174/69/5 173/68/5 175/70/5
f 174/69/5 175/70/5 176/71/5
f 177/22/6 178/22/6 179/22/6
f 179/22/6 178/22/6 180/22/6
f 181/72/4 182/72/4 183/72/4
f 183/72/4 182/72/4 184/72/4
f 186/31/1 185/31/1 187/31/1
f 186/31/1 187/31/1 188/31/1
f 190/74/5 189/73/5 191/75/5
f 190/74/5 191/75/5 192/76/5
f 194/22/5 193/22/5 195/22/5
f 194/22/5 195/22/5 196/22/5
f 198/22/5 197/22/5 199/22/5
f 198/22/5 199/22/5 200/22/5
f 201/22/4 202/22/4 203/22/4
f 203/22/4 202/22/4 204/22/4
f 206/22/1 205/22/1 207/22/1
f 206/22/1 207/22/1 208/22/1
f 210/22/5 209/22/5 211/22/5
f 210/22/5 211/22/5 212/22/5
f 213/22/6 214/22/6 215/22/6
f 215/22/6 214/22/6 216/22/6
f 218/78/5 217/77/5 219/79/5
f 218/78/5 219/79/5 220/80/5
f 222/22/3 221/22/3 223/22/3
f 222/22/3 223/22/3 224/22/3
f 226/22/1 225/22/1 227/22/1
f 226/22/1 227/22/1 228/22/1
f 230/82/5 229/81/5 231/83/5
f 230/82/5 231/83/5 232/84/5
f 233/22/6 234/22/6 235/22/6
f 235/22/6 234/22/6 236/22/6
f 237/22/6 238/22/6 239/22/6
f 239/22/6 238/22/6 240/22/6
f 242/22/3 241/22/3 243/22/3
f 242/22/3 243/22/3 244/22/3
f 245/22/6 246/22/6 247/22/6
f 247/22/6 246/22/6 248/22/6
f 250/22/5 249/22/5 251/22/5
f 250/22/5 251/22/5 252/22/5
f 253/22/4 254/22/4 255/22/4
f 255/22/4 254/22/4 256/22/4
f 258/22/5 257/22/5 259/22/5
f 258/22/5 259/22/5 260/22/5
f 262/22/3 261/22/3 263/22/3
f 262/22/3 263/22/3 264/22/3
f 266/22/1 265/22/1 267/22/1
f 266/22/1 267/22/1 268/22/1
f 270/22/5 269/22/5 271/22/5
f 270/22/5 271/22/5 272/22/5
f 273/22/6 274/22/6 275/22/6
f 275/22/6 274/22/6 276/22/6
f 278/22/5 277/22/5 279/22/5
f 278/22/5 279/22/5 280/22/5
f 282/22/1 281/22/1 283/22/1
f 282/22/1 283/22/1 284/22/1
f 286/86/5 285/85/5 287/87/5
f 286/86/5 287/87/5 288/88/5
f 289/22/6 290/22/6 291/22/6
f 291/22/6 290/22/6 292/22/6
f 293/40/4 294/40/4 295/40/4
f 295/40/4 294/40/4 296/40/4
f 297/40/6 298/40/6 299/40/6
f 299/40/6 298/40/6 300/40/6
f 302/90/1 301/89/1 303/91/1
f 302/90/1 303/91/1 304/92/1
f 306/94/5 305/93/5 307/95/5
f 306/94/5 307/95/5 308/96/5
f 310/22/5 309/22/5 311/22/5
f 310/22/5 311/22/5 312/22/5
f 313/22/4 314/22/4 315/22/4
f 315/22/4 314/22/4 316/22/4
f 318/22/1 317/22/1 319/22/1
f 318/22/1 319/22/1 320/22/1
f 322/22/5 321/22/5 323/22/5
f 322/22/5 323/22/5 324/22/5
f 326/22/1 325/22/1 327/22/1
f 326/22/1 327/22/1 328/22/1
f 330/22/5 329/22/5 331/22/5
f 330/22/5 331/22/5 332/22/5
f 334/22/5 333/22/5 335/22/5
f 334/22/5 335/22/5 336/22/5
f 337/97/6 338/97/6 339/97/6
f 339/97/6 338/97/6 340/97/6
f 342/99/1 341/98/1 343/100/1
f 342/99/1 343/100/1 344/101/1
f 346/103/5 345/102/5 347/104/5
f 346/103/5 347/104/5 348/105/5
f 349/106/6 350/107/6 351/108/6
f 351/108/6 350/107/6 352/109/6
f 353/22/4 354/22/4 355/22/4
f 355/22/4 354/22/4 356/22/4
f 358/22/5 357/22/5 359/22/5
f 358/22/5 359/22/5 360/22/5
f 361/22/4 362/22/4 363/22/4
f 363/22/4 362/22/4 364/22/4
f 366/22/5 365/22/5 367/22/5
f 366/22/5 367/22/5 368/22/5
f 370/22/3 369/22/3 371/22/3
f 370/22/3 371/22/3 372/22/3
f 373/22/6 374/22/6 375/22/6
f 375/22/6 374/22/6 376/22/6
f 378/111/5 377/110/5 379/112/5
f 378/111/5 379/112/5 380/113/5
f 382/22/5 381/22/5 383/22/5
f 382/22/5 383/22/5 384/22/5
f 386/115/5 385/114/5 387/116/5
f 386/115/5 387/116/5 388/117/5
f 389/118/4 390/119/4 391/120/4
f 391/120/4 390/119/4 392/121/4
f 394/123/1 393/122/1 395/124/1
f 394/123/1 395/124/1 396/125/1
f 398/127/5 397/126/5 399/128/5
f 398/127/5 399/128/5 400/129/5
f 402/131/5 401/130/5 403/132/5
f 402/131/5 403/132/5 404/133/5
f 405/22/6 406/22/6 407/22/6
f 407/22/6 406/22/6 408/22/6
f 409/55/6 410/55/6 411/55/6
f 411/55/6 410/55/6 412/55/6
f 413/22/4 414/22/4 415/22/4
f 415/22/4 414/22/4 416/22/4
f 417/22/6 418/22/6 419/22/6
f 419/22/6 418/22/6 420/22/6
f 422/22/1 421/22/1 423/22/1
f 422/22/1 423/22/1 424/22/1
f 426/135/5 425/134/5 427/136/5
f 426/135/5 427/136/5 428/137/5
f 430/139/3 429/138/3 431/140/3
f 430/139/3 431/140/3 432/141/3
f 434/22/5 433/22/5 435/22/5
f 434/22/5 435/22/5 436/22/5
f 437/22/4 438/22/4 439/22/4
f 439/22/4 438/22/4 440/22/4
f 442/22/5 441/22/5 443/22/5
f 442/22/5 443/22/5 444/22/5
f 446/22/3 445/22/3 447/22/3
f 446/22/3 447/22/3 448/22/3
f 449/22/6 450/22/6 451/22/6
f 451/22/6 450/22/6 452/22/6
f 453/22/6 454/22/6 455/22/6
f 455/22/6 454/22/6 456/22/6
f 458/22/5 457/22/5 459/22/5
f 458/22/5 459/22/5 460/22/5
f 462/22/5 461/22/5 463/22/5
f 462/22/5 463/22/5 464/22/5
f 465/142/6 466/143/6 467/144/6
f 467/144/6 466/143/6 468/145/6
f 470/22/5 469/22/5 471/22/5
f 470/22/5 471/22/5 472/22/5
f 473/146/6 474/147/6 475/148/6
f 475/148/6 474/147/6 476/149/6
f 477/150/4 478/151/4 479/152/4
f 479/152/4 478/151/4 480/153/4
f 482/155/5 481/154/5 483/156/5
f 482/155/5 483/156/5 484/157/5
f 486/22/3 485/22/3 487/22/3
f 486/22/3 487/22/3 488/22/3
f 490/54/1 489/54/1 491/54/1
f 490/54/1 491/54/1 492/54/1
f 494/159/5 493/158/5 495/160/5
f 494/159/5 495/160/5 496/161/5
f 497/54/6 498/54/6 499/54/6
f 499/54/6 498/54/6 500/54/6
f 501/162/4 502/163/4 503/164/4
f 503/164/4 502/163/4 504/165/4
f 506/167/1 505/166/1 507/168/1
f 506/167/1 507/168/1 508/169/1
f 510/171/5 509/170/5 511/172/5
f 510/171/5 511/172/5 512/173/5
f 513/22/4 514/22/4 515/22/4
f 515/22/4 514/22/4 516/22/4
f 517/22/6 518/22/6 519/22/6
f 519/22/6 518/22/6 520/22/6
f 522/22/1 521/22/1 523/22/1
f 522/22/1 523/22/1 524/22/1
f 526/22/5 525/22/5 527/22/5
f 526/22/5 527/22/5 528/22/5
f 530/22/3 529/22/3 531/22/3
f 530/22/3 531/22/3 532/22/3
f 533/174/6 534/175/6 535/176/6
f 535/176/6 534/175/6 536/177/6
f 537/22/6 538/22/6 539/22/6
f 539/22/6 538/22/6 540/22/6
f 541/55/6 542/55/6 543/55/6
f 543/55/6 542/55/6 544/55/6
f 545/22/4 546/22/4 547/22/4
f 547/22/4 546/22/4 548/22/4
f 550/22/5 549/22/5 551/22/5
f 550/22/5 551/22/5 552/22/5
f 554/22/5 553/22/5 555/22/5
f 554/22/5 555/22/5 556/22/5
f 558/22/5 557/22/5 559/22/5
f 558/22/5 559/22/5 560/22/5
f 562/22/5 561/22/5 563/22/5
f 562/22/5 563/22/5 564/22/5
f 565/22/4 566/22/4 567/22/4
f 567/22/4 566/22/4 568/22/4
f 570/22/1 569/22/1 571/22/1
f 570/22/1 571/22/1 572/22/1
f 574/22/5 573/22/5 575/22/5
f 574/22/5 575/22/5 576/22/5
f 577/22/6 578/22/6 579/22/6
f 579/22/6 578/22/6 580/22/6
f 582/22/5 581/22/5 583/22/5
f 582/22/5 583/22/5 584/22/5
f 585/22/4 586/22/4 587/22/4
f 587/22/4 586/22/4 588/22/4
f 590/22/1 589/22/1 591/22/1
f 590/22/1 591/22/1 592/22/1
f 594/22/5 593/22/5 595/22/5
f 594/22/5 595/22/5 596/22/5
f 598/22/5 597/22/5 599/22/5
f 598/22/5 599/22/5 600/22/5
f 601/22/6 602/22/6 603/22/6
f 603/22/6 602/22/6 604/22/6
f 605/178/6 606/179/6 607/180/6
f 607/180/6 606/179/6 608/181/6
f 610/22/5 609/22/5 611/22/5
f 610/22/5 611/22/5 612/22/5
f 613/22/4 614/22/4 615/22/4
f 615/22/4 614/22/4 616/22/4
f 617/22/6 618/22/6 619/22/6
f 619/22/6 618/22/6 620/22/6
f 622/22/1 621/22/1 623/22/1
f 622/22/1 623/22/1 624/22/1
f 626/22/5 625/22/5 627/22/5
f 626/22/5 627/22/5 628/22/5
f 630/183/5 629/182/5 631/184/5
f 630/183/5 631/184/5 632/185/5
f 634/21/3 633/21/3 635/21/3
f 634/21/3 635/21/3 636/21/3
f 637/186/6 638/187/6 639/188/6
f 639/188/6 638/187/6 640/189/6
f 642/55/1 641/55/1 643/55/1
f 642/55/1 643/55/1 644/55/1
f 646/55/5 645/55/5 647/55/5
f 646/55/5 647/55/5 648/55/5
f 649/55/6 650/55/6 651/55/6
f 651/55/6 650/55/6 652/55/6
f 654/22/5 653/22/5 655/22/5
f 654/22/5 655/22/5 656/22/5
f 657/22/6 658/22/6 659/22/6
f 659/22/6 658/22/6 660/22/6
f 662/22/1 661/22/1 663/22/1
f 662/22/1 663/22/1 664/22/1
f 666/22/5 665/22/5 667/22/5
f 666/22/5 667/22/5 668/22/5
f 669/22/6 670/22/6 671/22/6
f 671/22/6 670/22/6 672/22/6
f 674/191/5 673/190/5 675/192/5
f 674/191/5 675/192/5 676/193/5
f 677/194/6 678/195/6 679/196/6
f 679/196/6 678/195/6 680/197/6
f 681/72/4 682/72/4 683/72/4
f 683/72/4 682/72/4 684/72/4
f 686/199/1 685/198/1 687/200/1
f 686/199/1 687/200/1 688/201/1
f 690/203/5 689/202/5 691/204/5
f 690/203/5 691/204/5 692/205/5
f 694/22/3 693/22/3 695/22/3
f 694/22/3 695/22/3 696/22/3
f 698/22/5 697/22/5 699/22/5
f 698/22/5 699/22/5 700/22/5
f 701/22/6 702/22/6 703/22/6
f 703/22/6 702/22/6 704/22/6
f 706/22/5 705/22/5 707/22/5
f 706/22/5 707/22/5 708/22/5
f 709/22/6 710/22/6 711/22/6
f 711/22/6 710/22/6 712/22/6
f 714/22/5 713/22/5 715/22/5
f 714/22/5 715/22/5 716/22/5
f 718/22/5 717/22/5 719/22/5
f 718/22/5 719/22/5 720/22/5
f 722/22/5 721/22/5 723/22/5
f 722/22/5 723/22/5 724/22/5
f 726/207/5 725/206/5 727/208/5
f 726/207/5 727/208/5 728/209/5
f 730/22/5 729/22/5 731/22/5
f 730/22/5 731/22/5 732/22/5
f 734/22/3 733/22/3 735/22/3
f 734/22/3 735/22/3 736/22/3
f 737/22/4 738/22/4 739/22/4
f 739/22/4 738/22/4 740/22/4
f 741/22/4 742/22/4 743/22/4
f 743/22/4 742/22/4 744/22/4
f 746/22/1 745/22/1 747/22/1
f 746/22/1 747/22/1 748/22/1
f 750/22/5 749/22/5 751/22/5
f 750/22/5 751/22/5 752/22/5
f 754/22/3 753/22/3 755/22/3
f 754/22/3 755/22/3 756/22/3
f 757/22/6 758/22/6 759/22/6
f 759/22/6 758/22/6 760/22/6
f 762/22/1 761/22/1 763/22/1
f 762/22/1 763/22/1 764/22/1
f 766/22/5 765/22/5 767/22/5
f 766/22/5 767/22/5 768/22/5
f 769/22/4 770/22/4 771/22/4
f 771/22/4 770/22/4 772/22/4
f 774/22/5 773/22/5 775/22/5
f 774/22/5 775/22/5 776/22/5
f 777/22/4 778/22/4 779/22/4
f 779/22/4 778/22/4 780/22/4
f 781/22/6 782/22/6 783/22/6
f 783/22/6 782/22/6 784/22/6
f 785/22/4 786/22/4 787/22/4
f 787/22/4 786/22/4 788/22/4
f 790/22/1 789/22/1 791/22/1
f 790/22/1 791/22/1 792/22/1
f 794/22/5 793/22/5 795/22/5
f 794/22/5 795/22/5 796/22/5
f 797/22/6 798/22/6 799/22/6
f 799/22/6 798/22/6 800/22/6
f 802/22/1 801/22/1 803/22/1
f 802/22/1 803/22/1 804/22/1
f 806/22/5 805/22/5 807/22/5
f 806/22/5 807/22/5 808/22/5
f 809/22/6 810/22/6 811/22/6
f 811/22/6 810/22/6 812/22/6
f 814/22/5 813/22/5 815/22/5
f 814/22/5 815/22/5 816/22/5
f 817/22/4 818/22/4 819/22/4
f 819/22/4 818/22/4 820/22/4
f 822/22/1 821/22/1 823/22/1
f 822/22/1 823/22/1 824/22/1
f 826/22/5 825/22/5 827/22/5
f 826/22/5 827/22/5 828/22/5
f 830/22/3 829/22/3 831/22/3
f 830/22/3 831/22/3 832/22/3
f 833/22/6 834/22/6 835/22/6
f 835/22/6 834/22/6 836/22/6
f 837/97/4 838/97/4 839/97/4
f 839/97/4 838/97/4 840/97/4
f 842/211/5 841/210/5 843/212/5
f 842/211/5 843/212/5 844/213/5
f 846/21/1 845/21/1 847/21/1
f 846/21/1 847/21/1 848/21/1
f 849/214/6 850/215/6 851/216/6
f 851/216/6 850/215/6 852/217/6
f 853/22/4 854/22/4 855/22/4
f 855/22/4 854/22/4 856/22/4
f 858/22/5 857/22/5 859/22/5
f 858/22/5 859/22/5 860/22/5
f 862/22/3 861/22/3 863/22/3
f 862/22/3 863/22/3 864/22/3
f 865/22/6 866/22/6 867/22/6
f 867/22/6 866/22/6 868/22/6
f 870/219/1 869/218/1 871/220/1
f 870/219/1 871/220/1 872/221/1
f 873/222/4 874/223/4 875/224/4
f 875/224/4 874/223/4 876/225/4
f 878/22/5 877/22/5 879/22/5
f 878/22/5 879/22/5 880/22/5
f 882/22/5 881/22/5 883/22/5
f 882/22/5 883/22/5 884/22/5
f 885/22/4 886/22/4 887/22/4
f 887/22/4 886/22/4 888/22/4
f 890/22/1 889/22/1 891/22/1
f 890/22/1 891/22/1 892/22/1
f 894/22/5 893/22/5 895/22/5
f 894/22/5 895/22/5 896/22/5
f 898/22/5 897/22/5 899/22/5
f 898/22/5 899/22/5 900/22/5
f 901/22/4 902/22/4 903/22/4
f 903/22/4 902/22/4 904/22/4
f 906/22/1 905/22/1 907/22/1
f 906/22/1 907/22/1 908/22/1
f 910/22/5 909/22/5 911/22/5
f 910/22/5 911/22/5 912/22/5
f 913/22/6 914/22/6 915/22/6
f 915/22/6 914/22/6 916/22/6
f 918/22/5 917/22/5 919/22/5
f 918/22/5 919/22/5 920/22/5
f 922/22/5 921/22/5 923/22/5
f 922/22/5 923/22/5 924/22/5
f 926/227/5 925/226/5 927/228/5
f 926/227/5 927/228/5 928/229/5
f 929/22/6 930/22/6 931/22/6
f 931/22/6 930/22/6 932/22/6
f 933/22/4 934/22/4 935/22/4
f 935/22/4 934/22/4 936/22/4
f 938/22/1 937/22/1 939/22/1
f 938/22/1 939/22/1 940/22/1
f 942/22/3 941/22/3 943/22/3
f 942/22/3 943/22/3 944/22/3
f 945/22/6 946/22/6 947/22/6
f 947/22/6 946/22/6 948/22/6
f 950/22/1 949/22/1 951/22/1
f 950/22/1 951/22/1 952/22/1
f 954/22/5 953/22/5 955/22/5
f 954/22/5 955/22/5 956/22/5
f 957/22/6 958/22/6 959/22/6
f 959/22/6 958/22/6 960/22/6
f 961/22/6 962/22/6 963/22/6
f 963/22/6 962/22/6 964/22/6
f 966/22/5 965/22/5 967/22/5
f 966/22/5 967/22/5 968/22/5
f 970/22/3 969/22/3 971/22/3
f 970/22/3 971/22/3 972/22/3
f 973/22/6 974/22/6 975/22/6
f 975/22/6 974/22/6 976/22/6
f 978/22/5 977/22/5 979/22/5
f 978/22/5 979/22/5 980/22/5
f 981/22/4 982/22/4 983/22/4
f 983/22/4 982/22/4 984/22/4
f 986/22/1 985/22/1 987/22/1
f 986/22/1 987/22/1 988/22/1
f 990/22/5 989/22/5 991/22/5
f 990/22/5 991/22/5 992/22/5
f 994/22/3 993/22/3 995/22/3
f 994/22/3 995/22/3 996/22/3
f 998/97/1 997/97/1 999/97/1
f 998/97/1 999/97/1 1000/97/1
f 1002/31/1 1001/31/1 1003/31/1
f 1002/31/1 1003/31/1 1004/31/1
f 1006/231/5 1005/230/5 1007/232/5
f 1006/231/5 1007/232/5 1008/233/5
f 1010/235/3 1009/234/3 1011/236/3
f 1010/235/3 1011/236/3 1012/237/3
f 1013/21/4 1014/21/4 1015/21/4
f 1015/21/4 1014/21/4 1016/21/4
f 1017/55/4 1018/55/4 1019/55/4
f 1019/55/4 1018/55/4 1020/55/4
f 1022/55/1 1021/55/1 1023/55/1
f 1022/55/1 1023/55/1 1024/55/1
f 1026/55/5 1025/55/5 1027/55/5
f 1026/55/5 1027/55/5 1028/55/5
f 1030/55/3 1029/55/3 1031/55/3
f 1030/55/3 1031/55/3 1032/55/3
f 1033/55/6 1034/55/6 1035/55/6
f 1035/55/6 1034/55/6 1036/55/6
f 1038/22/5 1037/22/5 1039/22/5
f 1038/22/5 1039/22/5 1040/22/5
f 1041/22/4 1042/22/4 1043/22/4
f 1043/22/4 1042/22/4 1044/22/4
f 1046/22/1 1045/22/1 1047/22/1
f 1046/22/1 1047/22/1 1048/22/1
f 1050/22/5 1049/22/5 1051/22/5
f 1050/22/5 1051/22/5 1052/22/5
f 1054/22/3 1053/22/3 1055/22/3
f 1054/22/3 1055/22/3 1056/22/3
f 1057/22/6 1058/22/6 1059/22/6
f 1059/22/6 1058/22/6 1060/22/6
f 1061/55/6 1062/55/6 1063/55/6
f 1063/55/6 1062/55/6 1064/55/6
f 1066/22/5 1065/22/5 1067/22/5
f 1066/22/5 1067/22/5 1068/22/5
f 1070/22/5 1069/22/5 1071/22/5
f 1070/22/5 1071/22/5 1072/22/5
f 1074/22/5 1073/22/5 1075/22/5
f 1074/22/5 1075/22/5 1076/22/5
f 1077/22/6 1078/22/6 1079/22/6
f 1079/22/6 1078/22/6 1080/22/6
f 1082/22/5 1081/22/5 1083/22/5
f 1082/22/5 1083/22/5 1084/22/5
f 1086/22/3 1085/22/3 1087/22/3
f 1086/22/3 1087/22/3 1088/22/3
f 1090/22/5 1089/22/5 1091/22/5
f 1090/22/5 1091/22/5 1092/22/5
f 1094/22/5 1093/22/5 1095/22/5
f 1094/22/5 1095/22/5 1096/22/5
f 1097/22/6 1098/22/6 1099/22/6
f 1099/22/6 1098/22/6 1100/22/6
f 1102/22/5 1101/22/5 1103/22/5
f 1102/22/5 1103/22/5 1104/22/5
f 1106/22/5 1105/22/5 1107/22/5
f 1106/22/5 1107/22/5 1108/22/5
f 1109/22/4 1110/22/4 1111/22/4
f 1111/22/4 1110/22/4 1112/22/4
f 1114/22/1 1113/22/1 1115/22/1
f 1114/22/1 1115/22/1 1116/22/1
f 1118/22/5 1117/22/5 1119/22/5
f 1118/22/5 1119/22/5 1120/22/5
f 1122/22/3 1121/22/3 1123/22/3
f 1122/22/3 1123/22/3 1124/22/3
f 1125/22/4 1126/22/4 1127/22/4
f 1127/22/4 1126/22/4 1128/22/4
f 1130/22/1 1129/22/1 1131/22/1
f 1130/22/1 1131/22/1 1132/22/1
f 1134/22/5 1133/22/5 1135/22/5
f 1134/22/5 1135/22/5 1136/22/5
f 1137/22/4 1138/22/4 1139/22/4
f 1139/22/4 1138/22/4 1140/22/4
f 1141/22/6 1142/22/6 1143/22/6
f 1143/22/6 1142/22/6 1144/22/6
f 1145/22/4 1146/22/4 1147/22/4
f 1147/22/4 1146/22/4 1148/22/4
f 1150/22/1 1149/22/1 1151/22/1
f 1150/22/1 1151/22/1 1152/22/1
f 1154/22/5 1153/22/5 1155/22/5
f 1154/22/5 1155/22/5 1156/22/5
f 1158/22/3 1157/22/3 1159/22/3
f 1158/22/3 1159/22/3 1160/22/3
f 1161/22/6 1162/22/6 1163/22/6
f 1163/22/6 1162/22/6 1164/22/6
f 1165/22/4 1166/22/4 1167/22/4
f 1167/22/4 1166/22/4 1168/22/4
f 1170/22/1 1169/22/1 1171/22/1
f 1170/22/1 1171/22/1 1172/22/1
f 1174/22/5 1173/22/5 1175/22/5
f 1174/22/5 1175/22/5 1176/22/5
f 1177/22/6 1178/22/6 1179/22/6
f 1179/22/6 1178/22/6 1180/22/6
f 1181/22/4 1182/22/4 1183/22/4
f 1183/22/4 1182/22/4 1184/22/4
f 1186/22/1 1185/22/1 1187/22/1
f 1186/22/1 1187/22/1 1188/22/1
f 1189/22/6 1190/22/6 1191/22/6
f 1191/22/6 1190/22/6 1192/22/6
f 1194/22/5 1193/22/5 1195/22/5
f 1194/22/5 1195/22/5 1196/22/5
f 1198/22/3 1197/22/3 1199/22/3
f 1198/22/3 1199/22/3 1200/22/3
f 1201/22/6 1202/22/6 1203/22/6
f 1203/22/6 1202/22/6 1204/22/6
f 1206/22/5 1205/22/5 1207/22/5
f 1206/22/5 1207/22/5 1208/22/5
f 1210/22/3 1209/22/3 1211/22/3
f 1210/22/3 1211/22/3 1212/22/3
f 1214/239/5 1213/238/5 1215/240/5
f 1214/239/5 1215/240/5 1216/241/5
f 1218/243/3 1217/242/3 1219/244/3
f 1218/243/3 1219/244/3 1220/245/3
f 1221/22/4 1222/22/4 1223/22/4
f 1223/22/4 1222/22/4 1224/22/4
f 1225/22/6 1226/22/6 1227/22/6
f 1227/22/6 1226/22/6 1228/22/6
f 1230/22/1 1229/22/1 1231/22/1
f 1230/22/1 1231/22/1 1232/22/1
f 1233/22/6 1234/22/6 1235/22/6
f 1235/22/6 1234/22/6 1236/22/6
f 1238/22/5 1237/22/5 1239/22/5
f 1238/22/5 1239/22/5 1240/22/5
f 1242/22/5 1241/22/5 1243/22/5
f 1242/22/5 1243/22/5 1244/22/5
f 1246/22/5 1245/22/5 1247/22/5
f 1246/22/5 1247/22/5 1248/22/5
f 1249/22/4 1250/22/4 1251/22/4
f 1251/22/4 1250/22/4 1252/22/4
f 1254/22/1 1253/22/1 1255/22/1
f 1254/22/1 1255/22/1 1256/22/1
f 1257/22/6 1258/22/6 1259/22/6
f 1259/22/6 1258/22/6 1260/22/6
f 1262/22/5 1261/22/5 1263/22/5
f 1262/22/5 1263/22/5 1264/22/5
f 1265/22/4 1266/22/4 1267/22/4
f 1267/22/4 1266/22/4 1268/22/4
f 1270/22/1 1269/22/1 1271/22/1
f 1270/22/1 1271/22/1 1272/22/1
f 1274/22/5 1273/22/5 1275/22/5
f 1274/22/5 1275/22/5 1276/22/5
f 1277/22/6 1278/22/6 1279/22/6
f 1279/22/6 1278/22/6 1280/22/6
f 1282/22/5 1281/22/5 1283/22/5
f 1282/22/5 1283/22/5 1284/22/5
f 1285/22/6 1286/22/6 1287/22/6
f 1287/22/6 1286/22/6 1288/22/6
f 1290/22/5 1289/22/5 1291/22/5
f 1290/22/5 1291/22/5 1292/22/5
f 1294/22/3 1293/22/3 1295/22/3
f 1294/22/3 1295/22/3 1296/22/3
f 1298/247/3 1297/246/3 1299/248/3
f 1298/247/3 1299/248/3 1300/249/3
f 1302/22/5 1301/22/5 1303/22/5
f 1302/22/5 1303/22/5 1304/22/5
f 1306/22/5 1305/22/5 1307/22/5
f 1306/22/5 1307/22/5 1308/22/5
f 1309/22/6 1310/22/6 1311/22/6
f 1311/22/6 1310/22/6 1312/22/6
f 1313/22/4 1314/22/4 1315/22/4
f 1315/22/4 1314/22/4 1316/22/4
f 1317/22/4 1318/22/4 1319/22/4
f 1319/22/4 1318/22/4 1320/22/4
f 1322/22/1 1321/22/1 1323/22/1
f 1322/22/1 1323/22/1 1324/22/1
f 1326/22/5 1325/22/5 1327/22/5
f 1326/22/5 1327/22/5 1328/22/5
f 1330/22/3 1329/22/3 1331/22/3
f 1330/22/3 1331/22/3 1332/22/3
f 1333/22/6 1334/22/6 1335/22/6
f 1335/22/6 1334/22/6 1336/22/6
f 1338/22/1 1337/22/1 1339/22/1
f 1338/22/1 1339/22/1 1340/22/1
f 1342/22/5 1341/22/5 1343/22/5
f 1342/22/5 1343/22/5 1344/22/5
f 1345/22/6 1346/22/6 1347/22/6
f 1347/22/6 1346/22/6 1348/22/6
f 1349/22/4 1350/22/4 1351/22/4
f 1351/22/4 1350/22/4 1352/22/4
f 1354/22/5 1353/22/5 1355/22/5
f 1354/22/5 1355/22/5 1356/22/5
f 1357/22/6 1358/22/6 1359/22/6
f 1359/22/6 1358/22/6 1360/22/6
f 1362/22/1 1361/22/1 1363/22/1
f 1362/22/1 1363/22/1 1364/22/1
f 1366/22/5 1365/22/5 1367/22/5
f 1366/22/5 1367/22/5 1368/22/5
f 1370/22/5 1369/22/5 1371/22/5
f 1370/22/5 1371/22/5 1372/22/5
f 1373/22/6 1374/22/6 1375/22/6
f 1375/22/6 1374/22/6 1376/22/6
f 1377/22/4 1378/22/4 1379/22/4
f 1379/22/4 1378/22/4 1380/22/4
f 1382/22/1 1381/22/1 1383/22/1
f 1382/22/1 1383/22/1 1384/22/1
f 1386/251/5 1385/250/5 1387/252/5
f 1386/251/5 1387/252/5 1388/253/5
f 1390/22/3 1389/22/3 1391/22/3
f 1390/22/3 1391/22/3 1392/22/3
f 1394/22/5 1393/22/5 1395/22/5
f 1394/22/5 1395/22/5 1396/22/5
f 1398/22/5 1397/22/5 1399/22/5
f 1398/22/5 1399/22/5 1400/22/5
f 1402/22/5 1401/22/5 1403/22/5
f 1402/22/5 1403/22/5 1404/22/5
f 1406/22/5 1405/22/5 1407/22/5
f 1406/22/5 1407/22/5 1408/22/5
f 1409/22/6 1410/22/6 1411/22/6
f 1411/22/6 1410/22/6 1412/22/6
f 1413/22/6 1414/22/6 1415/22/6
f 1415/22/6 1414/22/6 1416/22/6
f 1418/22/1 1417/22/1 1419/22/1
f 1418/22/1 1419/22/1 1420/22/1
f 1421/22/4 1422/22/4 1423/22/4
f 1423/22/4 1422/22/4 1424/22/4
f 1425/22/6 1426/22/6 1427/22/6
f 1427/22/6 1426/22/6 1428/22/6
f 1429/22/4 1430/22/4 1431/22/4
f 1431/22/4 1430/22/4 1432/22/4
f 1434/22/1 1433/22/1 1435/22/1
f 1434/22/1 1435/22/1 1436/22/1
f 1438/22/5 1437/22/5 1439/22/5
f 1438/22/5 1439/22/5 1440/22/5
f 1442/22/1 1441/22/1 1443/22/1
f 1442/22/1 1443/22/1 1444/22/1
f 1446/22/5 1445/22/5 1447/22/5
f 1446/22/5 1447/22/5 1448/22/5
f 1450/22/5 1449/22/5 1451/22/5
f 1450/22/5 1451/22/5 1452/22/5
f 1454/22/5 1453/22/5 1455/22/5
f 1454/22/5 1455/22/5 1456/22/5
f 1458/22/5 1457/22/5 1459/22/5
f 1458/22/5 1459/22/5 1460/22/5
f 1461/22/4 1462/22/4 1463/22/4
f 1463/22/4 1462/22/4 1464/22/4
f 1465/22/4 1466/22/4 1467/22/4
f 1467/22/4 1466/22/4 1468/22/4
f 1470/22/1 1469/22/1 1471/22/1
f 1470/22/1 1471/22/1 1472/22/1
f 1474/22/5 1473/22/5 1475/22/5
f 1474/22/5 1475/22/5 1476/22/5
f 1478/22/3 1477/22/3 1479/22/3
f 1478/22/3 1479/22/3 1480/22/3
f 1481/22/6 1482/22/6 1483/22/6
f 1483/22/6 1482/22/6 1484/22/6
f 1486/22/1 1485/22/1 1487/22/1
f 1486/22/1 1487/22/1 1488/22/1
f 1490/22/5 1489/22/5 1491/22/5
f 1490/22/5 1491/22/5 1492/22/5
f 1493/22/4 1494/22/4 1495/22/4
f 1495/22/4 1494/22/4 1496/22/4
f 1498/22/1 1497/22/1 1499/22/1
f 1498/22/1 1499/22/1 1500/22/1
f 1502/22/5 1501/22/5 1503/22/5
f 1502/22/5 1503/22/5 1504/22/5
f 1506/22/3 1505/22/3 1507/22/3
f 1506/22/3 1507/22/3 1508/22/3
f 1509/97/6 1510/97/6 1511/97/6
f 1511/97/6 1510/97/6 1512/97/6
f 1513/254/4 1514/255/4 1515/256/4
f 1515/256/4 1514/255/4 1516/257/4
f 1517/22/4 1518/22/4 1519/22/4
f 1519/22/4 1518/22/4 1520/22/4
f 1522/22/1 1521/22/1 1523/22/1
f 1522/22/1 1523/22/1 1524/22/1
f 1526/22/5 1525/22/5 1527/22/5
f 1526/22/5 1527/22/5 1528/22/5
f 1530/22/3 1529/22/3 1531/22/3
f 1530/22/3 1531/22/3 1532/22/3
f 1533/22/6 1534/22/6 1535/22/6
f 1535/22/6 1534/22/6 1536/22/6
f 1538/22/1 1537/22/1 1539/22/1
f 1538/22/1 1539/22/1 1540/22/1
f 1542/259/5 1541/258/5 1543/260/5
f 1542/259/5 1543/260/5 1544/261/5
f 1546/22/3 1545/22/3 1547/22/3
f 1546/22/3 1547/22/3 1548/22/3
f 1550/22/5 1549/22/5 1551/22/5
f 1550/22/5 1551/22/5 1552/22/5
f 1554/22/5 1553/22/5 1555/22/5
f 1554/22/5 1555/22/5 1556/22/5
f 1558/22/5 1557/22/5 1559/22/5
f 1558/22/5 1559/22/5 1560/22/5
f 1561/22/4 1562/22/4 1563/22/4
f 1563/22/4 1562/22/4 1564/22/4
f 1566/22/1 1565/22/1 1567/22/1
f 1566/22/1 1567/22/1 1568/22/1
f 1570/22/5 1569/22/5 1571/22/5
f 1570/22/5 1571/22/5 1572/22/5
f 1573/22/4 1574/22/4 1575/22/4
f 1575/22/4 1574/22/4 1576/22/4
f 1577/22/6 1578/22/6 1579/22/6
f 1579/22/6 1578/22/6 1580/22/6
f 1582/22/1 1581/22/1 1583/22/1
f 1582/22/1 1583/22/1 1584/22/1
f 1586/22/5 1585/22/5 1587/22/5
f 1586/22/5 1587/22/5 1588/22/5
f 1590/263/3 1589/262/3 1591/264/3
f 1590/263/3 1591/264/3 1592/265/3
f 1594/22/1 1593/22/1 1595/22/1
f 1594/22/1 1595/22/1 1596/22/1
f 1598/22/5 1597/22/5 1599/22/5
f 1598/22/5 1599/22/5 1600/22/5
f 1602/22/3 1601/22/3 1603/22/3
f 1602/22/3 1603/22/3 1604/22/3
f 1606/22/5 1605/22/5 1607/22/5
f 1606/22/5 1607/22/5 1608/22/5
f 1610/22/3 1609/22/3 1611/22/3
f 1610/22/3 1611/22/3 1612/22/3
f 1614/22/5 1613/22/5 1615/22/5
f 1614/22/5 1615/22/5 1616/22/5
f 1618/22/5 1617/22/5 1619/22/5
f 1618/22/5 1619/22/5 1620/22/5
f 1621/266/6 1622/267/6 1623/268/6
f 1623/268/6 1622/267/6 1624/269/6
f 1625/22/4 1626/22/4 1627/22/4
f 1627/22/4 1626/22/4 1628/22/4
f 1630/22/1 1629/22/1 1631/22/1
f 1630/22/1 1631/22/1 1632/22/1
f 1634/22/5 1633/22/5 1635/22/5
f 1634/22/5 1635/22/5 1636/22/5
f 1638/22/3 1637/22/3 1639/22/3
f 1638/22/3 1639/22/3 1640/22/3
f 1641/22/6 1642/22/6 1643/22/6
f 1643/22/6 1642/22/6 1644/22/6
f 1646/22/1 1645/22/1 1647/22/1
f 1646/22/1 1647/22/1 1648/22/1
f 1650/22/5 1649/22/5 1651/22/5
f 1650/22/5 1651/22/5 1652/22/5
f 1654/22/3 1653/22/3 1655/22/3
f 1654/22/3 1655/22/3 1656/22/3
f 1657/22/4 1658/22/4 1659/22/4
f 1659/22/4 1658/22/4 1660/22/4
f 1661/22/6 1662/22/6 1663/22/6
f 1663/22/6 1662/22/6 1664/22/6
f 1666/22/1 1665/22/1 1667/22/1
f 1666/22/1 1667/22/1 1668/22/1
f 1670/22/5 1669/22/5 1671/22/5
f 1670/22/5 1671/22/5 1672/22/5
f 1674/22/3 1673/22/3 1675/22/3
f 1674/22/3 1675/22/3 1676/22/3
f 1678/22/5 1677/22/5 1679/22/5
f 1678/22/5 1679/22/5 1680/22/5
f 1682/22/5 1681/22/5 1683/22/5
f 1682/22/5 1683/22/5 1684/22/5
f 1686/22/3 1685/22/3 1687/22/3
f 1686/22/3 1687/22/3 1688/22/3
f 1690/22/5 1689/22/5 1691/22/5
f 1690/22/5 1691/22/5 1692/22/5
f 1693/270/6 1694/271/6 1695/272/6
f 1695/272/6 1694/271/6 1696/273/6
f 1697/40/4 1698/40/4 1699/40/4
f 1699/40/4 1698/40/4 1700/40/4
f 1701/40/6 1702/40/6 1703/40/6
f 1703/40/6 1702/40/6 1704/40/6
f 1706/97/1 1705/97/1 1707/97/1
f 1706/97/1 1707/97/1 1708/97/1
f 1710/97/5 1709/97/5 1711/97/5
f 1710/97/5 1711/97/5 1712/97/5
f 1713/97/6 1714/97/6 1715/97/6
f 1715/97/6 1714/97/6 1716/97/6
f 1717/97/4 1718/97/4 1719/97/4
f 1719/97/4 1718/97/4 1720/97/4
f 1722/275/1 1721/274/1 1723/276/1
f 1722/275/1 1723/276/1 1724/277/1
f 1726/279/5 1725/278/5 1727/280/5
f 1726/279/5 1727/280/5 1728/281/5
f 1730/97/3 1729/97/3 1731/97/3
f 1730/97/3 1731/97/3 1732/97/3
f 1733/22/4 1734/22/4 1735/22/4
f 1735/22/4 1734/22/4 1736/22/4
f 1738/22/1 1737/22/1 1739/22/1
f 1738/22/1 1739/22/1 1740/22/1
f 1742/283/5 1741/282/5 1743/284/5
f 1742/283/5 1743/284/5 1744/285/5
f 1746/22/3 1745/22/3 1747/22/3
f 1746/22/3 1747/22/3 1748/22/3
f 1750/22/1 1749/22/1 1751/22/1
f 1750/22/1 1751/22/1 1752/22/1
f 1754/287/5 1753/286/5 1755/288/5
f 1754/287/5 1755/288/5 1756/289/5
f 1758/291/3 1757/290/3 1759/292/3
f 1758/291/3 1759/292/3 1760/293/3
f 1762/22/5 1761/22/5 1763/22/5
f 1762/22/5 1763/22/5 1764/22/5
f 1766/22/5 1765/22/5 1767/22/5
f 1766/22/5 1767/22/5 1768/22/5
f 1769/22/6 1770/22/6 1771/22/6
f 1771/22/6 1770/22/6 1772/22/6
f 1774/22/3 1773/22/3 1775/22/3
f 1774/22/3 1775/22/3 1776/22/3
f 1777/22/4 1778/22/4 1779/22/4
f 1779/22/4 1778/22/4 1780/22/4
f 1782/22/1 1781/22/1 1783/22/1
f 1782/22/1 1783/22/1 1784/22/1
f 1786/22/5 1785/22/5 1787/22/5
f 1786/22/5 1787/22/5 1788/22/5
f 1790/22/3 1789/22/3 1791/22/3
f 1790/22/3 1791/22/3 1792/22/3
f 1794/22/5 1793/22/5 1795/22/5
f 1794/22/5 1795/22/5 1796/22/5
f 1798/22/5 1797/22/5 1799/22/5
f 1798/22/5 1799/22/5 1800/22/5
f 1802/22/3 1801/22/3 1803/22/3
f 1802/22/3 1803/22/3 1804/22/3
f 1806/22/5 1805/22/5 1807/22/5
f 1806/22/5 1807/22/5 1808/22/5
f 1810/22/5 1809/22/5 1811/22/5
f 1810/22/5 1811/22/5 1812/22/5
f 1814/22/5 1813/22/5 1815/22/5
f 1814/22/5 1815/22/5 1816/22/5
f 1817/22/4 1818/22/4 1819/22/4
f 1819/22/4 1818/22/4 1820/22/4
f 1821/22/6 1822/22/6 1823/22/6
f 1823/22/6 1822/22/6 1824/22/6
f 1826/22/1 1825/22/1 1827/22/1
f 1826/22/1 1827/22/1 1828/22/1
f 1830/22/5 1829/22/5 1831/22/5
f 1830/22/5 1831/22/5 1832/22/5
f 1834/22/3 1833/22/3 1835/22/3
f 1834/22/3 1835/22/3 1836/22/3
f 1837/22/6 1838/22/6 1839/22/6
f 1839/22/6 1838/22/6 1840/22/6
f 1841/22/4 1842/22/4 1843/22/4
f 1843/22/4 1842/22/4 1844/22/4
f 1846/22/1 1845/22/1 1847/22/1
f 1846/22/1 1847/22/1 1848/22/1
f 1850/22/5 1849/22/5 1851/22/5
f 1850/22/5 1851/22/5 1852/22/5
f 1854/22/3 1853/22/3 1855/22/3
f 1854/22/3 1855/22/3 1856/22/3
f 1857/22/4 1858/22/4 1859/22/4
f 1859/22/4 1858/22/4 1860/22/4
f 1862/22/1 1861/22/1 1863/22/1
f 1862/22/1 1863/22/1 1864/22/1
f 1866/22/5 1865/22/5 1867/22/5
f 1866/22/5 1867/22/5 1868/22/5
f 1870/22/3 1869/22/3 1871/22/3
f 1870/22/3 1871/22/3 1872/22/3
f 1873/22/4 1874/22/4 1875/22/4
f 1875/22/4 1874/22/4 1876/22/4
f 1878/22/1 1877/22/1 1879/22/1
f 1878/22/1 1879/22/1 1880/22/1
f 1882/22/5 1881/22/5 1883/22/5
f 1882/22/5 1883/22/5 1884/22/5
f 1886/22/3 1885/22/3 1887/22/3
f 1886/22/3 1887/22/3 1888/22/3
f 1889/22/6 1890/22/6 1891/22/6
f 1891/22/6 1890/22/6 1892/22/6
f 1894/22/1 1893/22/1 1895/22/1
f 1894/22/1 1895/22/1 1896/22/1
f 1898/22/3 1897/22/3 1899/22/3
f 1898/22/3 1899/22/3 1900/22/3
f 1901/22/4 1902/22/4 1903/22/4
f 1903/22/4 1902/22/4 1904/22/4
f 1906/22/5 1905/22/5 1907/22/5
f 1906/22/5 1907/22/5 1908/22/5
f 1910/22/1 1909/22/1 1911/22/1
f 1910/22/1 1911/22/1 1912/22/1
f 1914/22/5 1913/22/5 1915/22/5
f 1914/22/5 1915/22/5 1916/22/5
f 1918/22/3 1917/22/3 1919/22/3
f 1918/22/3 1919/22/3 1920/22/3
f 1922/295/5 1921/294/5 1923/296/5
f 1922/295/5 1923/296/5 1924/297/5
f 1925/72/4 1926/72/4 1927/72/4
f 1927/72/4 1926/72/4 1928/72/4
f 1929/22/4 1930/22/4 1931/22/4
f 1931/22/4 1930/22/4 1932/22/4
f 1934/22/1 1933/22/1 1935/22/1
f 1934/22/1 1935/22/1 1936/22/1
f 1938/22/1 1937/22/1 1939/22/1
f 1938/22/1 1939/22/1 1940/22/1
f 1942/22/5 1941/22/5 1943/22/5
f 1942/22/5 1943/22/5 1944/22/5
f 1946/22/3 1945/22/3 1947/22/3
f 1946/22/3 1947/22/3 1948/22/3
f 1949/22/4 1950/22/4 1951/22/4
f 1951/22/4 1950/22/4 1952/22/4
f 1954/299/5 1953/298/5 1955/300/5
f 1954/299/5 1955/300/5 1956/301/5
f 1957/22/4 1958/22/4 1959/22/4
f 1959/22/4 1958/22/4 1960/22/4
f 1962/303/1 1961/302/1 1963/304/1
f 1962/303/1 1963/304/1 1964/305/1
f 1966/307/5 1965/306/5 1967/308/5
f 1966/307/5 1967/308/5 1968/309/5
f 1970/22/3 1969/22/3 1971/22/3
f 1970/22/3 1971/22/3 1972/22/3
f 1974/311/5 1973/310/5 1975/312/5
f 1974/311/5 1975/312/5 1976/313/5
f 1978/22/3 1977/22/3 1979/22/3
f 1978/22/3 1979/22/3 1980/22/3
f 1982/315/5 1981/314/5 1983/316/5
f 1982/315/5 1983/316/5 1984/317/5
f 1986/49/3 1985/49/3 1987/49/3
f 1986/49/3 1987/49/3 1988/49/3
f 1990/22/5 1989/22/5 1991/22/5
f 1990/22/5 1991/22/5 1992/22/5
f 1993/22/4 1994/22/4 1995/22/4
f 1995/22/4 1994/22/4 1996/22/4
f 1998/22/5 1997/22/5 1999/22/5
f 1998/22/5 1999/22/5 2000/22/5
f 2001/22/6 2002/22/6 2003/22/6
f 2003/22/6 2002/22/6 2004/22/6
f 2006/319/1 2005/318/1 2007/320/1
f 2006/319/1 2007/320/1 2008/321/1
f 2010/22/5 2009/22/5 2011/22/5
f 2010/22/5 2011/22/5 2012/22/5
f 2013/22/6 2014/22/6 2015/22/6
f 2015/22/6 2014/22/6 2016/22/6
f 2018/22/3 2017/22/3 2019/22/3
f 2018/22/3 2019/22/3 2020/22/3
f 2022/22/5 2021/22/5 2023/22/5
f 2022/22/5 2023/22/5 2024/22/5
f 2026/22/5 2025/22/5 2027/22/5
f 2026/22/5 2027/22/5 2028/22/5
f 2030/22/5 2029/22/5 2031/22/5
f 2030/22/5 2031/22/5 2032/22/5
f 2033/22/4 2034/22/4 2035/22/4
f 2035/22/4 2034/22/4 2036/22/4
f 2037/22/4 2038/22/4 2039/22/4
f 2039/22/4 2038/22/4 2040/22/4
f 2042/22/5 2041/22/5 2043/22/5
f 2042/22/5 2043/22/5 2044/22/5
f 2046/22/3 2045/22/3 2047/22/3
f 2046/22/3 2047/22/3 2048/22/3
f 2049/22/4 2050/22/4 2051/22/4
f 2051/22/4 2050/22/4 2052/22/4
f 2054/22/1 2053/22/1 2055/22/1
f 2054/22/1 2055/22/1 2056/22/1
f 2058/22/5 2057/22/5 2059/22/5
f 2058/22/5 2059/22/5 2060/22/5
f 2062/22/1 2061/22/1 2063/22/1
f 2062/22/1 2063/22/1 2064/22/1
f 2066/22/5 2065/22/5 2067/22/5
f 2066/22/5 2067/22/5 2068/22/5
f 2070/22/3 2069/22/3 2071/22/3
f 2070/22/3 2071/22/3 2072/22/3
f 2074/22/5 2073/22/5 2075/22/5
f 2074/22/5 2075/22/5 2076/22/5
f 2078/22/3 2077/22/3 2079/22/3
f 2078/22/3 2079/22/3 2080/22/3
f 2081/22/4 2082/22/4 2083/22/4
f 2083/22/4 2082/22/4 2084/22/4
f 2086/22/5 2085/22/5 2087/22/5
f 2086/22/5 2087/22/5 2088/22/5
f 2090/22/3 2089/22/3 2091/22/3
f 2090/22/3 2091/22/3 2092/22/3
f 2093/22/4 2094/22/4 2095/22/4
f 2095/22/4 2094/22/4 2096/22/4
f 2098/22/1 2097/22/1 2099/22/1
f 2098/22/1 2099/22/1 2100/22/1
f 2102/22/3 2101/22/3 2103/22/3
f 2102/22/3 2103/22/3 2104/22/3
f 2106/22/1 2105/22/1 2107/22/1
f 2106/22/1 2107/22/1 2108/22/1
f 2110/22/5 2109/22/5 2111/22/5
f 2110/22/5 2111/22/5 2112/22/5
f 2114/22/3 2113/22/3 2115/22/3
f 2114/22/3 2115/22/3 2116/22/3
f 2118/22/5 2117/22/5 2119/22/5
f 2118/22/5 2119/22/5 2120/22/5
f 2122/22/3 2121/22/3 2123/22/3
f 2122/22/3 2123/22/3 2124/22/3
f 2125/22/6 2126/22/6 2127/22/6
f 2127/22/6 2126/22/6 2128/22/6
f 2130/323/5 2129/322/5 2131/324/5
f 2130/323/5 2131/324/5 2132/325/5
f 2134/327/3 2133/326/3 2135/328/3
f 2134/327/3 2135/328/3 2136/329/3
f 2137/22/6 2138/22/6 2139/22/6
f 2139/22/6 2138/22/6 2140/22/6
f 2142/22/5 2141/22/5 2143/22/5
f 2142/22/5 2143/22/5 2144/22/5
f 2146/22/3 2145/22/3 2147/22/3
f 2146/22/3 2147/22/3 2148/22/3
f 2150/22/5 2149/22/5 2151/22/5
f 2150/22/5 2151/22/5 2152/22/5
f 2153/22/6 2154/22/6 2155/22/6
f 2155/22/6 2154/22/6 2156/22/6
f 2158/22/1 2157/22/1 2159/22/1
f 2158/22/1 2159/22/1 2160/22/1
f 2162/331/5 2161/330/5 2163/332/5
f 2162/331/5 2163/332/5 2164/333/5
f 2166/22/3 2165/22/3 2167/22/3
f 2166/22/3 2167/22/3 2168/22/3
f 2169/31/4 2170/31/4 2171/31/4
f 2171/31/4 2170/31/4 2172/31/4
f 2174/335/5 2173/334/5 2175/336/5
f 2174/335/5 2175/336/5 2176/337/5
f 2178/31/3 2177/31/3 2179/31/3
f 2178/31/3 2179/31/3 2180/31/3
f 2182/339/5 2181/338/5 2183/340/5
f 2182/339/5 2183/340/5 2184/341/5
f 2186/55/3 2185/55/3 2187/55/3
f 2186/55/3 2187/55/3 2188/55/3
f 2190/22/5 2189/22/5 2191/22/5
f 2190/22/5 2191/22/5 2192/22/5
f 2194/22/5 2193/22/5 2195/22/5
f 2194/22/5 2195/22/5 2196/22/5
f 2197/22/4 2198/22/4 2199/22/4
f 2199/22/4 2198/22/4 2200/22/4
f 2202/22/1 2201/22/1 2203/22/1
f 2202/22/1 2203/22/1 2204/22/1
f 2206/22/5 2205/22/5 2207/22/5
f 2206/22/5 2207/22/5 2208/22/5
f 2210/22/3 2209/22/3 2211/22/3
f 2210/22/3 2211/22/3 2212/22/3
f 2213/22/4 2214/22/4 2215/22/4
f 2215/22/4 2214/22/4 2216/22/4
f 2218/72/1 2217/72/1 2219/72/1
f 2218/72/1 2219/72/1 2220/72/1
f 2222/22/5 2221/22/5 2223/22/5
f 2222/22/5 2223/22/5 2224/22/5
f 2226/22/5 2225/22/5 2227/22/5
f 2226/22/5 2227/22/5 2228/22/5
f 2230/22/1 2229/22/1 2231/22/1
f 2230/22/1 2231/22/1 2232/22/1
f 2234/22/5 2233/22/5 2235/22/5
f 2234/22/5 2235/22/5 2236/22/5
f 2238/22/3 2237/22/3 2239/22/3
f 2238/22/3 2239/22/3 2240/22/3
f 2242/22/5 2241/22/5 2243/22/5
f 2242/22/5 2243/22/5 2244/22/5
f 2246/22/3 2245/22/3 2247/22/3
f 2246/22/3 2247/22/3 2248/22/3
f 2250/22/3 2249/22/3 2251/22/3
f 2250/22/3 2251/22/3 2252/22/3
f 2253/22/4 2254/22/4 2255/22/4
f 2255/22/4 2254/22/4 2256/22/4
f 2258/22/1 2257/22/1 2259/22/1
f 2258/22/1 2259/22/1 2260/22/1
f 2261/54/4 2262/54/4 2263/54/4
f 2263/54/4 2262/54/4 2264/54/4
f 2265/22/4 2266/22/4 2267/22/4
f 2267/22/4 2266/22/4 2268/22/4
f 2270/22/1 2269/22/1 2271/22/1
f 2270/22/1 2271/22/1 2272/22/1
f 2274/22/5 2273/22/5 2275/22/5
f 2274/22/5 2275/22/5 2276/22/5
f 2278/22/3 2277/22/3 2279/22/3
f 2278/22/3 2279/22/3 2280/22/3
f 2281/22/6 2282/22/6 2283/22/6
f 2283/22/6 2282/22/6 2284/22/6
f 2285/22/4 2286/22/4 2287/22/4
f 2287/22/4 2286/22/4 2288/22/4
f 2290/22/1 2289/22/1 2291/22/1
f 2290/22/1 2291/22/1 2292/22/1
f 2294/22/5 2293/22/5 2295/22/5
f 2294/22/5 2295/22/5 2296/22/5
f 2298/22/3 2297/22/3 2299/22/3
f 2298/22/3 2299/22/3 2300/22/3
f 2301/22/6 2302/22/6 2303/22/6
f 2303/22/6 2302/22/6 2304/22/6
f 2306/54/1 2305/54/1 2307/54/1
f 2306/54/1 2307/54/1 2308/54/1
f 2310/343/5 2309/342/5 2311/344/5
f 2310/343/5 2311/344/5 2312/345/5
f 2314/54/3 2313/54/3 2315/54/3
f 2314/54/3 2315/54/3 2316/54/3
f 2318/347/5 2317/346/5 2319/348/5
f 2318/347/5 2319/348/5 2320/349/5
f 2322/22/3 2321/22/3 2323/22/3
f 2322/22/3 2323/22/3 2324/22/3
f 2325/22/6 2326/22/6 2327/22/6
f 2327/22/6 2326/22/6 2328/22/6
f 2330/22/3 2329/22/3 2331/22/3
f 2330/22/3 2331/22/3 2332/22/3
f 2334/22/5 2333/22/5 2335/22/5
f 2334/22/5 2335/22/5 2336/22/5
f 2338/22/5 2337/22/5 2339/22/5
f 2338/22/5 2339/22/5 2340/22/5
f 2342/22/5 2341/22/5 2343/22/5
f 2342/22/5 2343/22/5 2344/22/5
f 2346/22/5 2345/22/5 2347/22/5
f 2346/22/5 2347/22/5 2348/22/5
f 2350/22/3 2349/22/3 2351/22/3
f 2350/22/3 2351/22/3 2352/22/3
f 2353/22/6 2354/22/6 2355/22/6
f 2355/22/6 2354/22/6 2356/22/6
f 2358/22/5 2357/22/5 2359/22/5
f 2358/22/5 2359/22/5 2360/22/5
f 2361/22/4 2362/22/4 2363/22/4
f 2363/22/4 2362/22/4 2364/22/4
f 2366/22/5 2365/22/5 2367/22/5
f 2366/22/5 2367/22/5 2368/22/5
f 2370/22/3 2369/22/3 2371/22/3
f 2370/22/3 2371/22/3 2372/22/3
f 2373/22/6 2374/22/6 2375/22/6
f 2375/22/6 2374/22/6 2376/22/6
f 2378/22/1 2377/22/1 2379/22/1
f 2378/22/1 2379/22/1 2380/22/1
f 2382/351/5 2381/350/5 2383/352/5
f 2382/351/5 2383/352/5 2384/353/5
f 2385/22/4 2386/22/4 2387/22/4
f 2387/22/4 2386/22/4 2388/22/4
f 2390/22/3 2389/22/3 2391/22/3
f 2390/22/3 2391/22/3 2392/22/3
f 2393/22/4 2394/22/4 2395/22/4
f 2395/22/4 2394/22/4 2396/22/4
f 2398/22/1 2397/22/1 2399/22/1
f 2398/22/1 2399/22/1 2400/22/1
f 2402/355/5 2401/354/5 2403/356/5
f 2402/355/5 2403/356/5 2404/357/5
f 2406/22/3 2405/22/3 2407/22/3
f 2406/22/3 2407/22/3 2408/22/3
f 2410/22/1 2409/22/1 2411/22/1
f 2410/22/1 2411/22/1 2412/22/1
f 2414/359/5 2413/358/5 2415/360/5
f 2414/359/5 2415/360/5 2416/361/5
f 2418/363/3 2417/362/3 2419/364/3
f 2418/363/3 2419/364/3 2420/365/3
f 2421/31/4 2422/31/4 2423/31/4
f 2423/31/4 2422/31/4 2424/31/4
f 2426/22/1 2425/22/1 2427/22/1
f 2426/22/1 2427/22/1 2428/22/1
f 2429/22/6 2430/22/6 2431/22/6
f 2431/22/6 2430/22/6 2432/22/6
f 2434/22/3 2433/22/3 2435/22/3
f 2434/22/3 2435/22/3 2436/22/3
f 2438/22/5 2437/22/5 2439/22/5
f 2438/22/5 2439/22/5 2440/22/5
f 2442/22/5 2441/22/5 2443/22/5
f 2442/22/5 2443/22/5 2444/22/5
f 2446/22/5 2445/22/5 2447/22/5
f 2446/22/5 2447/22/5 2448/22/5
f 2450/22/3 2449/22/3 2451/22/3
f 2450/22/3 2451/22/3 2452/22/3
f 2454/22/5 2453/22/5 2455/22/5
f 2454/22/5 2455/22/5 2456/22/5
f 2457/22/4 2458/22/4 2459/22/4
f 2459/22/4 2458/22/4 2460/22/4
f 2462/22/1 2461/22/1 2463/22/1
f 2462/22/1 2463/22/1 2464/22/1
f 2465/22/6 2466/22/6 2467/22/6
f 2467/22/6 2466/22/6 2468/22/6
f 2470/22/5 2469/22/5 2471/22/5
f 2470/22/5 2471/22/5 2472/22/5
f 2473/22/4 2474/22/4 2475/22/4
f 2475/22/4 2474/22/4 2476/22/4
f 2477/22/6 2478/22/6 2479/22/6
f 2479/22/6 2478/22/6 2480/22/6
f 2482/22/1 2481/22/1 2483/22/1
f 2482/22/1 2483/22/1 2484/22/1
f 2486/367/5 2485/366/5 2487/368/5
f 2486/367/5 2487/368/5 2488/369/5
f 2490/22/3 2489/22/3 2491/22/3
f 2490/22/3 2491/22/3 2492/22/3
f 2494/371/5 2493/370/5 2495/372/5
f 2494/371/5 2495/372/5 2496/373/5
f 2498/22/3 2497/22/3 2499/22/3
f 2498/22/3 2499/22/3 2500/22/3
f 2502/375/5 2501/374/5 2503/376/5
f 2502/375/5 2503/376/5 2504/377/5
f 2506/379/3 2505/378/3 2507/380/3
f 2506/379/3 2507/380/3 2508/381/3
f 2509/22/4 2510/22/4 2511/22/4
f 2511/22/4 2510/22/4 2512/22/4
f 2514/22/1 2513/22/1 2515/22/1
f 2514/22/1 2515/22/1 2516/22/1
f 2518/383/5 2517/382/5 2519/384/5
f 2518/383/5 2519/384/5 2520/385/5
f 2522/387/3 2521/386/3 2523/388/3
f 2522/387/3 2523/388/3 2524/389/3
f 2526/391/5 2525/390/5 2527/392/5
f 2526/391/5 2527/392/5 2528/393/5
f 2530/22/3 2529/22/3 2531/22/3
f 2530/22/3 2531/22/3 2532/22/3
f 2534/395/1 2533/394/1 2535/396/1
f 2534/395/1 2535/396/1 2536/397/1
f 2538/22/5 2537/22/5 2539/22/5
f 2538/22/5 2539/22/5 2540/22/5
f 2542/22/5 2541/22/5 2543/22/5
f 2542/22/5 2543/22/5 2544/22/5
f 2546/22/5 2545/22/5 2547/22/5
f 2546/22/5 2547/22/5 2548/22/5
f 2549/22/4 2550/22/4 2551/22/4
f 2551/22/4 2550/22/4 2552/22/4
f 2554/22/3 2553/22/3 2555/22/3
f 2554/22/3 2555/22/3 2556/22/3
f 2558/22/1 2557/22/1 2559/22/1
f 2558/22/1 2559/22/1 2560/22/1
f 2562/399/5 2561/398/5 2563/400/5
f 2562/399/5 2563/400/5 2564/401/5
f 2565/21/4 2566/21/4 2567/21/4
f 2567/21/4 2566/21/4 2568/21/4
f 2570/22/1 2569/22/1 2571/22/1
f 2570/22/1 2571/22/1 2572/22/1
f 2574/403/5 2573/402/5 2575/404/5
f 2574/403/5 2575/404/5 2576/405/5
f 2578/407/3 2577/406/3 2579/408/3
f 2578/407/3 2579/408/3 2580/409/3
f 2581/49/4 2582/49/4 2583/49/4
f 2583/49/4 2582/49/4 2584/49/4
f 2586/22/1 2585/22/1 2587/22/1
f 2586/22/1 2587/22/1 2588/22/1
f 2590/411/5 2589/410/5 2591/412/5
f 2590/411/5 2591/412/5 2592/413/5
f 2594/415/3 2593/414/3 2595/416/3
f 2594/415/3 2595/416/3 2596/417/3
f 2598/419/5 2597/418/5 2599/420/5
f 2598/419/5 2599/420/5 2600/421/5
f 2602/97/3 2601/97/3 2603/97/3
f 2602/97/3 2603/97/3 2604/97/3
f 2606/423/5 2605/422/5 2607/424/5
f 2606/423/5 2607/424/5 2608/425/5
f 2610/427/3 2609/426/3 2611/428/3
f 2610/427/3 2611/428/3 2612/429/3
f 2614/431/5 2613/430/5 2615/432/5
f 2614/431/5 2615/432/5 2616/433/5
f 2618/54/3 2617/54/3 2619/54/3
f 2618/54/3 2619/54/3 2620/54/3
f 2622/435/5 2621/434/5 2623/436/5
f 2622/435/5 2623/436/5 2624/437/5
f 2626/439/3 2625/438/3 2627/440/3
f 2626/439/3 2627/440/3 2628/441/3
f 2630/443/5 2629/442/5 2631/444/5
f 2630/443/5 2631/444/5 2632/445/5
f 2633/97/6 2634/97/6 2635/97/6
f 2635/97/6 2634/97/6 2636/97/6
f 2637/97/6 2638/97/6 2639/97/6
f 2639/97/6 2638/97/6 2640/97/6
f 2642/22/5 2641/22/5 2643/22/5
f 2642/22/5 2643/22/5 2644/22/5
f 2646/22/5 2645/22/5 2647/22/5
f 2646/22/5 2647/22/5 2648/22/5
f 2649/49/4 2650/49/4 2651/49/4
f 2651/49/4 2650/49/4 2652/49/4
f 2653/97/4 2654/97/4 2655/97/4
f 2655/97/4 2654/97/4 2656/97/4
f 2658/97/1 2657/97/1 2659/97/1
f 2658/97/1 2659/97/1 2660/97/1
f 2662/22/1 2661/22/1 2663/22/1
f 2662/22/1 2663/22/1 2664/22/1
f 2666/22/5 2665/22/5 2667/22/5
f 2666/22/5 2667/22/5 2668/22/5
f 2669/22/6 2670/22/6 2671/22/6
f 2671/22/6 2670/22/6 2672/22/6
f 2674/22/5 2673/22/5 2675/22/5
f 2674/22/5 2675/22/5 2676/22/5
f 2678/447/5 2677/446/5 2679/448/5
f 2678/447/5 2679/448/5 2680/449/5
f 2682/451/3 2681/450/3 2683/452/3
f 2682/451/3 2683/452/3 2684/453/3
f 2685/97/4 2686/97/4 2687/97/4
f 2687/97/4 2686/97/4 2688/97/4
f 2690/455/5 2689/454/5 2691/456/5
f 2690/455/5 2691/456/5 2692/457/5
f 2694/97/3 2693/97/3 2695/97/3
f 2694/97/3 2695/97/3 2696/97/3
f 2698/22/1 2697/22/1 2699/22/1
f 2698/22/1 2699/22/1 2700/22/1
f 2702/459/5 2701/458/5 2703/460/5
f 2702/459/5 2703/460/5 2704/461/5
f 2706/54/3 2705/54/3 2707/54/3
f 2706/54/3 2707/54/3 2708/54/3
f 2709/462/6 2710/463/6 2711/464/6
f 2711/464/6 2710/463/6 2712/465/6
